index;attribute;project;is_balanced;is_normalized;fragmentThreshold;RF_BR_rank;RF_BR_weight;RF_LP_rank;RF_LP_weight;RF_rank;RF_weight;overall_rank;overall_weight;;
5;CCC;config;im;reg;diff;6;-0,224959;4,5;0,348313;5,25;0,061677;5,25;0,061677;;1
0;CSDEV;config;im;reg;diff;1;0;10,75;0;5,875;0;5,875;0;;2
1;COMM;config;im;reg;diff;8,375;-0,256106;3,625;0,396174;6;0,070034;6;0,070034;;3
4;HDCONT;config;im;reg;diff;8,125;-0,251384;3,875;0,388672;6;0,068644;6;0,068644;;4
10;NFF;config;im;reg;diff;6,75;-0,238317;5,25;0,368254;6;0,064969;6;0,064969;;5
7;NLOC;config;im;reg;diff;6,5;-0,22835;5,5;0,35343;6;0,06254;6;0,06254;;6
6;ACCC;config;im;reg;diff;6,5;-0,212305;5,5;0,328289;6;0,057992;6;0,057992;;7
2;DDEV;config;im;reg;diff;6,375;-0,21557;5,75;0,331066;6,0625;0,057748;6,0625;0,057748;;8
3;DCONT;config;im;reg;diff;4,5;-0,21557;7,625;0,331066;6,0625;0,057748;6,0625;0,057748;;9
9;NFMA;config;im;reg;diff;6,625;-0,225741;6;0,349578;6,3125;0,061919;6,3125;0,061919;;10
8;DNFMA;config;im;reg;diff;5,25;-0,188902;7,625;0,29195;6,4375;0,051524;6,4375;0,051524;;11
