commit;dataset;project;attribute;rank;weight;evalmethod;evalmethodParent;isBalanced;isNormalized;fragmentThreshold
0;C:\fanas\2\FRAGMENT\ClaferConfigurator\dataFiles\im_reg_diff\11_289f5b0ebcdcb3bdca2ff995094e45405764ded0\11_289f5b0ebcdcb3bdca2ff995094e45405764ded0-FRAGMENT.arff;config;ACCC;7;-0.266667;RF-BR;RF;im;reg;diff
0;C:\fanas\2\FRAGMENT\ClaferConfigurator\dataFiles\im_reg_diff\11_289f5b0ebcdcb3bdca2ff995094e45405764ded0\11_289f5b0ebcdcb3bdca2ff995094e45405764ded0-FRAGMENT.arff;config;DDEV;8;-0.266667;RF-BR;RF;im;reg;diff
0;C:\fanas\2\FRAGMENT\ClaferConfigurator\dataFiles\im_reg_diff\11_289f5b0ebcdcb3bdca2ff995094e45405764ded0\11_289f5b0ebcdcb3bdca2ff995094e45405764ded0-FRAGMENT.arff;config;DNFMA;3;0.000000;RF-BR;RF;im;reg;diff
0;C:\fanas\2\FRAGMENT\ClaferConfigurator\dataFiles\im_reg_diff\11_289f5b0ebcdcb3bdca2ff995094e45405764ded0\11_289f5b0ebcdcb3bdca2ff995094e45405764ded0-FRAGMENT.arff;config;NFF;10;-0.266667;RF-BR;RF;im;reg;diff
0;C:\fanas\2\FRAGMENT\ClaferConfigurator\dataFiles\im_reg_diff\11_289f5b0ebcdcb3bdca2ff995094e45405764ded0\11_289f5b0ebcdcb3bdca2ff995094e45405764ded0-FRAGMENT.arff;config;HDCONT;5;-0.266667;RF-BR;RF;im;reg;diff
0;C:\fanas\2\FRAGMENT\ClaferConfigurator\dataFiles\im_reg_diff\11_289f5b0ebcdcb3bdca2ff995094e45405764ded0\11_289f5b0ebcdcb3bdca2ff995094e45405764ded0-FRAGMENT.arff;config;NLOC;11;-0.284722;RF-BR;RF;im;reg;diff
0;C:\fanas\2\FRAGMENT\ClaferConfigurator\dataFiles\im_reg_diff\11_289f5b0ebcdcb3bdca2ff995094e45405764ded0\11_289f5b0ebcdcb3bdca2ff995094e45405764ded0-FRAGMENT.arff;config;NFMA;4;0.000000;RF-BR;RF;im;reg;diff
0;C:\fanas\2\FRAGMENT\ClaferConfigurator\dataFiles\im_reg_diff\11_289f5b0ebcdcb3bdca2ff995094e45405764ded0\11_289f5b0ebcdcb3bdca2ff995094e45405764ded0-FRAGMENT.arff;config;DCONT;9;-0.266667;RF-BR;RF;im;reg;diff
0;C:\fanas\2\FRAGMENT\ClaferConfigurator\dataFiles\im_reg_diff\11_289f5b0ebcdcb3bdca2ff995094e45405764ded0\11_289f5b0ebcdcb3bdca2ff995094e45405764ded0-FRAGMENT.arff;config;CCC;2;0.000000;RF-BR;RF;im;reg;diff
0;C:\fanas\2\FRAGMENT\ClaferConfigurator\dataFiles\im_reg_diff\11_289f5b0ebcdcb3bdca2ff995094e45405764ded0\11_289f5b0ebcdcb3bdca2ff995094e45405764ded0-FRAGMENT.arff;config;CSDEV;1;0.000000;RF-BR;RF;im;reg;diff
0;C:\fanas\2\FRAGMENT\ClaferConfigurator\dataFiles\im_reg_diff\11_289f5b0ebcdcb3bdca2ff995094e45405764ded0\11_289f5b0ebcdcb3bdca2ff995094e45405764ded0-FRAGMENT.arff;config;DNFMA;9;0.000000;RF-LP;RF;im;reg;diff
0;C:\fanas\2\FRAGMENT\ClaferConfigurator\dataFiles\im_reg_diff\11_289f5b0ebcdcb3bdca2ff995094e45405764ded0\11_289f5b0ebcdcb3bdca2ff995094e45405764ded0-FRAGMENT.arff;config;NLOC;7;0.541667;RF-LP;RF;im;reg;diff
0;C:\fanas\2\FRAGMENT\ClaferConfigurator\dataFiles\im_reg_diff\11_289f5b0ebcdcb3bdca2ff995094e45405764ded0\11_289f5b0ebcdcb3bdca2ff995094e45405764ded0-FRAGMENT.arff;config;CCC;11;0.000000;RF-LP;RF;im;reg;diff
0;C:\fanas\2\FRAGMENT\ClaferConfigurator\dataFiles\im_reg_diff\11_289f5b0ebcdcb3bdca2ff995094e45405764ded0\11_289f5b0ebcdcb3bdca2ff995094e45405764ded0-FRAGMENT.arff;config;CSDEV;8;0.000000;RF-LP;RF;im;reg;diff
0;C:\fanas\2\FRAGMENT\ClaferConfigurator\dataFiles\im_reg_diff\11_289f5b0ebcdcb3bdca2ff995094e45405764ded0\11_289f5b0ebcdcb3bdca2ff995094e45405764ded0-FRAGMENT.arff;config;NFMA;10;0.000000;RF-LP;RF;im;reg;diff
0;C:\fanas\2\FRAGMENT\ClaferConfigurator\dataFiles\im_reg_diff\11_289f5b0ebcdcb3bdca2ff995094e45405764ded0\11_289f5b0ebcdcb3bdca2ff995094e45405764ded0-FRAGMENT.arff;config;NFF;6;0.583333;RF-LP;RF;im;reg;diff
0;C:\fanas\2\FRAGMENT\ClaferConfigurator\dataFiles\im_reg_diff\11_289f5b0ebcdcb3bdca2ff995094e45405764ded0\11_289f5b0ebcdcb3bdca2ff995094e45405764ded0-FRAGMENT.arff;config;DDEV;2;0.583333;RF-LP;RF;im;reg;diff
0;C:\fanas\2\FRAGMENT\ClaferConfigurator\dataFiles\im_reg_diff\11_289f5b0ebcdcb3bdca2ff995094e45405764ded0\11_289f5b0ebcdcb3bdca2ff995094e45405764ded0-FRAGMENT.arff;config;COMM;1;0.583333;RF-LP;RF;im;reg;diff
0;C:\fanas\2\FRAGMENT\ClaferConfigurator\dataFiles\im_reg_diff\11_289f5b0ebcdcb3bdca2ff995094e45405764ded0\11_289f5b0ebcdcb3bdca2ff995094e45405764ded0-FRAGMENT.arff;config;ACCC;5;0.583333;RF-LP;RF;im;reg;diff
0;C:\fanas\2\FRAGMENT\ClaferConfigurator\dataFiles\im_reg_diff\11_289f5b0ebcdcb3bdca2ff995094e45405764ded0\11_289f5b0ebcdcb3bdca2ff995094e45405764ded0-FRAGMENT.arff;config;HDCONT;4;0.583333;RF-LP;RF;im;reg;diff
0;C:\fanas\2\FRAGMENT\ClaferConfigurator\dataFiles\im_reg_diff\11_289f5b0ebcdcb3bdca2ff995094e45405764ded0\11_289f5b0ebcdcb3bdca2ff995094e45405764ded0-FRAGMENT.arff;config;DCONT;3;0.583333;RF-LP;RF;im;reg;diff
0;C:\fanas\2\FRAGMENT\ClaferConfigurator\dataFiles\im_reg_diff\11_289f5b0ebcdcb3bdca2ff995094e45405764ded0\11_289f5b0ebcdcb3bdca2ff995094e45405764ded0-FRAGMENT.arff;config;COMM;6;-0.266667;RF-BR;RF;im;reg;diff
0;C:\fanas\2\FRAGMENT\ClaferConfigurator\dataFiles\im_reg_diff\31_38272079aa0d488a2fb6cb62b383c5f79cc22a09\31_38272079aa0d488a2fb6cb62b383c5f79cc22a09-FRAGMENT.arff;config;NFMA;7;-0.181513;RF-BR;RF;im;reg;diff
0;C:\fanas\2\FRAGMENT\ClaferConfigurator\dataFiles\im_reg_diff\31_38272079aa0d488a2fb6cb62b383c5f79cc22a09\31_38272079aa0d488a2fb6cb62b383c5f79cc22a09-FRAGMENT.arff;config;NFF;3;-0.151318;RF-BR;RF;im;reg;diff
0;C:\fanas\2\FRAGMENT\ClaferConfigurator\dataFiles\im_reg_diff\31_38272079aa0d488a2fb6cb62b383c5f79cc22a09\31_38272079aa0d488a2fb6cb62b383c5f79cc22a09-FRAGMENT.arff;config;CCC;8;-0.182795;RF-BR;RF;im;reg;diff
0;C:\fanas\2\FRAGMENT\ClaferConfigurator\dataFiles\im_reg_diff\31_38272079aa0d488a2fb6cb62b383c5f79cc22a09\31_38272079aa0d488a2fb6cb62b383c5f79cc22a09-FRAGMENT.arff;config;ACCC;5;-0.163933;RF-BR;RF;im;reg;diff
0;C:\fanas\2\FRAGMENT\ClaferConfigurator\dataFiles\im_reg_diff\31_38272079aa0d488a2fb6cb62b383c5f79cc22a09\31_38272079aa0d488a2fb6cb62b383c5f79cc22a09-FRAGMENT.arff;config;DNFMA;6;-0.165171;RF-BR;RF;im;reg;diff
0;C:\fanas\2\FRAGMENT\ClaferConfigurator\dataFiles\im_reg_diff\31_38272079aa0d488a2fb6cb62b383c5f79cc22a09\31_38272079aa0d488a2fb6cb62b383c5f79cc22a09-FRAGMENT.arff;config;NLOC;4;-0.160061;RF-BR;RF;im;reg;diff
0;C:\fanas\2\FRAGMENT\ClaferConfigurator\dataFiles\im_reg_diff\31_38272079aa0d488a2fb6cb62b383c5f79cc22a09\31_38272079aa0d488a2fb6cb62b383c5f79cc22a09-FRAGMENT.arff;config;DCONT;10;-0.188640;RF-BR;RF;im;reg;diff
0;C:\fanas\2\FRAGMENT\ClaferConfigurator\dataFiles\im_reg_diff\31_38272079aa0d488a2fb6cb62b383c5f79cc22a09\31_38272079aa0d488a2fb6cb62b383c5f79cc22a09-FRAGMENT.arff;config;HDCONT;2;-0.148053;RF-BR;RF;im;reg;diff
0;C:\fanas\2\FRAGMENT\ClaferConfigurator\dataFiles\im_reg_diff\31_38272079aa0d488a2fb6cb62b383c5f79cc22a09\31_38272079aa0d488a2fb6cb62b383c5f79cc22a09-FRAGMENT.arff;config;DDEV;11;-0.188640;RF-BR;RF;im;reg;diff
0;C:\fanas\2\FRAGMENT\ClaferConfigurator\dataFiles\im_reg_diff\31_38272079aa0d488a2fb6cb62b383c5f79cc22a09\31_38272079aa0d488a2fb6cb62b383c5f79cc22a09-FRAGMENT.arff;config;CSDEV;1;0.000000;RF-BR;RF;im;reg;diff
0;C:\fanas\2\FRAGMENT\ClaferConfigurator\dataFiles\im_reg_diff\31_38272079aa0d488a2fb6cb62b383c5f79cc22a09\31_38272079aa0d488a2fb6cb62b383c5f79cc22a09-FRAGMENT.arff;config;COMM;9;-0.183511;RF-BR;RF;im;reg;diff
0;C:\fanas\2\FRAGMENT\ClaferConfigurator\dataFiles\im_reg_diff\31_38272079aa0d488a2fb6cb62b383c5f79cc22a09\31_38272079aa0d488a2fb6cb62b383c5f79cc22a09-FRAGMENT.arff;config;HDCONT;9;0.416084;RF-LP;RF;im;reg;diff
0;C:\fanas\2\FRAGMENT\ClaferConfigurator\dataFiles\im_reg_diff\31_38272079aa0d488a2fb6cb62b383c5f79cc22a09\31_38272079aa0d488a2fb6cb62b383c5f79cc22a09-FRAGMENT.arff;config;DNFMA;7;0.472028;RF-LP;RF;im;reg;diff
0;C:\fanas\2\FRAGMENT\ClaferConfigurator\dataFiles\im_reg_diff\31_38272079aa0d488a2fb6cb62b383c5f79cc22a09\31_38272079aa0d488a2fb6cb62b383c5f79cc22a09-FRAGMENT.arff;config;CSDEV;11;0.000000;RF-LP;RF;im;reg;diff
0;C:\fanas\2\FRAGMENT\ClaferConfigurator\dataFiles\im_reg_diff\31_38272079aa0d488a2fb6cb62b383c5f79cc22a09\31_38272079aa0d488a2fb6cb62b383c5f79cc22a09-FRAGMENT.arff;config;NFF;8;0.416084;RF-LP;RF;im;reg;diff
0;C:\fanas\2\FRAGMENT\ClaferConfigurator\dataFiles\im_reg_diff\31_38272079aa0d488a2fb6cb62b383c5f79cc22a09\31_38272079aa0d488a2fb6cb62b383c5f79cc22a09-FRAGMENT.arff;config;NLOC;10;0.391908;RF-LP;RF;im;reg;diff
0;C:\fanas\2\FRAGMENT\ClaferConfigurator\dataFiles\im_reg_diff\31_38272079aa0d488a2fb6cb62b383c5f79cc22a09\31_38272079aa0d488a2fb6cb62b383c5f79cc22a09-FRAGMENT.arff;config;ACCC;6;0.473193;RF-LP;RF;im;reg;diff
0;C:\fanas\2\FRAGMENT\ClaferConfigurator\dataFiles\im_reg_diff\31_38272079aa0d488a2fb6cb62b383c5f79cc22a09\31_38272079aa0d488a2fb6cb62b383c5f79cc22a09-FRAGMENT.arff;config;DCONT;2;0.546620;RF-LP;RF;im;reg;diff
0;C:\fanas\2\FRAGMENT\ClaferConfigurator\dataFiles\im_reg_diff\31_38272079aa0d488a2fb6cb62b383c5f79cc22a09\31_38272079aa0d488a2fb6cb62b383c5f79cc22a09-FRAGMENT.arff;config;NFMA;5;0.503278;RF-LP;RF;im;reg;diff
0;C:\fanas\2\FRAGMENT\ClaferConfigurator\dataFiles\im_reg_diff\31_38272079aa0d488a2fb6cb62b383c5f79cc22a09\31_38272079aa0d488a2fb6cb62b383c5f79cc22a09-FRAGMENT.arff;config;DDEV;1;0.546620;RF-LP;RF;im;reg;diff
0;C:\fanas\2\FRAGMENT\ClaferConfigurator\dataFiles\im_reg_diff\31_38272079aa0d488a2fb6cb62b383c5f79cc22a09\31_38272079aa0d488a2fb6cb62b383c5f79cc22a09-FRAGMENT.arff;config;CCC;4;0.506337;RF-LP;RF;im;reg;diff
0;C:\fanas\2\FRAGMENT\ClaferConfigurator\dataFiles\im_reg_diff\31_38272079aa0d488a2fb6cb62b383c5f79cc22a09\31_38272079aa0d488a2fb6cb62b383c5f79cc22a09-FRAGMENT.arff;config;COMM;3;0.534382;RF-LP;RF;im;reg;diff
0;C:\fanas\2\FRAGMENT\ClaferConfigurator\dataFiles\im_reg_diff\51_0c1cbdf955234b0a8c4da3ce7ae9168acde8d013\51_0c1cbdf955234b0a8c4da3ce7ae9168acde8d013-FRAGMENT.arff;config;ACCC;7;-0.079810;RF-BR;RF;im;reg;diff
0;C:\fanas\2\FRAGMENT\ClaferConfigurator\dataFiles\im_reg_diff\51_0c1cbdf955234b0a8c4da3ce7ae9168acde8d013\51_0c1cbdf955234b0a8c4da3ce7ae9168acde8d013-FRAGMENT.arff;config;CCC;9;0.278454;RF-LP;RF;im;reg;diff
0;C:\fanas\2\FRAGMENT\ClaferConfigurator\dataFiles\im_reg_diff\51_0c1cbdf955234b0a8c4da3ce7ae9168acde8d013\51_0c1cbdf955234b0a8c4da3ce7ae9168acde8d013-FRAGMENT.arff;config;COMM;8;-0.093243;RF-BR;RF;im;reg;diff
0;C:\fanas\2\FRAGMENT\ClaferConfigurator\dataFiles\im_reg_diff\51_0c1cbdf955234b0a8c4da3ce7ae9168acde8d013\51_0c1cbdf955234b0a8c4da3ce7ae9168acde8d013-FRAGMENT.arff;config;CSDEV;11;0.000000;RF-LP;RF;im;reg;diff
0;C:\fanas\2\FRAGMENT\ClaferConfigurator\dataFiles\im_reg_diff\51_0c1cbdf955234b0a8c4da3ce7ae9168acde8d013\51_0c1cbdf955234b0a8c4da3ce7ae9168acde8d013-FRAGMENT.arff;config;CCC;6;-0.073899;RF-BR;RF;im;reg;diff
0;C:\fanas\2\FRAGMENT\ClaferConfigurator\dataFiles\im_reg_diff\51_0c1cbdf955234b0a8c4da3ce7ae9168acde8d013\51_0c1cbdf955234b0a8c4da3ce7ae9168acde8d013-FRAGMENT.arff;config;ACCC;10;0.203359;RF-LP;RF;im;reg;diff
0;C:\fanas\2\FRAGMENT\ClaferConfigurator\dataFiles\im_reg_diff\51_0c1cbdf955234b0a8c4da3ce7ae9168acde8d013\51_0c1cbdf955234b0a8c4da3ce7ae9168acde8d013-FRAGMENT.arff;config;DNFMA;10;-0.124606;RF-BR;RF;im;reg;diff
0;C:\fanas\2\FRAGMENT\ClaferConfigurator\dataFiles\im_reg_diff\51_0c1cbdf955234b0a8c4da3ce7ae9168acde8d013\51_0c1cbdf955234b0a8c4da3ce7ae9168acde8d013-FRAGMENT.arff;config;COMM;7;0.319746;RF-LP;RF;im;reg;diff
0;C:\fanas\2\FRAGMENT\ClaferConfigurator\dataFiles\im_reg_diff\51_0c1cbdf955234b0a8c4da3ce7ae9168acde8d013\51_0c1cbdf955234b0a8c4da3ce7ae9168acde8d013-FRAGMENT.arff;config;NFF;11;-0.140351;RF-BR;RF;im;reg;diff
0;C:\fanas\2\FRAGMENT\ClaferConfigurator\dataFiles\im_reg_diff\51_0c1cbdf955234b0a8c4da3ce7ae9168acde8d013\51_0c1cbdf955234b0a8c4da3ce7ae9168acde8d013-FRAGMENT.arff;config;NLOC;8;0.299835;RF-LP;RF;im;reg;diff
0;C:\fanas\2\FRAGMENT\ClaferConfigurator\dataFiles\im_reg_diff\51_0c1cbdf955234b0a8c4da3ce7ae9168acde8d013\51_0c1cbdf955234b0a8c4da3ce7ae9168acde8d013-FRAGMENT.arff;config;NLOC;9;-0.099351;RF-BR;RF;im;reg;diff
0;C:\fanas\2\FRAGMENT\ClaferConfigurator\dataFiles\im_reg_diff\51_0c1cbdf955234b0a8c4da3ce7ae9168acde8d013\51_0c1cbdf955234b0a8c4da3ce7ae9168acde8d013-FRAGMENT.arff;config;DNFMA;6;0.385681;RF-LP;RF;im;reg;diff
0;C:\fanas\2\FRAGMENT\ClaferConfigurator\dataFiles\im_reg_diff\51_0c1cbdf955234b0a8c4da3ce7ae9168acde8d013\51_0c1cbdf955234b0a8c4da3ce7ae9168acde8d013-FRAGMENT.arff;config;NFMA;3;0.005752;RF-BR;RF;im;reg;diff
0;C:\fanas\2\FRAGMENT\ClaferConfigurator\dataFiles\im_reg_diff\51_0c1cbdf955234b0a8c4da3ce7ae9168acde8d013\51_0c1cbdf955234b0a8c4da3ce7ae9168acde8d013-FRAGMENT.arff;config;DCONT;2;0.090132;RF-BR;RF;im;reg;diff
0;C:\fanas\2\FRAGMENT\ClaferConfigurator\dataFiles\im_reg_diff\51_0c1cbdf955234b0a8c4da3ce7ae9168acde8d013\51_0c1cbdf955234b0a8c4da3ce7ae9168acde8d013-FRAGMENT.arff;config;DDEV;1;0.090132;RF-BR;RF;im;reg;diff
0;C:\fanas\2\FRAGMENT\ClaferConfigurator\dataFiles\im_reg_diff\51_0c1cbdf955234b0a8c4da3ce7ae9168acde8d013\51_0c1cbdf955234b0a8c4da3ce7ae9168acde8d013-FRAGMENT.arff;config;HDCONT;4;0.002077;RF-BR;RF;im;reg;diff
0;C:\fanas\2\FRAGMENT\ClaferConfigurator\dataFiles\im_reg_diff\51_0c1cbdf955234b0a8c4da3ce7ae9168acde8d013\51_0c1cbdf955234b0a8c4da3ce7ae9168acde8d013-FRAGMENT.arff;config;CSDEV;5;0.000000;RF-BR;RF;im;reg;diff
0;C:\fanas\2\FRAGMENT\ClaferConfigurator\dataFiles\im_reg_diff\51_0c1cbdf955234b0a8c4da3ce7ae9168acde8d013\51_0c1cbdf955234b0a8c4da3ce7ae9168acde8d013-FRAGMENT.arff;config;DCONT;2;0.483333;RF-LP;RF;im;reg;diff
0;C:\fanas\2\FRAGMENT\ClaferConfigurator\dataFiles\im_reg_diff\51_0c1cbdf955234b0a8c4da3ce7ae9168acde8d013\51_0c1cbdf955234b0a8c4da3ce7ae9168acde8d013-FRAGMENT.arff;config;DDEV;1;0.483333;RF-LP;RF;im;reg;diff
0;C:\fanas\2\FRAGMENT\ClaferConfigurator\dataFiles\im_reg_diff\51_0c1cbdf955234b0a8c4da3ce7ae9168acde8d013\51_0c1cbdf955234b0a8c4da3ce7ae9168acde8d013-FRAGMENT.arff;config;HDCONT;5;0.392100;RF-LP;RF;im;reg;diff
0;C:\fanas\2\FRAGMENT\ClaferConfigurator\dataFiles\im_reg_diff\51_0c1cbdf955234b0a8c4da3ce7ae9168acde8d013\51_0c1cbdf955234b0a8c4da3ce7ae9168acde8d013-FRAGMENT.arff;config;NFMA;4;0.410188;RF-LP;RF;im;reg;diff
0;C:\fanas\2\FRAGMENT\ClaferConfigurator\dataFiles\im_reg_diff\51_0c1cbdf955234b0a8c4da3ce7ae9168acde8d013\51_0c1cbdf955234b0a8c4da3ce7ae9168acde8d013-FRAGMENT.arff;config;NFF;3;0.481652;RF-LP;RF;im;reg;diff
0;C:\fanas\2\FRAGMENT\ClaferConfigurator\dataFiles\im_reg_diff\71_39a8676ad426556e569228d0cd24cd6ca5d3bd8f\71_39a8676ad426556e569228d0cd24cd6ca5d3bd8f-FRAGMENT.arff;config;DDEV;3;0.131209;RF-BR;RF;im;reg;diff
0;C:\fanas\2\FRAGMENT\ClaferConfigurator\dataFiles\im_reg_diff\71_39a8676ad426556e569228d0cd24cd6ca5d3bd8f\71_39a8676ad426556e569228d0cd24cd6ca5d3bd8f-FRAGMENT.arff;config;ACCC;3;0.327136;RF-LP;RF;im;reg;diff
0;C:\fanas\2\FRAGMENT\ClaferConfigurator\dataFiles\im_reg_diff\71_39a8676ad426556e569228d0cd24cd6ca5d3bd8f\71_39a8676ad426556e569228d0cd24cd6ca5d3bd8f-FRAGMENT.arff;config;COMM;9;0.182451;RF-LP;RF;im;reg;diff
0;C:\fanas\2\FRAGMENT\ClaferConfigurator\dataFiles\im_reg_diff\71_39a8676ad426556e569228d0cd24cd6ca5d3bd8f\71_39a8676ad426556e569228d0cd24cd6ca5d3bd8f-FRAGMENT.arff;config;CSDEV;11;0.000000;RF-LP;RF;im;reg;diff
0;C:\fanas\2\FRAGMENT\ClaferConfigurator\dataFiles\im_reg_diff\71_39a8676ad426556e569228d0cd24cd6ca5d3bd8f\71_39a8676ad426556e569228d0cd24cd6ca5d3bd8f-FRAGMENT.arff;config;HDCONT;10;0.131202;RF-LP;RF;im;reg;diff
0;C:\fanas\2\FRAGMENT\ClaferConfigurator\dataFiles\im_reg_diff\71_39a8676ad426556e569228d0cd24cd6ca5d3bd8f\71_39a8676ad426556e569228d0cd24cd6ca5d3bd8f-FRAGMENT.arff;config;DCONT;7;0.202239;RF-LP;RF;im;reg;diff
0;C:\fanas\2\FRAGMENT\ClaferConfigurator\dataFiles\im_reg_diff\71_39a8676ad426556e569228d0cd24cd6ca5d3bd8f\71_39a8676ad426556e569228d0cd24cd6ca5d3bd8f-FRAGMENT.arff;config;NFMA;8;0.189374;RF-LP;RF;im;reg;diff
0;C:\fanas\2\FRAGMENT\ClaferConfigurator\dataFiles\im_reg_diff\71_39a8676ad426556e569228d0cd24cd6ca5d3bd8f\71_39a8676ad426556e569228d0cd24cd6ca5d3bd8f-FRAGMENT.arff;config;DDEV;6;0.233739;RF-LP;RF;im;reg;diff
0;C:\fanas\2\FRAGMENT\ClaferConfigurator\dataFiles\im_reg_diff\71_39a8676ad426556e569228d0cd24cd6ca5d3bd8f\71_39a8676ad426556e569228d0cd24cd6ca5d3bd8f-FRAGMENT.arff;config;COMM;10;-0.009540;RF-BR;RF;im;reg;diff
0;C:\fanas\2\FRAGMENT\ClaferConfigurator\dataFiles\im_reg_diff\71_39a8676ad426556e569228d0cd24cd6ca5d3bd8f\71_39a8676ad426556e569228d0cd24cd6ca5d3bd8f-FRAGMENT.arff;config;NLOC;11;-0.024541;RF-BR;RF;im;reg;diff
0;C:\fanas\2\FRAGMENT\ClaferConfigurator\dataFiles\im_reg_diff\71_39a8676ad426556e569228d0cd24cd6ca5d3bd8f\71_39a8676ad426556e569228d0cd24cd6ca5d3bd8f-FRAGMENT.arff;config;CSDEV;9;0.000000;RF-BR;RF;im;reg;diff
0;C:\fanas\2\FRAGMENT\ClaferConfigurator\dataFiles\im_reg_diff\71_39a8676ad426556e569228d0cd24cd6ca5d3bd8f\71_39a8676ad426556e569228d0cd24cd6ca5d3bd8f-FRAGMENT.arff;config;NFMA;6;0.075909;RF-BR;RF;im;reg;diff
0;C:\fanas\2\FRAGMENT\ClaferConfigurator\dataFiles\im_reg_diff\71_39a8676ad426556e569228d0cd24cd6ca5d3bd8f\71_39a8676ad426556e569228d0cd24cd6ca5d3bd8f-FRAGMENT.arff;config;NFF;2;0.149532;RF-BR;RF;im;reg;diff
0;C:\fanas\2\FRAGMENT\ClaferConfigurator\dataFiles\im_reg_diff\71_39a8676ad426556e569228d0cd24cd6ca5d3bd8f\71_39a8676ad426556e569228d0cd24cd6ca5d3bd8f-FRAGMENT.arff;config;CCC;1;0.168313;RF-BR;RF;im;reg;diff
0;C:\fanas\2\FRAGMENT\ClaferConfigurator\dataFiles\im_reg_diff\71_39a8676ad426556e569228d0cd24cd6ca5d3bd8f\71_39a8676ad426556e569228d0cd24cd6ca5d3bd8f-FRAGMENT.arff;config;NFF;2;0.332100;RF-LP;RF;im;reg;diff
0;C:\fanas\2\FRAGMENT\ClaferConfigurator\dataFiles\im_reg_diff\71_39a8676ad426556e569228d0cd24cd6ca5d3bd8f\71_39a8676ad426556e569228d0cd24cd6ca5d3bd8f-FRAGMENT.arff;config;CCC;1;0.336198;RF-LP;RF;im;reg;diff
0;C:\fanas\2\FRAGMENT\ClaferConfigurator\dataFiles\im_reg_diff\71_39a8676ad426556e569228d0cd24cd6ca5d3bd8f\71_39a8676ad426556e569228d0cd24cd6ca5d3bd8f-FRAGMENT.arff;config;DNFMA;8;0.014023;RF-BR;RF;im;reg;diff
0;C:\fanas\2\FRAGMENT\ClaferConfigurator\dataFiles\im_reg_diff\71_39a8676ad426556e569228d0cd24cd6ca5d3bd8f\71_39a8676ad426556e569228d0cd24cd6ca5d3bd8f-FRAGMENT.arff;config;DCONT;4;0.120349;RF-BR;RF;im;reg;diff
0;C:\fanas\2\FRAGMENT\ClaferConfigurator\dataFiles\im_reg_diff\71_39a8676ad426556e569228d0cd24cd6ca5d3bd8f\71_39a8676ad426556e569228d0cd24cd6ca5d3bd8f-FRAGMENT.arff;config;DNFMA;5;0.249598;RF-LP;RF;im;reg;diff
0;C:\fanas\2\FRAGMENT\ClaferConfigurator\dataFiles\im_reg_diff\71_39a8676ad426556e569228d0cd24cd6ca5d3bd8f\71_39a8676ad426556e569228d0cd24cd6ca5d3bd8f-FRAGMENT.arff;config;NLOC;4;0.249605;RF-LP;RF;im;reg;diff
0;C:\fanas\2\FRAGMENT\ClaferConfigurator\dataFiles\im_reg_diff\71_39a8676ad426556e569228d0cd24cd6ca5d3bd8f\71_39a8676ad426556e569228d0cd24cd6ca5d3bd8f-FRAGMENT.arff;config;HDCONT;7;0.037957;RF-BR;RF;im;reg;diff
0;C:\fanas\2\FRAGMENT\ClaferConfigurator\dataFiles\im_reg_diff\71_39a8676ad426556e569228d0cd24cd6ca5d3bd8f\71_39a8676ad426556e569228d0cd24cd6ca5d3bd8f-FRAGMENT.arff;config;ACCC;5;0.101807;RF-BR;RF;im;reg;diff
0;C:\fanas\2\FRAGMENT\ClaferConfigurator\dataFiles\im_reg_diff\91_5ac38442feb228c56bbab64cab3c40327e5ac16f\91_5ac38442feb228c56bbab64cab3c40327e5ac16f-FRAGMENT.arff;config;DNFMA;7;0.018032;RF-BR;RF;im;reg;diff
0;C:\fanas\2\FRAGMENT\ClaferConfigurator\dataFiles\im_reg_diff\91_5ac38442feb228c56bbab64cab3c40327e5ac16f\91_5ac38442feb228c56bbab64cab3c40327e5ac16f-FRAGMENT.arff;config;CSDEV;8;0.000000;RF-BR;RF;im;reg;diff
0;C:\fanas\2\FRAGMENT\ClaferConfigurator\dataFiles\im_reg_diff\91_5ac38442feb228c56bbab64cab3c40327e5ac16f\91_5ac38442feb228c56bbab64cab3c40327e5ac16f-FRAGMENT.arff;config;NFMA;3;0.113913;RF-BR;RF;im;reg;diff
0;C:\fanas\2\FRAGMENT\ClaferConfigurator\dataFiles\im_reg_diff\91_5ac38442feb228c56bbab64cab3c40327e5ac16f\91_5ac38442feb228c56bbab64cab3c40327e5ac16f-FRAGMENT.arff;config;DCONT;6;0.035222;RF-BR;RF;im;reg;diff
0;C:\fanas\2\FRAGMENT\ClaferConfigurator\dataFiles\im_reg_diff\91_5ac38442feb228c56bbab64cab3c40327e5ac16f\91_5ac38442feb228c56bbab64cab3c40327e5ac16f-FRAGMENT.arff;config;ACCC;5;0.074091;RF-BR;RF;im;reg;diff
0;C:\fanas\2\FRAGMENT\ClaferConfigurator\dataFiles\im_reg_diff\91_5ac38442feb228c56bbab64cab3c40327e5ac16f\91_5ac38442feb228c56bbab64cab3c40327e5ac16f-FRAGMENT.arff;config;HDCONT;10;-0.027193;RF-BR;RF;im;reg;diff
0;C:\fanas\2\FRAGMENT\ClaferConfigurator\dataFiles\im_reg_diff\91_5ac38442feb228c56bbab64cab3c40327e5ac16f\91_5ac38442feb228c56bbab64cab3c40327e5ac16f-FRAGMENT.arff;config;DDEV;4;0.074373;RF-BR;RF;im;reg;diff
0;C:\fanas\2\FRAGMENT\ClaferConfigurator\dataFiles\im_reg_diff\91_5ac38442feb228c56bbab64cab3c40327e5ac16f\91_5ac38442feb228c56bbab64cab3c40327e5ac16f-FRAGMENT.arff;config;NLOC;11;-0.034492;RF-BR;RF;im;reg;diff
0;C:\fanas\2\FRAGMENT\ClaferConfigurator\dataFiles\im_reg_diff\91_5ac38442feb228c56bbab64cab3c40327e5ac16f\91_5ac38442feb228c56bbab64cab3c40327e5ac16f-FRAGMENT.arff;config;NFF;2;0.160190;RF-BR;RF;im;reg;diff
0;C:\fanas\2\FRAGMENT\ClaferConfigurator\dataFiles\im_reg_diff\91_5ac38442feb228c56bbab64cab3c40327e5ac16f\91_5ac38442feb228c56bbab64cab3c40327e5ac16f-FRAGMENT.arff;config;COMM;9;-0.022528;RF-BR;RF;im;reg;diff
0;C:\fanas\2\FRAGMENT\ClaferConfigurator\dataFiles\im_reg_diff\91_5ac38442feb228c56bbab64cab3c40327e5ac16f\91_5ac38442feb228c56bbab64cab3c40327e5ac16f-FRAGMENT.arff;config;CCC;1;0.210177;RF-BR;RF;im;reg;diff
0;C:\fanas\2\FRAGMENT\ClaferConfigurator\dataFiles\im_reg_diff\91_5ac38442feb228c56bbab64cab3c40327e5ac16f\91_5ac38442feb228c56bbab64cab3c40327e5ac16f-FRAGMENT.arff;config;DCONT;9;0.085680;RF-LP;RF;im;reg;diff
0;C:\fanas\2\FRAGMENT\ClaferConfigurator\dataFiles\im_reg_diff\91_5ac38442feb228c56bbab64cab3c40327e5ac16f\91_5ac38442feb228c56bbab64cab3c40327e5ac16f-FRAGMENT.arff;config;CSDEV;11;0.000000;RF-LP;RF;im;reg;diff
0;C:\fanas\2\FRAGMENT\ClaferConfigurator\dataFiles\im_reg_diff\91_5ac38442feb228c56bbab64cab3c40327e5ac16f\91_5ac38442feb228c56bbab64cab3c40327e5ac16f-FRAGMENT.arff;config;HDCONT;10;0.054181;RF-LP;RF;im;reg;diff
0;C:\fanas\2\FRAGMENT\ClaferConfigurator\dataFiles\im_reg_diff\91_5ac38442feb228c56bbab64cab3c40327e5ac16f\91_5ac38442feb228c56bbab64cab3c40327e5ac16f-FRAGMENT.arff;config;DDEV;7;0.154633;RF-LP;RF;im;reg;diff
0;C:\fanas\2\FRAGMENT\ClaferConfigurator\dataFiles\im_reg_diff\91_5ac38442feb228c56bbab64cab3c40327e5ac16f\91_5ac38442feb228c56bbab64cab3c40327e5ac16f-FRAGMENT.arff;config;COMM;8;0.148915;RF-LP;RF;im;reg;diff
0;C:\fanas\2\FRAGMENT\ClaferConfigurator\dataFiles\im_reg_diff\91_5ac38442feb228c56bbab64cab3c40327e5ac16f\91_5ac38442feb228c56bbab64cab3c40327e5ac16f-FRAGMENT.arff;config;NLOC;6;0.250944;RF-LP;RF;im;reg;diff
0;C:\fanas\2\FRAGMENT\ClaferConfigurator\dataFiles\im_reg_diff\91_5ac38442feb228c56bbab64cab3c40327e5ac16f\91_5ac38442feb228c56bbab64cab3c40327e5ac16f-FRAGMENT.arff;config;NFF;2;0.363278;RF-LP;RF;im;reg;diff
0;C:\fanas\2\FRAGMENT\ClaferConfigurator\dataFiles\im_reg_diff\91_5ac38442feb228c56bbab64cab3c40327e5ac16f\91_5ac38442feb228c56bbab64cab3c40327e5ac16f-FRAGMENT.arff;config;CCC;1;0.392098;RF-LP;RF;im;reg;diff
0;C:\fanas\2\FRAGMENT\ClaferConfigurator\dataFiles\im_reg_diff\91_5ac38442feb228c56bbab64cab3c40327e5ac16f\91_5ac38442feb228c56bbab64cab3c40327e5ac16f-FRAGMENT.arff;config;DNFMA;5;0.269046;RF-LP;RF;im;reg;diff
0;C:\fanas\2\FRAGMENT\ClaferConfigurator\dataFiles\im_reg_diff\91_5ac38442feb228c56bbab64cab3c40327e5ac16f\91_5ac38442feb228c56bbab64cab3c40327e5ac16f-FRAGMENT.arff;config;NFMA;4;0.291136;RF-LP;RF;im;reg;diff
0;C:\fanas\2\FRAGMENT\ClaferConfigurator\dataFiles\im_reg_diff\91_5ac38442feb228c56bbab64cab3c40327e5ac16f\91_5ac38442feb228c56bbab64cab3c40327e5ac16f-FRAGMENT.arff;config;ACCC;3;0.291974;RF-LP;RF;im;reg;diff
0;C:\fanas\2\FRAGMENT\ClaferConfigurator\dataFiles\im_reg_diff\111_e1718c3b040e83752562006902cec84018d16f12\111_e1718c3b040e83752562006902cec84018d16f12-FRAGMENT.arff;config;DNFMA;7;0.022969;RF-BR;RF;im;reg;diff
0;C:\fanas\2\FRAGMENT\ClaferConfigurator\dataFiles\im_reg_diff\111_e1718c3b040e83752562006902cec84018d16f12\111_e1718c3b040e83752562006902cec84018d16f12-FRAGMENT.arff;config;NFMA;3;0.128069;RF-BR;RF;im;reg;diff
0;C:\fanas\2\FRAGMENT\ClaferConfigurator\dataFiles\im_reg_diff\111_e1718c3b040e83752562006902cec84018d16f12\111_e1718c3b040e83752562006902cec84018d16f12-FRAGMENT.arff;config;CSDEV;8;0.000000;RF-BR;RF;im;reg;diff
0;C:\fanas\2\FRAGMENT\ClaferConfigurator\dataFiles\im_reg_diff\111_e1718c3b040e83752562006902cec84018d16f12\111_e1718c3b040e83752562006902cec84018d16f12-FRAGMENT.arff;config;DDEV;5;0.062490;RF-BR;RF;im;reg;diff
0;C:\fanas\2\FRAGMENT\ClaferConfigurator\dataFiles\im_reg_diff\111_e1718c3b040e83752562006902cec84018d16f12\111_e1718c3b040e83752562006902cec84018d16f12-FRAGMENT.arff;config;DCONT;6;0.029748;RF-BR;RF;im;reg;diff
0;C:\fanas\2\FRAGMENT\ClaferConfigurator\dataFiles\im_reg_diff\111_e1718c3b040e83752562006902cec84018d16f12\111_e1718c3b040e83752562006902cec84018d16f12-FRAGMENT.arff;config;ACCC;4;0.083046;RF-BR;RF;im;reg;diff
0;C:\fanas\2\FRAGMENT\ClaferConfigurator\dataFiles\im_reg_diff\111_e1718c3b040e83752562006902cec84018d16f12\111_e1718c3b040e83752562006902cec84018d16f12-FRAGMENT.arff;config;NLOC;10;-0.019055;RF-BR;RF;im;reg;diff
0;C:\fanas\2\FRAGMENT\ClaferConfigurator\dataFiles\im_reg_diff\111_e1718c3b040e83752562006902cec84018d16f12\111_e1718c3b040e83752562006902cec84018d16f12-FRAGMENT.arff;config;NFF;2;0.162254;RF-BR;RF;im;reg;diff
0;C:\fanas\2\FRAGMENT\ClaferConfigurator\dataFiles\im_reg_diff\111_e1718c3b040e83752562006902cec84018d16f12\111_e1718c3b040e83752562006902cec84018d16f12-FRAGMENT.arff;config;HDCONT;11;-0.036608;RF-BR;RF;im;reg;diff
0;C:\fanas\2\FRAGMENT\ClaferConfigurator\dataFiles\im_reg_diff\111_e1718c3b040e83752562006902cec84018d16f12\111_e1718c3b040e83752562006902cec84018d16f12-FRAGMENT.arff;config;CCC;1;0.225696;RF-BR;RF;im;reg;diff
0;C:\fanas\2\FRAGMENT\ClaferConfigurator\dataFiles\im_reg_diff\111_e1718c3b040e83752562006902cec84018d16f12\111_e1718c3b040e83752562006902cec84018d16f12-FRAGMENT.arff;config;COMM;9;-0.018881;RF-BR;RF;im;reg;diff
0;C:\fanas\2\FRAGMENT\ClaferConfigurator\dataFiles\im_reg_diff\111_e1718c3b040e83752562006902cec84018d16f12\111_e1718c3b040e83752562006902cec84018d16f12-FRAGMENT.arff;config;DCONT;9;0.069336;RF-LP;RF;im;reg;diff
0;C:\fanas\2\FRAGMENT\ClaferConfigurator\dataFiles\im_reg_diff\111_e1718c3b040e83752562006902cec84018d16f12\111_e1718c3b040e83752562006902cec84018d16f12-FRAGMENT.arff;config;COMM;7;0.147736;RF-LP;RF;im;reg;diff
0;C:\fanas\2\FRAGMENT\ClaferConfigurator\dataFiles\im_reg_diff\111_e1718c3b040e83752562006902cec84018d16f12\111_e1718c3b040e83752562006902cec84018d16f12-FRAGMENT.arff;config;CSDEV;11;0.000000;RF-LP;RF;im;reg;diff
0;C:\fanas\2\FRAGMENT\ClaferConfigurator\dataFiles\im_reg_diff\111_e1718c3b040e83752562006902cec84018d16f12\111_e1718c3b040e83752562006902cec84018d16f12-FRAGMENT.arff;config;DDEV;8;0.122301;RF-LP;RF;im;reg;diff
0;C:\fanas\2\FRAGMENT\ClaferConfigurator\dataFiles\im_reg_diff\111_e1718c3b040e83752562006902cec84018d16f12\111_e1718c3b040e83752562006902cec84018d16f12-FRAGMENT.arff;config;HDCONT;10;0.038186;RF-LP;RF;im;reg;diff
0;C:\fanas\2\FRAGMENT\ClaferConfigurator\dataFiles\im_reg_diff\111_e1718c3b040e83752562006902cec84018d16f12\111_e1718c3b040e83752562006902cec84018d16f12-FRAGMENT.arff;config;DNFMA;6;0.238782;RF-LP;RF;im;reg;diff
0;C:\fanas\2\FRAGMENT\ClaferConfigurator\dataFiles\im_reg_diff\111_e1718c3b040e83752562006902cec84018d16f12\111_e1718c3b040e83752562006902cec84018d16f12-FRAGMENT.arff;config;NFF;2;0.365954;RF-LP;RF;im;reg;diff
0;C:\fanas\2\FRAGMENT\ClaferConfigurator\dataFiles\im_reg_diff\111_e1718c3b040e83752562006902cec84018d16f12\111_e1718c3b040e83752562006902cec84018d16f12-FRAGMENT.arff;config;CCC;1;0.400695;RF-LP;RF;im;reg;diff
0;C:\fanas\2\FRAGMENT\ClaferConfigurator\dataFiles\im_reg_diff\111_e1718c3b040e83752562006902cec84018d16f12\111_e1718c3b040e83752562006902cec84018d16f12-FRAGMENT.arff;config;NLOC;5;0.267428;RF-LP;RF;im;reg;diff
0;C:\fanas\2\FRAGMENT\ClaferConfigurator\dataFiles\im_reg_diff\111_e1718c3b040e83752562006902cec84018d16f12\111_e1718c3b040e83752562006902cec84018d16f12-FRAGMENT.arff;config;ACCC;4;0.286613;RF-LP;RF;im;reg;diff
0;C:\fanas\2\FRAGMENT\ClaferConfigurator\dataFiles\im_reg_diff\111_e1718c3b040e83752562006902cec84018d16f12\111_e1718c3b040e83752562006902cec84018d16f12-FRAGMENT.arff;config;NFMA;3;0.309388;RF-LP;RF;im;reg;diff
0;C:\fanas\2\FRAGMENT\ClaferConfigurator\dataFiles\im_reg_diff\131_f486988524c304a1499c68e1bc4622d815d970b4\131_f486988524c304a1499c68e1bc4622d815d970b4-FRAGMENT.arff;config;DNFMA;7;0.032205;RF-BR;RF;im;reg;diff
0;C:\fanas\2\FRAGMENT\ClaferConfigurator\dataFiles\im_reg_diff\131_f486988524c304a1499c68e1bc4622d815d970b4\131_f486988524c304a1499c68e1bc4622d815d970b4-FRAGMENT.arff;config;NFMA;3;0.103267;RF-BR;RF;im;reg;diff
0;C:\fanas\2\FRAGMENT\ClaferConfigurator\dataFiles\im_reg_diff\131_f486988524c304a1499c68e1bc4622d815d970b4\131_f486988524c304a1499c68e1bc4622d815d970b4-FRAGMENT.arff;config;NLOC;8;0.020673;RF-BR;RF;im;reg;diff
0;C:\fanas\2\FRAGMENT\ClaferConfigurator\dataFiles\im_reg_diff\131_f486988524c304a1499c68e1bc4622d815d970b4\131_f486988524c304a1499c68e1bc4622d815d970b4-FRAGMENT.arff;config;DDEV;5;0.068568;RF-BR;RF;im;reg;diff
0;C:\fanas\2\FRAGMENT\ClaferConfigurator\dataFiles\im_reg_diff\131_f486988524c304a1499c68e1bc4622d815d970b4\131_f486988524c304a1499c68e1bc4622d815d970b4-FRAGMENT.arff;config;DCONT;6;0.063147;RF-BR;RF;im;reg;diff
0;C:\fanas\2\FRAGMENT\ClaferConfigurator\dataFiles\im_reg_diff\131_f486988524c304a1499c68e1bc4622d815d970b4\131_f486988524c304a1499c68e1bc4622d815d970b4-FRAGMENT.arff;config;ACCC;4;0.073776;RF-BR;RF;im;reg;diff
0;C:\fanas\2\FRAGMENT\ClaferConfigurator\dataFiles\im_reg_diff\131_f486988524c304a1499c68e1bc4622d815d970b4\131_f486988524c304a1499c68e1bc4622d815d970b4-FRAGMENT.arff;config;HDCONT;10;0.008531;RF-BR;RF;im;reg;diff
0;C:\fanas\2\FRAGMENT\ClaferConfigurator\dataFiles\im_reg_diff\131_f486988524c304a1499c68e1bc4622d815d970b4\131_f486988524c304a1499c68e1bc4622d815d970b4-FRAGMENT.arff;config;NFF;2;0.144128;RF-BR;RF;im;reg;diff
0;C:\fanas\2\FRAGMENT\ClaferConfigurator\dataFiles\im_reg_diff\131_f486988524c304a1499c68e1bc4622d815d970b4\131_f486988524c304a1499c68e1bc4622d815d970b4-FRAGMENT.arff;config;CSDEV;11;0.000000;RF-BR;RF;im;reg;diff
0;C:\fanas\2\FRAGMENT\ClaferConfigurator\dataFiles\im_reg_diff\131_f486988524c304a1499c68e1bc4622d815d970b4\131_f486988524c304a1499c68e1bc4622d815d970b4-FRAGMENT.arff;config;CCC;1;0.180570;RF-BR;RF;im;reg;diff
0;C:\fanas\2\FRAGMENT\ClaferConfigurator\dataFiles\im_reg_diff\131_f486988524c304a1499c68e1bc4622d815d970b4\131_f486988524c304a1499c68e1bc4622d815d970b4-FRAGMENT.arff;config;COMM;9;0.012043;RF-BR;RF;im;reg;diff
0;C:\fanas\2\FRAGMENT\ClaferConfigurator\dataFiles\im_reg_diff\131_f486988524c304a1499c68e1bc4622d815d970b4\131_f486988524c304a1499c68e1bc4622d815d970b4-FRAGMENT.arff;config;DDEV;7;0.107695;RF-LP;RF;im;reg;diff
0;C:\fanas\2\FRAGMENT\ClaferConfigurator\dataFiles\im_reg_diff\131_f486988524c304a1499c68e1bc4622d815d970b4\131_f486988524c304a1499c68e1bc4622d815d970b4-FRAGMENT.arff;config;DCONT;8;0.087348;RF-LP;RF;im;reg;diff
0;C:\fanas\2\FRAGMENT\ClaferConfigurator\dataFiles\im_reg_diff\131_f486988524c304a1499c68e1bc4622d815d970b4\131_f486988524c304a1499c68e1bc4622d815d970b4-FRAGMENT.arff;config;COMM;6;0.127733;RF-LP;RF;im;reg;diff
0;C:\fanas\2\FRAGMENT\ClaferConfigurator\dataFiles\im_reg_diff\131_f486988524c304a1499c68e1bc4622d815d970b4\131_f486988524c304a1499c68e1bc4622d815d970b4-FRAGMENT.arff;config;CSDEV;11;0.000000;RF-LP;RF;im;reg;diff
0;C:\fanas\2\FRAGMENT\ClaferConfigurator\dataFiles\im_reg_diff\131_f486988524c304a1499c68e1bc4622d815d970b4\131_f486988524c304a1499c68e1bc4622d815d970b4-FRAGMENT.arff;config;HDCONT;10;0.072956;RF-LP;RF;im;reg;diff
0;C:\fanas\2\FRAGMENT\ClaferConfigurator\dataFiles\im_reg_diff\131_f486988524c304a1499c68e1bc4622d815d970b4\131_f486988524c304a1499c68e1bc4622d815d970b4-FRAGMENT.arff;config;NLOC;9;0.082270;RF-LP;RF;im;reg;diff
0;C:\fanas\2\FRAGMENT\ClaferConfigurator\dataFiles\im_reg_diff\131_f486988524c304a1499c68e1bc4622d815d970b4\131_f486988524c304a1499c68e1bc4622d815d970b4-FRAGMENT.arff;config;ACCC;2;0.270123;RF-LP;RF;im;reg;diff
0;C:\fanas\2\FRAGMENT\ClaferConfigurator\dataFiles\im_reg_diff\131_f486988524c304a1499c68e1bc4622d815d970b4\131_f486988524c304a1499c68e1bc4622d815d970b4-FRAGMENT.arff;config;CCC;1;0.383491;RF-LP;RF;im;reg;diff
0;C:\fanas\2\FRAGMENT\ClaferConfigurator\dataFiles\im_reg_diff\131_f486988524c304a1499c68e1bc4622d815d970b4\131_f486988524c304a1499c68e1bc4622d815d970b4-FRAGMENT.arff;config;NFMA;5;0.160447;RF-LP;RF;im;reg;diff
0;C:\fanas\2\FRAGMENT\ClaferConfigurator\dataFiles\im_reg_diff\131_f486988524c304a1499c68e1bc4622d815d970b4\131_f486988524c304a1499c68e1bc4622d815d970b4-FRAGMENT.arff;config;NFF;4;0.201092;RF-LP;RF;im;reg;diff
0;C:\fanas\2\FRAGMENT\ClaferConfigurator\dataFiles\im_reg_diff\131_f486988524c304a1499c68e1bc4622d815d970b4\131_f486988524c304a1499c68e1bc4622d815d970b4-FRAGMENT.arff;config;DNFMA;3;0.208823;RF-LP;RF;im;reg;diff
0;C:\fanas\2\FRAGMENT\ClaferConfigurator\dataFiles\im_reg_diff\151_16bc5e2b39c696caaabe265db85ed2c952e5ffd9\151_16bc5e2b39c696caaabe265db85ed2c952e5ffd9-FRAGMENT.arff;config;DNFMA;7;0.032205;RF-BR;RF;im;reg;diff
0;C:\fanas\2\FRAGMENT\ClaferConfigurator\dataFiles\im_reg_diff\151_16bc5e2b39c696caaabe265db85ed2c952e5ffd9\151_16bc5e2b39c696caaabe265db85ed2c952e5ffd9-FRAGMENT.arff;config;NFMA;3;0.103267;RF-BR;RF;im;reg;diff
0;C:\fanas\2\FRAGMENT\ClaferConfigurator\dataFiles\im_reg_diff\151_16bc5e2b39c696caaabe265db85ed2c952e5ffd9\151_16bc5e2b39c696caaabe265db85ed2c952e5ffd9-FRAGMENT.arff;config;NLOC;8;0.020673;RF-BR;RF;im;reg;diff
0;C:\fanas\2\FRAGMENT\ClaferConfigurator\dataFiles\im_reg_diff\151_16bc5e2b39c696caaabe265db85ed2c952e5ffd9\151_16bc5e2b39c696caaabe265db85ed2c952e5ffd9-FRAGMENT.arff;config;DDEV;5;0.068568;RF-BR;RF;im;reg;diff
0;C:\fanas\2\FRAGMENT\ClaferConfigurator\dataFiles\im_reg_diff\151_16bc5e2b39c696caaabe265db85ed2c952e5ffd9\151_16bc5e2b39c696caaabe265db85ed2c952e5ffd9-FRAGMENT.arff;config;DCONT;6;0.063147;RF-BR;RF;im;reg;diff
0;C:\fanas\2\FRAGMENT\ClaferConfigurator\dataFiles\im_reg_diff\151_16bc5e2b39c696caaabe265db85ed2c952e5ffd9\151_16bc5e2b39c696caaabe265db85ed2c952e5ffd9-FRAGMENT.arff;config;HDCONT;10;0.008531;RF-BR;RF;im;reg;diff
0;C:\fanas\2\FRAGMENT\ClaferConfigurator\dataFiles\im_reg_diff\151_16bc5e2b39c696caaabe265db85ed2c952e5ffd9\151_16bc5e2b39c696caaabe265db85ed2c952e5ffd9-FRAGMENT.arff;config;CSDEV;11;0.000000;RF-BR;RF;im;reg;diff
0;C:\fanas\2\FRAGMENT\ClaferConfigurator\dataFiles\im_reg_diff\151_16bc5e2b39c696caaabe265db85ed2c952e5ffd9\151_16bc5e2b39c696caaabe265db85ed2c952e5ffd9-FRAGMENT.arff;config;COMM;9;0.012043;RF-BR;RF;im;reg;diff
0;C:\fanas\2\FRAGMENT\ClaferConfigurator\dataFiles\im_reg_diff\151_16bc5e2b39c696caaabe265db85ed2c952e5ffd9\151_16bc5e2b39c696caaabe265db85ed2c952e5ffd9-FRAGMENT.arff;config;NFF;2;0.144128;RF-BR;RF;im;reg;diff
0;C:\fanas\2\FRAGMENT\ClaferConfigurator\dataFiles\im_reg_diff\151_16bc5e2b39c696caaabe265db85ed2c952e5ffd9\151_16bc5e2b39c696caaabe265db85ed2c952e5ffd9-FRAGMENT.arff;config;CCC;1;0.180570;RF-BR;RF;im;reg;diff
0;C:\fanas\2\FRAGMENT\ClaferConfigurator\dataFiles\im_reg_diff\151_16bc5e2b39c696caaabe265db85ed2c952e5ffd9\151_16bc5e2b39c696caaabe265db85ed2c952e5ffd9-FRAGMENT.arff;config;ACCC;4;0.073776;RF-BR;RF;im;reg;diff
0;C:\fanas\2\FRAGMENT\ClaferConfigurator\dataFiles\im_reg_diff\151_16bc5e2b39c696caaabe265db85ed2c952e5ffd9\151_16bc5e2b39c696caaabe265db85ed2c952e5ffd9-FRAGMENT.arff;config;ACCC;2;0.270123;RF-LP;RF;im;reg;diff
0;C:\fanas\2\FRAGMENT\ClaferConfigurator\dataFiles\im_reg_diff\151_16bc5e2b39c696caaabe265db85ed2c952e5ffd9\151_16bc5e2b39c696caaabe265db85ed2c952e5ffd9-FRAGMENT.arff;config;NLOC;9;0.082270;RF-LP;RF;im;reg;diff
0;C:\fanas\2\FRAGMENT\ClaferConfigurator\dataFiles\im_reg_diff\151_16bc5e2b39c696caaabe265db85ed2c952e5ffd9\151_16bc5e2b39c696caaabe265db85ed2c952e5ffd9-FRAGMENT.arff;config;CCC;1;0.383491;RF-LP;RF;im;reg;diff
0;C:\fanas\2\FRAGMENT\ClaferConfigurator\dataFiles\im_reg_diff\151_16bc5e2b39c696caaabe265db85ed2c952e5ffd9\151_16bc5e2b39c696caaabe265db85ed2c952e5ffd9-FRAGMENT.arff;config;CSDEV;11;0.000000;RF-LP;RF;im;reg;diff
0;C:\fanas\2\FRAGMENT\ClaferConfigurator\dataFiles\im_reg_diff\151_16bc5e2b39c696caaabe265db85ed2c952e5ffd9\151_16bc5e2b39c696caaabe265db85ed2c952e5ffd9-FRAGMENT.arff;config;DDEV;7;0.107695;RF-LP;RF;im;reg;diff
0;C:\fanas\2\FRAGMENT\ClaferConfigurator\dataFiles\im_reg_diff\151_16bc5e2b39c696caaabe265db85ed2c952e5ffd9\151_16bc5e2b39c696caaabe265db85ed2c952e5ffd9-FRAGMENT.arff;config;HDCONT;10;0.072956;RF-LP;RF;im;reg;diff
0;C:\fanas\2\FRAGMENT\ClaferConfigurator\dataFiles\im_reg_diff\151_16bc5e2b39c696caaabe265db85ed2c952e5ffd9\151_16bc5e2b39c696caaabe265db85ed2c952e5ffd9-FRAGMENT.arff;config;DCONT;8;0.087348;RF-LP;RF;im;reg;diff
0;C:\fanas\2\FRAGMENT\ClaferConfigurator\dataFiles\im_reg_diff\151_16bc5e2b39c696caaabe265db85ed2c952e5ffd9\151_16bc5e2b39c696caaabe265db85ed2c952e5ffd9-FRAGMENT.arff;config;COMM;6;0.127733;RF-LP;RF;im;reg;diff
0;C:\fanas\2\FRAGMENT\ClaferConfigurator\dataFiles\im_reg_diff\151_16bc5e2b39c696caaabe265db85ed2c952e5ffd9\151_16bc5e2b39c696caaabe265db85ed2c952e5ffd9-FRAGMENT.arff;config;NFMA;5;0.160447;RF-LP;RF;im;reg;diff
0;C:\fanas\2\FRAGMENT\ClaferConfigurator\dataFiles\im_reg_diff\151_16bc5e2b39c696caaabe265db85ed2c952e5ffd9\151_16bc5e2b39c696caaabe265db85ed2c952e5ffd9-FRAGMENT.arff;config;NFF;4;0.201092;RF-LP;RF;im;reg;diff
0;C:\fanas\2\FRAGMENT\ClaferConfigurator\dataFiles\im_reg_diff\151_16bc5e2b39c696caaabe265db85ed2c952e5ffd9\151_16bc5e2b39c696caaabe265db85ed2c952e5ffd9-FRAGMENT.arff;config;DNFMA;3;0.208823;RF-LP;RF;im;reg;diff
0;C:\fanas\2\FRAGMENT\ClaferConfigurator\dataFiles\im_reg_diff\171_ec9d5cee2c914275dc42d8cafcf0bf0f6fdfbe05\171_ec9d5cee2c914275dc42d8cafcf0bf0f6fdfbe05-FRAGMENT.arff;config;DNFMA;7;0.032205;RF-BR;RF;im;reg;diff
0;C:\fanas\2\FRAGMENT\ClaferConfigurator\dataFiles\im_reg_diff\171_ec9d5cee2c914275dc42d8cafcf0bf0f6fdfbe05\171_ec9d5cee2c914275dc42d8cafcf0bf0f6fdfbe05-FRAGMENT.arff;config;NLOC;9;0.082270;RF-LP;RF;im;reg;diff
0;C:\fanas\2\FRAGMENT\ClaferConfigurator\dataFiles\im_reg_diff\171_ec9d5cee2c914275dc42d8cafcf0bf0f6fdfbe05\171_ec9d5cee2c914275dc42d8cafcf0bf0f6fdfbe05-FRAGMENT.arff;config;NLOC;8;0.020673;RF-BR;RF;im;reg;diff
0;C:\fanas\2\FRAGMENT\ClaferConfigurator\dataFiles\im_reg_diff\171_ec9d5cee2c914275dc42d8cafcf0bf0f6fdfbe05\171_ec9d5cee2c914275dc42d8cafcf0bf0f6fdfbe05-FRAGMENT.arff;config;CSDEV;11;0.000000;RF-LP;RF;im;reg;diff
0;C:\fanas\2\FRAGMENT\ClaferConfigurator\dataFiles\im_reg_diff\171_ec9d5cee2c914275dc42d8cafcf0bf0f6fdfbe05\171_ec9d5cee2c914275dc42d8cafcf0bf0f6fdfbe05-FRAGMENT.arff;config;DCONT;6;0.063147;RF-BR;RF;im;reg;diff
0;C:\fanas\2\FRAGMENT\ClaferConfigurator\dataFiles\im_reg_diff\171_ec9d5cee2c914275dc42d8cafcf0bf0f6fdfbe05\171_ec9d5cee2c914275dc42d8cafcf0bf0f6fdfbe05-FRAGMENT.arff;config;HDCONT;10;0.072956;RF-LP;RF;im;reg;diff
0;C:\fanas\2\FRAGMENT\ClaferConfigurator\dataFiles\im_reg_diff\171_ec9d5cee2c914275dc42d8cafcf0bf0f6fdfbe05\171_ec9d5cee2c914275dc42d8cafcf0bf0f6fdfbe05-FRAGMENT.arff;config;HDCONT;10;0.008531;RF-BR;RF;im;reg;diff
0;C:\fanas\2\FRAGMENT\ClaferConfigurator\dataFiles\im_reg_diff\171_ec9d5cee2c914275dc42d8cafcf0bf0f6fdfbe05\171_ec9d5cee2c914275dc42d8cafcf0bf0f6fdfbe05-FRAGMENT.arff;config;DDEV;7;0.107695;RF-LP;RF;im;reg;diff
0;C:\fanas\2\FRAGMENT\ClaferConfigurator\dataFiles\im_reg_diff\171_ec9d5cee2c914275dc42d8cafcf0bf0f6fdfbe05\171_ec9d5cee2c914275dc42d8cafcf0bf0f6fdfbe05-FRAGMENT.arff;config;CSDEV;11;0.000000;RF-BR;RF;im;reg;diff
0;C:\fanas\2\FRAGMENT\ClaferConfigurator\dataFiles\im_reg_diff\171_ec9d5cee2c914275dc42d8cafcf0bf0f6fdfbe05\171_ec9d5cee2c914275dc42d8cafcf0bf0f6fdfbe05-FRAGMENT.arff;config;DCONT;8;0.087348;RF-LP;RF;im;reg;diff
0;C:\fanas\2\FRAGMENT\ClaferConfigurator\dataFiles\im_reg_diff\171_ec9d5cee2c914275dc42d8cafcf0bf0f6fdfbe05\171_ec9d5cee2c914275dc42d8cafcf0bf0f6fdfbe05-FRAGMENT.arff;config;COMM;9;0.012043;RF-BR;RF;im;reg;diff
0;C:\fanas\2\FRAGMENT\ClaferConfigurator\dataFiles\im_reg_diff\171_ec9d5cee2c914275dc42d8cafcf0bf0f6fdfbe05\171_ec9d5cee2c914275dc42d8cafcf0bf0f6fdfbe05-FRAGMENT.arff;config;COMM;6;0.127733;RF-LP;RF;im;reg;diff
0;C:\fanas\2\FRAGMENT\ClaferConfigurator\dataFiles\im_reg_diff\171_ec9d5cee2c914275dc42d8cafcf0bf0f6fdfbe05\171_ec9d5cee2c914275dc42d8cafcf0bf0f6fdfbe05-FRAGMENT.arff;config;NFMA;3;0.103267;RF-BR;RF;im;reg;diff
0;C:\fanas\2\FRAGMENT\ClaferConfigurator\dataFiles\im_reg_diff\171_ec9d5cee2c914275dc42d8cafcf0bf0f6fdfbe05\171_ec9d5cee2c914275dc42d8cafcf0bf0f6fdfbe05-FRAGMENT.arff;config;NFF;2;0.144128;RF-BR;RF;im;reg;diff
0;C:\fanas\2\FRAGMENT\ClaferConfigurator\dataFiles\im_reg_diff\171_ec9d5cee2c914275dc42d8cafcf0bf0f6fdfbe05\171_ec9d5cee2c914275dc42d8cafcf0bf0f6fdfbe05-FRAGMENT.arff;config;DDEV;5;0.068568;RF-BR;RF;im;reg;diff
0;C:\fanas\2\FRAGMENT\ClaferConfigurator\dataFiles\im_reg_diff\171_ec9d5cee2c914275dc42d8cafcf0bf0f6fdfbe05\171_ec9d5cee2c914275dc42d8cafcf0bf0f6fdfbe05-FRAGMENT.arff;config;CCC;1;0.180570;RF-BR;RF;im;reg;diff
0;C:\fanas\2\FRAGMENT\ClaferConfigurator\dataFiles\im_reg_diff\171_ec9d5cee2c914275dc42d8cafcf0bf0f6fdfbe05\171_ec9d5cee2c914275dc42d8cafcf0bf0f6fdfbe05-FRAGMENT.arff;config;ACCC;4;0.073776;RF-BR;RF;im;reg;diff
0;C:\fanas\2\FRAGMENT\ClaferConfigurator\dataFiles\im_reg_diff\171_ec9d5cee2c914275dc42d8cafcf0bf0f6fdfbe05\171_ec9d5cee2c914275dc42d8cafcf0bf0f6fdfbe05-FRAGMENT.arff;config;ACCC;2;0.270123;RF-LP;RF;im;reg;diff
0;C:\fanas\2\FRAGMENT\ClaferConfigurator\dataFiles\im_reg_diff\171_ec9d5cee2c914275dc42d8cafcf0bf0f6fdfbe05\171_ec9d5cee2c914275dc42d8cafcf0bf0f6fdfbe05-FRAGMENT.arff;config;NFMA;5;0.160447;RF-LP;RF;im;reg;diff
0;C:\fanas\2\FRAGMENT\ClaferConfigurator\dataFiles\im_reg_diff\171_ec9d5cee2c914275dc42d8cafcf0bf0f6fdfbe05\171_ec9d5cee2c914275dc42d8cafcf0bf0f6fdfbe05-FRAGMENT.arff;config;CCC;1;0.383491;RF-LP;RF;im;reg;diff
0;C:\fanas\2\FRAGMENT\ClaferConfigurator\dataFiles\im_reg_diff\171_ec9d5cee2c914275dc42d8cafcf0bf0f6fdfbe05\171_ec9d5cee2c914275dc42d8cafcf0bf0f6fdfbe05-FRAGMENT.arff;config;NFF;4;0.201092;RF-LP;RF;im;reg;diff
0;C:\fanas\2\FRAGMENT\ClaferConfigurator\dataFiles\im_reg_diff\171_ec9d5cee2c914275dc42d8cafcf0bf0f6fdfbe05\171_ec9d5cee2c914275dc42d8cafcf0bf0f6fdfbe05-FRAGMENT.arff;config;DNFMA;3;0.208823;RF-LP;RF;im;reg;diff
