index;attribute;project;is_balanced;is_normalized;fragmentThreshold;RF_BR_rank;RF_BR_weight;RF_LP_rank;RF_LP_weight;RF_rank;RF_weight;overall_rank;overall_weight
0;CSDEV;config;im;reg;diff;7.222222;0.000000;10.666667;0.000000;8.944444;0.000000;8.944444;0.000000
1;COMM;config;im;reg;diff;8.666667;-0.062027;5.888889;0.255529;7.277778;0.096751;7.277778;0.096751
2;DDEV;config;im;reg;diff;5.222222;0.012067;5.111111;0.271894;5.166667;0.141980;5.166667;0.141980
3;DCONT;config;im;reg;diff;6.111111;0.001065;6.222222;0.248065;6.166667;0.124565;6.166667;0.124565
4;HDCONT;config;im;reg;diff;7.666667;-0.045877;8.666667;0.203773;8.166667;0.078948;8.166667;0.078948
5;CCC;config;im;reg;diff;2.444444;0.111150;3.333333;0.383032;2.888889;0.247091;2.888889;0.247091
6;ACCC;config;im;reg;diff;5.000000;-0.003349;4.111111;0.330664;4.555556;0.163658;4.555556;0.163658
7;NLOC;config;im;reg;diff;8.888889;-0.062245;7.444444;0.249800;8.166667;0.093778;8.166667;0.093778
8;DNFMA;config;im;reg;diff;6.888889;-0.017267;5.222222;0.280200;6.055556;0.131466;6.055556;0.131466
9;NFMA;config;im;reg;diff;3.888889;0.056492;5.444444;0.273088;4.666667;0.164790;4.666667;0.164790
10;NFF;config;im;reg;diff;4.000000;0.038447;3.888889;0.349520;3.944444;0.193983;3.944444;0.193983
