commit;dataset;project;attribute;rank;weight;evalmethod;evalmethodParent;isBalanced;isNormalized;fragmentThreshold
0;C:\fanas\2\LOC\ClaferConfigurator\dataFiles\im_reg_diff\10_6e6bbcad3d2c374d6b07749cecb5740b9c329e5f\10_6e6bbcad3d2c374d6b07749cecb5740b9c329e5f-LOC.arff;config;NLOC;3;0.000000;RF-BR;RF;im;reg;diff
0;C:\fanas\2\LOC\ClaferConfigurator\dataFiles\im_reg_diff\10_6e6bbcad3d2c374d6b07749cecb5740b9c329e5f\10_6e6bbcad3d2c374d6b07749cecb5740b9c329e5f-LOC.arff;config;NFMA;5;0.000000;RF-BR;RF;im;reg;diff
0;C:\fanas\2\LOC\ClaferConfigurator\dataFiles\im_reg_diff\10_6e6bbcad3d2c374d6b07749cecb5740b9c329e5f\10_6e6bbcad3d2c374d6b07749cecb5740b9c329e5f-LOC.arff;config;DNFMA;4;0.000000;RF-BR;RF;im;reg;diff
0;C:\fanas\2\LOC\ClaferConfigurator\dataFiles\im_reg_diff\10_6e6bbcad3d2c374d6b07749cecb5740b9c329e5f\10_6e6bbcad3d2c374d6b07749cecb5740b9c329e5f-LOC.arff;config;CCC;2;0.000000;RF-BR;RF;im;reg;diff
0;C:\fanas\2\LOC\ClaferConfigurator\dataFiles\im_reg_diff\10_6e6bbcad3d2c374d6b07749cecb5740b9c329e5f\10_6e6bbcad3d2c374d6b07749cecb5740b9c329e5f-LOC.arff;config;NFF;1;0.040000;RF-BR;RF;im;reg;diff
0;C:\fanas\2\LOC\ClaferConfigurator\dataFiles\im_reg_diff\10_6e6bbcad3d2c374d6b07749cecb5740b9c329e5f\10_6e6bbcad3d2c374d6b07749cecb5740b9c329e5f-LOC.arff;config;COMM;10;-0.064211;RF-BR;RF;im;reg;diff
0;C:\fanas\2\LOC\ClaferConfigurator\dataFiles\im_reg_diff\10_6e6bbcad3d2c374d6b07749cecb5740b9c329e5f\10_6e6bbcad3d2c374d6b07749cecb5740b9c329e5f-LOC.arff;config;ACCC;11;-0.096842;RF-BR;RF;im;reg;diff
0;C:\fanas\2\LOC\ClaferConfigurator\dataFiles\im_reg_diff\10_6e6bbcad3d2c374d6b07749cecb5740b9c329e5f\10_6e6bbcad3d2c374d6b07749cecb5740b9c329e5f-LOC.arff;config;HDCONT;9;-0.064211;RF-BR;RF;im;reg;diff
0;C:\fanas\2\LOC\ClaferConfigurator\dataFiles\im_reg_diff\10_6e6bbcad3d2c374d6b07749cecb5740b9c329e5f\10_6e6bbcad3d2c374d6b07749cecb5740b9c329e5f-LOC.arff;config;CSDEV;6;0.000000;RF-BR;RF;im;reg;diff
0;C:\fanas\2\LOC\ClaferConfigurator\dataFiles\im_reg_diff\10_6e6bbcad3d2c374d6b07749cecb5740b9c329e5f\10_6e6bbcad3d2c374d6b07749cecb5740b9c329e5f-LOC.arff;config;DCONT;8;-0.064211;RF-BR;RF;im;reg;diff
0;C:\fanas\2\LOC\ClaferConfigurator\dataFiles\im_reg_diff\10_6e6bbcad3d2c374d6b07749cecb5740b9c329e5f\10_6e6bbcad3d2c374d6b07749cecb5740b9c329e5f-LOC.arff;config;DNFMA;9;0.000000;RF-LP;RF;im;reg;diff
0;C:\fanas\2\LOC\ClaferConfigurator\dataFiles\im_reg_diff\10_6e6bbcad3d2c374d6b07749cecb5740b9c329e5f\10_6e6bbcad3d2c374d6b07749cecb5740b9c329e5f-LOC.arff;config;CSDEV;11;0.000000;RF-LP;RF;im;reg;diff
0;C:\fanas\2\LOC\ClaferConfigurator\dataFiles\im_reg_diff\10_6e6bbcad3d2c374d6b07749cecb5740b9c329e5f\10_6e6bbcad3d2c374d6b07749cecb5740b9c329e5f-LOC.arff;config;NFMA;10;0.000000;RF-LP;RF;im;reg;diff
0;C:\fanas\2\LOC\ClaferConfigurator\dataFiles\im_reg_diff\10_6e6bbcad3d2c374d6b07749cecb5740b9c329e5f\10_6e6bbcad3d2c374d6b07749cecb5740b9c329e5f-LOC.arff;config;DDEV;7;-0.064211;RF-BR;RF;im;reg;diff
0;C:\fanas\2\LOC\ClaferConfigurator\dataFiles\im_reg_diff\10_6e6bbcad3d2c374d6b07749cecb5740b9c329e5f\10_6e6bbcad3d2c374d6b07749cecb5740b9c329e5f-LOC.arff;config;COMM;6;0.060139;RF-LP;RF;im;reg;diff
0;C:\fanas\2\LOC\ClaferConfigurator\dataFiles\im_reg_diff\10_6e6bbcad3d2c374d6b07749cecb5740b9c329e5f\10_6e6bbcad3d2c374d6b07749cecb5740b9c329e5f-LOC.arff;config;CCC;7;0.000000;RF-LP;RF;im;reg;diff
0;C:\fanas\2\LOC\ClaferConfigurator\dataFiles\im_reg_diff\10_6e6bbcad3d2c374d6b07749cecb5740b9c329e5f\10_6e6bbcad3d2c374d6b07749cecb5740b9c329e5f-LOC.arff;config;NLOC;8;0.000000;RF-LP;RF;im;reg;diff
0;C:\fanas\2\LOC\ClaferConfigurator\dataFiles\im_reg_diff\10_6e6bbcad3d2c374d6b07749cecb5740b9c329e5f\10_6e6bbcad3d2c374d6b07749cecb5740b9c329e5f-LOC.arff;config;ACCC;2;0.306347;RF-LP;RF;im;reg;diff
0;C:\fanas\2\LOC\ClaferConfigurator\dataFiles\im_reg_diff\10_6e6bbcad3d2c374d6b07749cecb5740b9c329e5f\10_6e6bbcad3d2c374d6b07749cecb5740b9c329e5f-LOC.arff;config;NFF;1;0.419737;RF-LP;RF;im;reg;diff
0;C:\fanas\2\LOC\ClaferConfigurator\dataFiles\im_reg_diff\10_6e6bbcad3d2c374d6b07749cecb5740b9c329e5f\10_6e6bbcad3d2c374d6b07749cecb5740b9c329e5f-LOC.arff;config;HDCONT;5;0.060139;RF-LP;RF;im;reg;diff
0;C:\fanas\2\LOC\ClaferConfigurator\dataFiles\im_reg_diff\10_6e6bbcad3d2c374d6b07749cecb5740b9c329e5f\10_6e6bbcad3d2c374d6b07749cecb5740b9c329e5f-LOC.arff;config;DCONT;4;0.060139;RF-LP;RF;im;reg;diff
0;C:\fanas\2\LOC\ClaferConfigurator\dataFiles\im_reg_diff\10_6e6bbcad3d2c374d6b07749cecb5740b9c329e5f\10_6e6bbcad3d2c374d6b07749cecb5740b9c329e5f-LOC.arff;config;DDEV;3;0.060139;RF-LP;RF;im;reg;diff
0;C:\fanas\2\LOC\ClaferConfigurator\dataFiles\im_reg_diff\30_3e09f8b1096836f89d0bc60e3537406a16459fbd\30_3e09f8b1096836f89d0bc60e3537406a16459fbd-LOC.arff;config;DCONT;7;0.048744;RF-BR;RF;im;reg;diff
0;C:\fanas\2\LOC\ClaferConfigurator\dataFiles\im_reg_diff\30_3e09f8b1096836f89d0bc60e3537406a16459fbd\30_3e09f8b1096836f89d0bc60e3537406a16459fbd-LOC.arff;config;HDCONT;8;0.036165;RF-BR;RF;im;reg;diff
0;C:\fanas\2\LOC\ClaferConfigurator\dataFiles\im_reg_diff\30_3e09f8b1096836f89d0bc60e3537406a16459fbd\30_3e09f8b1096836f89d0bc60e3537406a16459fbd-LOC.arff;config;DDEV;6;0.048744;RF-BR;RF;im;reg;diff
0;C:\fanas\2\LOC\ClaferConfigurator\dataFiles\im_reg_diff\30_3e09f8b1096836f89d0bc60e3537406a16459fbd\30_3e09f8b1096836f89d0bc60e3537406a16459fbd-LOC.arff;config;CSDEV;10;0.000000;RF-BR;RF;im;reg;diff
0;C:\fanas\2\LOC\ClaferConfigurator\dataFiles\im_reg_diff\30_3e09f8b1096836f89d0bc60e3537406a16459fbd\30_3e09f8b1096836f89d0bc60e3537406a16459fbd-LOC.arff;config;CCC;2;0.190442;RF-BR;RF;im;reg;diff
0;C:\fanas\2\LOC\ClaferConfigurator\dataFiles\im_reg_diff\30_3e09f8b1096836f89d0bc60e3537406a16459fbd\30_3e09f8b1096836f89d0bc60e3537406a16459fbd-LOC.arff;config;NLOC;11;0.000000;RF-BR;RF;im;reg;diff
0;C:\fanas\2\LOC\ClaferConfigurator\dataFiles\im_reg_diff\30_3e09f8b1096836f89d0bc60e3537406a16459fbd\30_3e09f8b1096836f89d0bc60e3537406a16459fbd-LOC.arff;config;NFMA;1;0.191600;RF-BR;RF;im;reg;diff
0;C:\fanas\2\LOC\ClaferConfigurator\dataFiles\im_reg_diff\30_3e09f8b1096836f89d0bc60e3537406a16459fbd\30_3e09f8b1096836f89d0bc60e3537406a16459fbd-LOC.arff;config;COMM;9;0.020922;RF-BR;RF;im;reg;diff
0;C:\fanas\2\LOC\ClaferConfigurator\dataFiles\im_reg_diff\30_3e09f8b1096836f89d0bc60e3537406a16459fbd\30_3e09f8b1096836f89d0bc60e3537406a16459fbd-LOC.arff;config;HDCONT;9;0.002943;RF-LP;RF;im;reg;diff
0;C:\fanas\2\LOC\ClaferConfigurator\dataFiles\im_reg_diff\30_3e09f8b1096836f89d0bc60e3537406a16459fbd\30_3e09f8b1096836f89d0bc60e3537406a16459fbd-LOC.arff;config;DDEV;7;0.013074;RF-LP;RF;im;reg;diff
0;C:\fanas\2\LOC\ClaferConfigurator\dataFiles\im_reg_diff\30_3e09f8b1096836f89d0bc60e3537406a16459fbd\30_3e09f8b1096836f89d0bc60e3537406a16459fbd-LOC.arff;config;NLOC;11;0.000000;RF-LP;RF;im;reg;diff
0;C:\fanas\2\LOC\ClaferConfigurator\dataFiles\im_reg_diff\30_3e09f8b1096836f89d0bc60e3537406a16459fbd\30_3e09f8b1096836f89d0bc60e3537406a16459fbd-LOC.arff;config;DCONT;8;0.013074;RF-LP;RF;im;reg;diff
0;C:\fanas\2\LOC\ClaferConfigurator\dataFiles\im_reg_diff\30_3e09f8b1096836f89d0bc60e3537406a16459fbd\30_3e09f8b1096836f89d0bc60e3537406a16459fbd-LOC.arff;config;CSDEV;10;0.000000;RF-LP;RF;im;reg;diff
0;C:\fanas\2\LOC\ClaferConfigurator\dataFiles\im_reg_diff\30_3e09f8b1096836f89d0bc60e3537406a16459fbd\30_3e09f8b1096836f89d0bc60e3537406a16459fbd-LOC.arff;config;COMM;6;0.119615;RF-LP;RF;im;reg;diff
0;C:\fanas\2\LOC\ClaferConfigurator\dataFiles\im_reg_diff\30_3e09f8b1096836f89d0bc60e3537406a16459fbd\30_3e09f8b1096836f89d0bc60e3537406a16459fbd-LOC.arff;config;NFF;5;0.084220;RF-BR;RF;im;reg;diff
0;C:\fanas\2\LOC\ClaferConfigurator\dataFiles\im_reg_diff\30_3e09f8b1096836f89d0bc60e3537406a16459fbd\30_3e09f8b1096836f89d0bc60e3537406a16459fbd-LOC.arff;config;CCC;2;0.499480;RF-LP;RF;im;reg;diff
0;C:\fanas\2\LOC\ClaferConfigurator\dataFiles\im_reg_diff\30_3e09f8b1096836f89d0bc60e3537406a16459fbd\30_3e09f8b1096836f89d0bc60e3537406a16459fbd-LOC.arff;config;DNFMA;4;0.139975;RF-BR;RF;im;reg;diff
0;C:\fanas\2\LOC\ClaferConfigurator\dataFiles\im_reg_diff\30_3e09f8b1096836f89d0bc60e3537406a16459fbd\30_3e09f8b1096836f89d0bc60e3537406a16459fbd-LOC.arff;config;NFMA;1;0.516020;RF-LP;RF;im;reg;diff
0;C:\fanas\2\LOC\ClaferConfigurator\dataFiles\im_reg_diff\30_3e09f8b1096836f89d0bc60e3537406a16459fbd\30_3e09f8b1096836f89d0bc60e3537406a16459fbd-LOC.arff;config;DNFMA;5;0.386594;RF-LP;RF;im;reg;diff
0;C:\fanas\2\LOC\ClaferConfigurator\dataFiles\im_reg_diff\30_3e09f8b1096836f89d0bc60e3537406a16459fbd\30_3e09f8b1096836f89d0bc60e3537406a16459fbd-LOC.arff;config;NFF;4;0.431324;RF-LP;RF;im;reg;diff
0;C:\fanas\2\LOC\ClaferConfigurator\dataFiles\im_reg_diff\30_3e09f8b1096836f89d0bc60e3537406a16459fbd\30_3e09f8b1096836f89d0bc60e3537406a16459fbd-LOC.arff;config;ACCC;3;0.444594;RF-LP;RF;im;reg;diff
0;C:\fanas\2\LOC\ClaferConfigurator\dataFiles\im_reg_diff\30_3e09f8b1096836f89d0bc60e3537406a16459fbd\30_3e09f8b1096836f89d0bc60e3537406a16459fbd-LOC.arff;config;ACCC;3;0.174759;RF-BR;RF;im;reg;diff
0;C:\fanas\2\LOC\ClaferConfigurator\dataFiles\im_reg_diff\50_58814f7fae89b206c214eec6ca2d780b1c9ccb62\50_58814f7fae89b206c214eec6ca2d780b1c9ccb62-LOC.arff;config;DNFMA;7;0.083602;RF-BR;RF;im;reg;diff
0;C:\fanas\2\LOC\ClaferConfigurator\dataFiles\im_reg_diff\50_58814f7fae89b206c214eec6ca2d780b1c9ccb62\50_58814f7fae89b206c214eec6ca2d780b1c9ccb62-LOC.arff;config;ACCC;8;0.057816;RF-BR;RF;im;reg;diff
0;C:\fanas\2\LOC\ClaferConfigurator\dataFiles\im_reg_diff\50_58814f7fae89b206c214eec6ca2d780b1c9ccb62\50_58814f7fae89b206c214eec6ca2d780b1c9ccb62-LOC.arff;config;HDCONT;6;0.119338;RF-BR;RF;im;reg;diff
0;C:\fanas\2\LOC\ClaferConfigurator\dataFiles\im_reg_diff\50_58814f7fae89b206c214eec6ca2d780b1c9ccb62\50_58814f7fae89b206c214eec6ca2d780b1c9ccb62-LOC.arff;config;COMM;9;0.034599;RF-LP;RF;im;reg;diff
0;C:\fanas\2\LOC\ClaferConfigurator\dataFiles\im_reg_diff\50_58814f7fae89b206c214eec6ca2d780b1c9ccb62\50_58814f7fae89b206c214eec6ca2d780b1c9ccb62-LOC.arff;config;CSDEV;11;0.000000;RF-LP;RF;im;reg;diff
0;C:\fanas\2\LOC\ClaferConfigurator\dataFiles\im_reg_diff\50_58814f7fae89b206c214eec6ca2d780b1c9ccb62\50_58814f7fae89b206c214eec6ca2d780b1c9ccb62-LOC.arff;config;NLOC;10;0.000000;RF-LP;RF;im;reg;diff
0;C:\fanas\2\LOC\ClaferConfigurator\dataFiles\im_reg_diff\50_58814f7fae89b206c214eec6ca2d780b1c9ccb62\50_58814f7fae89b206c214eec6ca2d780b1c9ccb62-LOC.arff;config;CSDEV;10;0.000000;RF-BR;RF;im;reg;diff
0;C:\fanas\2\LOC\ClaferConfigurator\dataFiles\im_reg_diff\50_58814f7fae89b206c214eec6ca2d780b1c9ccb62\50_58814f7fae89b206c214eec6ca2d780b1c9ccb62-LOC.arff;config;NLOC;11;0.000000;RF-BR;RF;im;reg;diff
0;C:\fanas\2\LOC\ClaferConfigurator\dataFiles\im_reg_diff\50_58814f7fae89b206c214eec6ca2d780b1c9ccb62\50_58814f7fae89b206c214eec6ca2d780b1c9ccb62-LOC.arff;config;COMM;9;0.005087;RF-BR;RF;im;reg;diff
0;C:\fanas\2\LOC\ClaferConfigurator\dataFiles\im_reg_diff\50_58814f7fae89b206c214eec6ca2d780b1c9ccb62\50_58814f7fae89b206c214eec6ca2d780b1c9ccb62-LOC.arff;config;CCC;3;0.299642;RF-LP;RF;im;reg;diff
0;C:\fanas\2\LOC\ClaferConfigurator\dataFiles\im_reg_diff\50_58814f7fae89b206c214eec6ca2d780b1c9ccb62\50_58814f7fae89b206c214eec6ca2d780b1c9ccb62-LOC.arff;config;DCONT;3;0.165625;RF-BR;RF;im;reg;diff
0;C:\fanas\2\LOC\ClaferConfigurator\dataFiles\im_reg_diff\50_58814f7fae89b206c214eec6ca2d780b1c9ccb62\50_58814f7fae89b206c214eec6ca2d780b1c9ccb62-LOC.arff;config;NFF;5;0.124953;RF-BR;RF;im;reg;diff
0;C:\fanas\2\LOC\ClaferConfigurator\dataFiles\im_reg_diff\50_58814f7fae89b206c214eec6ca2d780b1c9ccb62\50_58814f7fae89b206c214eec6ca2d780b1c9ccb62-LOC.arff;config;DNFMA;5;0.180093;RF-LP;RF;im;reg;diff
0;C:\fanas\2\LOC\ClaferConfigurator\dataFiles\im_reg_diff\50_58814f7fae89b206c214eec6ca2d780b1c9ccb62\50_58814f7fae89b206c214eec6ca2d780b1c9ccb62-LOC.arff;config;CCC;4;0.148765;RF-BR;RF;im;reg;diff
0;C:\fanas\2\LOC\ClaferConfigurator\dataFiles\im_reg_diff\50_58814f7fae89b206c214eec6ca2d780b1c9ccb62\50_58814f7fae89b206c214eec6ca2d780b1c9ccb62-LOC.arff;config;ACCC;4;0.180802;RF-LP;RF;im;reg;diff
0;C:\fanas\2\LOC\ClaferConfigurator\dataFiles\im_reg_diff\50_58814f7fae89b206c214eec6ca2d780b1c9ccb62\50_58814f7fae89b206c214eec6ca2d780b1c9ccb62-LOC.arff;config;DDEV;2;0.165625;RF-BR;RF;im;reg;diff
0;C:\fanas\2\LOC\ClaferConfigurator\dataFiles\im_reg_diff\50_58814f7fae89b206c214eec6ca2d780b1c9ccb62\50_58814f7fae89b206c214eec6ca2d780b1c9ccb62-LOC.arff;config;NFMA;2;0.355016;RF-LP;RF;im;reg;diff
0;C:\fanas\2\LOC\ClaferConfigurator\dataFiles\im_reg_diff\50_58814f7fae89b206c214eec6ca2d780b1c9ccb62\50_58814f7fae89b206c214eec6ca2d780b1c9ccb62-LOC.arff;config;NFMA;1;0.195431;RF-BR;RF;im;reg;diff
0;C:\fanas\2\LOC\ClaferConfigurator\dataFiles\im_reg_diff\50_58814f7fae89b206c214eec6ca2d780b1c9ccb62\50_58814f7fae89b206c214eec6ca2d780b1c9ccb62-LOC.arff;config;HDCONT;8;0.085434;RF-LP;RF;im;reg;diff
0;C:\fanas\2\LOC\ClaferConfigurator\dataFiles\im_reg_diff\50_58814f7fae89b206c214eec6ca2d780b1c9ccb62\50_58814f7fae89b206c214eec6ca2d780b1c9ccb62-LOC.arff;config;NFF;1;0.498624;RF-LP;RF;im;reg;diff
0;C:\fanas\2\LOC\ClaferConfigurator\dataFiles\im_reg_diff\50_58814f7fae89b206c214eec6ca2d780b1c9ccb62\50_58814f7fae89b206c214eec6ca2d780b1c9ccb62-LOC.arff;config;DCONT;7;0.109616;RF-LP;RF;im;reg;diff
0;C:\fanas\2\LOC\ClaferConfigurator\dataFiles\im_reg_diff\50_58814f7fae89b206c214eec6ca2d780b1c9ccb62\50_58814f7fae89b206c214eec6ca2d780b1c9ccb62-LOC.arff;config;DDEV;6;0.109616;RF-LP;RF;im;reg;diff
0;C:\fanas\2\LOC\ClaferConfigurator\dataFiles\im_reg_diff\70_e1bb4ba1db76854f4a04b2a63c0f849f381dd369\70_e1bb4ba1db76854f4a04b2a63c0f849f381dd369-LOC.arff;config;DDEV;7;0.089910;RF-BR;RF;im;reg;diff
0;C:\fanas\2\LOC\ClaferConfigurator\dataFiles\im_reg_diff\70_e1bb4ba1db76854f4a04b2a63c0f849f381dd369\70_e1bb4ba1db76854f4a04b2a63c0f849f381dd369-LOC.arff;config;DNFMA;8;0.084675;RF-BR;RF;im;reg;diff
0;C:\fanas\2\LOC\ClaferConfigurator\dataFiles\im_reg_diff\70_e1bb4ba1db76854f4a04b2a63c0f849f381dd369\70_e1bb4ba1db76854f4a04b2a63c0f849f381dd369-LOC.arff;config;HDCONT;6;0.096740;RF-BR;RF;im;reg;diff
0;C:\fanas\2\LOC\ClaferConfigurator\dataFiles\im_reg_diff\70_e1bb4ba1db76854f4a04b2a63c0f849f381dd369\70_e1bb4ba1db76854f4a04b2a63c0f849f381dd369-LOC.arff;config;CSDEV;10;0.000000;RF-BR;RF;im;reg;diff
0;C:\fanas\2\LOC\ClaferConfigurator\dataFiles\im_reg_diff\70_e1bb4ba1db76854f4a04b2a63c0f849f381dd369\70_e1bb4ba1db76854f4a04b2a63c0f849f381dd369-LOC.arff;config;NLOC;11;0.000000;RF-BR;RF;im;reg;diff
0;C:\fanas\2\LOC\ClaferConfigurator\dataFiles\im_reg_diff\70_e1bb4ba1db76854f4a04b2a63c0f849f381dd369\70_e1bb4ba1db76854f4a04b2a63c0f849f381dd369-LOC.arff;config;COMM;9;0.027780;RF-BR;RF;im;reg;diff
0;C:\fanas\2\LOC\ClaferConfigurator\dataFiles\im_reg_diff\70_e1bb4ba1db76854f4a04b2a63c0f849f381dd369\70_e1bb4ba1db76854f4a04b2a63c0f849f381dd369-LOC.arff;config;ACCC;3;0.194396;RF-BR;RF;im;reg;diff
0;C:\fanas\2\LOC\ClaferConfigurator\dataFiles\im_reg_diff\70_e1bb4ba1db76854f4a04b2a63c0f849f381dd369\70_e1bb4ba1db76854f4a04b2a63c0f849f381dd369-LOC.arff;config;DCONT;5;0.110823;RF-BR;RF;im;reg;diff
0;C:\fanas\2\LOC\ClaferConfigurator\dataFiles\im_reg_diff\70_e1bb4ba1db76854f4a04b2a63c0f849f381dd369\70_e1bb4ba1db76854f4a04b2a63c0f849f381dd369-LOC.arff;config;NFMA;4;0.136817;RF-BR;RF;im;reg;diff
0;C:\fanas\2\LOC\ClaferConfigurator\dataFiles\im_reg_diff\70_e1bb4ba1db76854f4a04b2a63c0f849f381dd369\70_e1bb4ba1db76854f4a04b2a63c0f849f381dd369-LOC.arff;config;NFF;2;0.200697;RF-BR;RF;im;reg;diff
0;C:\fanas\2\LOC\ClaferConfigurator\dataFiles\im_reg_diff\70_e1bb4ba1db76854f4a04b2a63c0f849f381dd369\70_e1bb4ba1db76854f4a04b2a63c0f849f381dd369-LOC.arff;config;CCC;1;0.219080;RF-BR;RF;im;reg;diff
0;C:\fanas\2\LOC\ClaferConfigurator\dataFiles\im_reg_diff\70_e1bb4ba1db76854f4a04b2a63c0f849f381dd369\70_e1bb4ba1db76854f4a04b2a63c0f849f381dd369-LOC.arff;config;COMM;9;0.049349;RF-LP;RF;im;reg;diff
0;C:\fanas\2\LOC\ClaferConfigurator\dataFiles\im_reg_diff\70_e1bb4ba1db76854f4a04b2a63c0f849f381dd369\70_e1bb4ba1db76854f4a04b2a63c0f849f381dd369-LOC.arff;config;HDCONT;6;0.129753;RF-LP;RF;im;reg;diff
0;C:\fanas\2\LOC\ClaferConfigurator\dataFiles\im_reg_diff\70_e1bb4ba1db76854f4a04b2a63c0f849f381dd369\70_e1bb4ba1db76854f4a04b2a63c0f849f381dd369-LOC.arff;config;NLOC;10;0.000000;RF-LP;RF;im;reg;diff
0;C:\fanas\2\LOC\ClaferConfigurator\dataFiles\im_reg_diff\70_e1bb4ba1db76854f4a04b2a63c0f849f381dd369\70_e1bb4ba1db76854f4a04b2a63c0f849f381dd369-LOC.arff;config;DNFMA;8;0.093766;RF-LP;RF;im;reg;diff
0;C:\fanas\2\LOC\ClaferConfigurator\dataFiles\im_reg_diff\70_e1bb4ba1db76854f4a04b2a63c0f849f381dd369\70_e1bb4ba1db76854f4a04b2a63c0f849f381dd369-LOC.arff;config;CSDEV;11;0.000000;RF-LP;RF;im;reg;diff
0;C:\fanas\2\LOC\ClaferConfigurator\dataFiles\im_reg_diff\70_e1bb4ba1db76854f4a04b2a63c0f849f381dd369\70_e1bb4ba1db76854f4a04b2a63c0f849f381dd369-LOC.arff;config;DDEV;7;0.129485;RF-LP;RF;im;reg;diff
0;C:\fanas\2\LOC\ClaferConfigurator\dataFiles\im_reg_diff\70_e1bb4ba1db76854f4a04b2a63c0f849f381dd369\70_e1bb4ba1db76854f4a04b2a63c0f849f381dd369-LOC.arff;config;CCC;2;0.287341;RF-LP;RF;im;reg;diff
0;C:\fanas\2\LOC\ClaferConfigurator\dataFiles\im_reg_diff\70_e1bb4ba1db76854f4a04b2a63c0f849f381dd369\70_e1bb4ba1db76854f4a04b2a63c0f849f381dd369-LOC.arff;config;ACCC;1;0.305234;RF-LP;RF;im;reg;diff
0;C:\fanas\2\LOC\ClaferConfigurator\dataFiles\im_reg_diff\70_e1bb4ba1db76854f4a04b2a63c0f849f381dd369\70_e1bb4ba1db76854f4a04b2a63c0f849f381dd369-LOC.arff;config;DCONT;5;0.148338;RF-LP;RF;im;reg;diff
0;C:\fanas\2\LOC\ClaferConfigurator\dataFiles\im_reg_diff\70_e1bb4ba1db76854f4a04b2a63c0f849f381dd369\70_e1bb4ba1db76854f4a04b2a63c0f849f381dd369-LOC.arff;config;NFMA;4;0.156716;RF-LP;RF;im;reg;diff
0;C:\fanas\2\LOC\ClaferConfigurator\dataFiles\im_reg_diff\70_e1bb4ba1db76854f4a04b2a63c0f849f381dd369\70_e1bb4ba1db76854f4a04b2a63c0f849f381dd369-LOC.arff;config;NFF;3;0.281548;RF-LP;RF;im;reg;diff
0;C:\fanas\2\LOC\ClaferConfigurator\dataFiles\im_reg_diff\90_47201f7a7707ed6b07421eae5efb0569f7915e8e\90_47201f7a7707ed6b07421eae5efb0569f7915e8e-LOC.arff;config;NFF;3;0.179656;RF-BR;RF;im;reg;diff
0;C:\fanas\2\LOC\ClaferConfigurator\dataFiles\im_reg_diff\90_47201f7a7707ed6b07421eae5efb0569f7915e8e\90_47201f7a7707ed6b07421eae5efb0569f7915e8e-LOC.arff;config;DCONT;5;0.080246;RF-BR;RF;im;reg;diff
0;C:\fanas\2\LOC\ClaferConfigurator\dataFiles\im_reg_diff\90_47201f7a7707ed6b07421eae5efb0569f7915e8e\90_47201f7a7707ed6b07421eae5efb0569f7915e8e-LOC.arff;config;NFMA;4;0.159850;RF-BR;RF;im;reg;diff
0;C:\fanas\2\LOC\ClaferConfigurator\dataFiles\im_reg_diff\90_47201f7a7707ed6b07421eae5efb0569f7915e8e\90_47201f7a7707ed6b07421eae5efb0569f7915e8e-LOC.arff;config;ACCC;2;0.187108;RF-BR;RF;im;reg;diff
0;C:\fanas\2\LOC\ClaferConfigurator\dataFiles\im_reg_diff\90_47201f7a7707ed6b07421eae5efb0569f7915e8e\90_47201f7a7707ed6b07421eae5efb0569f7915e8e-LOC.arff;config;CCC;1;0.214775;RF-BR;RF;im;reg;diff
0;C:\fanas\2\LOC\ClaferConfigurator\dataFiles\im_reg_diff\90_47201f7a7707ed6b07421eae5efb0569f7915e8e\90_47201f7a7707ed6b07421eae5efb0569f7915e8e-LOC.arff;config;CSDEV;10;0.000000;RF-BR;RF;im;reg;diff
0;C:\fanas\2\LOC\ClaferConfigurator\dataFiles\im_reg_diff\90_47201f7a7707ed6b07421eae5efb0569f7915e8e\90_47201f7a7707ed6b07421eae5efb0569f7915e8e-LOC.arff;config;NLOC;11;0.000000;RF-BR;RF;im;reg;diff
0;C:\fanas\2\LOC\ClaferConfigurator\dataFiles\im_reg_diff\90_47201f7a7707ed6b07421eae5efb0569f7915e8e\90_47201f7a7707ed6b07421eae5efb0569f7915e8e-LOC.arff;config;COMM;9;0.021453;RF-BR;RF;im;reg;diff
0;C:\fanas\2\LOC\ClaferConfigurator\dataFiles\im_reg_diff\90_47201f7a7707ed6b07421eae5efb0569f7915e8e\90_47201f7a7707ed6b07421eae5efb0569f7915e8e-LOC.arff;config;DNFMA;6;0.070971;RF-BR;RF;im;reg;diff
0;C:\fanas\2\LOC\ClaferConfigurator\dataFiles\im_reg_diff\90_47201f7a7707ed6b07421eae5efb0569f7915e8e\90_47201f7a7707ed6b07421eae5efb0569f7915e8e-LOC.arff;config;DDEV;8;0.066593;RF-BR;RF;im;reg;diff
0;C:\fanas\2\LOC\ClaferConfigurator\dataFiles\im_reg_diff\90_47201f7a7707ed6b07421eae5efb0569f7915e8e\90_47201f7a7707ed6b07421eae5efb0569f7915e8e-LOC.arff;config;COMM;9;0.044671;RF-LP;RF;im;reg;diff
0;C:\fanas\2\LOC\ClaferConfigurator\dataFiles\im_reg_diff\90_47201f7a7707ed6b07421eae5efb0569f7915e8e\90_47201f7a7707ed6b07421eae5efb0569f7915e8e-LOC.arff;config;NLOC;11;0.000000;RF-LP;RF;im;reg;diff
0;C:\fanas\2\LOC\ClaferConfigurator\dataFiles\im_reg_diff\90_47201f7a7707ed6b07421eae5efb0569f7915e8e\90_47201f7a7707ed6b07421eae5efb0569f7915e8e-LOC.arff;config;CSDEV;10;0.000000;RF-LP;RF;im;reg;diff
0;C:\fanas\2\LOC\ClaferConfigurator\dataFiles\im_reg_diff\90_47201f7a7707ed6b07421eae5efb0569f7915e8e\90_47201f7a7707ed6b07421eae5efb0569f7915e8e-LOC.arff;config;NFF;3;0.367413;RF-LP;RF;im;reg;diff
0;C:\fanas\2\LOC\ClaferConfigurator\dataFiles\im_reg_diff\90_47201f7a7707ed6b07421eae5efb0569f7915e8e\90_47201f7a7707ed6b07421eae5efb0569f7915e8e-LOC.arff;config;DDEV;7;0.121178;RF-LP;RF;im;reg;diff
0;C:\fanas\2\LOC\ClaferConfigurator\dataFiles\im_reg_diff\90_47201f7a7707ed6b07421eae5efb0569f7915e8e\90_47201f7a7707ed6b07421eae5efb0569f7915e8e-LOC.arff;config;DCONT;5;0.140711;RF-LP;RF;im;reg;diff
0;C:\fanas\2\LOC\ClaferConfigurator\dataFiles\im_reg_diff\90_47201f7a7707ed6b07421eae5efb0569f7915e8e\90_47201f7a7707ed6b07421eae5efb0569f7915e8e-LOC.arff;config;DNFMA;8;0.115579;RF-LP;RF;im;reg;diff
0;C:\fanas\2\LOC\ClaferConfigurator\dataFiles\im_reg_diff\90_47201f7a7707ed6b07421eae5efb0569f7915e8e\90_47201f7a7707ed6b07421eae5efb0569f7915e8e-LOC.arff;config;NFMA;4;0.305816;RF-LP;RF;im;reg;diff
0;C:\fanas\2\LOC\ClaferConfigurator\dataFiles\im_reg_diff\90_47201f7a7707ed6b07421eae5efb0569f7915e8e\90_47201f7a7707ed6b07421eae5efb0569f7915e8e-LOC.arff;config;HDCONT;6;0.122351;RF-LP;RF;im;reg;diff
0;C:\fanas\2\LOC\ClaferConfigurator\dataFiles\im_reg_diff\90_47201f7a7707ed6b07421eae5efb0569f7915e8e\90_47201f7a7707ed6b07421eae5efb0569f7915e8e-LOC.arff;config;CCC;1;0.438453;RF-LP;RF;im;reg;diff
0;C:\fanas\2\LOC\ClaferConfigurator\dataFiles\im_reg_diff\90_47201f7a7707ed6b07421eae5efb0569f7915e8e\90_47201f7a7707ed6b07421eae5efb0569f7915e8e-LOC.arff;config;HDCONT;7;0.070495;RF-BR;RF;im;reg;diff
0;C:\fanas\2\LOC\ClaferConfigurator\dataFiles\im_reg_diff\90_47201f7a7707ed6b07421eae5efb0569f7915e8e\90_47201f7a7707ed6b07421eae5efb0569f7915e8e-LOC.arff;config;ACCC;2;0.398836;RF-LP;RF;im;reg;diff
0;C:\fanas\2\LOC\ClaferConfigurator\dataFiles\im_reg_diff\110_782b2167bed5be68157655295a3dd61323759630\110_782b2167bed5be68157655295a3dd61323759630-LOC.arff;config;HDCONT;7;0.074056;RF-BR;RF;im;reg;diff
0;C:\fanas\2\LOC\ClaferConfigurator\dataFiles\im_reg_diff\110_782b2167bed5be68157655295a3dd61323759630\110_782b2167bed5be68157655295a3dd61323759630-LOC.arff;config;DDEV;8;0.068578;RF-BR;RF;im;reg;diff
0;C:\fanas\2\LOC\ClaferConfigurator\dataFiles\im_reg_diff\110_782b2167bed5be68157655295a3dd61323759630\110_782b2167bed5be68157655295a3dd61323759630-LOC.arff;config;DCONT;6;0.083449;RF-BR;RF;im;reg;diff
0;C:\fanas\2\LOC\ClaferConfigurator\dataFiles\im_reg_diff\110_782b2167bed5be68157655295a3dd61323759630\110_782b2167bed5be68157655295a3dd61323759630-LOC.arff;config;NLOC;10;0.000000;RF-BR;RF;im;reg;diff
0;C:\fanas\2\LOC\ClaferConfigurator\dataFiles\im_reg_diff\110_782b2167bed5be68157655295a3dd61323759630\110_782b2167bed5be68157655295a3dd61323759630-LOC.arff;config;CSDEV;11;0.000000;RF-BR;RF;im;reg;diff
0;C:\fanas\2\LOC\ClaferConfigurator\dataFiles\im_reg_diff\110_782b2167bed5be68157655295a3dd61323759630\110_782b2167bed5be68157655295a3dd61323759630-LOC.arff;config;COMM;9;0.021084;RF-BR;RF;im;reg;diff
0;C:\fanas\2\LOC\ClaferConfigurator\dataFiles\im_reg_diff\110_782b2167bed5be68157655295a3dd61323759630\110_782b2167bed5be68157655295a3dd61323759630-LOC.arff;config;NFMA;3;0.192673;RF-BR;RF;im;reg;diff
0;C:\fanas\2\LOC\ClaferConfigurator\dataFiles\im_reg_diff\110_782b2167bed5be68157655295a3dd61323759630\110_782b2167bed5be68157655295a3dd61323759630-LOC.arff;config;DNFMA;5;0.084938;RF-BR;RF;im;reg;diff
0;C:\fanas\2\LOC\ClaferConfigurator\dataFiles\im_reg_diff\110_782b2167bed5be68157655295a3dd61323759630\110_782b2167bed5be68157655295a3dd61323759630-LOC.arff;config;NFF;4;0.185855;RF-BR;RF;im;reg;diff
0;C:\fanas\2\LOC\ClaferConfigurator\dataFiles\im_reg_diff\110_782b2167bed5be68157655295a3dd61323759630\110_782b2167bed5be68157655295a3dd61323759630-LOC.arff;config;ACCC;2;0.197654;RF-BR;RF;im;reg;diff
0;C:\fanas\2\LOC\ClaferConfigurator\dataFiles\im_reg_diff\110_782b2167bed5be68157655295a3dd61323759630\110_782b2167bed5be68157655295a3dd61323759630-LOC.arff;config;CCC;1;0.223344;RF-BR;RF;im;reg;diff
0;C:\fanas\2\LOC\ClaferConfigurator\dataFiles\im_reg_diff\110_782b2167bed5be68157655295a3dd61323759630\110_782b2167bed5be68157655295a3dd61323759630-LOC.arff;config;NFMA;3;0.391430;RF-LP;RF;im;reg;diff
0;C:\fanas\2\LOC\ClaferConfigurator\dataFiles\im_reg_diff\110_782b2167bed5be68157655295a3dd61323759630\110_782b2167bed5be68157655295a3dd61323759630-LOC.arff;config;HDCONT;7;0.117164;RF-LP;RF;im;reg;diff
0;C:\fanas\2\LOC\ClaferConfigurator\dataFiles\im_reg_diff\110_782b2167bed5be68157655295a3dd61323759630\110_782b2167bed5be68157655295a3dd61323759630-LOC.arff;config;DNFMA;5;0.158150;RF-LP;RF;im;reg;diff
0;C:\fanas\2\LOC\ClaferConfigurator\dataFiles\im_reg_diff\110_782b2167bed5be68157655295a3dd61323759630\110_782b2167bed5be68157655295a3dd61323759630-LOC.arff;config;DDEV;8;0.113273;RF-LP;RF;im;reg;diff
0;C:\fanas\2\LOC\ClaferConfigurator\dataFiles\im_reg_diff\110_782b2167bed5be68157655295a3dd61323759630\110_782b2167bed5be68157655295a3dd61323759630-LOC.arff;config;NFF;4;0.377750;RF-LP;RF;im;reg;diff
0;C:\fanas\2\LOC\ClaferConfigurator\dataFiles\im_reg_diff\110_782b2167bed5be68157655295a3dd61323759630\110_782b2167bed5be68157655295a3dd61323759630-LOC.arff;config;DCONT;6;0.133453;RF-LP;RF;im;reg;diff
0;C:\fanas\2\LOC\ClaferConfigurator\dataFiles\im_reg_diff\110_782b2167bed5be68157655295a3dd61323759630\110_782b2167bed5be68157655295a3dd61323759630-LOC.arff;config;ACCC;2;0.417193;RF-LP;RF;im;reg;diff
0;C:\fanas\2\LOC\ClaferConfigurator\dataFiles\im_reg_diff\110_782b2167bed5be68157655295a3dd61323759630\110_782b2167bed5be68157655295a3dd61323759630-LOC.arff;config;CCC;1;0.459812;RF-LP;RF;im;reg;diff
0;C:\fanas\2\LOC\ClaferConfigurator\dataFiles\im_reg_diff\110_782b2167bed5be68157655295a3dd61323759630\110_782b2167bed5be68157655295a3dd61323759630-LOC.arff;config;CSDEV;11;0.000000;RF-LP;RF;im;reg;diff
0;C:\fanas\2\LOC\ClaferConfigurator\dataFiles\im_reg_diff\110_782b2167bed5be68157655295a3dd61323759630\110_782b2167bed5be68157655295a3dd61323759630-LOC.arff;config;NLOC;10;0.000000;RF-LP;RF;im;reg;diff
0;C:\fanas\2\LOC\ClaferConfigurator\dataFiles\im_reg_diff\110_782b2167bed5be68157655295a3dd61323759630\110_782b2167bed5be68157655295a3dd61323759630-LOC.arff;config;COMM;9;0.039976;RF-LP;RF;im;reg;diff
0;C:\fanas\2\LOC\ClaferConfigurator\dataFiles\im_reg_diff\130_18e24a579e9c641c6c0d24cd8eaa2c4bbeba0a87\130_18e24a579e9c641c6c0d24cd8eaa2c4bbeba0a87-LOC.arff;config;DDEV;7;0.075910;RF-BR;RF;im;reg;diff
0;C:\fanas\2\LOC\ClaferConfigurator\dataFiles\im_reg_diff\130_18e24a579e9c641c6c0d24cd8eaa2c4bbeba0a87\130_18e24a579e9c641c6c0d24cd8eaa2c4bbeba0a87-LOC.arff;config;DNFMA;8;0.072719;RF-BR;RF;im;reg;diff
0;C:\fanas\2\LOC\ClaferConfigurator\dataFiles\im_reg_diff\130_18e24a579e9c641c6c0d24cd8eaa2c4bbeba0a87\130_18e24a579e9c641c6c0d24cd8eaa2c4bbeba0a87-LOC.arff;config;HDCONT;6;0.081696;RF-BR;RF;im;reg;diff
0;C:\fanas\2\LOC\ClaferConfigurator\dataFiles\im_reg_diff\130_18e24a579e9c641c6c0d24cd8eaa2c4bbeba0a87\130_18e24a579e9c641c6c0d24cd8eaa2c4bbeba0a87-LOC.arff;config;CSDEV;10;0.000000;RF-BR;RF;im;reg;diff
0;C:\fanas\2\LOC\ClaferConfigurator\dataFiles\im_reg_diff\130_18e24a579e9c641c6c0d24cd8eaa2c4bbeba0a87\130_18e24a579e9c641c6c0d24cd8eaa2c4bbeba0a87-LOC.arff;config;NLOC;11;0.000000;RF-BR;RF;im;reg;diff
0;C:\fanas\2\LOC\ClaferConfigurator\dataFiles\im_reg_diff\130_18e24a579e9c641c6c0d24cd8eaa2c4bbeba0a87\130_18e24a579e9c641c6c0d24cd8eaa2c4bbeba0a87-LOC.arff;config;COMM;9;0.025062;RF-BR;RF;im;reg;diff
0;C:\fanas\2\LOC\ClaferConfigurator\dataFiles\im_reg_diff\130_18e24a579e9c641c6c0d24cd8eaa2c4bbeba0a87\130_18e24a579e9c641c6c0d24cd8eaa2c4bbeba0a87-LOC.arff;config;NFF;3;0.163893;RF-BR;RF;im;reg;diff
0;C:\fanas\2\LOC\ClaferConfigurator\dataFiles\im_reg_diff\130_18e24a579e9c641c6c0d24cd8eaa2c4bbeba0a87\130_18e24a579e9c641c6c0d24cd8eaa2c4bbeba0a87-LOC.arff;config;DCONT;5;0.091913;RF-BR;RF;im;reg;diff
0;C:\fanas\2\LOC\ClaferConfigurator\dataFiles\im_reg_diff\130_18e24a579e9c641c6c0d24cd8eaa2c4bbeba0a87\130_18e24a579e9c641c6c0d24cd8eaa2c4bbeba0a87-LOC.arff;config;COMM;9;0.038944;RF-LP;RF;im;reg;diff
0;C:\fanas\2\LOC\ClaferConfigurator\dataFiles\im_reg_diff\130_18e24a579e9c641c6c0d24cd8eaa2c4bbeba0a87\130_18e24a579e9c641c6c0d24cd8eaa2c4bbeba0a87-LOC.arff;config;NFMA;4;0.125990;RF-BR;RF;im;reg;diff
0;C:\fanas\2\LOC\ClaferConfigurator\dataFiles\im_reg_diff\130_18e24a579e9c641c6c0d24cd8eaa2c4bbeba0a87\130_18e24a579e9c641c6c0d24cd8eaa2c4bbeba0a87-LOC.arff;config;NLOC;11;0.000000;RF-LP;RF;im;reg;diff
0;C:\fanas\2\LOC\ClaferConfigurator\dataFiles\im_reg_diff\130_18e24a579e9c641c6c0d24cd8eaa2c4bbeba0a87\130_18e24a579e9c641c6c0d24cd8eaa2c4bbeba0a87-LOC.arff;config;ACCC;2;0.191214;RF-BR;RF;im;reg;diff
0;C:\fanas\2\LOC\ClaferConfigurator\dataFiles\im_reg_diff\130_18e24a579e9c641c6c0d24cd8eaa2c4bbeba0a87\130_18e24a579e9c641c6c0d24cd8eaa2c4bbeba0a87-LOC.arff;config;CSDEV;10;0.000000;RF-LP;RF;im;reg;diff
0;C:\fanas\2\LOC\ClaferConfigurator\dataFiles\im_reg_diff\130_18e24a579e9c641c6c0d24cd8eaa2c4bbeba0a87\130_18e24a579e9c641c6c0d24cd8eaa2c4bbeba0a87-LOC.arff;config;CCC;1;0.222714;RF-BR;RF;im;reg;diff
0;C:\fanas\2\LOC\ClaferConfigurator\dataFiles\im_reg_diff\130_18e24a579e9c641c6c0d24cd8eaa2c4bbeba0a87\130_18e24a579e9c641c6c0d24cd8eaa2c4bbeba0a87-LOC.arff;config;NFF;3;0.296149;RF-LP;RF;im;reg;diff
0;C:\fanas\2\LOC\ClaferConfigurator\dataFiles\im_reg_diff\130_18e24a579e9c641c6c0d24cd8eaa2c4bbeba0a87\130_18e24a579e9c641c6c0d24cd8eaa2c4bbeba0a87-LOC.arff;config;ACCC;2;0.363879;RF-LP;RF;im;reg;diff
0;C:\fanas\2\LOC\ClaferConfigurator\dataFiles\im_reg_diff\130_18e24a579e9c641c6c0d24cd8eaa2c4bbeba0a87\130_18e24a579e9c641c6c0d24cd8eaa2c4bbeba0a87-LOC.arff;config;DCONT;5;0.119736;RF-LP;RF;im;reg;diff
0;C:\fanas\2\LOC\ClaferConfigurator\dataFiles\im_reg_diff\130_18e24a579e9c641c6c0d24cd8eaa2c4bbeba0a87\130_18e24a579e9c641c6c0d24cd8eaa2c4bbeba0a87-LOC.arff;config;CCC;1;0.415392;RF-LP;RF;im;reg;diff
0;C:\fanas\2\LOC\ClaferConfigurator\dataFiles\im_reg_diff\130_18e24a579e9c641c6c0d24cd8eaa2c4bbeba0a87\130_18e24a579e9c641c6c0d24cd8eaa2c4bbeba0a87-LOC.arff;config;NFMA;4;0.237244;RF-LP;RF;im;reg;diff
0;C:\fanas\2\LOC\ClaferConfigurator\dataFiles\im_reg_diff\130_18e24a579e9c641c6c0d24cd8eaa2c4bbeba0a87\130_18e24a579e9c641c6c0d24cd8eaa2c4bbeba0a87-LOC.arff;config;DNFMA;6;0.108486;RF-LP;RF;im;reg;diff
0;C:\fanas\2\LOC\ClaferConfigurator\dataFiles\im_reg_diff\130_18e24a579e9c641c6c0d24cd8eaa2c4bbeba0a87\130_18e24a579e9c641c6c0d24cd8eaa2c4bbeba0a87-LOC.arff;config;DDEV;8;0.103848;RF-LP;RF;im;reg;diff
0;C:\fanas\2\LOC\ClaferConfigurator\dataFiles\im_reg_diff\130_18e24a579e9c641c6c0d24cd8eaa2c4bbeba0a87\130_18e24a579e9c641c6c0d24cd8eaa2c4bbeba0a87-LOC.arff;config;HDCONT;7;0.105646;RF-LP;RF;im;reg;diff
0;C:\fanas\2\LOC\ClaferConfigurator\dataFiles\im_reg_diff\150_dfbb4c929ae83066bc0e7011f6e8c41cd0210cc8\150_dfbb4c929ae83066bc0e7011f6e8c41cd0210cc8-LOC.arff;config;NFF;3;0.296149;RF-LP;RF;im;reg;diff
0;C:\fanas\2\LOC\ClaferConfigurator\dataFiles\im_reg_diff\150_dfbb4c929ae83066bc0e7011f6e8c41cd0210cc8\150_dfbb4c929ae83066bc0e7011f6e8c41cd0210cc8-LOC.arff;config;COMM;9;0.038944;RF-LP;RF;im;reg;diff
0;C:\fanas\2\LOC\ClaferConfigurator\dataFiles\im_reg_diff\150_dfbb4c929ae83066bc0e7011f6e8c41cd0210cc8\150_dfbb4c929ae83066bc0e7011f6e8c41cd0210cc8-LOC.arff;config;DCONT;5;0.119736;RF-LP;RF;im;reg;diff
0;C:\fanas\2\LOC\ClaferConfigurator\dataFiles\im_reg_diff\150_dfbb4c929ae83066bc0e7011f6e8c41cd0210cc8\150_dfbb4c929ae83066bc0e7011f6e8c41cd0210cc8-LOC.arff;config;NLOC;11;0.000000;RF-LP;RF;im;reg;diff
0;C:\fanas\2\LOC\ClaferConfigurator\dataFiles\im_reg_diff\150_dfbb4c929ae83066bc0e7011f6e8c41cd0210cc8\150_dfbb4c929ae83066bc0e7011f6e8c41cd0210cc8-LOC.arff;config;NFMA;4;0.237244;RF-LP;RF;im;reg;diff
0;C:\fanas\2\LOC\ClaferConfigurator\dataFiles\im_reg_diff\150_dfbb4c929ae83066bc0e7011f6e8c41cd0210cc8\150_dfbb4c929ae83066bc0e7011f6e8c41cd0210cc8-LOC.arff;config;CSDEV;10;0.000000;RF-LP;RF;im;reg;diff
0;C:\fanas\2\LOC\ClaferConfigurator\dataFiles\im_reg_diff\150_dfbb4c929ae83066bc0e7011f6e8c41cd0210cc8\150_dfbb4c929ae83066bc0e7011f6e8c41cd0210cc8-LOC.arff;config;DDEV;7;0.075910;RF-BR;RF;im;reg;diff
0;C:\fanas\2\LOC\ClaferConfigurator\dataFiles\im_reg_diff\150_dfbb4c929ae83066bc0e7011f6e8c41cd0210cc8\150_dfbb4c929ae83066bc0e7011f6e8c41cd0210cc8-LOC.arff;config;HDCONT;7;0.105646;RF-LP;RF;im;reg;diff
0;C:\fanas\2\LOC\ClaferConfigurator\dataFiles\im_reg_diff\150_dfbb4c929ae83066bc0e7011f6e8c41cd0210cc8\150_dfbb4c929ae83066bc0e7011f6e8c41cd0210cc8-LOC.arff;config;DNFMA;8;0.072719;RF-BR;RF;im;reg;diff
0;C:\fanas\2\LOC\ClaferConfigurator\dataFiles\im_reg_diff\150_dfbb4c929ae83066bc0e7011f6e8c41cd0210cc8\150_dfbb4c929ae83066bc0e7011f6e8c41cd0210cc8-LOC.arff;config;DDEV;8;0.103848;RF-LP;RF;im;reg;diff
0;C:\fanas\2\LOC\ClaferConfigurator\dataFiles\im_reg_diff\150_dfbb4c929ae83066bc0e7011f6e8c41cd0210cc8\150_dfbb4c929ae83066bc0e7011f6e8c41cd0210cc8-LOC.arff;config;HDCONT;6;0.081696;RF-BR;RF;im;reg;diff
0;C:\fanas\2\LOC\ClaferConfigurator\dataFiles\im_reg_diff\150_dfbb4c929ae83066bc0e7011f6e8c41cd0210cc8\150_dfbb4c929ae83066bc0e7011f6e8c41cd0210cc8-LOC.arff;config;DNFMA;6;0.108486;RF-LP;RF;im;reg;diff
0;C:\fanas\2\LOC\ClaferConfigurator\dataFiles\im_reg_diff\150_dfbb4c929ae83066bc0e7011f6e8c41cd0210cc8\150_dfbb4c929ae83066bc0e7011f6e8c41cd0210cc8-LOC.arff;config;CSDEV;10;0.000000;RF-BR;RF;im;reg;diff
0;C:\fanas\2\LOC\ClaferConfigurator\dataFiles\im_reg_diff\150_dfbb4c929ae83066bc0e7011f6e8c41cd0210cc8\150_dfbb4c929ae83066bc0e7011f6e8c41cd0210cc8-LOC.arff;config;NFF;3;0.163893;RF-BR;RF;im;reg;diff
0;C:\fanas\2\LOC\ClaferConfigurator\dataFiles\im_reg_diff\150_dfbb4c929ae83066bc0e7011f6e8c41cd0210cc8\150_dfbb4c929ae83066bc0e7011f6e8c41cd0210cc8-LOC.arff;config;NLOC;11;0.000000;RF-BR;RF;im;reg;diff
0;C:\fanas\2\LOC\ClaferConfigurator\dataFiles\im_reg_diff\150_dfbb4c929ae83066bc0e7011f6e8c41cd0210cc8\150_dfbb4c929ae83066bc0e7011f6e8c41cd0210cc8-LOC.arff;config;DCONT;5;0.091913;RF-BR;RF;im;reg;diff
0;C:\fanas\2\LOC\ClaferConfigurator\dataFiles\im_reg_diff\150_dfbb4c929ae83066bc0e7011f6e8c41cd0210cc8\150_dfbb4c929ae83066bc0e7011f6e8c41cd0210cc8-LOC.arff;config;COMM;9;0.025062;RF-BR;RF;im;reg;diff
0;C:\fanas\2\LOC\ClaferConfigurator\dataFiles\im_reg_diff\150_dfbb4c929ae83066bc0e7011f6e8c41cd0210cc8\150_dfbb4c929ae83066bc0e7011f6e8c41cd0210cc8-LOC.arff;config;NFMA;4;0.125990;RF-BR;RF;im;reg;diff
0;C:\fanas\2\LOC\ClaferConfigurator\dataFiles\im_reg_diff\150_dfbb4c929ae83066bc0e7011f6e8c41cd0210cc8\150_dfbb4c929ae83066bc0e7011f6e8c41cd0210cc8-LOC.arff;config;CCC;1;0.415392;RF-LP;RF;im;reg;diff
0;C:\fanas\2\LOC\ClaferConfigurator\dataFiles\im_reg_diff\150_dfbb4c929ae83066bc0e7011f6e8c41cd0210cc8\150_dfbb4c929ae83066bc0e7011f6e8c41cd0210cc8-LOC.arff;config;ACCC;2;0.191214;RF-BR;RF;im;reg;diff
0;C:\fanas\2\LOC\ClaferConfigurator\dataFiles\im_reg_diff\150_dfbb4c929ae83066bc0e7011f6e8c41cd0210cc8\150_dfbb4c929ae83066bc0e7011f6e8c41cd0210cc8-LOC.arff;config;CCC;1;0.222714;RF-BR;RF;im;reg;diff
0;C:\fanas\2\LOC\ClaferConfigurator\dataFiles\im_reg_diff\150_dfbb4c929ae83066bc0e7011f6e8c41cd0210cc8\150_dfbb4c929ae83066bc0e7011f6e8c41cd0210cc8-LOC.arff;config;ACCC;2;0.363879;RF-LP;RF;im;reg;diff
0;C:\fanas\2\LOC\ClaferConfigurator\dataFiles\im_reg_diff\170_6dcc57ff34dbba4f41ece598b62e7dbebdfbad09\170_6dcc57ff34dbba4f41ece598b62e7dbebdfbad09-LOC.arff;config;COMM;9;0.038944;RF-LP;RF;im;reg;diff
0;C:\fanas\2\LOC\ClaferConfigurator\dataFiles\im_reg_diff\170_6dcc57ff34dbba4f41ece598b62e7dbebdfbad09\170_6dcc57ff34dbba4f41ece598b62e7dbebdfbad09-LOC.arff;config;NLOC;11;0.000000;RF-LP;RF;im;reg;diff
0;C:\fanas\2\LOC\ClaferConfigurator\dataFiles\im_reg_diff\170_6dcc57ff34dbba4f41ece598b62e7dbebdfbad09\170_6dcc57ff34dbba4f41ece598b62e7dbebdfbad09-LOC.arff;config;CSDEV;10;0.000000;RF-LP;RF;im;reg;diff
0;C:\fanas\2\LOC\ClaferConfigurator\dataFiles\im_reg_diff\170_6dcc57ff34dbba4f41ece598b62e7dbebdfbad09\170_6dcc57ff34dbba4f41ece598b62e7dbebdfbad09-LOC.arff;config;HDCONT;7;0.105646;RF-LP;RF;im;reg;diff
0;C:\fanas\2\LOC\ClaferConfigurator\dataFiles\im_reg_diff\170_6dcc57ff34dbba4f41ece598b62e7dbebdfbad09\170_6dcc57ff34dbba4f41ece598b62e7dbebdfbad09-LOC.arff;config;DDEV;8;0.103848;RF-LP;RF;im;reg;diff
0;C:\fanas\2\LOC\ClaferConfigurator\dataFiles\im_reg_diff\170_6dcc57ff34dbba4f41ece598b62e7dbebdfbad09\170_6dcc57ff34dbba4f41ece598b62e7dbebdfbad09-LOC.arff;config;DNFMA;6;0.108486;RF-LP;RF;im;reg;diff
0;C:\fanas\2\LOC\ClaferConfigurator\dataFiles\im_reg_diff\170_6dcc57ff34dbba4f41ece598b62e7dbebdfbad09\170_6dcc57ff34dbba4f41ece598b62e7dbebdfbad09-LOC.arff;config;NFF;3;0.163893;RF-BR;RF;im;reg;diff
0;C:\fanas\2\LOC\ClaferConfigurator\dataFiles\im_reg_diff\170_6dcc57ff34dbba4f41ece598b62e7dbebdfbad09\170_6dcc57ff34dbba4f41ece598b62e7dbebdfbad09-LOC.arff;config;DCONT;5;0.091913;RF-BR;RF;im;reg;diff
0;C:\fanas\2\LOC\ClaferConfigurator\dataFiles\im_reg_diff\170_6dcc57ff34dbba4f41ece598b62e7dbebdfbad09\170_6dcc57ff34dbba4f41ece598b62e7dbebdfbad09-LOC.arff;config;NFMA;4;0.125990;RF-BR;RF;im;reg;diff
0;C:\fanas\2\LOC\ClaferConfigurator\dataFiles\im_reg_diff\170_6dcc57ff34dbba4f41ece598b62e7dbebdfbad09\170_6dcc57ff34dbba4f41ece598b62e7dbebdfbad09-LOC.arff;config;DDEV;7;0.075910;RF-BR;RF;im;reg;diff
0;C:\fanas\2\LOC\ClaferConfigurator\dataFiles\im_reg_diff\170_6dcc57ff34dbba4f41ece598b62e7dbebdfbad09\170_6dcc57ff34dbba4f41ece598b62e7dbebdfbad09-LOC.arff;config;ACCC;2;0.191214;RF-BR;RF;im;reg;diff
0;C:\fanas\2\LOC\ClaferConfigurator\dataFiles\im_reg_diff\170_6dcc57ff34dbba4f41ece598b62e7dbebdfbad09\170_6dcc57ff34dbba4f41ece598b62e7dbebdfbad09-LOC.arff;config;DNFMA;8;0.072719;RF-BR;RF;im;reg;diff
0;C:\fanas\2\LOC\ClaferConfigurator\dataFiles\im_reg_diff\170_6dcc57ff34dbba4f41ece598b62e7dbebdfbad09\170_6dcc57ff34dbba4f41ece598b62e7dbebdfbad09-LOC.arff;config;CCC;1;0.222714;RF-BR;RF;im;reg;diff
0;C:\fanas\2\LOC\ClaferConfigurator\dataFiles\im_reg_diff\170_6dcc57ff34dbba4f41ece598b62e7dbebdfbad09\170_6dcc57ff34dbba4f41ece598b62e7dbebdfbad09-LOC.arff;config;HDCONT;6;0.081696;RF-BR;RF;im;reg;diff
0;C:\fanas\2\LOC\ClaferConfigurator\dataFiles\im_reg_diff\170_6dcc57ff34dbba4f41ece598b62e7dbebdfbad09\170_6dcc57ff34dbba4f41ece598b62e7dbebdfbad09-LOC.arff;config;COMM;9;0.025062;RF-BR;RF;im;reg;diff
0;C:\fanas\2\LOC\ClaferConfigurator\dataFiles\im_reg_diff\170_6dcc57ff34dbba4f41ece598b62e7dbebdfbad09\170_6dcc57ff34dbba4f41ece598b62e7dbebdfbad09-LOC.arff;config;ACCC;2;0.363879;RF-LP;RF;im;reg;diff
0;C:\fanas\2\LOC\ClaferConfigurator\dataFiles\im_reg_diff\170_6dcc57ff34dbba4f41ece598b62e7dbebdfbad09\170_6dcc57ff34dbba4f41ece598b62e7dbebdfbad09-LOC.arff;config;NLOC;11;0.000000;RF-BR;RF;im;reg;diff
0;C:\fanas\2\LOC\ClaferConfigurator\dataFiles\im_reg_diff\170_6dcc57ff34dbba4f41ece598b62e7dbebdfbad09\170_6dcc57ff34dbba4f41ece598b62e7dbebdfbad09-LOC.arff;config;CCC;1;0.415392;RF-LP;RF;im;reg;diff
0;C:\fanas\2\LOC\ClaferConfigurator\dataFiles\im_reg_diff\170_6dcc57ff34dbba4f41ece598b62e7dbebdfbad09\170_6dcc57ff34dbba4f41ece598b62e7dbebdfbad09-LOC.arff;config;DCONT;5;0.119736;RF-LP;RF;im;reg;diff
0;C:\fanas\2\LOC\ClaferConfigurator\dataFiles\im_reg_diff\170_6dcc57ff34dbba4f41ece598b62e7dbebdfbad09\170_6dcc57ff34dbba4f41ece598b62e7dbebdfbad09-LOC.arff;config;NFMA;4;0.237244;RF-LP;RF;im;reg;diff
0;C:\fanas\2\LOC\ClaferConfigurator\dataFiles\im_reg_diff\170_6dcc57ff34dbba4f41ece598b62e7dbebdfbad09\170_6dcc57ff34dbba4f41ece598b62e7dbebdfbad09-LOC.arff;config;NFF;3;0.296149;RF-LP;RF;im;reg;diff
0;C:\fanas\2\LOC\ClaferConfigurator\dataFiles\im_reg_diff\170_6dcc57ff34dbba4f41ece598b62e7dbebdfbad09\170_6dcc57ff34dbba4f41ece598b62e7dbebdfbad09-LOC.arff;config;CSDEV;10;0.000000;RF-BR;RF;im;reg;diff
