index;attribute;project;is_balanced;is_normalized;fragmentThreshold;RF_BR_rank;RF_BR_weight;RF_LP_rank;RF_LP_weight;RF_rank;RF_weight;overall_rank;overall_weight
0;CSDEV;ide;im;reg;diff;10.857143;0.000000;11.000000;0.000000;10.928571;0.000000;10.928571;0.000000
1;COMM;ide;im;reg;diff;6.642857;0.069135;4.500000;0.092486;5.571429;0.080811;5.571429;0.080811
2;DDEV;ide;im;reg;diff;2.714286;0.138050;5.428571;0.080160;4.071429;0.109105;4.071429;0.109105
3;DCONT;ide;im;reg;diff;3.642857;0.126424;7.142857;0.058585;5.392857;0.092505;5.392857;0.092505
4;HDCONT;ide;im;reg;diff;5.785714;0.086181;8.785714;0.047788;7.285714;0.066984;7.285714;0.066984
5;CCC;ide;im;reg;diff;2.571429;0.154498;2.785714;0.153310;2.678571;0.153904;2.678571;0.153904
6;ACCC;ide;im;reg;diff;7.571429;0.055992;6.142857;0.085568;6.857143;0.070780;6.857143;0.070780
7;NLOC;ide;im;reg;diff;10.000000;0.023012;5.928571;0.085195;7.964286;0.054103;7.964286;0.054103
8;DNFMA;ide;im;reg;diff;8.357143;0.055671;8.357143;0.062764;8.357143;0.059217;8.357143;0.059217
9;NFMA;ide;im;reg;diff;3.357143;0.132646;4.000000;0.135854;3.678571;0.134250;3.678571;0.134250
10;NFF;ide;im;reg;diff;4.500000;0.105289;1.928571;0.162837;3.214286;0.134063;3.214286;0.134063
