index;attribute;project;is_balanced;is_normalized;fragmentThreshold;RF_BR_rank;RF_BR_weight;RF_LP_rank;RF_LP_weight;RF_rank;RF_weight;overall_rank;overall_weight
0;CSDEV;ide;im;reg;diff;10.785714;0.000000;10.714286;0.000000;10.750000;0.000000;10.750000;0.000000
1;COMM;ide;im;reg;diff;8.285714;0.049105;7.857143;0.093364;8.071429;0.071234;8.071429;0.071234
2;DDEV;ide;im;reg;diff;6.642857;0.065243;5.857143;0.136724;6.250000;0.100983;6.250000;0.100983
3;DCONT;ide;im;reg;diff;4.571429;0.076838;3.785714;0.158227;4.178571;0.117533;4.178571;0.117533
4;HDCONT;ide;im;reg;diff;5.642857;0.070624;6.642857;0.128374;6.142857;0.099499;6.142857;0.099499
5;CCC;ide;im;reg;diff;2.571429;0.153118;2.214286;0.271274;2.392857;0.212196;2.392857;0.212196
6;ACCC;ide;im;reg;diff;5.000000;0.096510;4.642857;0.154158;4.821429;0.125334;4.821429;0.125334
7;NLOC;ide;im;reg;diff;10.071429;0.000000;10.142857;0.000000;10.107143;0.000000;10.107143;0.000000
8;DNFMA;ide;im;reg;diff;7.214286;0.059779;8.214286;0.092823;7.714286;0.076301;7.714286;0.076301
9;NFMA;ide;im;reg;diff;3.500000;0.121099;4.142857;0.186063;3.821429;0.153581;3.821429;0.153581
10;NFF;ide;im;reg;diff;1.714286;0.176921;1.785714;0.291670;1.750000;0.234296;1.750000;0.234296
