index;attribute;project;is_balanced;is_normalized;fragmentThreshold;RF_BR_rank;RF_BR_weight;RF_LP_rank;RF_LP_weight;RF_rank;RF_weight;overall_rank;overall_weight
0;CSDEV;marlin;im;reg;diff;10.571429;0.000000;10.571429;0.000000;10.571429;0.000000;10.571429;0.000000
1;COMM;marlin;im;reg;diff;8.857143;0.125964;7.285714;0.127081;8.071429;0.126522;8.071429;0.126522
2;DDEV;marlin;im;reg;diff;2.142857;0.402397;3.428571;0.214227;2.785714;0.308312;2.785714;0.308312
3;DCONT;marlin;im;reg;diff;2.428571;0.418593;3.714286;0.220098;3.071429;0.319345;3.071429;0.319345
4;HDCONT;marlin;im;reg;diff;4.142857;0.355674;5.285714;0.194511;4.714286;0.275092;4.714286;0.275092
5;CCC;marlin;im;reg;diff;6.571429;0.265819;6.571429;0.157944;6.571429;0.211882;6.571429;0.211882
6;ACCC;marlin;im;reg;diff;7.571429;0.178772;8.428571;0.122796;8.000000;0.150784;8.000000;0.150784
7;NLOC;marlin;im;reg;diff;7.857143;0.164683;8.428571;0.219055;8.142857;0.191869;8.142857;0.191869
8;DNFMA;marlin;im;reg;diff;6.142857;0.297871;4.714286;0.212662;5.428571;0.255266;5.428571;0.255266
9;NFMA;marlin;im;reg;diff;4.285714;0.369765;4.428571;0.218741;4.357143;0.294253;4.357143;0.294253
10;NFF;marlin;im;reg;diff;5.428571;0.328723;3.142857;0.279875;4.285714;0.304299;4.285714;0.304299
