index;attribute;project;is_balanced;is_normalized;fragmentThreshold;RF_BR_rank;RF_BR_weight;RF_LP_rank;RF_LP_weight;RF_rank;RF_weight;overall_rank;overall_weight
0;CSDEV;tools;im;reg;diff;1.000000;0.000000;10.000000;0.000000;5.500000;0.000000;5.500000;0.000000
1;COMM;tools;im;reg;diff;9.200000;-0.422403;2.400000;0.534390;5.800000;0.055993;5.800000;0.055993
2;DDEV;tools;im;reg;diff;2.000000;0.000000;9.600000;0.000000;5.800000;0.000000;5.800000;0.000000
3;DCONT;tools;im;reg;diff;3.000000;0.000000;10.400000;0.000000;6.700000;0.000000;6.700000;0.000000
4;HDCONT;tools;im;reg;diff;9.000000;-0.442364;1.800000;0.561073;5.400000;0.059355;5.400000;0.059355
5;CCC;tools;im;reg;diff;8.200000;-0.419301;3.000000;0.530649;5.600000;0.055674;5.600000;0.055674
6;ACCC;tools;im;reg;diff;7.400000;-0.386608;5.000000;0.488335;6.200000;0.050863;6.200000;0.050863
7;NLOC;tools;im;reg;diff;6.200000;-0.374860;6.000000;0.472734;6.100000;0.048937;6.100000;0.048937
8;DNFMA;tools;im;reg;diff;5.000000;-0.370125;7.000000;0.464788;6.000000;0.047332;6.000000;0.047332
9;NFMA;tools;im;reg;diff;8.200000;-0.409006;4.200000;0.516151;6.200000;0.053572;6.200000;0.053572
10;NFF;tools;im;reg;diff;6.800000;-0.380227;6.600000;0.479116;6.700000;0.049444;6.700000;0.049444
