index;attribute;project;is_balanced;is_normalized;fragmentThreshold;RF_BR_rank;RF_BR_weight;RF_LP_rank;RF_LP_weight;RF_rank;RF_weight;overall_rank;overall_weight
0;CSDEV;viz;im;reg;diff;1.000000;0.000000;10.777778;0.000000;5.888889;0.000000;5.888889;0.000000
1;COMM;viz;im;reg;diff;6.962963;-0.183997;4.555556;0.248421;5.759259;0.032212;5.759259;0.032212
2;DDEV;viz;im;reg;diff;7.074074;-0.182611;6.888889;0.206520;6.981481;0.011955;6.981481;0.011955
3;DCONT;viz;im;reg;diff;4.740741;-0.163295;7.962963;0.177802;6.351852;0.007254;6.351852;0.007254
4;HDCONT;viz;im;reg;diff;6.481481;-0.173903;7.518519;0.178525;7.000000;0.002311;7.000000;0.002311
5;CCC;viz;im;reg;diff;7.000000;-0.195331;3.555556;0.321493;5.277778;0.063081;5.277778;0.063081
6;ACCC;viz;im;reg;diff;6.481481;-0.196972;5.370370;0.269487;5.925926;0.036258;5.925926;0.036258
7;NLOC;viz;im;reg;diff;8.111111;-0.205529;2.518519;0.334727;5.314815;0.064599;5.314815;0.064599
8;DNFMA;viz;im;reg;diff;4.703704;-0.151870;7.407407;0.188207;6.055556;0.018169;6.055556;0.018169
9;NFMA;viz;im;reg;diff;7.407407;-0.188181;3.925926;0.293578;5.666667;0.052698;5.666667;0.052698
10;NFF;viz;im;reg;diff;6.037037;-0.178061;5.518519;0.251702;5.777778;0.036821;5.777778;0.036821
