commit;DataSet;Classifier;TotalInstances;InstancesWithRankedLabels;PercentageOfInstancesWithRankedLabels;InstancesWithPrecisionNull;PercentageOfInstancesWithPrecisionNull;InstancesWithPrecisionZero;PercentageOfInstancesWithPrecisionZero;InstancesWithPrecisionNonZero;PercentageOfInstancesWithPrecisionNonZero;InstancesWithPrecisionOne;PercentageOfInstancesWithPrecisionOne;InstancesWithRecallZero;PercentageOfInstancesWithRecallZero;InstancesWithRecallOne;PercentageOfInstancesWithRecallOne;AveragePrecisionForAllNonNullPrecision;AveragePrecisionForNonZeroPrecision;AverageRecallForAllNonNullPrecision;AverageRecallForAllNonZeroPrecision;AverageFScoreForAllNonNullPrecision;AverageFScoreForAllNonZeroPrecision;Level;project;clusters;feature;measure;measurevalue
6;6_0024a26ccf47264343b65e8429fdd756a3250f64-LOC.arff;RAkELd;34.0;34.0;1.0;0.0;0.0;0.0;0.0;34.0;1.0;34.0;1.0;0.0;0.0;25.0;0.7352941176470589;1.0;1.0;0.8676470588235294;0.8676470588235294;0.9117647058823529;0.9117647058823529;loc;marlin;diff;4f;precision;1.0
7;7_b5f6482dcec6e78744167b177b61a41b2f0eb4bc-LOC.arff;RAkELd;40.0;40.0;1.0;0.0;0.0;0.0;0.0;40.0;1.0;40.0;1.0;0.0;0.0;31.0;0.775;1.0;1.0;0.8875;0.8875;0.925;0.925;loc;marlin;diff;4f;precision;1.0
12;12_0b1423c303c6d7eef7d9f8f04666dd1a1a529bb7-LOC.arff;RAkELd;133.0;133.0;1.0;0.0;0.0;11.0;0.08270676691729323;122.0;0.9172932330827067;122.0;0.9172932330827067;11.0;0.08270676691729323;85.0;0.6390977443609023;0.9172932330827067;1.0;0.7781954887218046;0.8483606557377049;0.8245614035087719;0.8989071038251366;loc;marlin;diff;4f;precision;0.9172932330827067
13;13_094afe7c1065d5663628b389f27687a5f465abb8-LOC.arff;RAkELd;530.0;530.0;1.0;0.0;0.0;397.0;0.7490566037735849;133.0;0.2509433962264151;133.0;0.2509433962264151;397.0;0.7490566037735849;86.0;0.16226415094339622;0.2509433962264151;1.0;0.2050314465408805;0.8170426065162908;0.219811320754717;0.8759398496240601;loc;marlin;diff;4f;precision;0.2509433962264151
14;14_bf879ceaa9685648adba645cadc6ce5aaa5fac85-LOC.arff;RAkELd;135.0;135.0;1.0;0.0;0.0;0.0;0.0;135.0;1.0;135.0;1.0;0.0;0.0;86.0;0.6370370370370371;1.0;1.0;0.808641975308642;0.808641975308642;0.8688888888888888;0.8688888888888888;loc;marlin;diff;4f;precision;1.0
16;16_d7c4f0780b41507ae6a40cc46efb59c526e58437-LOC.arff;RAkELd;140.0;140.0;1.0;0.0;0.0;0.0;0.0;140.0;1.0;140.0;1.0;0.0;0.0;89.0;0.6357142857142857;1.0;1.0;0.8083333333333333;0.8083333333333333;0.8688095238095238;0.8688095238095238;loc;marlin;diff;4f;precision;1.0
17;17_d15f01e1b45119838900da53128c619ebe93895d-LOC.arff;RAkELd;221.0;221.0;1.0;221.0;1.0;0.0;0.0;0.0;0.0;0.0;0.0;221.0;1.0;0.0;0.0;0.0;0.0;0.0;0.0;0.0;0.0;loc;marlin;diff;4f;precision;0.0
18;18_00674af3a82e6b6b517a12ae3e77803df4f4892d-LOC.arff;RAkELd;3242.0;3242.0;1.0;1941.0;0.5987045033929673;962.0;0.29673041332510797;339.0;0.10456508328192474;339.0;0.10456508328192474;2903.0;0.8954349167180753;339.0;0.10456508328192474;0.2605687932359723;1.0;0.2605687932359723;1.0;0.2605687932359723;1.0;loc;marlin;diff;4f;precision;0.2605687932359723
19;19_40e80816235739064fcc7fd74228c9c225387caf-LOC.arff;RAkELd;7.0;7.0;1.0;0.0;0.0;7.0;1.0;0.0;0.0;0.0;0.0;7.0;1.0;0.0;0.0;0.0;0.0;0.0;0.0;0.0;0.0;loc;marlin;diff;4f;precision;0.0
20;20_8bcdb9f5f062fe68d90e31752453e1d662b3f0e2-LOC.arff;RAkELd;7.0;7.0;1.0;0.0;0.0;2.0;0.2857142857142857;5.0;0.7142857142857143;5.0;0.7142857142857143;2.0;0.2857142857142857;2.0;0.2857142857142857;0.7142857142857143;1.0;0.5;0.7;0.5714285714285714;0.8;loc;marlin;diff;4f;precision;0.7142857142857143
22;22_ea86a5e10f7b8c0b2e0e0bf97a1fc95dbac4ae89-LOC.arff;RAkELd;215.0;215.0;1.0;0.0;0.0;6.0;0.027906976744186046;209.0;0.9720930232558139;209.0;0.9720930232558139;6.0;0.027906976744186046;122.0;0.5674418604651162;0.9720930232558139;1.0;0.7446511627906977;0.7660287081339713;0.8110077519379846;0.8342902711323764;loc;marlin;diff;4f;precision;0.9720930232558139
23;23_04d3b5537f7c23adf7ea362a8492d21114aa6a2e-LOC.arff;RAkELd;230.0;230.0;1.0;0.0;0.0;18.0;0.0782608695652174;212.0;0.9217391304347826;212.0;0.9217391304347826;18.0;0.0782608695652174;124.0;0.5391304347826087;0.9217391304347826;1.0;0.702463768115942;0.7621069182389937;0.7648654244306418;0.829806828391734;loc;marlin;diff;4f;precision;0.9217391304347826
24;24_2e8e8878e55f1455155e43590afbaa1ed21e8e3f-LOC.arff;RAkELd;230.0;230.0;1.0;0.0;0.0;18.0;0.0782608695652174;212.0;0.9217391304347826;212.0;0.9217391304347826;18.0;0.0782608695652174;120.0;0.5217391304347826;0.9217391304347826;1.0;0.6915942028985507;0.750314465408805;0.7568944099378883;0.8211590296495958;loc;marlin;diff;4f;precision;0.9217391304347826
25;25_0b82465168e53a16d573610bb30495d70bd050b8-LOC.arff;RAkELd;203.0;203.0;1.0;0.0;0.0;0.0;0.0;203.0;1.0;203.0;1.0;0.0;0.0;115.0;0.5665024630541872;1.0;1.0;0.7499178981937602;0.7499178981937602;0.8206192821956368;0.8206192821956368;loc;marlin;diff;4f;precision;1.0
27;27_e8092898b1c4db328a2f5d247fe06603f586f924-LOC.arff;RAkELd;23.0;23.0;1.0;7.0;0.30434782608695654;16.0;0.6956521739130435;0.0;0.0;0.0;0.0;23.0;1.0;0.0;0.0;0.0;0.0;0.0;0.0;0.0;0.0;loc;marlin;diff;4f;precision;0.0
29;29_1740a83e11c678c8621e6497350db13cd3d2426e-LOC.arff;RAkELd;3.0;3.0;1.0;0.0;0.0;3.0;1.0;0.0;0.0;0.0;0.0;3.0;1.0;0.0;0.0;0.0;0.0;0.0;0.0;0.0;0.0;loc;marlin;diff;4f;precision;0.0
30;30_900e0c9bf23f7df6a2057af4b2c1f166e55e9163-LOC.arff;RAkELd;288.0;288.0;1.0;236.0;0.8194444444444444;52.0;0.18055555555555555;0.0;0.0;0.0;0.0;288.0;1.0;0.0;0.0;0.0;0.0;0.0;0.0;0.0;0.0;loc;marlin;diff;4f;precision;0.0
31;31_1d171e9e52012c8129dfec2b7f2640e696678f2e-LOC.arff;RAkELd;33.0;33.0;1.0;0.0;0.0;33.0;1.0;0.0;0.0;0.0;0.0;33.0;1.0;0.0;0.0;0.0;0.0;0.0;0.0;0.0;0.0;loc;marlin;diff;4f;precision;0.0
32;32_79d1bfb5c02793c88f554002e04b5263d81703b7-LOC.arff;RAkELd;212.0;212.0;1.0;0.0;0.0;0.0;0.0;212.0;1.0;212.0;1.0;0.0;0.0;78.0;0.36792452830188677;1.0;1.0;0.6357704402515724;0.6357704402515724;0.7389263252470799;0.7389263252470799;loc;marlin;diff;4f;precision;1.0
33;33_87aaf0f70a22686d2107efa01cfa19bba542c386-LOC.arff;RAkELd;523.0;523.0;1.0;523.0;1.0;0.0;0.0;0.0;0.0;0.0;0.0;523.0;1.0;0.0;0.0;0.0;0.0;0.0;0.0;0.0;0.0;loc;marlin;diff;4f;precision;0.0
35;35_5cf349a24a610d7223c5bc88193c07c713818028-LOC.arff;RAkELd;212.0;212.0;1.0;212.0;1.0;0.0;0.0;0.0;0.0;0.0;0.0;212.0;1.0;0.0;0.0;0.0;0.0;0.0;0.0;0.0;0.0;loc;marlin;diff;4f;precision;0.0
38;38_fc0064e525288baec961db28c6c4d07f3206f145-LOC.arff;RAkELd;212.0;212.0;1.0;0.0;0.0;0.0;0.0;212.0;1.0;212.0;1.0;0.0;0.0;73.0;0.3443396226415094;1.0;1.0;0.6216194968553459;0.6216194968553459;0.7287061994609165;0.7287061994609165;loc;marlin;diff;4f;precision;1.0
39;39_d3bfffcb6eabe886eb8c1a11bcdc66a1f680a882-LOC.arff;RAkELd;212.0;212.0;1.0;0.0;0.0;0.0;0.0;212.0;1.0;212.0;1.0;0.0;0.0;73.0;0.3443396226415094;1.0;1.0;0.6216194968553459;0.6216194968553459;0.7287061994609165;0.7287061994609165;loc;marlin;diff;4f;precision;1.0
44;44_977fd2b2c736047814d4fa51ebad91ad454cc4c9-LOC.arff;RAkELd;83.0;83.0;1.0;0.0;0.0;8.0;0.0963855421686747;75.0;0.9036144578313253;0.0;0.0;8.0;0.0963855421686747;24.0;0.2891566265060241;0.45180722891566266;0.5;0.5451807228915663;0.6033333333333334;0.4686746987951807;0.5186666666666666;loc;marlin;diff;4f;precision;0.45180722891566266
45;45_72ace55e6ae964a5984a13e09492d1d92295f098-LOC.arff;RAkELd;70.0;70.0;1.0;58.0;0.8285714285714286;0.0;0.0;12.0;0.17142857142857143;12.0;0.17142857142857143;58.0;0.8285714285714286;10.0;0.14285714285714285;1.0;1.0;0.9166666666666666;0.9166666666666666;0.9444444444444443;0.9444444444444443;loc;marlin;diff;4f;precision;1.0
46;46_7b70caab7c4bdc45490d83730b62c5c2ea31e98e-LOC.arff;RAkELd;168.0;168.0;1.0;0.0;0.0;146.0;0.8690476190476191;22.0;0.13095238095238096;22.0;0.13095238095238096;146.0;0.8690476190476191;18.0;0.10714285714285714;0.13095238095238096;1.0;0.11904761904761904;0.9090909090909091;0.12301587301587302;0.9393939393939394;loc;marlin;diff;4f;precision;0.13095238095238096
47;47_ab154d55927776add58c878f7de94e82b07bee1c-LOC.arff;RAkELd;246.0;246.0;1.0;0.0;0.0;31.0;0.12601626016260162;215.0;0.8739837398373984;212.0;0.8617886178861789;31.0;0.12601626016260162;19.0;0.07723577235772358;0.8678861788617886;0.9930232558139535;0.3860433604336043;0.44170542635658916;0.5125822686798296;0.5864894795127353;loc;marlin;diff;4f;precision;0.8678861788617886
48;48_27361e7cd08d895cfa8930c9e114997fdfe995ec-LOC.arff;RAkELd;46.0;46.0;1.0;0.0;0.0;46.0;1.0;0.0;0.0;0.0;0.0;46.0;1.0;0.0;0.0;0.0;0.0;0.0;0.0;0.0;0.0;loc;marlin;diff;4f;precision;0.0
49;49_ba8a53a40fa0adaa947b536639bab998cc872feb-LOC.arff;RAkELd;347.0;347.0;1.0;250.0;0.7204610951008645;97.0;0.27953890489913547;0.0;0.0;0.0;0.0;347.0;1.0;0.0;0.0;0.0;0.0;0.0;0.0;0.0;0.0;loc;marlin;diff;4f;precision;0.0
51;51_e9adfa27b5c65f53c3f71e4348ccb51e7950c935-LOC.arff;RAkELd;63.0;63.0;1.0;0.0;0.0;63.0;1.0;0.0;0.0;0.0;0.0;63.0;1.0;0.0;0.0;0.0;0.0;0.0;0.0;0.0;0.0;loc;marlin;diff;4f;precision;0.0
52;52_ff592b056ad492632a810e6c77a7d063b6ce05e3-LOC.arff;RAkELd;49.0;49.0;1.0;49.0;1.0;0.0;0.0;0.0;0.0;0.0;0.0;49.0;1.0;0.0;0.0;0.0;0.0;0.0;0.0;0.0;0.0;loc;marlin;diff;4f;precision;0.0
53;53_9980ceb4a37ec1d2cae99b73ceae146ef7340e88-LOC.arff;RAkELd;249.0;249.0;1.0;233.0;0.9357429718875502;0.0;0.0;16.0;0.0642570281124498;16.0;0.0642570281124498;233.0;0.9357429718875502;6.0;0.024096385542168676;1.0;1.0;0.6875;0.6875;0.7916666666666666;0.7916666666666666;loc;marlin;diff;4f;precision;1.0
54;54_c57906b627bf7245578522ab50e9d35e9c6bc96b-LOC.arff;RAkELd;213.0;213.0;1.0;1.0;0.004694835680751174;120.0;0.5633802816901409;92.0;0.431924882629108;92.0;0.431924882629108;121.0;0.568075117370892;1.0;0.004694835680751174;0.4339622641509434;1.0;0.12853773584905662;0.296195652173913;0.19510332434860736;0.44958592132505176;loc;marlin;diff;4f;precision;0.4339622641509434
56;56_02b9eceead9903beb9e1cf7d48f05fc2de8a8e8a-LOC.arff;RAkELd;264.0;264.0;1.0;0.0;0.0;0.0;0.0;264.0;1.0;218.0;0.8257575757575758;0.0;0.0;91.0;0.3446969696969697;0.9128787878787878;0.9128787878787878;0.6801857864357864;0.6801857864357864;0.7564454064454065;0.7564454064454065;loc;marlin;diff;4f;precision;0.9128787878787878
57;57_a9c7da06e398101517acc5b7a07e8dcb544df294-LOC.arff;RAkELd;280.0;280.0;1.0;0.0;0.0;0.0;0.0;280.0;1.0;234.0;0.8357142857142857;0.0;0.0;87.0;0.3107142857142857;0.9178571428571428;0.9178571428571428;0.6541751700680272;0.6541751700680272;0.7416383219954649;0.7416383219954649;loc;marlin;diff;4f;precision;0.9178571428571428
58;58_65934eee9c6ae792c708bc1cea9996c8a5df67f5-LOC.arff;RAkELd;494.0;494.0;1.0;494.0;1.0;0.0;0.0;0.0;0.0;0.0;0.0;494.0;1.0;0.0;0.0;0.0;0.0;0.0;0.0;0.0;0.0;loc;marlin;diff;4f;precision;0.0
59;59_ac82411c73e43d6b4730c865c38301d355e0fa35-LOC.arff;RAkELd;287.0;287.0;1.0;0.0;0.0;0.0;0.0;287.0;1.0;224.0;0.7804878048780488;0.0;0.0;83.0;0.289198606271777;0.8902439024390244;0.8902439024390244;0.6385183341629335;0.6385183341629335;0.7202367125712074;0.7202367125712074;loc;marlin;diff;4f;precision;0.8902439024390244
60;60_1d0452f10ce6d067836e483e3512c4099b4ca524-LOC.arff;RAkELd;287.0;287.0;1.0;0.0;0.0;0.0;0.0;287.0;1.0;220.0;0.7665505226480837;0.0;0.0;87.0;0.30313588850174217;0.8832752613240418;0.8832752613240418;0.6544881367181019;0.6544881367181019;0.7296443780764338;0.7296443780764338;loc;marlin;diff;4f;precision;0.8832752613240418
62;62_2643ae93d69b4171acb18bf9994b12076b4f2496-LOC.arff;RAkELd;230.0;230.0;1.0;70.0;0.30434782608695654;145.0;0.6304347826086957;15.0;0.06521739130434782;15.0;0.06521739130434782;215.0;0.9347826086956522;3.0;0.013043478260869565;0.09375;1.0;0.05625;0.6;0.06875;0.7333333333333333;loc;marlin;diff;4f;precision;0.09375
63;63_331e82dcd3d7eaf9f76dbec8759f2f730335fea3-LOC.arff;RAkELd;304.0;304.0;1.0;17.0;0.05592105263157895;154.0;0.506578947368421;133.0;0.4375;133.0;0.4375;171.0;0.5625;0.0;0.0;0.4634146341463415;1.0;0.123353243736519;0.26618331543143575;0.1931640949062552;0.41682778374507695;loc;marlin;diff;4f;precision;0.4634146341463415
64;64_95126c09c0ffbea8f15ba74105f403d8c36683cf-LOC.arff;RAkELd;311.0;311.0;1.0;5.0;0.01607717041800643;0.0;0.0;306.0;0.9839228295819936;243.0;0.7813504823151125;5.0;0.01607717041800643;98.0;0.31511254019292606;0.8970588235294118;0.8970588235294118;0.6604186118892001;0.6604186118892001;0.7391171283328146;0.7391171283328146;loc;marlin;diff;4f;precision;0.8970588235294118
65;65_5fd41ae872d51961a7f3e60ba9b6a7cba85d61f7-LOC.arff;RAkELd;335.0;335.0;1.0;48.0;0.14328358208955225;0.0;0.0;287.0;0.8567164179104477;227.0;0.6776119402985075;48.0;0.14328358208955225;79.0;0.23582089552238805;0.8954703832752613;0.8954703832752613;0.6267297162767546;0.6267297162767546;0.7144958796526741;0.7144958796526741;loc;marlin;diff;4f;precision;0.8954703832752613
66;66_805d37f77b25fba70c05518cda4edd1c349b7f04-LOC.arff;RAkELd;287.0;287.0;1.0;0.0;0.0;0.0;0.0;287.0;1.0;111.0;0.3867595818815331;0.0;0.0;128.0;0.445993031358885;0.7491289198606271;0.7491289198606271;0.7675626348100216;0.7675626348100216;0.7351252696200431;0.7351252696200431;loc;marlin;diff;4f;precision;0.7491289198606271
67;67_46f80e82d947dcb928abdfe96ee1e2f48ea82de5-LOC.arff;RAkELd;287.0;287.0;1.0;0.0;0.0;0.0;0.0;287.0;1.0;224.0;0.7804878048780488;0.0;0.0;83.0;0.289198606271777;0.8893728222996515;0.8893728222996515;0.6438609590177534;0.6438609590177534;0.7251313533543499;0.7251313533543499;loc;marlin;diff;4f;precision;0.8893728222996515
69;69_5df5727e939de26c828041ea7083a07c72f475da-LOC.arff;RAkELd;287.0;287.0;1.0;0.0;0.0;0.0;0.0;287.0;1.0;225.0;0.7839721254355401;0.0;0.0;83.0;0.289198606271777;0.89198606271777;0.89198606271777;0.6438609590177534;0.6438609590177534;0.7258779934738123;0.7258779934738123;loc;marlin;diff;4f;precision;0.89198606271777
70;70_edb5ea7efa555b59f17655e20e93d9e93499d5d8-LOC.arff;RAkELd;287.0;287.0;1.0;0.0;0.0;0.0;0.0;287.0;1.0;225.0;0.7839721254355401;0.0;0.0;77.0;0.2682926829268293;0.89198606271777;0.89198606271777;0.6319064211050274;0.6319064211050274;0.718218018914883;0.718218018914883;loc;marlin;diff;4f;precision;0.89198606271777
71;71_e7dca8614be5cac516c0d7989a28abdf21d412d8-LOC.arff;RAkELd;302.0;302.0;1.0;25.0;0.08278145695364239;137.0;0.45364238410596025;140.0;0.46357615894039733;140.0;0.46357615894039733;162.0;0.5364238410596026;0.0;0.0;0.5054151624548736;1.0;0.13235344679388;0.2618707482993197;0.2078304968196665;0.4112074829931973;loc;marlin;diff;4f;precision;0.5054151624548736
72;72_e63e224a33011f2aa302ee435acc066af8a87ddb-LOC.arff;RAkELd;302.0;302.0;1.0;0.0;0.0;162.0;0.5364238410596026;140.0;0.46357615894039733;140.0;0.46357615894039733;162.0;0.5364238410596026;0.0;0.0;0.46357615894039733;1.0;0.12139703563544622;0.2618707482993197;0.19062598549353518;0.4112074829931973;loc;marlin;diff;4f;precision;0.46357615894039733
73;73_b15902d3b5131d1ddfc4d52ce99a54827ece5d53-LOC.arff;RAkELd;302.0;302.0;1.0;0.0;0.0;0.0;0.0;302.0;1.0;141.0;0.46688741721854304;0.0;0.0;129.0;0.4271523178807947;0.7748344370860927;0.7748344370860927;0.7340034689372438;0.7340034689372438;0.7220356354462315;0.7220356354462315;loc;marlin;diff;4f;precision;0.7748344370860927
75;75_ff69e0a772c71226be7d6000c5096c0a850e3a62-LOC.arff;RAkELd;64.0;64.0;1.0;0.0;0.0;0.0;0.0;64.0;1.0;0.0;0.0;0.0;0.0;0.0;0.0;0.5;0.5;0.3453125;0.3453125;0.3997767857142857;0.3997767857142857;loc;marlin;diff;4f;precision;0.5
79;79_9d90220537583b98b726dab13e3c553d676d631e-LOC.arff;RAkELd;302.0;302.0;1.0;0.0;0.0;0.0;0.0;302.0;1.0;236.0;0.7814569536423841;0.0;0.0;83.0;0.27483443708609273;0.890728476821192;0.890728476821192;0.6126064333017975;0.6126064333017975;0.6991643014821823;0.6991643014821823;loc;marlin;diff;4f;precision;0.890728476821192
82;82_8a08b8e07e0bd84c1778eca7f3f32fafff5c3af5-LOC.arff;RAkELd;302.0;302.0;1.0;0.0;0.0;0.0;0.0;302.0;1.0;236.0;0.7814569536423841;0.0;0.0;83.0;0.27483443708609273;0.890728476821192;0.890728476821192;0.6126064333017975;0.6126064333017975;0.6991643014821823;0.6991643014821823;loc;marlin;diff;4f;precision;0.890728476821192
84;84_537b5c155dd0e35080528bcaba088d0d177aa2bd-LOC.arff;RAkELd;241.0;241.0;1.0;18.0;0.07468879668049792;115.0;0.47717842323651455;108.0;0.44813278008298757;108.0;0.44813278008298757;133.0;0.5518672199170125;0.0;0.0;0.484304932735426;1.0;0.1273649370061926;0.26298500881834214;0.19976510783685672;0.41247795414462085;loc;marlin;diff;4f;precision;0.484304932735426
86;86_2a6afee83292e5b741cb99ca4b7b30b7acfe7529-LOC.arff;RAkELd;64.0;64.0;1.0;0.0;0.0;0.0;0.0;64.0;1.0;61.0;0.953125;0.0;0.0;16.0;0.25;0.9765625;0.9765625;0.6684895833333333;0.6684895833333333;0.7750744047619048;0.7750744047619048;loc;marlin;diff;4f;precision;0.9765625
87;87_953d830bba02eb71376c51ccee2c5599bf976df5-LOC.arff;RAkELd;197.0;197.0;1.0;0.0;0.0;1.0;0.005076142131979695;196.0;0.9949238578680203;102.0;0.5177664974619289;1.0;0.005076142131979695;84.0;0.4263959390862944;0.8189509306260576;0.8231292517006803;0.752997341068407;0.7568391642371234;0.7529369108049311;0.7567784256559766;loc;marlin;diff;4f;precision;0.8189509306260576
89;89_7a2d1f5aeb85225a7d71e8b95982e36c5fb17722-LOC.arff;RAkELd;6.0;6.0;1.0;0.0;0.0;6.0;1.0;0.0;0.0;0.0;0.0;6.0;1.0;0.0;0.0;0.0;0.0;0.0;0.0;0.0;0.0;loc;marlin;diff;4f;precision;0.0
90;90_5ad1d19384ba3ea8a1e6c33babc63de1d28acf31-LOC.arff;RAkELd;302.0;302.0;1.0;0.0;0.0;0.0;0.0;302.0;1.0;233.0;0.7715231788079471;0.0;0.0;77.0;0.25496688741721857;0.8857615894039735;0.8857615894039735;0.600685903500473;0.600685903500473;0.689908546199937;0.689908546199937;loc;marlin;diff;4f;precision;0.8857615894039735
94;94_915ef2d4a136df67f468917c725d032919e189d4-LOC.arff;RAkELd;302.0;302.0;1.0;0.0;0.0;0.0;0.0;302.0;1.0;233.0;0.7715231788079471;0.0;0.0;77.0;0.25496688741721857;0.8857615894039735;0.8857615894039735;0.600685903500473;0.600685903500473;0.689908546199937;0.689908546199937;loc;marlin;diff;4f;precision;0.8857615894039735
100;100_6dba34ab0ed5b5f89b70ebe71086200606319bd8-LOC.arff;RAkELd;459.0;459.0;1.0;0.0;0.0;73.0;0.15904139433551198;386.0;0.840958605664488;85.0;0.18518518518518517;73.0;0.15904139433551198;77.0;0.16775599128540306;0.5649963689179375;0.6718480138169257;0.459347442680776;0.5462188502343942;0.46782688383995574;0.5563019162760096;loc;marlin;diff;4f;precision;0.5649963689179375
104;104_d8e7e2f72e28d2df29f3f8b23215419e21b0727b-LOC.arff;RAkELd;128.0;128.0;1.0;0.0;0.0;0.0;0.0;128.0;1.0;117.0;0.9140625;0.0;0.0;90.0;0.703125;0.95703125;0.95703125;0.8932291666666666;0.8932291666666666;0.90703125;0.90703125;loc;marlin;diff;4f;precision;0.95703125
105;105_cd2268f10a88de393a565c887c8891c7f7979a97-LOC.arff;RAkELd;12.0;12.0;1.0;0.0;0.0;0.0;0.0;12.0;1.0;12.0;1.0;0.0;0.0;5.0;0.4166666666666667;1.0;1.0;0.7083333333333334;0.7083333333333334;0.8055555555555555;0.8055555555555555;loc;marlin;diff;4f;precision;1.0
106;106_b21d5193f25e3e388ddc3787aba7f0086a1abad7-LOC.arff;RAkELd;459.0;459.0;1.0;0.0;0.0;55.0;0.11982570806100218;404.0;0.8801742919389978;236.0;0.514161220043573;55.0;0.11982570806100218;139.0;0.3028322440087146;0.7220406681190995;0.8203382838283829;0.599859943977591;0.681524045261669;0.6205674862537608;0.7050506836397925;loc;marlin;diff;4f;precision;0.7220406681190995
107;107_eeb4f029dbaa8f12350f631441303832fc14fc9e-LOC.arff;RAkELd;12.0;12.0;1.0;0.0;0.0;0.0;0.0;12.0;1.0;7.0;0.5833333333333334;0.0;0.0;5.0;0.4166666666666667;0.7222222222222222;0.7222222222222222;0.7083333333333334;0.7083333333333334;0.6944444444444445;0.6944444444444445;loc;marlin;diff;4f;precision;0.7222222222222222
109;109_379ea642e181ee072a80d361dfb043e7f3318103-LOC.arff;RAkELd;132.0;132.0;1.0;0.0;0.0;0.0;0.0;132.0;1.0;121.0;0.9166666666666666;0.0;0.0;94.0;0.7121212121212122;0.9583333333333334;0.9583333333333334;0.8964646464646464;0.8964646464646464;0.9098484848484848;0.9098484848484848;loc;marlin;diff;4f;precision;0.9583333333333334
110;110_924bab1a031101634ba350cd8daf1c5a2e08430a-LOC.arff;RAkELd;27.0;27.0;1.0;0.0;0.0;27.0;1.0;0.0;0.0;0.0;0.0;27.0;1.0;0.0;0.0;0.0;0.0;0.0;0.0;0.0;0.0;loc;marlin;diff;4f;precision;0.0
111;111_959d82e81e3a8185992a4c8edeff171fed9f01ca-LOC.arff;RAkELd;27.0;27.0;1.0;0.0;0.0;9.0;0.3333333333333333;18.0;0.6666666666666666;18.0;0.6666666666666666;9.0;0.3333333333333333;8.0;0.2962962962962963;0.6666666666666666;1.0;0.48148148148148145;0.7222222222222222;0.5432098765432098;0.8148148148148148;loc;marlin;diff;4f;precision;0.6666666666666666
114;114_0db97b9c7f4cb26e4a767c9aa2a4b8be4007e209-LOC.arff;RAkELd;302.0;302.0;1.0;0.0;0.0;0.0;0.0;302.0;1.0;120.0;0.3973509933774834;0.0;0.0;121.0;0.40066225165562913;0.7373068432671082;0.7373068432671082;0.7188820561337117;0.7188820561337117;0.7032324187953327;0.7032324187953327;loc;marlin;diff;4f;precision;0.7373068432671082
116;116_0e0e4945d8ad060aa50552a0b27369c18442c2d0-LOC.arff;RAkELd;53.0;53.0;1.0;53.0;1.0;0.0;0.0;0.0;0.0;0.0;0.0;53.0;1.0;0.0;0.0;0.0;0.0;0.0;0.0;0.0;0.0;loc;marlin;diff;4f;precision;0.0
118;118_6ac9b2e7614766a38276d143592ba0b6e8f31271-LOC.arff;RAkELd;102.0;102.0;1.0;0.0;0.0;102.0;1.0;0.0;0.0;0.0;0.0;102.0;1.0;0.0;0.0;0.0;0.0;0.0;0.0;0.0;0.0;loc;marlin;diff;4f;precision;0.0
119;119_cdf0bd4e635508ba622e0a333ddf5ffbde90cfa3-LOC.arff;RAkELd;102.0;102.0;1.0;0.0;0.0;1.0;0.00980392156862745;101.0;0.9901960784313726;101.0;0.9901960784313726;1.0;0.00980392156862745;37.0;0.3627450980392157;0.9901960784313726;1.0;0.6552287581699346;0.6617161716171617;0.7598039215686274;0.7673267326732673;loc;marlin;diff;4f;precision;0.9901960784313726
120;120_235051253a504fa6f4866bda604f2612df7aad0e-LOC.arff;RAkELd;5.0;5.0;1.0;0.0;0.0;1.0;0.2;4.0;0.8;0.0;0.0;1.0;0.2;3.0;0.6;0.4;0.5;0.7;0.875;0.5;0.625;loc;marlin;diff;4f;precision;0.4
121;121_27654bfe697ee08a83f4f39567357827ef77fd1f-LOC.arff;RAkELd;5.0;5.0;1.0;0.0;0.0;1.0;0.2;4.0;0.8;0.0;0.0;1.0;0.2;3.0;0.6;0.4;0.5;0.7;0.875;0.5;0.625;loc;marlin;diff;4f;precision;0.4
124;124_57e163e98999b45b9fff814dfee20d2ea01947f1-LOC.arff;RAkELd;5.0;5.0;1.0;2.0;0.4;1.0;0.2;2.0;0.4;2.0;0.4;3.0;0.6;1.0;0.2;0.6666666666666666;1.0;0.5;0.75;0.5555555555555555;0.8333333333333333;loc;marlin;diff;4f;precision;0.6666666666666666
125;125_a6823a84e18f7738cafe309c21b55a110ea51d6d-LOC.arff;RAkELd;13.0;13.0;1.0;0.0;0.0;0.0;0.0;13.0;1.0;13.0;1.0;0.0;0.0;5.0;0.38461538461538464;1.0;1.0;0.6923076923076923;0.6923076923076923;0.7948717948717948;0.7948717948717948;loc;marlin;diff;4f;precision;1.0
127;127_191f36b4933be2686a51dd62dbe532ee90f38ab5-LOC.arff;RAkELd;303.0;303.0;1.0;0.0;0.0;0.0;0.0;303.0;1.0;146.0;0.48184818481848185;0.0;0.0;113.0;0.37293729372937295;0.7766776677667767;0.7766776677667767;0.7007779349363508;0.7007779349363508;0.7040861228980041;0.7040861228980041;loc;marlin;diff;4f;precision;0.7766776677667767
129;129_4d6a5c29df87270b13c6ec7b5adb58c1aa29e3a8-LOC.arff;RAkELd;312.0;312.0;1.0;0.0;0.0;8.0;0.02564102564102564;304.0;0.9743589743589743;148.0;0.47435897435897434;8.0;0.02564102564102564;107.0;0.34294871794871795;0.7564102564102564;0.7763157894736842;0.6730845543345543;0.690797305764411;0.6812118437118436;0.6991384711779448;loc;marlin;diff;4f;precision;0.7564102564102564
6;6_0024a26ccf47264343b65e8429fdd756a3250f64-LOC.arff;RAkELd;34.0;34.0;1.0;0.0;0.0;0.0;0.0;34.0;1.0;34.0;1.0;0.0;0.0;25.0;0.7352941176470589;1.0;1.0;0.8676470588235294;0.8676470588235294;0.9117647058823529;0.9117647058823529;loc;marlin;diff;4f;recall;0.8676470588235294
7;7_b5f6482dcec6e78744167b177b61a41b2f0eb4bc-LOC.arff;RAkELd;40.0;40.0;1.0;0.0;0.0;0.0;0.0;40.0;1.0;40.0;1.0;0.0;0.0;31.0;0.775;1.0;1.0;0.8875;0.8875;0.925;0.925;loc;marlin;diff;4f;recall;0.8875
12;12_0b1423c303c6d7eef7d9f8f04666dd1a1a529bb7-LOC.arff;RAkELd;133.0;133.0;1.0;0.0;0.0;11.0;0.08270676691729323;122.0;0.9172932330827067;122.0;0.9172932330827067;11.0;0.08270676691729323;85.0;0.6390977443609023;0.9172932330827067;1.0;0.7781954887218046;0.8483606557377049;0.8245614035087719;0.8989071038251366;loc;marlin;diff;4f;recall;0.7781954887218046
13;13_094afe7c1065d5663628b389f27687a5f465abb8-LOC.arff;RAkELd;530.0;530.0;1.0;0.0;0.0;397.0;0.7490566037735849;133.0;0.2509433962264151;133.0;0.2509433962264151;397.0;0.7490566037735849;86.0;0.16226415094339622;0.2509433962264151;1.0;0.2050314465408805;0.8170426065162908;0.219811320754717;0.8759398496240601;loc;marlin;diff;4f;recall;0.2050314465408805
14;14_bf879ceaa9685648adba645cadc6ce5aaa5fac85-LOC.arff;RAkELd;135.0;135.0;1.0;0.0;0.0;0.0;0.0;135.0;1.0;135.0;1.0;0.0;0.0;86.0;0.6370370370370371;1.0;1.0;0.808641975308642;0.808641975308642;0.8688888888888888;0.8688888888888888;loc;marlin;diff;4f;recall;0.808641975308642
16;16_d7c4f0780b41507ae6a40cc46efb59c526e58437-LOC.arff;RAkELd;140.0;140.0;1.0;0.0;0.0;0.0;0.0;140.0;1.0;140.0;1.0;0.0;0.0;89.0;0.6357142857142857;1.0;1.0;0.8083333333333333;0.8083333333333333;0.8688095238095238;0.8688095238095238;loc;marlin;diff;4f;recall;0.8083333333333333
17;17_d15f01e1b45119838900da53128c619ebe93895d-LOC.arff;RAkELd;221.0;221.0;1.0;221.0;1.0;0.0;0.0;0.0;0.0;0.0;0.0;221.0;1.0;0.0;0.0;0.0;0.0;0.0;0.0;0.0;0.0;loc;marlin;diff;4f;recall;0.0
18;18_00674af3a82e6b6b517a12ae3e77803df4f4892d-LOC.arff;RAkELd;3242.0;3242.0;1.0;1941.0;0.5987045033929673;962.0;0.29673041332510797;339.0;0.10456508328192474;339.0;0.10456508328192474;2903.0;0.8954349167180753;339.0;0.10456508328192474;0.2605687932359723;1.0;0.2605687932359723;1.0;0.2605687932359723;1.0;loc;marlin;diff;4f;recall;0.2605687932359723
19;19_40e80816235739064fcc7fd74228c9c225387caf-LOC.arff;RAkELd;7.0;7.0;1.0;0.0;0.0;7.0;1.0;0.0;0.0;0.0;0.0;7.0;1.0;0.0;0.0;0.0;0.0;0.0;0.0;0.0;0.0;loc;marlin;diff;4f;recall;0.0
20;20_8bcdb9f5f062fe68d90e31752453e1d662b3f0e2-LOC.arff;RAkELd;7.0;7.0;1.0;0.0;0.0;2.0;0.2857142857142857;5.0;0.7142857142857143;5.0;0.7142857142857143;2.0;0.2857142857142857;2.0;0.2857142857142857;0.7142857142857143;1.0;0.5;0.7;0.5714285714285714;0.8;loc;marlin;diff;4f;recall;0.5
22;22_ea86a5e10f7b8c0b2e0e0bf97a1fc95dbac4ae89-LOC.arff;RAkELd;215.0;215.0;1.0;0.0;0.0;6.0;0.027906976744186046;209.0;0.9720930232558139;209.0;0.9720930232558139;6.0;0.027906976744186046;122.0;0.5674418604651162;0.9720930232558139;1.0;0.7446511627906977;0.7660287081339713;0.8110077519379846;0.8342902711323764;loc;marlin;diff;4f;recall;0.7446511627906977
23;23_04d3b5537f7c23adf7ea362a8492d21114aa6a2e-LOC.arff;RAkELd;230.0;230.0;1.0;0.0;0.0;18.0;0.0782608695652174;212.0;0.9217391304347826;212.0;0.9217391304347826;18.0;0.0782608695652174;124.0;0.5391304347826087;0.9217391304347826;1.0;0.702463768115942;0.7621069182389937;0.7648654244306418;0.829806828391734;loc;marlin;diff;4f;recall;0.702463768115942
24;24_2e8e8878e55f1455155e43590afbaa1ed21e8e3f-LOC.arff;RAkELd;230.0;230.0;1.0;0.0;0.0;18.0;0.0782608695652174;212.0;0.9217391304347826;212.0;0.9217391304347826;18.0;0.0782608695652174;120.0;0.5217391304347826;0.9217391304347826;1.0;0.6915942028985507;0.750314465408805;0.7568944099378883;0.8211590296495958;loc;marlin;diff;4f;recall;0.6915942028985507
25;25_0b82465168e53a16d573610bb30495d70bd050b8-LOC.arff;RAkELd;203.0;203.0;1.0;0.0;0.0;0.0;0.0;203.0;1.0;203.0;1.0;0.0;0.0;115.0;0.5665024630541872;1.0;1.0;0.7499178981937602;0.7499178981937602;0.8206192821956368;0.8206192821956368;loc;marlin;diff;4f;recall;0.7499178981937602
27;27_e8092898b1c4db328a2f5d247fe06603f586f924-LOC.arff;RAkELd;23.0;23.0;1.0;7.0;0.30434782608695654;16.0;0.6956521739130435;0.0;0.0;0.0;0.0;23.0;1.0;0.0;0.0;0.0;0.0;0.0;0.0;0.0;0.0;loc;marlin;diff;4f;recall;0.0
29;29_1740a83e11c678c8621e6497350db13cd3d2426e-LOC.arff;RAkELd;3.0;3.0;1.0;0.0;0.0;3.0;1.0;0.0;0.0;0.0;0.0;3.0;1.0;0.0;0.0;0.0;0.0;0.0;0.0;0.0;0.0;loc;marlin;diff;4f;recall;0.0
30;30_900e0c9bf23f7df6a2057af4b2c1f166e55e9163-LOC.arff;RAkELd;288.0;288.0;1.0;236.0;0.8194444444444444;52.0;0.18055555555555555;0.0;0.0;0.0;0.0;288.0;1.0;0.0;0.0;0.0;0.0;0.0;0.0;0.0;0.0;loc;marlin;diff;4f;recall;0.0
31;31_1d171e9e52012c8129dfec2b7f2640e696678f2e-LOC.arff;RAkELd;33.0;33.0;1.0;0.0;0.0;33.0;1.0;0.0;0.0;0.0;0.0;33.0;1.0;0.0;0.0;0.0;0.0;0.0;0.0;0.0;0.0;loc;marlin;diff;4f;recall;0.0
32;32_79d1bfb5c02793c88f554002e04b5263d81703b7-LOC.arff;RAkELd;212.0;212.0;1.0;0.0;0.0;0.0;0.0;212.0;1.0;212.0;1.0;0.0;0.0;78.0;0.36792452830188677;1.0;1.0;0.6357704402515724;0.6357704402515724;0.7389263252470799;0.7389263252470799;loc;marlin;diff;4f;recall;0.6357704402515724
33;33_87aaf0f70a22686d2107efa01cfa19bba542c386-LOC.arff;RAkELd;523.0;523.0;1.0;523.0;1.0;0.0;0.0;0.0;0.0;0.0;0.0;523.0;1.0;0.0;0.0;0.0;0.0;0.0;0.0;0.0;0.0;loc;marlin;diff;4f;recall;0.0
35;35_5cf349a24a610d7223c5bc88193c07c713818028-LOC.arff;RAkELd;212.0;212.0;1.0;212.0;1.0;0.0;0.0;0.0;0.0;0.0;0.0;212.0;1.0;0.0;0.0;0.0;0.0;0.0;0.0;0.0;0.0;loc;marlin;diff;4f;recall;0.0
38;38_fc0064e525288baec961db28c6c4d07f3206f145-LOC.arff;RAkELd;212.0;212.0;1.0;0.0;0.0;0.0;0.0;212.0;1.0;212.0;1.0;0.0;0.0;73.0;0.3443396226415094;1.0;1.0;0.6216194968553459;0.6216194968553459;0.7287061994609165;0.7287061994609165;loc;marlin;diff;4f;recall;0.6216194968553459
39;39_d3bfffcb6eabe886eb8c1a11bcdc66a1f680a882-LOC.arff;RAkELd;212.0;212.0;1.0;0.0;0.0;0.0;0.0;212.0;1.0;212.0;1.0;0.0;0.0;73.0;0.3443396226415094;1.0;1.0;0.6216194968553459;0.6216194968553459;0.7287061994609165;0.7287061994609165;loc;marlin;diff;4f;recall;0.6216194968553459
44;44_977fd2b2c736047814d4fa51ebad91ad454cc4c9-LOC.arff;RAkELd;83.0;83.0;1.0;0.0;0.0;8.0;0.0963855421686747;75.0;0.9036144578313253;0.0;0.0;8.0;0.0963855421686747;24.0;0.2891566265060241;0.45180722891566266;0.5;0.5451807228915663;0.6033333333333334;0.4686746987951807;0.5186666666666666;loc;marlin;diff;4f;recall;0.5451807228915663
45;45_72ace55e6ae964a5984a13e09492d1d92295f098-LOC.arff;RAkELd;70.0;70.0;1.0;58.0;0.8285714285714286;0.0;0.0;12.0;0.17142857142857143;12.0;0.17142857142857143;58.0;0.8285714285714286;10.0;0.14285714285714285;1.0;1.0;0.9166666666666666;0.9166666666666666;0.9444444444444443;0.9444444444444443;loc;marlin;diff;4f;recall;0.9166666666666666
46;46_7b70caab7c4bdc45490d83730b62c5c2ea31e98e-LOC.arff;RAkELd;168.0;168.0;1.0;0.0;0.0;146.0;0.8690476190476191;22.0;0.13095238095238096;22.0;0.13095238095238096;146.0;0.8690476190476191;18.0;0.10714285714285714;0.13095238095238096;1.0;0.11904761904761904;0.9090909090909091;0.12301587301587302;0.9393939393939394;loc;marlin;diff;4f;recall;0.11904761904761904
47;47_ab154d55927776add58c878f7de94e82b07bee1c-LOC.arff;RAkELd;246.0;246.0;1.0;0.0;0.0;31.0;0.12601626016260162;215.0;0.8739837398373984;212.0;0.8617886178861789;31.0;0.12601626016260162;19.0;0.07723577235772358;0.8678861788617886;0.9930232558139535;0.3860433604336043;0.44170542635658916;0.5125822686798296;0.5864894795127353;loc;marlin;diff;4f;recall;0.3860433604336043
48;48_27361e7cd08d895cfa8930c9e114997fdfe995ec-LOC.arff;RAkELd;46.0;46.0;1.0;0.0;0.0;46.0;1.0;0.0;0.0;0.0;0.0;46.0;1.0;0.0;0.0;0.0;0.0;0.0;0.0;0.0;0.0;loc;marlin;diff;4f;recall;0.0
49;49_ba8a53a40fa0adaa947b536639bab998cc872feb-LOC.arff;RAkELd;347.0;347.0;1.0;250.0;0.7204610951008645;97.0;0.27953890489913547;0.0;0.0;0.0;0.0;347.0;1.0;0.0;0.0;0.0;0.0;0.0;0.0;0.0;0.0;loc;marlin;diff;4f;recall;0.0
51;51_e9adfa27b5c65f53c3f71e4348ccb51e7950c935-LOC.arff;RAkELd;63.0;63.0;1.0;0.0;0.0;63.0;1.0;0.0;0.0;0.0;0.0;63.0;1.0;0.0;0.0;0.0;0.0;0.0;0.0;0.0;0.0;loc;marlin;diff;4f;recall;0.0
52;52_ff592b056ad492632a810e6c77a7d063b6ce05e3-LOC.arff;RAkELd;49.0;49.0;1.0;49.0;1.0;0.0;0.0;0.0;0.0;0.0;0.0;49.0;1.0;0.0;0.0;0.0;0.0;0.0;0.0;0.0;0.0;loc;marlin;diff;4f;recall;0.0
53;53_9980ceb4a37ec1d2cae99b73ceae146ef7340e88-LOC.arff;RAkELd;249.0;249.0;1.0;233.0;0.9357429718875502;0.0;0.0;16.0;0.0642570281124498;16.0;0.0642570281124498;233.0;0.9357429718875502;6.0;0.024096385542168676;1.0;1.0;0.6875;0.6875;0.7916666666666666;0.7916666666666666;loc;marlin;diff;4f;recall;0.6875
54;54_c57906b627bf7245578522ab50e9d35e9c6bc96b-LOC.arff;RAkELd;213.0;213.0;1.0;1.0;0.004694835680751174;120.0;0.5633802816901409;92.0;0.431924882629108;92.0;0.431924882629108;121.0;0.568075117370892;1.0;0.004694835680751174;0.4339622641509434;1.0;0.12853773584905662;0.296195652173913;0.19510332434860736;0.44958592132505176;loc;marlin;diff;4f;recall;0.12853773584905662
56;56_02b9eceead9903beb9e1cf7d48f05fc2de8a8e8a-LOC.arff;RAkELd;264.0;264.0;1.0;0.0;0.0;0.0;0.0;264.0;1.0;218.0;0.8257575757575758;0.0;0.0;91.0;0.3446969696969697;0.9128787878787878;0.9128787878787878;0.6801857864357864;0.6801857864357864;0.7564454064454065;0.7564454064454065;loc;marlin;diff;4f;recall;0.6801857864357864
57;57_a9c7da06e398101517acc5b7a07e8dcb544df294-LOC.arff;RAkELd;280.0;280.0;1.0;0.0;0.0;0.0;0.0;280.0;1.0;234.0;0.8357142857142857;0.0;0.0;87.0;0.3107142857142857;0.9178571428571428;0.9178571428571428;0.6541751700680272;0.6541751700680272;0.7416383219954649;0.7416383219954649;loc;marlin;diff;4f;recall;0.6541751700680272
58;58_65934eee9c6ae792c708bc1cea9996c8a5df67f5-LOC.arff;RAkELd;494.0;494.0;1.0;494.0;1.0;0.0;0.0;0.0;0.0;0.0;0.0;494.0;1.0;0.0;0.0;0.0;0.0;0.0;0.0;0.0;0.0;loc;marlin;diff;4f;recall;0.0
59;59_ac82411c73e43d6b4730c865c38301d355e0fa35-LOC.arff;RAkELd;287.0;287.0;1.0;0.0;0.0;0.0;0.0;287.0;1.0;224.0;0.7804878048780488;0.0;0.0;83.0;0.289198606271777;0.8902439024390244;0.8902439024390244;0.6385183341629335;0.6385183341629335;0.7202367125712074;0.7202367125712074;loc;marlin;diff;4f;recall;0.6385183341629335
60;60_1d0452f10ce6d067836e483e3512c4099b4ca524-LOC.arff;RAkELd;287.0;287.0;1.0;0.0;0.0;0.0;0.0;287.0;1.0;220.0;0.7665505226480837;0.0;0.0;87.0;0.30313588850174217;0.8832752613240418;0.8832752613240418;0.6544881367181019;0.6544881367181019;0.7296443780764338;0.7296443780764338;loc;marlin;diff;4f;recall;0.6544881367181019
62;62_2643ae93d69b4171acb18bf9994b12076b4f2496-LOC.arff;RAkELd;230.0;230.0;1.0;70.0;0.30434782608695654;145.0;0.6304347826086957;15.0;0.06521739130434782;15.0;0.06521739130434782;215.0;0.9347826086956522;3.0;0.013043478260869565;0.09375;1.0;0.05625;0.6;0.06875;0.7333333333333333;loc;marlin;diff;4f;recall;0.05625
63;63_331e82dcd3d7eaf9f76dbec8759f2f730335fea3-LOC.arff;RAkELd;304.0;304.0;1.0;17.0;0.05592105263157895;154.0;0.506578947368421;133.0;0.4375;133.0;0.4375;171.0;0.5625;0.0;0.0;0.4634146341463415;1.0;0.123353243736519;0.26618331543143575;0.1931640949062552;0.41682778374507695;loc;marlin;diff;4f;recall;0.123353243736519
64;64_95126c09c0ffbea8f15ba74105f403d8c36683cf-LOC.arff;RAkELd;311.0;311.0;1.0;5.0;0.01607717041800643;0.0;0.0;306.0;0.9839228295819936;243.0;0.7813504823151125;5.0;0.01607717041800643;98.0;0.31511254019292606;0.8970588235294118;0.8970588235294118;0.6604186118892001;0.6604186118892001;0.7391171283328146;0.7391171283328146;loc;marlin;diff;4f;recall;0.6604186118892001
65;65_5fd41ae872d51961a7f3e60ba9b6a7cba85d61f7-LOC.arff;RAkELd;335.0;335.0;1.0;48.0;0.14328358208955225;0.0;0.0;287.0;0.8567164179104477;227.0;0.6776119402985075;48.0;0.14328358208955225;79.0;0.23582089552238805;0.8954703832752613;0.8954703832752613;0.6267297162767546;0.6267297162767546;0.7144958796526741;0.7144958796526741;loc;marlin;diff;4f;recall;0.6267297162767546
66;66_805d37f77b25fba70c05518cda4edd1c349b7f04-LOC.arff;RAkELd;287.0;287.0;1.0;0.0;0.0;0.0;0.0;287.0;1.0;111.0;0.3867595818815331;0.0;0.0;128.0;0.445993031358885;0.7491289198606271;0.7491289198606271;0.7675626348100216;0.7675626348100216;0.7351252696200431;0.7351252696200431;loc;marlin;diff;4f;recall;0.7675626348100216
67;67_46f80e82d947dcb928abdfe96ee1e2f48ea82de5-LOC.arff;RAkELd;287.0;287.0;1.0;0.0;0.0;0.0;0.0;287.0;1.0;224.0;0.7804878048780488;0.0;0.0;83.0;0.289198606271777;0.8893728222996515;0.8893728222996515;0.6438609590177534;0.6438609590177534;0.7251313533543499;0.7251313533543499;loc;marlin;diff;4f;recall;0.6438609590177534
69;69_5df5727e939de26c828041ea7083a07c72f475da-LOC.arff;RAkELd;287.0;287.0;1.0;0.0;0.0;0.0;0.0;287.0;1.0;225.0;0.7839721254355401;0.0;0.0;83.0;0.289198606271777;0.89198606271777;0.89198606271777;0.6438609590177534;0.6438609590177534;0.7258779934738123;0.7258779934738123;loc;marlin;diff;4f;recall;0.6438609590177534
70;70_edb5ea7efa555b59f17655e20e93d9e93499d5d8-LOC.arff;RAkELd;287.0;287.0;1.0;0.0;0.0;0.0;0.0;287.0;1.0;225.0;0.7839721254355401;0.0;0.0;77.0;0.2682926829268293;0.89198606271777;0.89198606271777;0.6319064211050274;0.6319064211050274;0.718218018914883;0.718218018914883;loc;marlin;diff;4f;recall;0.6319064211050274
71;71_e7dca8614be5cac516c0d7989a28abdf21d412d8-LOC.arff;RAkELd;302.0;302.0;1.0;25.0;0.08278145695364239;137.0;0.45364238410596025;140.0;0.46357615894039733;140.0;0.46357615894039733;162.0;0.5364238410596026;0.0;0.0;0.5054151624548736;1.0;0.13235344679388;0.2618707482993197;0.2078304968196665;0.4112074829931973;loc;marlin;diff;4f;recall;0.13235344679388
72;72_e63e224a33011f2aa302ee435acc066af8a87ddb-LOC.arff;RAkELd;302.0;302.0;1.0;0.0;0.0;162.0;0.5364238410596026;140.0;0.46357615894039733;140.0;0.46357615894039733;162.0;0.5364238410596026;0.0;0.0;0.46357615894039733;1.0;0.12139703563544622;0.2618707482993197;0.19062598549353518;0.4112074829931973;loc;marlin;diff;4f;recall;0.12139703563544622
73;73_b15902d3b5131d1ddfc4d52ce99a54827ece5d53-LOC.arff;RAkELd;302.0;302.0;1.0;0.0;0.0;0.0;0.0;302.0;1.0;141.0;0.46688741721854304;0.0;0.0;129.0;0.4271523178807947;0.7748344370860927;0.7748344370860927;0.7340034689372438;0.7340034689372438;0.7220356354462315;0.7220356354462315;loc;marlin;diff;4f;recall;0.7340034689372438
75;75_ff69e0a772c71226be7d6000c5096c0a850e3a62-LOC.arff;RAkELd;64.0;64.0;1.0;0.0;0.0;0.0;0.0;64.0;1.0;0.0;0.0;0.0;0.0;0.0;0.0;0.5;0.5;0.3453125;0.3453125;0.3997767857142857;0.3997767857142857;loc;marlin;diff;4f;recall;0.3453125
79;79_9d90220537583b98b726dab13e3c553d676d631e-LOC.arff;RAkELd;302.0;302.0;1.0;0.0;0.0;0.0;0.0;302.0;1.0;236.0;0.7814569536423841;0.0;0.0;83.0;0.27483443708609273;0.890728476821192;0.890728476821192;0.6126064333017975;0.6126064333017975;0.6991643014821823;0.6991643014821823;loc;marlin;diff;4f;recall;0.6126064333017975
82;82_8a08b8e07e0bd84c1778eca7f3f32fafff5c3af5-LOC.arff;RAkELd;302.0;302.0;1.0;0.0;0.0;0.0;0.0;302.0;1.0;236.0;0.7814569536423841;0.0;0.0;83.0;0.27483443708609273;0.890728476821192;0.890728476821192;0.6126064333017975;0.6126064333017975;0.6991643014821823;0.6991643014821823;loc;marlin;diff;4f;recall;0.6126064333017975
84;84_537b5c155dd0e35080528bcaba088d0d177aa2bd-LOC.arff;RAkELd;241.0;241.0;1.0;18.0;0.07468879668049792;115.0;0.47717842323651455;108.0;0.44813278008298757;108.0;0.44813278008298757;133.0;0.5518672199170125;0.0;0.0;0.484304932735426;1.0;0.1273649370061926;0.26298500881834214;0.19976510783685672;0.41247795414462085;loc;marlin;diff;4f;recall;0.1273649370061926
86;86_2a6afee83292e5b741cb99ca4b7b30b7acfe7529-LOC.arff;RAkELd;64.0;64.0;1.0;0.0;0.0;0.0;0.0;64.0;1.0;61.0;0.953125;0.0;0.0;16.0;0.25;0.9765625;0.9765625;0.6684895833333333;0.6684895833333333;0.7750744047619048;0.7750744047619048;loc;marlin;diff;4f;recall;0.6684895833333333
87;87_953d830bba02eb71376c51ccee2c5599bf976df5-LOC.arff;RAkELd;197.0;197.0;1.0;0.0;0.0;1.0;0.005076142131979695;196.0;0.9949238578680203;102.0;0.5177664974619289;1.0;0.005076142131979695;84.0;0.4263959390862944;0.8189509306260576;0.8231292517006803;0.752997341068407;0.7568391642371234;0.7529369108049311;0.7567784256559766;loc;marlin;diff;4f;recall;0.752997341068407
89;89_7a2d1f5aeb85225a7d71e8b95982e36c5fb17722-LOC.arff;RAkELd;6.0;6.0;1.0;0.0;0.0;6.0;1.0;0.0;0.0;0.0;0.0;6.0;1.0;0.0;0.0;0.0;0.0;0.0;0.0;0.0;0.0;loc;marlin;diff;4f;recall;0.0
90;90_5ad1d19384ba3ea8a1e6c33babc63de1d28acf31-LOC.arff;RAkELd;302.0;302.0;1.0;0.0;0.0;0.0;0.0;302.0;1.0;233.0;0.7715231788079471;0.0;0.0;77.0;0.25496688741721857;0.8857615894039735;0.8857615894039735;0.600685903500473;0.600685903500473;0.689908546199937;0.689908546199937;loc;marlin;diff;4f;recall;0.600685903500473
94;94_915ef2d4a136df67f468917c725d032919e189d4-LOC.arff;RAkELd;302.0;302.0;1.0;0.0;0.0;0.0;0.0;302.0;1.0;233.0;0.7715231788079471;0.0;0.0;77.0;0.25496688741721857;0.8857615894039735;0.8857615894039735;0.600685903500473;0.600685903500473;0.689908546199937;0.689908546199937;loc;marlin;diff;4f;recall;0.600685903500473
100;100_6dba34ab0ed5b5f89b70ebe71086200606319bd8-LOC.arff;RAkELd;459.0;459.0;1.0;0.0;0.0;73.0;0.15904139433551198;386.0;0.840958605664488;85.0;0.18518518518518517;73.0;0.15904139433551198;77.0;0.16775599128540306;0.5649963689179375;0.6718480138169257;0.459347442680776;0.5462188502343942;0.46782688383995574;0.5563019162760096;loc;marlin;diff;4f;recall;0.459347442680776
104;104_d8e7e2f72e28d2df29f3f8b23215419e21b0727b-LOC.arff;RAkELd;128.0;128.0;1.0;0.0;0.0;0.0;0.0;128.0;1.0;117.0;0.9140625;0.0;0.0;90.0;0.703125;0.95703125;0.95703125;0.8932291666666666;0.8932291666666666;0.90703125;0.90703125;loc;marlin;diff;4f;recall;0.8932291666666666
105;105_cd2268f10a88de393a565c887c8891c7f7979a97-LOC.arff;RAkELd;12.0;12.0;1.0;0.0;0.0;0.0;0.0;12.0;1.0;12.0;1.0;0.0;0.0;5.0;0.4166666666666667;1.0;1.0;0.7083333333333334;0.7083333333333334;0.8055555555555555;0.8055555555555555;loc;marlin;diff;4f;recall;0.7083333333333334
106;106_b21d5193f25e3e388ddc3787aba7f0086a1abad7-LOC.arff;RAkELd;459.0;459.0;1.0;0.0;0.0;55.0;0.11982570806100218;404.0;0.8801742919389978;236.0;0.514161220043573;55.0;0.11982570806100218;139.0;0.3028322440087146;0.7220406681190995;0.8203382838283829;0.599859943977591;0.681524045261669;0.6205674862537608;0.7050506836397925;loc;marlin;diff;4f;recall;0.599859943977591
107;107_eeb4f029dbaa8f12350f631441303832fc14fc9e-LOC.arff;RAkELd;12.0;12.0;1.0;0.0;0.0;0.0;0.0;12.0;1.0;7.0;0.5833333333333334;0.0;0.0;5.0;0.4166666666666667;0.7222222222222222;0.7222222222222222;0.7083333333333334;0.7083333333333334;0.6944444444444445;0.6944444444444445;loc;marlin;diff;4f;recall;0.7083333333333334
109;109_379ea642e181ee072a80d361dfb043e7f3318103-LOC.arff;RAkELd;132.0;132.0;1.0;0.0;0.0;0.0;0.0;132.0;1.0;121.0;0.9166666666666666;0.0;0.0;94.0;0.7121212121212122;0.9583333333333334;0.9583333333333334;0.8964646464646464;0.8964646464646464;0.9098484848484848;0.9098484848484848;loc;marlin;diff;4f;recall;0.8964646464646464
110;110_924bab1a031101634ba350cd8daf1c5a2e08430a-LOC.arff;RAkELd;27.0;27.0;1.0;0.0;0.0;27.0;1.0;0.0;0.0;0.0;0.0;27.0;1.0;0.0;0.0;0.0;0.0;0.0;0.0;0.0;0.0;loc;marlin;diff;4f;recall;0.0
111;111_959d82e81e3a8185992a4c8edeff171fed9f01ca-LOC.arff;RAkELd;27.0;27.0;1.0;0.0;0.0;9.0;0.3333333333333333;18.0;0.6666666666666666;18.0;0.6666666666666666;9.0;0.3333333333333333;8.0;0.2962962962962963;0.6666666666666666;1.0;0.48148148148148145;0.7222222222222222;0.5432098765432098;0.8148148148148148;loc;marlin;diff;4f;recall;0.48148148148148145
114;114_0db97b9c7f4cb26e4a767c9aa2a4b8be4007e209-LOC.arff;RAkELd;302.0;302.0;1.0;0.0;0.0;0.0;0.0;302.0;1.0;120.0;0.3973509933774834;0.0;0.0;121.0;0.40066225165562913;0.7373068432671082;0.7373068432671082;0.7188820561337117;0.7188820561337117;0.7032324187953327;0.7032324187953327;loc;marlin;diff;4f;recall;0.7188820561337117
116;116_0e0e4945d8ad060aa50552a0b27369c18442c2d0-LOC.arff;RAkELd;53.0;53.0;1.0;53.0;1.0;0.0;0.0;0.0;0.0;0.0;0.0;53.0;1.0;0.0;0.0;0.0;0.0;0.0;0.0;0.0;0.0;loc;marlin;diff;4f;recall;0.0
118;118_6ac9b2e7614766a38276d143592ba0b6e8f31271-LOC.arff;RAkELd;102.0;102.0;1.0;0.0;0.0;102.0;1.0;0.0;0.0;0.0;0.0;102.0;1.0;0.0;0.0;0.0;0.0;0.0;0.0;0.0;0.0;loc;marlin;diff;4f;recall;0.0
119;119_cdf0bd4e635508ba622e0a333ddf5ffbde90cfa3-LOC.arff;RAkELd;102.0;102.0;1.0;0.0;0.0;1.0;0.00980392156862745;101.0;0.9901960784313726;101.0;0.9901960784313726;1.0;0.00980392156862745;37.0;0.3627450980392157;0.9901960784313726;1.0;0.6552287581699346;0.6617161716171617;0.7598039215686274;0.7673267326732673;loc;marlin;diff;4f;recall;0.6552287581699346
120;120_235051253a504fa6f4866bda604f2612df7aad0e-LOC.arff;RAkELd;5.0;5.0;1.0;0.0;0.0;1.0;0.2;4.0;0.8;0.0;0.0;1.0;0.2;3.0;0.6;0.4;0.5;0.7;0.875;0.5;0.625;loc;marlin;diff;4f;recall;0.7
121;121_27654bfe697ee08a83f4f39567357827ef77fd1f-LOC.arff;RAkELd;5.0;5.0;1.0;0.0;0.0;1.0;0.2;4.0;0.8;0.0;0.0;1.0;0.2;3.0;0.6;0.4;0.5;0.7;0.875;0.5;0.625;loc;marlin;diff;4f;recall;0.7
124;124_57e163e98999b45b9fff814dfee20d2ea01947f1-LOC.arff;RAkELd;5.0;5.0;1.0;2.0;0.4;1.0;0.2;2.0;0.4;2.0;0.4;3.0;0.6;1.0;0.2;0.6666666666666666;1.0;0.5;0.75;0.5555555555555555;0.8333333333333333;loc;marlin;diff;4f;recall;0.5
125;125_a6823a84e18f7738cafe309c21b55a110ea51d6d-LOC.arff;RAkELd;13.0;13.0;1.0;0.0;0.0;0.0;0.0;13.0;1.0;13.0;1.0;0.0;0.0;5.0;0.38461538461538464;1.0;1.0;0.6923076923076923;0.6923076923076923;0.7948717948717948;0.7948717948717948;loc;marlin;diff;4f;recall;0.6923076923076923
127;127_191f36b4933be2686a51dd62dbe532ee90f38ab5-LOC.arff;RAkELd;303.0;303.0;1.0;0.0;0.0;0.0;0.0;303.0;1.0;146.0;0.48184818481848185;0.0;0.0;113.0;0.37293729372937295;0.7766776677667767;0.7766776677667767;0.7007779349363508;0.7007779349363508;0.7040861228980041;0.7040861228980041;loc;marlin;diff;4f;recall;0.7007779349363508
129;129_4d6a5c29df87270b13c6ec7b5adb58c1aa29e3a8-LOC.arff;RAkELd;312.0;312.0;1.0;0.0;0.0;8.0;0.02564102564102564;304.0;0.9743589743589743;148.0;0.47435897435897434;8.0;0.02564102564102564;107.0;0.34294871794871795;0.7564102564102564;0.7763157894736842;0.6730845543345543;0.690797305764411;0.6812118437118436;0.6991384711779448;loc;marlin;diff;4f;recall;0.6730845543345543
6;6_0024a26ccf47264343b65e8429fdd756a3250f64-LOC.arff;RAkELd;34.0;34.0;1.0;0.0;0.0;0.0;0.0;34.0;1.0;34.0;1.0;0.0;0.0;25.0;0.7352941176470589;1.0;1.0;0.8676470588235294;0.8676470588235294;0.9117647058823529;0.9117647058823529;loc;marlin;diff;4f;fscore;0.9117647058823529
7;7_b5f6482dcec6e78744167b177b61a41b2f0eb4bc-LOC.arff;RAkELd;40.0;40.0;1.0;0.0;0.0;0.0;0.0;40.0;1.0;40.0;1.0;0.0;0.0;31.0;0.775;1.0;1.0;0.8875;0.8875;0.925;0.925;loc;marlin;diff;4f;fscore;0.925
12;12_0b1423c303c6d7eef7d9f8f04666dd1a1a529bb7-LOC.arff;RAkELd;133.0;133.0;1.0;0.0;0.0;11.0;0.08270676691729323;122.0;0.9172932330827067;122.0;0.9172932330827067;11.0;0.08270676691729323;85.0;0.6390977443609023;0.9172932330827067;1.0;0.7781954887218046;0.8483606557377049;0.8245614035087719;0.8989071038251366;loc;marlin;diff;4f;fscore;0.8245614035087719
13;13_094afe7c1065d5663628b389f27687a5f465abb8-LOC.arff;RAkELd;530.0;530.0;1.0;0.0;0.0;397.0;0.7490566037735849;133.0;0.2509433962264151;133.0;0.2509433962264151;397.0;0.7490566037735849;86.0;0.16226415094339622;0.2509433962264151;1.0;0.2050314465408805;0.8170426065162908;0.219811320754717;0.8759398496240601;loc;marlin;diff;4f;fscore;0.219811320754717
14;14_bf879ceaa9685648adba645cadc6ce5aaa5fac85-LOC.arff;RAkELd;135.0;135.0;1.0;0.0;0.0;0.0;0.0;135.0;1.0;135.0;1.0;0.0;0.0;86.0;0.6370370370370371;1.0;1.0;0.808641975308642;0.808641975308642;0.8688888888888888;0.8688888888888888;loc;marlin;diff;4f;fscore;0.8688888888888888
16;16_d7c4f0780b41507ae6a40cc46efb59c526e58437-LOC.arff;RAkELd;140.0;140.0;1.0;0.0;0.0;0.0;0.0;140.0;1.0;140.0;1.0;0.0;0.0;89.0;0.6357142857142857;1.0;1.0;0.8083333333333333;0.8083333333333333;0.8688095238095238;0.8688095238095238;loc;marlin;diff;4f;fscore;0.8688095238095238
17;17_d15f01e1b45119838900da53128c619ebe93895d-LOC.arff;RAkELd;221.0;221.0;1.0;221.0;1.0;0.0;0.0;0.0;0.0;0.0;0.0;221.0;1.0;0.0;0.0;0.0;0.0;0.0;0.0;0.0;0.0;loc;marlin;diff;4f;fscore;0.0
18;18_00674af3a82e6b6b517a12ae3e77803df4f4892d-LOC.arff;RAkELd;3242.0;3242.0;1.0;1941.0;0.5987045033929673;962.0;0.29673041332510797;339.0;0.10456508328192474;339.0;0.10456508328192474;2903.0;0.8954349167180753;339.0;0.10456508328192474;0.2605687932359723;1.0;0.2605687932359723;1.0;0.2605687932359723;1.0;loc;marlin;diff;4f;fscore;0.2605687932359723
19;19_40e80816235739064fcc7fd74228c9c225387caf-LOC.arff;RAkELd;7.0;7.0;1.0;0.0;0.0;7.0;1.0;0.0;0.0;0.0;0.0;7.0;1.0;0.0;0.0;0.0;0.0;0.0;0.0;0.0;0.0;loc;marlin;diff;4f;fscore;0.0
20;20_8bcdb9f5f062fe68d90e31752453e1d662b3f0e2-LOC.arff;RAkELd;7.0;7.0;1.0;0.0;0.0;2.0;0.2857142857142857;5.0;0.7142857142857143;5.0;0.7142857142857143;2.0;0.2857142857142857;2.0;0.2857142857142857;0.7142857142857143;1.0;0.5;0.7;0.5714285714285714;0.8;loc;marlin;diff;4f;fscore;0.5714285714285714
22;22_ea86a5e10f7b8c0b2e0e0bf97a1fc95dbac4ae89-LOC.arff;RAkELd;215.0;215.0;1.0;0.0;0.0;6.0;0.027906976744186046;209.0;0.9720930232558139;209.0;0.9720930232558139;6.0;0.027906976744186046;122.0;0.5674418604651162;0.9720930232558139;1.0;0.7446511627906977;0.7660287081339713;0.8110077519379846;0.8342902711323764;loc;marlin;diff;4f;fscore;0.8110077519379846
23;23_04d3b5537f7c23adf7ea362a8492d21114aa6a2e-LOC.arff;RAkELd;230.0;230.0;1.0;0.0;0.0;18.0;0.0782608695652174;212.0;0.9217391304347826;212.0;0.9217391304347826;18.0;0.0782608695652174;124.0;0.5391304347826087;0.9217391304347826;1.0;0.702463768115942;0.7621069182389937;0.7648654244306418;0.829806828391734;loc;marlin;diff;4f;fscore;0.7648654244306418
24;24_2e8e8878e55f1455155e43590afbaa1ed21e8e3f-LOC.arff;RAkELd;230.0;230.0;1.0;0.0;0.0;18.0;0.0782608695652174;212.0;0.9217391304347826;212.0;0.9217391304347826;18.0;0.0782608695652174;120.0;0.5217391304347826;0.9217391304347826;1.0;0.6915942028985507;0.750314465408805;0.7568944099378883;0.8211590296495958;loc;marlin;diff;4f;fscore;0.7568944099378883
25;25_0b82465168e53a16d573610bb30495d70bd050b8-LOC.arff;RAkELd;203.0;203.0;1.0;0.0;0.0;0.0;0.0;203.0;1.0;203.0;1.0;0.0;0.0;115.0;0.5665024630541872;1.0;1.0;0.7499178981937602;0.7499178981937602;0.8206192821956368;0.8206192821956368;loc;marlin;diff;4f;fscore;0.8206192821956368
27;27_e8092898b1c4db328a2f5d247fe06603f586f924-LOC.arff;RAkELd;23.0;23.0;1.0;7.0;0.30434782608695654;16.0;0.6956521739130435;0.0;0.0;0.0;0.0;23.0;1.0;0.0;0.0;0.0;0.0;0.0;0.0;0.0;0.0;loc;marlin;diff;4f;fscore;0.0
29;29_1740a83e11c678c8621e6497350db13cd3d2426e-LOC.arff;RAkELd;3.0;3.0;1.0;0.0;0.0;3.0;1.0;0.0;0.0;0.0;0.0;3.0;1.0;0.0;0.0;0.0;0.0;0.0;0.0;0.0;0.0;loc;marlin;diff;4f;fscore;0.0
30;30_900e0c9bf23f7df6a2057af4b2c1f166e55e9163-LOC.arff;RAkELd;288.0;288.0;1.0;236.0;0.8194444444444444;52.0;0.18055555555555555;0.0;0.0;0.0;0.0;288.0;1.0;0.0;0.0;0.0;0.0;0.0;0.0;0.0;0.0;loc;marlin;diff;4f;fscore;0.0
31;31_1d171e9e52012c8129dfec2b7f2640e696678f2e-LOC.arff;RAkELd;33.0;33.0;1.0;0.0;0.0;33.0;1.0;0.0;0.0;0.0;0.0;33.0;1.0;0.0;0.0;0.0;0.0;0.0;0.0;0.0;0.0;loc;marlin;diff;4f;fscore;0.0
32;32_79d1bfb5c02793c88f554002e04b5263d81703b7-LOC.arff;RAkELd;212.0;212.0;1.0;0.0;0.0;0.0;0.0;212.0;1.0;212.0;1.0;0.0;0.0;78.0;0.36792452830188677;1.0;1.0;0.6357704402515724;0.6357704402515724;0.7389263252470799;0.7389263252470799;loc;marlin;diff;4f;fscore;0.7389263252470799
33;33_87aaf0f70a22686d2107efa01cfa19bba542c386-LOC.arff;RAkELd;523.0;523.0;1.0;523.0;1.0;0.0;0.0;0.0;0.0;0.0;0.0;523.0;1.0;0.0;0.0;0.0;0.0;0.0;0.0;0.0;0.0;loc;marlin;diff;4f;fscore;0.0
35;35_5cf349a24a610d7223c5bc88193c07c713818028-LOC.arff;RAkELd;212.0;212.0;1.0;212.0;1.0;0.0;0.0;0.0;0.0;0.0;0.0;212.0;1.0;0.0;0.0;0.0;0.0;0.0;0.0;0.0;0.0;loc;marlin;diff;4f;fscore;0.0
38;38_fc0064e525288baec961db28c6c4d07f3206f145-LOC.arff;RAkELd;212.0;212.0;1.0;0.0;0.0;0.0;0.0;212.0;1.0;212.0;1.0;0.0;0.0;73.0;0.3443396226415094;1.0;1.0;0.6216194968553459;0.6216194968553459;0.7287061994609165;0.7287061994609165;loc;marlin;diff;4f;fscore;0.7287061994609165
39;39_d3bfffcb6eabe886eb8c1a11bcdc66a1f680a882-LOC.arff;RAkELd;212.0;212.0;1.0;0.0;0.0;0.0;0.0;212.0;1.0;212.0;1.0;0.0;0.0;73.0;0.3443396226415094;1.0;1.0;0.6216194968553459;0.6216194968553459;0.7287061994609165;0.7287061994609165;loc;marlin;diff;4f;fscore;0.7287061994609165
44;44_977fd2b2c736047814d4fa51ebad91ad454cc4c9-LOC.arff;RAkELd;83.0;83.0;1.0;0.0;0.0;8.0;0.0963855421686747;75.0;0.9036144578313253;0.0;0.0;8.0;0.0963855421686747;24.0;0.2891566265060241;0.45180722891566266;0.5;0.5451807228915663;0.6033333333333334;0.4686746987951807;0.5186666666666666;loc;marlin;diff;4f;fscore;0.4686746987951807
45;45_72ace55e6ae964a5984a13e09492d1d92295f098-LOC.arff;RAkELd;70.0;70.0;1.0;58.0;0.8285714285714286;0.0;0.0;12.0;0.17142857142857143;12.0;0.17142857142857143;58.0;0.8285714285714286;10.0;0.14285714285714285;1.0;1.0;0.9166666666666666;0.9166666666666666;0.9444444444444443;0.9444444444444443;loc;marlin;diff;4f;fscore;0.9444444444444443
46;46_7b70caab7c4bdc45490d83730b62c5c2ea31e98e-LOC.arff;RAkELd;168.0;168.0;1.0;0.0;0.0;146.0;0.8690476190476191;22.0;0.13095238095238096;22.0;0.13095238095238096;146.0;0.8690476190476191;18.0;0.10714285714285714;0.13095238095238096;1.0;0.11904761904761904;0.9090909090909091;0.12301587301587302;0.9393939393939394;loc;marlin;diff;4f;fscore;0.12301587301587302
47;47_ab154d55927776add58c878f7de94e82b07bee1c-LOC.arff;RAkELd;246.0;246.0;1.0;0.0;0.0;31.0;0.12601626016260162;215.0;0.8739837398373984;212.0;0.8617886178861789;31.0;0.12601626016260162;19.0;0.07723577235772358;0.8678861788617886;0.9930232558139535;0.3860433604336043;0.44170542635658916;0.5125822686798296;0.5864894795127353;loc;marlin;diff;4f;fscore;0.5125822686798296
48;48_27361e7cd08d895cfa8930c9e114997fdfe995ec-LOC.arff;RAkELd;46.0;46.0;1.0;0.0;0.0;46.0;1.0;0.0;0.0;0.0;0.0;46.0;1.0;0.0;0.0;0.0;0.0;0.0;0.0;0.0;0.0;loc;marlin;diff;4f;fscore;0.0
49;49_ba8a53a40fa0adaa947b536639bab998cc872feb-LOC.arff;RAkELd;347.0;347.0;1.0;250.0;0.7204610951008645;97.0;0.27953890489913547;0.0;0.0;0.0;0.0;347.0;1.0;0.0;0.0;0.0;0.0;0.0;0.0;0.0;0.0;loc;marlin;diff;4f;fscore;0.0
51;51_e9adfa27b5c65f53c3f71e4348ccb51e7950c935-LOC.arff;RAkELd;63.0;63.0;1.0;0.0;0.0;63.0;1.0;0.0;0.0;0.0;0.0;63.0;1.0;0.0;0.0;0.0;0.0;0.0;0.0;0.0;0.0;loc;marlin;diff;4f;fscore;0.0
52;52_ff592b056ad492632a810e6c77a7d063b6ce05e3-LOC.arff;RAkELd;49.0;49.0;1.0;49.0;1.0;0.0;0.0;0.0;0.0;0.0;0.0;49.0;1.0;0.0;0.0;0.0;0.0;0.0;0.0;0.0;0.0;loc;marlin;diff;4f;fscore;0.0
53;53_9980ceb4a37ec1d2cae99b73ceae146ef7340e88-LOC.arff;RAkELd;249.0;249.0;1.0;233.0;0.9357429718875502;0.0;0.0;16.0;0.0642570281124498;16.0;0.0642570281124498;233.0;0.9357429718875502;6.0;0.024096385542168676;1.0;1.0;0.6875;0.6875;0.7916666666666666;0.7916666666666666;loc;marlin;diff;4f;fscore;0.7916666666666666
54;54_c57906b627bf7245578522ab50e9d35e9c6bc96b-LOC.arff;RAkELd;213.0;213.0;1.0;1.0;0.004694835680751174;120.0;0.5633802816901409;92.0;0.431924882629108;92.0;0.431924882629108;121.0;0.568075117370892;1.0;0.004694835680751174;0.4339622641509434;1.0;0.12853773584905662;0.296195652173913;0.19510332434860736;0.44958592132505176;loc;marlin;diff;4f;fscore;0.19510332434860736
56;56_02b9eceead9903beb9e1cf7d48f05fc2de8a8e8a-LOC.arff;RAkELd;264.0;264.0;1.0;0.0;0.0;0.0;0.0;264.0;1.0;218.0;0.8257575757575758;0.0;0.0;91.0;0.3446969696969697;0.9128787878787878;0.9128787878787878;0.6801857864357864;0.6801857864357864;0.7564454064454065;0.7564454064454065;loc;marlin;diff;4f;fscore;0.7564454064454065
57;57_a9c7da06e398101517acc5b7a07e8dcb544df294-LOC.arff;RAkELd;280.0;280.0;1.0;0.0;0.0;0.0;0.0;280.0;1.0;234.0;0.8357142857142857;0.0;0.0;87.0;0.3107142857142857;0.9178571428571428;0.9178571428571428;0.6541751700680272;0.6541751700680272;0.7416383219954649;0.7416383219954649;loc;marlin;diff;4f;fscore;0.7416383219954649
58;58_65934eee9c6ae792c708bc1cea9996c8a5df67f5-LOC.arff;RAkELd;494.0;494.0;1.0;494.0;1.0;0.0;0.0;0.0;0.0;0.0;0.0;494.0;1.0;0.0;0.0;0.0;0.0;0.0;0.0;0.0;0.0;loc;marlin;diff;4f;fscore;0.0
59;59_ac82411c73e43d6b4730c865c38301d355e0fa35-LOC.arff;RAkELd;287.0;287.0;1.0;0.0;0.0;0.0;0.0;287.0;1.0;224.0;0.7804878048780488;0.0;0.0;83.0;0.289198606271777;0.8902439024390244;0.8902439024390244;0.6385183341629335;0.6385183341629335;0.7202367125712074;0.7202367125712074;loc;marlin;diff;4f;fscore;0.7202367125712074
60;60_1d0452f10ce6d067836e483e3512c4099b4ca524-LOC.arff;RAkELd;287.0;287.0;1.0;0.0;0.0;0.0;0.0;287.0;1.0;220.0;0.7665505226480837;0.0;0.0;87.0;0.30313588850174217;0.8832752613240418;0.8832752613240418;0.6544881367181019;0.6544881367181019;0.7296443780764338;0.7296443780764338;loc;marlin;diff;4f;fscore;0.7296443780764338
62;62_2643ae93d69b4171acb18bf9994b12076b4f2496-LOC.arff;RAkELd;230.0;230.0;1.0;70.0;0.30434782608695654;145.0;0.6304347826086957;15.0;0.06521739130434782;15.0;0.06521739130434782;215.0;0.9347826086956522;3.0;0.013043478260869565;0.09375;1.0;0.05625;0.6;0.06875;0.7333333333333333;loc;marlin;diff;4f;fscore;0.06875
63;63_331e82dcd3d7eaf9f76dbec8759f2f730335fea3-LOC.arff;RAkELd;304.0;304.0;1.0;17.0;0.05592105263157895;154.0;0.506578947368421;133.0;0.4375;133.0;0.4375;171.0;0.5625;0.0;0.0;0.4634146341463415;1.0;0.123353243736519;0.26618331543143575;0.1931640949062552;0.41682778374507695;loc;marlin;diff;4f;fscore;0.1931640949062552
64;64_95126c09c0ffbea8f15ba74105f403d8c36683cf-LOC.arff;RAkELd;311.0;311.0;1.0;5.0;0.01607717041800643;0.0;0.0;306.0;0.9839228295819936;243.0;0.7813504823151125;5.0;0.01607717041800643;98.0;0.31511254019292606;0.8970588235294118;0.8970588235294118;0.6604186118892001;0.6604186118892001;0.7391171283328146;0.7391171283328146;loc;marlin;diff;4f;fscore;0.7391171283328146
65;65_5fd41ae872d51961a7f3e60ba9b6a7cba85d61f7-LOC.arff;RAkELd;335.0;335.0;1.0;48.0;0.14328358208955225;0.0;0.0;287.0;0.8567164179104477;227.0;0.6776119402985075;48.0;0.14328358208955225;79.0;0.23582089552238805;0.8954703832752613;0.8954703832752613;0.6267297162767546;0.6267297162767546;0.7144958796526741;0.7144958796526741;loc;marlin;diff;4f;fscore;0.7144958796526741
66;66_805d37f77b25fba70c05518cda4edd1c349b7f04-LOC.arff;RAkELd;287.0;287.0;1.0;0.0;0.0;0.0;0.0;287.0;1.0;111.0;0.3867595818815331;0.0;0.0;128.0;0.445993031358885;0.7491289198606271;0.7491289198606271;0.7675626348100216;0.7675626348100216;0.7351252696200431;0.7351252696200431;loc;marlin;diff;4f;fscore;0.7351252696200431
67;67_46f80e82d947dcb928abdfe96ee1e2f48ea82de5-LOC.arff;RAkELd;287.0;287.0;1.0;0.0;0.0;0.0;0.0;287.0;1.0;224.0;0.7804878048780488;0.0;0.0;83.0;0.289198606271777;0.8893728222996515;0.8893728222996515;0.6438609590177534;0.6438609590177534;0.7251313533543499;0.7251313533543499;loc;marlin;diff;4f;fscore;0.7251313533543499
69;69_5df5727e939de26c828041ea7083a07c72f475da-LOC.arff;RAkELd;287.0;287.0;1.0;0.0;0.0;0.0;0.0;287.0;1.0;225.0;0.7839721254355401;0.0;0.0;83.0;0.289198606271777;0.89198606271777;0.89198606271777;0.6438609590177534;0.6438609590177534;0.7258779934738123;0.7258779934738123;loc;marlin;diff;4f;fscore;0.7258779934738123
70;70_edb5ea7efa555b59f17655e20e93d9e93499d5d8-LOC.arff;RAkELd;287.0;287.0;1.0;0.0;0.0;0.0;0.0;287.0;1.0;225.0;0.7839721254355401;0.0;0.0;77.0;0.2682926829268293;0.89198606271777;0.89198606271777;0.6319064211050274;0.6319064211050274;0.718218018914883;0.718218018914883;loc;marlin;diff;4f;fscore;0.718218018914883
71;71_e7dca8614be5cac516c0d7989a28abdf21d412d8-LOC.arff;RAkELd;302.0;302.0;1.0;25.0;0.08278145695364239;137.0;0.45364238410596025;140.0;0.46357615894039733;140.0;0.46357615894039733;162.0;0.5364238410596026;0.0;0.0;0.5054151624548736;1.0;0.13235344679388;0.2618707482993197;0.2078304968196665;0.4112074829931973;loc;marlin;diff;4f;fscore;0.2078304968196665
72;72_e63e224a33011f2aa302ee435acc066af8a87ddb-LOC.arff;RAkELd;302.0;302.0;1.0;0.0;0.0;162.0;0.5364238410596026;140.0;0.46357615894039733;140.0;0.46357615894039733;162.0;0.5364238410596026;0.0;0.0;0.46357615894039733;1.0;0.12139703563544622;0.2618707482993197;0.19062598549353518;0.4112074829931973;loc;marlin;diff;4f;fscore;0.19062598549353518
73;73_b15902d3b5131d1ddfc4d52ce99a54827ece5d53-LOC.arff;RAkELd;302.0;302.0;1.0;0.0;0.0;0.0;0.0;302.0;1.0;141.0;0.46688741721854304;0.0;0.0;129.0;0.4271523178807947;0.7748344370860927;0.7748344370860927;0.7340034689372438;0.7340034689372438;0.7220356354462315;0.7220356354462315;loc;marlin;diff;4f;fscore;0.7220356354462315
75;75_ff69e0a772c71226be7d6000c5096c0a850e3a62-LOC.arff;RAkELd;64.0;64.0;1.0;0.0;0.0;0.0;0.0;64.0;1.0;0.0;0.0;0.0;0.0;0.0;0.0;0.5;0.5;0.3453125;0.3453125;0.3997767857142857;0.3997767857142857;loc;marlin;diff;4f;fscore;0.3997767857142857
79;79_9d90220537583b98b726dab13e3c553d676d631e-LOC.arff;RAkELd;302.0;302.0;1.0;0.0;0.0;0.0;0.0;302.0;1.0;236.0;0.7814569536423841;0.0;0.0;83.0;0.27483443708609273;0.890728476821192;0.890728476821192;0.6126064333017975;0.6126064333017975;0.6991643014821823;0.6991643014821823;loc;marlin;diff;4f;fscore;0.6991643014821823
82;82_8a08b8e07e0bd84c1778eca7f3f32fafff5c3af5-LOC.arff;RAkELd;302.0;302.0;1.0;0.0;0.0;0.0;0.0;302.0;1.0;236.0;0.7814569536423841;0.0;0.0;83.0;0.27483443708609273;0.890728476821192;0.890728476821192;0.6126064333017975;0.6126064333017975;0.6991643014821823;0.6991643014821823;loc;marlin;diff;4f;fscore;0.6991643014821823
84;84_537b5c155dd0e35080528bcaba088d0d177aa2bd-LOC.arff;RAkELd;241.0;241.0;1.0;18.0;0.07468879668049792;115.0;0.47717842323651455;108.0;0.44813278008298757;108.0;0.44813278008298757;133.0;0.5518672199170125;0.0;0.0;0.484304932735426;1.0;0.1273649370061926;0.26298500881834214;0.19976510783685672;0.41247795414462085;loc;marlin;diff;4f;fscore;0.19976510783685672
86;86_2a6afee83292e5b741cb99ca4b7b30b7acfe7529-LOC.arff;RAkELd;64.0;64.0;1.0;0.0;0.0;0.0;0.0;64.0;1.0;61.0;0.953125;0.0;0.0;16.0;0.25;0.9765625;0.9765625;0.6684895833333333;0.6684895833333333;0.7750744047619048;0.7750744047619048;loc;marlin;diff;4f;fscore;0.7750744047619048
87;87_953d830bba02eb71376c51ccee2c5599bf976df5-LOC.arff;RAkELd;197.0;197.0;1.0;0.0;0.0;1.0;0.005076142131979695;196.0;0.9949238578680203;102.0;0.5177664974619289;1.0;0.005076142131979695;84.0;0.4263959390862944;0.8189509306260576;0.8231292517006803;0.752997341068407;0.7568391642371234;0.7529369108049311;0.7567784256559766;loc;marlin;diff;4f;fscore;0.7529369108049311
89;89_7a2d1f5aeb85225a7d71e8b95982e36c5fb17722-LOC.arff;RAkELd;6.0;6.0;1.0;0.0;0.0;6.0;1.0;0.0;0.0;0.0;0.0;6.0;1.0;0.0;0.0;0.0;0.0;0.0;0.0;0.0;0.0;loc;marlin;diff;4f;fscore;0.0
90;90_5ad1d19384ba3ea8a1e6c33babc63de1d28acf31-LOC.arff;RAkELd;302.0;302.0;1.0;0.0;0.0;0.0;0.0;302.0;1.0;233.0;0.7715231788079471;0.0;0.0;77.0;0.25496688741721857;0.8857615894039735;0.8857615894039735;0.600685903500473;0.600685903500473;0.689908546199937;0.689908546199937;loc;marlin;diff;4f;fscore;0.689908546199937
94;94_915ef2d4a136df67f468917c725d032919e189d4-LOC.arff;RAkELd;302.0;302.0;1.0;0.0;0.0;0.0;0.0;302.0;1.0;233.0;0.7715231788079471;0.0;0.0;77.0;0.25496688741721857;0.8857615894039735;0.8857615894039735;0.600685903500473;0.600685903500473;0.689908546199937;0.689908546199937;loc;marlin;diff;4f;fscore;0.689908546199937
100;100_6dba34ab0ed5b5f89b70ebe71086200606319bd8-LOC.arff;RAkELd;459.0;459.0;1.0;0.0;0.0;73.0;0.15904139433551198;386.0;0.840958605664488;85.0;0.18518518518518517;73.0;0.15904139433551198;77.0;0.16775599128540306;0.5649963689179375;0.6718480138169257;0.459347442680776;0.5462188502343942;0.46782688383995574;0.5563019162760096;loc;marlin;diff;4f;fscore;0.46782688383995574
104;104_d8e7e2f72e28d2df29f3f8b23215419e21b0727b-LOC.arff;RAkELd;128.0;128.0;1.0;0.0;0.0;0.0;0.0;128.0;1.0;117.0;0.9140625;0.0;0.0;90.0;0.703125;0.95703125;0.95703125;0.8932291666666666;0.8932291666666666;0.90703125;0.90703125;loc;marlin;diff;4f;fscore;0.90703125
105;105_cd2268f10a88de393a565c887c8891c7f7979a97-LOC.arff;RAkELd;12.0;12.0;1.0;0.0;0.0;0.0;0.0;12.0;1.0;12.0;1.0;0.0;0.0;5.0;0.4166666666666667;1.0;1.0;0.7083333333333334;0.7083333333333334;0.8055555555555555;0.8055555555555555;loc;marlin;diff;4f;fscore;0.8055555555555555
106;106_b21d5193f25e3e388ddc3787aba7f0086a1abad7-LOC.arff;RAkELd;459.0;459.0;1.0;0.0;0.0;55.0;0.11982570806100218;404.0;0.8801742919389978;236.0;0.514161220043573;55.0;0.11982570806100218;139.0;0.3028322440087146;0.7220406681190995;0.8203382838283829;0.599859943977591;0.681524045261669;0.6205674862537608;0.7050506836397925;loc;marlin;diff;4f;fscore;0.6205674862537608
107;107_eeb4f029dbaa8f12350f631441303832fc14fc9e-LOC.arff;RAkELd;12.0;12.0;1.0;0.0;0.0;0.0;0.0;12.0;1.0;7.0;0.5833333333333334;0.0;0.0;5.0;0.4166666666666667;0.7222222222222222;0.7222222222222222;0.7083333333333334;0.7083333333333334;0.6944444444444445;0.6944444444444445;loc;marlin;diff;4f;fscore;0.6944444444444445
109;109_379ea642e181ee072a80d361dfb043e7f3318103-LOC.arff;RAkELd;132.0;132.0;1.0;0.0;0.0;0.0;0.0;132.0;1.0;121.0;0.9166666666666666;0.0;0.0;94.0;0.7121212121212122;0.9583333333333334;0.9583333333333334;0.8964646464646464;0.8964646464646464;0.9098484848484848;0.9098484848484848;loc;marlin;diff;4f;fscore;0.9098484848484848
110;110_924bab1a031101634ba350cd8daf1c5a2e08430a-LOC.arff;RAkELd;27.0;27.0;1.0;0.0;0.0;27.0;1.0;0.0;0.0;0.0;0.0;27.0;1.0;0.0;0.0;0.0;0.0;0.0;0.0;0.0;0.0;loc;marlin;diff;4f;fscore;0.0
111;111_959d82e81e3a8185992a4c8edeff171fed9f01ca-LOC.arff;RAkELd;27.0;27.0;1.0;0.0;0.0;9.0;0.3333333333333333;18.0;0.6666666666666666;18.0;0.6666666666666666;9.0;0.3333333333333333;8.0;0.2962962962962963;0.6666666666666666;1.0;0.48148148148148145;0.7222222222222222;0.5432098765432098;0.8148148148148148;loc;marlin;diff;4f;fscore;0.5432098765432098
114;114_0db97b9c7f4cb26e4a767c9aa2a4b8be4007e209-LOC.arff;RAkELd;302.0;302.0;1.0;0.0;0.0;0.0;0.0;302.0;1.0;120.0;0.3973509933774834;0.0;0.0;121.0;0.40066225165562913;0.7373068432671082;0.7373068432671082;0.7188820561337117;0.7188820561337117;0.7032324187953327;0.7032324187953327;loc;marlin;diff;4f;fscore;0.7032324187953327
116;116_0e0e4945d8ad060aa50552a0b27369c18442c2d0-LOC.arff;RAkELd;53.0;53.0;1.0;53.0;1.0;0.0;0.0;0.0;0.0;0.0;0.0;53.0;1.0;0.0;0.0;0.0;0.0;0.0;0.0;0.0;0.0;loc;marlin;diff;4f;fscore;0.0
118;118_6ac9b2e7614766a38276d143592ba0b6e8f31271-LOC.arff;RAkELd;102.0;102.0;1.0;0.0;0.0;102.0;1.0;0.0;0.0;0.0;0.0;102.0;1.0;0.0;0.0;0.0;0.0;0.0;0.0;0.0;0.0;loc;marlin;diff;4f;fscore;0.0
119;119_cdf0bd4e635508ba622e0a333ddf5ffbde90cfa3-LOC.arff;RAkELd;102.0;102.0;1.0;0.0;0.0;1.0;0.00980392156862745;101.0;0.9901960784313726;101.0;0.9901960784313726;1.0;0.00980392156862745;37.0;0.3627450980392157;0.9901960784313726;1.0;0.6552287581699346;0.6617161716171617;0.7598039215686274;0.7673267326732673;loc;marlin;diff;4f;fscore;0.7598039215686274
120;120_235051253a504fa6f4866bda604f2612df7aad0e-LOC.arff;RAkELd;5.0;5.0;1.0;0.0;0.0;1.0;0.2;4.0;0.8;0.0;0.0;1.0;0.2;3.0;0.6;0.4;0.5;0.7;0.875;0.5;0.625;loc;marlin;diff;4f;fscore;0.5
121;121_27654bfe697ee08a83f4f39567357827ef77fd1f-LOC.arff;RAkELd;5.0;5.0;1.0;0.0;0.0;1.0;0.2;4.0;0.8;0.0;0.0;1.0;0.2;3.0;0.6;0.4;0.5;0.7;0.875;0.5;0.625;loc;marlin;diff;4f;fscore;0.5
124;124_57e163e98999b45b9fff814dfee20d2ea01947f1-LOC.arff;RAkELd;5.0;5.0;1.0;2.0;0.4;1.0;0.2;2.0;0.4;2.0;0.4;3.0;0.6;1.0;0.2;0.6666666666666666;1.0;0.5;0.75;0.5555555555555555;0.8333333333333333;loc;marlin;diff;4f;fscore;0.5555555555555555
125;125_a6823a84e18f7738cafe309c21b55a110ea51d6d-LOC.arff;RAkELd;13.0;13.0;1.0;0.0;0.0;0.0;0.0;13.0;1.0;13.0;1.0;0.0;0.0;5.0;0.38461538461538464;1.0;1.0;0.6923076923076923;0.6923076923076923;0.7948717948717948;0.7948717948717948;loc;marlin;diff;4f;fscore;0.7948717948717948
127;127_191f36b4933be2686a51dd62dbe532ee90f38ab5-LOC.arff;RAkELd;303.0;303.0;1.0;0.0;0.0;0.0;0.0;303.0;1.0;146.0;0.48184818481848185;0.0;0.0;113.0;0.37293729372937295;0.7766776677667767;0.7766776677667767;0.7007779349363508;0.7007779349363508;0.7040861228980041;0.7040861228980041;loc;marlin;diff;4f;fscore;0.7040861228980041
129;129_4d6a5c29df87270b13c6ec7b5adb58c1aa29e3a8-LOC.arff;RAkELd;312.0;312.0;1.0;0.0;0.0;8.0;0.02564102564102564;304.0;0.9743589743589743;148.0;0.47435897435897434;8.0;0.02564102564102564;107.0;0.34294871794871795;0.7564102564102564;0.7763157894736842;0.6730845543345543;0.690797305764411;0.6812118437118436;0.6991384711779448;loc;marlin;diff;4f;fscore;0.6812118437118436
