commit;DataSet;Classifier;TotalInstances;InstancesWithRankedLabels;PercentageOfInstancesWithRankedLabels;InstancesWithPrecisionNull;PercentageOfInstancesWithPrecisionNull;InstancesWithPrecisionZero;PercentageOfInstancesWithPrecisionZero;InstancesWithPrecisionNonZero;PercentageOfInstancesWithPrecisionNonZero;InstancesWithPrecisionOne;PercentageOfInstancesWithPrecisionOne;InstancesWithRecallZero;PercentageOfInstancesWithRecallZero;InstancesWithRecallOne;PercentageOfInstancesWithRecallOne;AveragePrecisionForAllNonNullPrecision;AveragePrecisionForNonZeroPrecision;AverageRecallForAllNonNullPrecision;AverageRecallForAllNonZeroPrecision;AverageFScoreForAllNonNullPrecision;AverageFScoreForAllNonZeroPrecision;Level;project;clusters;feature;measure;measurevalue
7;7_7a7c87aedb9974d4b1f84ca4ab80dba640d0e0d4-LOC.arff;RAkELd;6.0;6.0;1.0;6.0;1.0;0.0;0.0;0.0;0.0;0.0;0.0;6.0;1.0;0.0;0.0;0.0;0.0;0.0;0.0;0.0;0.0;loc;ide;diff;11f;precision;0.0
11;11_9bf8b2fda3eb5feee5a8fa644dd2a559fea95fc5-LOC.arff;RAkELd;14.0;14.0;1.0;14.0;1.0;0.0;0.0;0.0;0.0;0.0;0.0;14.0;1.0;0.0;0.0;0.0;0.0;0.0;0.0;0.0;0.0;loc;ide;diff;11f;precision;0.0
17;17_da3e20a4618706b4fefe6668860120973f261174-LOC.arff;RAkELd;2.0;2.0;1.0;0.0;0.0;1.0;0.5;1.0;0.5;0.0;0.0;1.0;0.5;1.0;0.5;0.25;0.5;0.5;1.0;0.3333333333333333;0.6666666666666666;loc;ide;diff;11f;precision;0.25
18;18_f9744676f5fc2b1cd17e1d529e834a1aa25baedb-LOC.arff;RAkELd;2.0;2.0;1.0;1.0;0.5;0.0;0.0;1.0;0.5;1.0;0.5;1.0;0.5;1.0;0.5;1.0;1.0;1.0;1.0;1.0;1.0;loc;ide;diff;11f;precision;1.0
20;20_efa08edd831faabee1ca5dae56561504f1435e16-LOC.arff;RAkELd;36.0;36.0;1.0;0.0;0.0;33.0;0.9166666666666666;3.0;0.08333333333333333;2.0;0.05555555555555555;33.0;0.9166666666666666;1.0;0.027777777777777776;0.06944444444444445;0.8333333333333334;0.05555555555555555;0.6666666666666666;0.05555555555555555;0.6666666666666666;loc;ide;diff;11f;precision;0.06944444444444445
24;24_d8b4a77b6f37179a265b120bdfbd8c44f7e66b80-LOC.arff;RAkELd;26.0;26.0;1.0;5.0;0.19230769230769232;8.0;0.3076923076923077;13.0;0.5;13.0;0.5;13.0;0.5;11.0;0.4230769230769231;0.6190476190476191;1.0;0.5714285714285714;0.9230769230769231;0.5873015873015873;0.9487179487179488;loc;ide;diff;11f;precision;0.6190476190476191
29;29_4e2d4bf3ba8d393c0161924911a21570ba25d7a0-LOC.arff;RAkELd;23.0;23.0;1.0;0.0;0.0;8.0;0.34782608695652173;15.0;0.6521739130434783;0.0;0.0;8.0;0.34782608695652173;0.0;0.0;0.32608695652173914;0.5;0.2717391304347826;0.4166666666666667;0.2927536231884058;0.4488888888888889;loc;ide;diff;11f;precision;0.32608695652173914
30;30_ab8d7e7e99dce24a5499641314192b64a62bd045-LOC.arff;RAkELd;95.0;95.0;1.0;0.0;0.0;30.0;0.3157894736842105;65.0;0.6842105263157895;43.0;0.45263157894736844;30.0;0.3157894736842105;28.0;0.29473684210526313;0.5824561403508772;0.8512820512820514;0.5135087719298246;0.7505128205128205;0.5317293233082706;0.7771428571428571;loc;ide;diff;11f;precision;0.5824561403508772
31;31_746ef129fab6c2ec90fa3356a637c38e7aa460a7-LOC.arff;RAkELd;97.0;97.0;1.0;8.0;0.08247422680412371;38.0;0.3917525773195876;51.0;0.5257731958762887;43.0;0.44329896907216493;46.0;0.4742268041237113;18.0;0.18556701030927836;0.5280898876404494;0.9215686274509803;0.4067415730337079;0.7098039215686275;0.4507223113964687;0.7865546218487395;loc;ide;diff;11f;precision;0.5280898876404494
37;37_a6f39393b82fcb801d316dedd94a191091db6ad5-LOC.arff;RAkELd;48.0;48.0;1.0;0.0;0.0;33.0;0.6875;15.0;0.3125;15.0;0.3125;33.0;0.6875;12.0;0.25;0.3125;1.0;0.28125;0.9;0.2916666666666667;0.9333333333333333;loc;ide;diff;11f;precision;0.3125
39;39_8b1f7e8cf42523fa177eef78cae189393d8909bb-LOC.arff;RAkELd;16.0;16.0;1.0;0.0;0.0;0.0;0.0;16.0;1.0;16.0;1.0;0.0;0.0;12.0;0.75;1.0;1.0;0.875;0.875;0.9166666666666666;0.9166666666666666;loc;ide;diff;11f;precision;1.0
40;40_4a99f9ffea0f6f9a7ef3305190a689b6fc50926a-LOC.arff;RAkELd;16.0;16.0;1.0;0.0;0.0;0.0;0.0;16.0;1.0;15.0;0.9375;0.0;0.0;15.0;0.9375;0.96875;0.96875;0.96875;0.96875;0.9583333333333334;0.9583333333333334;loc;ide;diff;11f;precision;0.96875
46;46_0b8dd9dc6033b1155378977f10d881b602c0425e-LOC.arff;RAkELd;37.0;37.0;1.0;17.0;0.4594594594594595;14.0;0.3783783783783784;6.0;0.16216216216216217;6.0;0.16216216216216217;31.0;0.8378378378378378;0.0;0.0;0.3;1.0;0.07166666666666667;0.2388888888888889;0.11500000000000002;0.38333333333333336;loc;ide;diff;11f;precision;0.3
47;47_5cfd31e4828489d82d4bbe335865b8b993632a1b-LOC.arff;RAkELd;3.0;3.0;1.0;0.0;0.0;3.0;1.0;0.0;0.0;0.0;0.0;3.0;1.0;0.0;0.0;0.0;0.0;0.0;0.0;0.0;0.0;loc;ide;diff;11f;precision;0.0
48;48_794650939a51f20a13e6d97c0c87727e8ba2f47c-LOC.arff;RAkELd;3.0;3.0;1.0;0.0;0.0;0.0;0.0;3.0;1.0;3.0;1.0;0.0;0.0;3.0;1.0;1.0;1.0;1.0;1.0;1.0;1.0;loc;ide;diff;11f;precision;1.0
52;52_21339b2f9739c5d801601cfc2a2c997196389e69-LOC.arff;RAkELd;28.0;28.0;1.0;0.0;0.0;24.0;0.8571428571428571;4.0;0.14285714285714285;4.0;0.14285714285714285;24.0;0.8571428571428571;0.0;0.0;0.14285714285714285;1.0;0.07142857142857142;0.5;0.09523809523809523;0.6666666666666666;loc;ide;diff;11f;precision;0.14285714285714285
53;53_3844b6bd98df06f8bcb8ca905eae8e4b83d29fd6-LOC.arff;RAkELd;17.0;17.0;1.0;0.0;0.0;0.0;0.0;17.0;1.0;17.0;1.0;0.0;0.0;13.0;0.7647058823529411;1.0;1.0;0.8823529411764706;0.8823529411764706;0.9215686274509803;0.9215686274509803;loc;ide;diff;11f;precision;1.0
54;54_f12128dcfa9a723a013f5bdbe6ee3d17099b6d71-LOC.arff;RAkELd;84.0;84.0;1.0;0.0;0.0;33.0;0.39285714285714285;51.0;0.6071428571428571;24.0;0.2857142857142857;33.0;0.39285714285714285;19.0;0.2261904761904762;0.44642857142857145;0.7352941176470589;0.417063492063492;0.6869281045751634;0.411281179138322;0.6774042950513539;loc;ide;diff;11f;precision;0.44642857142857145
55;55_cbc0de4f9ad2930d2b879b642f72e59416f9e977-LOC.arff;RAkELd;140.0;140.0;1.0;0.0;0.0;67.0;0.4785714285714286;73.0;0.5214285714285715;2.0;0.014285714285714285;67.0;0.4785714285714286;15.0;0.10714285714285714;0.26785714285714285;0.5136986301369864;0.2892857142857143;0.5547945205479452;0.26595238095238094;0.5100456621004567;loc;ide;diff;11f;precision;0.26785714285714285
57;57_7f0c85eae897fbcd687f55d915507c322ceb7cae-LOC.arff;RAkELd;101.0;101.0;1.0;0.0;0.0;44.0;0.43564356435643564;57.0;0.5643564356435643;8.0;0.07920792079207921;44.0;0.43564356435643564;23.0;0.22772277227722773;0.3316831683168317;0.5877192982456141;0.41089108910891087;0.7280701754385965;0.3534653465346535;0.6263157894736843;loc;ide;diff;11f;precision;0.3316831683168317
58;58_0a3d36c57cc9defe930071eb0f3d7ac33223e116-LOC.arff;RAkELd;128.0;128.0;1.0;0.0;0.0;65.0;0.5078125;63.0;0.4921875;22.0;0.171875;65.0;0.5078125;28.0;0.21875;0.33203125;0.6746031746031746;0.3372395833333333;0.6851851851851851;0.32057291666666665;0.6513227513227513;loc;ide;diff;11f;precision;0.33203125
59;59_d407796e499262d2063bdb8bdf556fe237daca75-LOC.arff;RAkELd;20.0;20.0;1.0;0.0;0.0;11.0;0.55;9.0;0.45;0.0;0.0;11.0;0.55;1.0;0.05;0.24166666666666664;0.537037037037037;0.20833333333333334;0.462962962962963;0.215;0.47777777777777775;loc;ide;diff;11f;precision;0.24166666666666664
62;62_6fb26410e33b9aae4de58f33132efd09f4cd992c-LOC.arff;RAkELd;22.0;22.0;1.0;0.0;0.0;12.0;0.5454545454545454;10.0;0.45454545454545453;0.0;0.0;12.0;0.5454545454545454;0.0;0.0;0.26515151515151514;0.5833333333333333;0.18939393939393936;0.41666666666666663;0.2207792207792208;0.48571428571428577;loc;ide;diff;11f;precision;0.26515151515151514
63;63_12dcc99d75cd3cd9d8efb7d316656e4d19bc8d52-LOC.arff;RAkELd;25.0;25.0;1.0;0.0;0.0;9.0;0.36;16.0;0.64;14.0;0.56;9.0;0.36;4.0;0.16;0.6066666666666667;0.9479166666666666;0.44666666666666666;0.6979166666666666;0.4944761904761905;0.7726190476190476;loc;ide;diff;11f;precision;0.6066666666666667
64;64_b33605b07445d3258df8229a1e786dc5b4ab4a06-LOC.arff;RAkELd;70.0;70.0;1.0;25.0;0.35714285714285715;19.0;0.2714285714285714;26.0;0.37142857142857144;11.0;0.15714285714285714;44.0;0.6285714285714286;15.0;0.21428571428571427;0.3888888888888889;0.6730769230769231;0.40925925925925927;0.7083333333333334;0.38708994708994704;0.6699633699633699;loc;ide;diff;11f;precision;0.3888888888888889
65;65_a40b2b29bb20a3c1ec25b73360d6712cdb97cd98-LOC.arff;RAkELd;194.0;194.0;1.0;0.0;0.0;80.0;0.41237113402061853;114.0;0.5876288659793815;48.0;0.24742268041237114;80.0;0.41237113402061853;67.0;0.34536082474226804;0.41494845360824745;0.706140350877193;0.47465635738831613;0.8077485380116959;0.4258468335787923;0.7246867167919799;loc;ide;diff;11f;precision;0.41494845360824745
68;68_e041ff570250275045c01f6d4a87b9a73f92f416-LOC.arff;RAkELd;18.0;18.0;1.0;2.0;0.1111111111111111;12.0;0.6666666666666666;4.0;0.2222222222222222;2.0;0.1111111111111111;14.0;0.7777777777777778;2.0;0.1111111111111111;0.17708333333333334;0.7083333333333334;0.17708333333333334;0.7083333333333334;0.175;0.7;loc;ide;diff;11f;precision;0.17708333333333334
69;69_5b6d5707ee06cf659ff4d3d7e71241e532fcfeb2-LOC.arff;RAkELd;19.0;19.0;1.0;0.0;0.0;19.0;1.0;0.0;0.0;0.0;0.0;19.0;1.0;0.0;0.0;0.0;0.0;0.0;0.0;0.0;0.0;loc;ide;diff;11f;precision;0.0
70;70_c4ade34b0c9b55328fad8c3294289e3a086aa0d2-LOC.arff;RAkELd;19.0;19.0;1.0;0.0;0.0;0.0;0.0;19.0;1.0;19.0;1.0;0.0;0.0;19.0;1.0;1.0;1.0;1.0;1.0;1.0;1.0;loc;ide;diff;11f;precision;1.0
75;75_13ec2a47ff332e9c1a1c642068d26a7fae43e5cb-LOC.arff;RAkELd;53.0;53.0;1.0;0.0;0.0;53.0;1.0;0.0;0.0;0.0;0.0;53.0;1.0;0.0;0.0;0.0;0.0;0.0;0.0;0.0;0.0;loc;ide;diff;11f;precision;0.0
76;76_3955fd03aad3b9ea6cc6e8fc5c6e421f9c90d79d-LOC.arff;RAkELd;57.0;57.0;1.0;54.0;0.9473684210526315;3.0;0.05263157894736842;0.0;0.0;0.0;0.0;57.0;1.0;0.0;0.0;0.0;0.0;0.0;0.0;0.0;0.0;loc;ide;diff;11f;precision;0.0
77;77_d9d81ba61b4b3897a898e54fdd7867898f222550-LOC.arff;RAkELd;63.0;63.0;1.0;0.0;0.0;50.0;0.7936507936507936;13.0;0.20634920634920634;0.0;0.0;50.0;0.7936507936507936;9.0;0.14285714285714285;0.10317460317460317;0.5;0.16402116402116404;0.7948717948717949;0.12063492063492062;0.5846153846153845;loc;ide;diff;11f;precision;0.10317460317460317
78;78_c5d04b9750c4053c726bd4950d1c78bedb75f8e7-LOC.arff;RAkELd;44.0;44.0;1.0;0.0;0.0;0.0;0.0;44.0;1.0;41.0;0.9318181818181818;0.0;0.0;37.0;0.8409090909090909;0.9659090909090909;0.9659090909090909;0.9204545454545454;0.9204545454545454;0.9242424242424242;0.9242424242424242;loc;ide;diff;11f;precision;0.9659090909090909
79;79_04c38c3d1120e0d8b9741e41bd62cbdfa3109a65-LOC.arff;RAkELd;203.0;203.0;1.0;0.0;0.0;137.0;0.6748768472906403;66.0;0.3251231527093596;55.0;0.270935960591133;137.0;0.6748768472906403;8.0;0.03940886699507389;0.29802955665024633;0.9166666666666666;0.1564039408866995;0.4810606060606061;0.19638752052545155;0.604040404040404;loc;ide;diff;11f;precision;0.29802955665024633
80;80_3e1f7782b8b8f1d2b8ddabc9cbeeaa7d9c199e5f-LOC.arff;RAkELd;312.0;312.0;1.0;0.0;0.0;151.0;0.483974358974359;161.0;0.5160256410256411;49.0;0.15705128205128205;151.0;0.483974358974359;47.0;0.15064102564102563;0.3143696581196581;0.6092132505175983;0.3213141025641026;0.6226708074534162;0.27431318681318684;0.5315882874889086;loc;ide;diff;11f;precision;0.3143696581196581
81;81_e316290ea16a2bff350a5e0a481e408c38272e12-LOC.arff;RAkELd;10.0;10.0;1.0;10.0;1.0;0.0;0.0;0.0;0.0;0.0;0.0;10.0;1.0;0.0;0.0;0.0;0.0;0.0;0.0;0.0;0.0;loc;ide;diff;11f;precision;0.0
82;82_4f6a8c5831459ebfd4d552f8766037a94723f21b-LOC.arff;RAkELd;223.0;223.0;1.0;52.0;0.23318385650224216;68.0;0.30493273542600896;103.0;0.4618834080717489;84.0;0.37668161434977576;120.0;0.5381165919282511;44.0;0.19730941704035873;0.5467836257309941;0.9077669902912622;0.4244639376218323;0.7046925566343042;0.4559454191033139;0.756957928802589;loc;ide;diff;11f;precision;0.5467836257309941
83;83_73532e34ce3061f98657eb2ef02af7e4258c825b-LOC.arff;RAkELd;239.0;239.0;1.0;1.0;0.0041841004184100415;68.0;0.28451882845188287;170.0;0.7112970711297071;113.0;0.47280334728033474;69.0;0.28870292887029286;79.0;0.3305439330543933;0.5966386554621849;0.8352941176470589;0.5016806722689076;0.7023529411764706;0.5230092036814726;0.7322128851540617;loc;ide;diff;11f;precision;0.5966386554621849
85;85_f13f5ee8af1d30ba46330b284421a0147aaaedd4-LOC.arff;RAkELd;206.0;206.0;1.0;2.0;0.009708737864077669;59.0;0.28640776699029125;145.0;0.7038834951456311;69.0;0.33495145631067963;61.0;0.2961165048543689;45.0;0.21844660194174756;0.5004901960784314;0.7041379310344827;0.43619281045751634;0.6136781609195402;0.42785558667911605;0.6019485495347564;loc;ide;diff;11f;precision;0.5004901960784314
86;86_34014198f540fe0f148017b2e0afed1ef33bb30a-LOC.arff;RAkELd;240.0;240.0;1.0;8.0;0.03333333333333333;70.0;0.2916666666666667;162.0;0.675;56.0;0.23333333333333334;78.0;0.325;66.0;0.275;0.4525862068965517;0.6481481481481481;0.44267241379310346;0.6339506172839506;0.41845238095238096;0.599265138154027;loc;ide;diff;11f;precision;0.4525862068965517
87;87_3e1eb7278e5c8ad2a2dc7855b03075496f8c9322-LOC.arff;RAkELd;68.0;68.0;1.0;0.0;0.0;56.0;0.8235294117647058;12.0;0.17647058823529413;1.0;0.014705882352941176;56.0;0.8235294117647058;8.0;0.11764705882352941;0.09558823529411764;0.5416666666666666;0.14460784313725492;0.8194444444444445;0.10784313725490195;0.611111111111111;loc;ide;diff;11f;precision;0.09558823529411764
90;90_0de35212b89a2e229aa9b7cc8e73cef3c15671b2-LOC.arff;RAkELd;81.0;81.0;1.0;78.0;0.9629629629629629;1.0;0.012345679012345678;2.0;0.024691358024691357;2.0;0.024691358024691357;79.0;0.9753086419753086;0.0;0.0;0.6666666666666666;1.0;0.3333333333333333;0.5;0.4444444444444444;0.6666666666666666;loc;ide;diff;11f;precision;0.6666666666666666
94;94_69f575891baa1bf137729b22345f2d8c4bd265d5-LOC.arff;RAkELd;158.0;158.0;1.0;5.0;0.03164556962025317;71.0;0.44936708860759494;82.0;0.5189873417721519;37.0;0.23417721518987342;76.0;0.4810126582278481;36.0;0.22784810126582278;0.38344226579520696;0.7154471544715447;0.35751633986928105;0.6670731707317074;0.35297230003112356;0.6585946573751452;loc;ide;diff;11f;precision;0.38344226579520696
95;95_45f1b327dadc5d5b562989a10b03eea5d185c64a-LOC.arff;RAkELd;271.0;271.0;1.0;1.0;0.0036900369003690036;138.0;0.5092250922509225;132.0;0.4870848708487085;17.0;0.06273062730627306;139.0;0.5129151291512916;36.0;0.13284132841328414;0.2595679012345679;0.5309343434343434;0.2726543209876543;0.5577020202020202;0.23370370370370372;0.478030303030303;loc;ide;diff;11f;precision;0.2595679012345679
96;96_40ae2d7f4054d46863164655d2d345f31ea563a8-LOC.arff;RAkELd;231.0;231.0;1.0;0.0;0.0;16.0;0.06926406926406926;215.0;0.9307359307359307;150.0;0.6493506493506493;16.0;0.06926406926406926;56.0;0.24242424242424243;0.7875180375180375;0.8461240310077519;0.5213564213564214;0.56015503875969;0.5645433931148217;0.6065559246954596;loc;ide;diff;11f;precision;0.7875180375180375
105;105_8e0a9c9d4b56543d4831f5db223438409f16ec9f-LOC.arff;RAkELd;8.0;8.0;1.0;0.0;0.0;8.0;1.0;0.0;0.0;0.0;0.0;8.0;1.0;0.0;0.0;0.0;0.0;0.0;0.0;0.0;0.0;loc;ide;diff;11f;precision;0.0
106;106_9beb91f475006d702261b0afe2ca588009c417fe-LOC.arff;RAkELd;415.0;415.0;1.0;0.0;0.0;132.0;0.3180722891566265;283.0;0.6819277108433734;122.0;0.29397590361445786;132.0;0.3180722891566265;84.0;0.20240963855421687;0.4947791164658635;0.7255594817432274;0.4298795180722892;0.6303886925795054;0.43674507554025627;0.6404565595378316;loc;ide;diff;11f;precision;0.4947791164658635
107;107_7fadfaa725eb44af2d806a6a3aa35b16ae371ff8-LOC.arff;RAkELd;475.0;475.0;1.0;0.0;0.0;91.0;0.19157894736842104;384.0;0.8084210526315789;163.0;0.3431578947368421;91.0;0.19157894736842104;130.0;0.2736842105263158;0.5901754385964912;0.7300347222222222;0.5480802005012531;0.6779637896825396;0.5388627629680262;0.6665620114838865;loc;ide;diff;11f;precision;0.5901754385964912
108;108_69720a40bf191c4c154feee060ac050397db4291-LOC.arff;RAkELd;43.0;43.0;1.0;8.0;0.18604651162790697;17.0;0.3953488372093023;18.0;0.4186046511627907;6.0;0.13953488372093023;25.0;0.5813953488372093;7.0;0.16279069767441862;0.3476190476190476;0.6759259259259259;0.3685714285714286;0.7166666666666667;0.31918367346938775;0.6206349206349207;loc;ide;diff;11f;precision;0.3476190476190476
112;112_2ac838a86290cda81b832ef110afbc4056bcfc4f-LOC.arff;RAkELd;309.0;309.0;1.0;0.0;0.0;163.0;0.5275080906148867;146.0;0.47249190938511326;10.0;0.032362459546925564;163.0;0.5275080906148867;27.0;0.08737864077669903;0.24455231930960086;0.5175799086757991;0.2609415934658653;0.5522667971298109;0.23787785389727137;0.5034538140702524;loc;ide;diff;11f;precision;0.24455231930960086
115;115_0cc320cee1b10428c462ac68b0644004e3a69053-LOC.arff;RAkELd;34.0;34.0;1.0;0.0;0.0;11.0;0.3235294117647059;23.0;0.6764705882352942;8.0;0.23529411764705882;11.0;0.3235294117647059;8.0;0.23529411764705882;0.45833333333333337;0.677536231884058;0.4284313725490196;0.6333333333333333;0.4064425770308123;0.6008281573498965;loc;ide;diff;11f;precision;0.45833333333333337
117;117_f7cbe1b67fe1ef68e553f67da1d9cc3c0a16e9a9-LOC.arff;RAkELd;204.0;204.0;1.0;0.0;0.0;44.0;0.21568627450980393;160.0;0.7843137254901961;0.0;0.0;44.0;0.21568627450980393;25.0;0.12254901960784313;0.2985294117647059;0.380625;0.42516339869281045;0.5420833333333334;0.3378657018362901;0.43077876984126984;loc;ide;diff;11f;precision;0.2985294117647059
120;120_5fb9be28bbfcdfad3bcec2788f55f87c685fae3b-LOC.arff;RAkELd;85.0;85.0;1.0;29.0;0.3411764705882353;56.0;0.6588235294117647;0.0;0.0;0.0;0.0;85.0;1.0;0.0;0.0;0.0;0.0;0.0;0.0;0.0;0.0;loc;ide;diff;11f;precision;0.0
123;123_d74a45886ca4f6bac539dced1606e18a0d9c10a1-LOC.arff;RAkELd;5.0;5.0;1.0;0.0;0.0;0.0;0.0;5.0;1.0;0.0;0.0;0.0;0.0;5.0;1.0;0.5;0.5;1.0;1.0;0.6666666666666666;0.6666666666666666;loc;ide;diff;11f;precision;0.5
124;124_dedd036e78209467b61c048a465b51035ad0e395-LOC.arff;RAkELd;34.0;34.0;1.0;31.0;0.9117647058823529;3.0;0.08823529411764706;0.0;0.0;0.0;0.0;34.0;1.0;0.0;0.0;0.0;0.0;0.0;0.0;0.0;0.0;loc;ide;diff;11f;precision;0.0
125;125_c788062f4afa815da069ba62783435db249ca8f2-LOC.arff;RAkELd;331.0;331.0;1.0;6.0;0.01812688821752266;3.0;0.00906344410876133;322.0;0.972809667673716;146.0;0.44108761329305135;9.0;0.027190332326283987;64.0;0.1933534743202417;0.7363589743589743;0.7432194616977226;0.6045750915750916;0.6102077787636794;0.6215586635586636;0.6273495827843655;loc;ide;diff;11f;precision;0.7363589743589743
127;127_71f987e0d06152d6f802b7e861fc362403762b10-LOC.arff;RAkELd;407.0;407.0;1.0;0.0;0.0;29.0;0.07125307125307126;378.0;0.9287469287469288;157.0;0.3857493857493858;29.0;0.07125307125307126;92.0;0.22604422604422605;0.6543407043407043;0.7045414462081129;0.5605826605826606;0.6035903250188964;0.5573171164080255;0.6000742496774243;loc;ide;diff;11f;precision;0.6543407043407043
128;128_427e104c2d7f815f2f303213cf610fe8bd245c72-LOC.arff;RAkELd;66.0;66.0;1.0;0.0;0.0;5.0;0.07575757575757576;61.0;0.9242424242424242;19.0;0.2878787878787879;5.0;0.07575757575757576;54.0;0.8181818181818182;0.5934343434343434;0.6420765027322404;0.8712121212121212;0.9426229508196722;0.6787878787878787;0.7344262295081967;loc;ide;diff;11f;precision;0.5934343434343434
131;131_2c66a92ba29d45f4f4db2c90d440f4e7a1d10f08-LOC.arff;RAkELd;648.0;648.0;1.0;0.0;0.0;183.0;0.2824074074074074;465.0;0.7175925925925926;145.0;0.22376543209876543;183.0;0.2824074074074074;129.0;0.19907407407407407;0.4657150205761316;0.6489964157706093;0.4300870811287478;0.5993471582181259;0.4130443544795397;0.5755972939843907;loc;ide;diff;11f;precision;0.4657150205761316
139;139_b893fc56df181c0bd90303135564c28b90f3fb4d-LOC.arff;RAkELd;112.0;112.0;1.0;0.0;0.0;112.0;1.0;0.0;0.0;0.0;0.0;112.0;1.0;0.0;0.0;0.0;0.0;0.0;0.0;0.0;0.0;loc;ide;diff;11f;precision;0.0
141;141_5abbfbed6ab735ca92637637c76a4c3fe558eb42-LOC.arff;RAkELd;26.0;26.0;1.0;0.0;0.0;14.0;0.5384615384615384;12.0;0.46153846153846156;0.0;0.0;14.0;0.5384615384615384;2.0;0.07692307692307693;0.20512820512820512;0.4444444444444444;0.25641025641025644;0.5555555555555556;0.2141025641025641;0.46388888888888885;loc;ide;diff;11f;precision;0.20512820512820512
142;142_fea98ef906bd11fc42f3f0d272fd76015496201c-LOC.arff;RAkELd;320.0;320.0;1.0;0.0;0.0;114.0;0.35625;206.0;0.64375;1.0;0.003125;114.0;0.35625;62.0;0.19375;0.3093080357142857;0.48047850208044385;0.38645089285714285;0.6003120665742024;0.31692933802308804;0.49231741828829206;loc;ide;diff;11f;precision;0.3093080357142857
143;143_e23e91c882cbfb52f47f5617e621459350f3fe38-LOC.arff;RAkELd;15.0;15.0;1.0;1.0;0.06666666666666667;14.0;0.9333333333333333;0.0;0.0;0.0;0.0;15.0;1.0;0.0;0.0;0.0;0.0;0.0;0.0;0.0;0.0;loc;ide;diff;11f;precision;0.0
144;144_05fbbcf48a0710c29e67cfaf2d39a12b2d17ff04-LOC.arff;RAkELd;49.0;49.0;1.0;0.0;0.0;34.0;0.6938775510204082;15.0;0.30612244897959184;15.0;0.30612244897959184;34.0;0.6938775510204082;0.0;0.0;0.30612244897959184;1.0;0.15306122448979592;0.5;0.20408163265306123;0.6666666666666666;loc;ide;diff;11f;precision;0.30612244897959184
145;145_9e32bb6b85d9eb129437616a3ae3021865b76d56-LOC.arff;RAkELd;408.0;408.0;1.0;225.0;0.5514705882352942;70.0;0.1715686274509804;113.0;0.2769607843137255;86.0;0.2107843137254902;295.0;0.7230392156862745;0.0;0.0;0.5432604735883425;0.8797935103244838;0.2248568826437679;0.3641487568478719;0.3068838265559577;0.4969888518561085;loc;ide;diff;11f;precision;0.5432604735883425
146;146_91177058a0f52c25b501205a628e1f1e68b868d6-LOC.arff;RAkELd;144.0;144.0;1.0;0.0;0.0;123.0;0.8541666666666666;21.0;0.14583333333333334;18.0;0.125;123.0;0.8541666666666666;21.0;0.14583333333333334;0.13541666666666666;0.9285714285714286;0.14583333333333334;1.0;0.1388888888888889;0.9523809523809523;loc;ide;diff;11f;precision;0.13541666666666666
147;147_01955f4f4df4579405a8bb1868f60af30e9a028b-LOC.arff;RAkELd;101.0;101.0;1.0;0.0;0.0;73.0;0.7227722772277227;28.0;0.27722772277227725;28.0;0.27722772277227725;73.0;0.7227722772277227;2.0;0.019801980198019802;0.27722772277227725;1.0;0.1485148514851485;0.5357142857142857;0.1914191419141914;0.6904761904761905;loc;ide;diff;11f;precision;0.27722772277227725
148;148_4cfd7fef412fb7e2bfb4e4cf6800400783e88901-LOC.arff;RAkELd;103.0;103.0;1.0;0.0;0.0;4.0;0.038834951456310676;99.0;0.9611650485436893;97.0;0.941747572815534;4.0;0.038834951456310676;79.0;0.7669902912621359;0.9514563106796117;0.98989898989899;0.8640776699029126;0.898989898989899;0.8899676375404532;0.9259259259259259;loc;ide;diff;11f;precision;0.9514563106796117
151;151_87ad682eace7ceb5bc0034546f74f5be3a058ca9-LOC.arff;RAkELd;678.0;678.0;1.0;322.0;0.4749262536873156;164.0;0.24188790560471976;192.0;0.2831858407079646;99.0;0.14601769911504425;486.0;0.7168141592920354;16.0;0.02359882005899705;0.3981741573033708;0.73828125;0.20983814874264312;0.38907490079365076;0.24942259675405745;0.46247106481481487;loc;ide;diff;11f;precision;0.3981741573033708
152;152_78a952ea672d71661caa3de4b643979e5c1d96db-LOC.arff;RAkELd;797.0;797.0;1.0;162.0;0.20326223337515684;222.0;0.27854454203262236;413.0;0.5181932245922208;319.0;0.4002509410288582;384.0;0.48180677540777916;65.0;0.08155583437892096;0.5757217847769028;0.8851896690879741;0.3112429696287964;0.47854548599100655;0.36526968219881606;0.5616131917584702;loc;ide;diff;11f;precision;0.5757217847769028
153;153_935ceeb6394c6f854d84fbfe7502dae01b6f8367-LOC.arff;RAkELd;710.0;710.0;1.0;512.0;0.7211267605633803;118.0;0.16619718309859155;80.0;0.11267605633802817;61.0;0.08591549295774648;630.0;0.8873239436619719;4.0;0.005633802816901409;0.3560606060606061;0.88125;0.1303992303992304;0.32273809523809527;0.17592592592592593;0.4354166666666667;loc;ide;diff;11f;precision;0.3560606060606061
155;155_956ca7cd27d99797b93148ef364d7fc34ac936f0-LOC.arff;RAkELd;832.0;832.0;1.0;204.0;0.24519230769230768;198.0;0.23798076923076922;430.0;0.5168269230769231;118.0;0.14182692307692307;402.0;0.4831730769230769;37.0;0.04447115384615385;0.4241507430997877;0.6194573643410853;0.341579466181377;0.49886489479512736;0.35527132103565223;0.5188613711869525;loc;ide;diff;11f;precision;0.4241507430997877
156;156_0125cdcf18ce905b5de6cc0f490c93da1df1d1fc-LOC.arff;RAkELd;246.0;246.0;1.0;39.0;0.15853658536585366;121.0;0.491869918699187;86.0;0.34959349593495936;62.0;0.25203252032520324;160.0;0.6504065040650406;0.0;0.0;0.3611111111111111;0.8691860465116279;0.14930411778237865;0.35937153931339977;0.20243462924622344;0.48725544481358435;loc;ide;diff;11f;precision;0.3611111111111111
157;157_eca6766f586b0a38da97c6b21e4d4838e847c006-LOC.arff;RAkELd;67.0;67.0;1.0;0.0;0.0;28.0;0.417910447761194;39.0;0.582089552238806;39.0;0.582089552238806;28.0;0.417910447761194;8.0;0.11940298507462686;0.582089552238806;1.0;0.35074626865671643;0.6025641025641025;0.4278606965174129;0.735042735042735;loc;ide;diff;11f;precision;0.582089552238806
158;158_b7261cb7d2fe73e24b9b2651e1070132de77bda2-LOC.arff;RAkELd;357.0;357.0;1.0;214.0;0.5994397759103641;1.0;0.0028011204481792717;142.0;0.39775910364145656;92.0;0.25770308123249297;215.0;0.6022408963585434;21.0;0.058823529411764705;0.8251748251748252;0.8309859154929577;0.5705877455877456;0.5746059691482226;0.6354438490802128;0.6399188057638762;loc;ide;diff;11f;precision;0.8251748251748252
161;161_1234c65895cdf69c37f097cfd4b398c89a2ca895-LOC.arff;RAkELd;64.0;64.0;1.0;0.0;0.0;64.0;1.0;0.0;0.0;0.0;0.0;64.0;1.0;0.0;0.0;0.0;0.0;0.0;0.0;0.0;0.0;loc;ide;diff;11f;precision;0.0
162;162_3cc07f679c1ad20289d31cdd30837b6f0aebe2f8-LOC.arff;RAkELd;51.0;51.0;1.0;51.0;1.0;0.0;0.0;0.0;0.0;0.0;0.0;51.0;1.0;0.0;0.0;0.0;0.0;0.0;0.0;0.0;0.0;loc;ide;diff;11f;precision;0.0
163;163_58bbc0aa99753e917efe16aa0dd1149ecdbf6aa1-LOC.arff;RAkELd;52.0;52.0;1.0;7.0;0.1346153846153846;17.0;0.3269230769230769;28.0;0.5384615384615384;15.0;0.28846153846153844;24.0;0.46153846153846156;22.0;0.4230769230769231;0.4777777777777778;0.7678571428571429;0.5555555555555556;0.8928571428571429;0.4814814814814815;0.7738095238095238;loc;ide;diff;11f;precision;0.4777777777777778
7;7_7a7c87aedb9974d4b1f84ca4ab80dba640d0e0d4-LOC.arff;RAkELd;6.0;6.0;1.0;6.0;1.0;0.0;0.0;0.0;0.0;0.0;0.0;6.0;1.0;0.0;0.0;0.0;0.0;0.0;0.0;0.0;0.0;loc;ide;diff;11f;recall;0.0
11;11_9bf8b2fda3eb5feee5a8fa644dd2a559fea95fc5-LOC.arff;RAkELd;14.0;14.0;1.0;14.0;1.0;0.0;0.0;0.0;0.0;0.0;0.0;14.0;1.0;0.0;0.0;0.0;0.0;0.0;0.0;0.0;0.0;loc;ide;diff;11f;recall;0.0
17;17_da3e20a4618706b4fefe6668860120973f261174-LOC.arff;RAkELd;2.0;2.0;1.0;0.0;0.0;1.0;0.5;1.0;0.5;0.0;0.0;1.0;0.5;1.0;0.5;0.25;0.5;0.5;1.0;0.3333333333333333;0.6666666666666666;loc;ide;diff;11f;recall;0.5
18;18_f9744676f5fc2b1cd17e1d529e834a1aa25baedb-LOC.arff;RAkELd;2.0;2.0;1.0;1.0;0.5;0.0;0.0;1.0;0.5;1.0;0.5;1.0;0.5;1.0;0.5;1.0;1.0;1.0;1.0;1.0;1.0;loc;ide;diff;11f;recall;1.0
20;20_efa08edd831faabee1ca5dae56561504f1435e16-LOC.arff;RAkELd;36.0;36.0;1.0;0.0;0.0;33.0;0.9166666666666666;3.0;0.08333333333333333;2.0;0.05555555555555555;33.0;0.9166666666666666;1.0;0.027777777777777776;0.06944444444444445;0.8333333333333334;0.05555555555555555;0.6666666666666666;0.05555555555555555;0.6666666666666666;loc;ide;diff;11f;recall;0.05555555555555555
24;24_d8b4a77b6f37179a265b120bdfbd8c44f7e66b80-LOC.arff;RAkELd;26.0;26.0;1.0;5.0;0.19230769230769232;8.0;0.3076923076923077;13.0;0.5;13.0;0.5;13.0;0.5;11.0;0.4230769230769231;0.6190476190476191;1.0;0.5714285714285714;0.9230769230769231;0.5873015873015873;0.9487179487179488;loc;ide;diff;11f;recall;0.5714285714285714
29;29_4e2d4bf3ba8d393c0161924911a21570ba25d7a0-LOC.arff;RAkELd;23.0;23.0;1.0;0.0;0.0;8.0;0.34782608695652173;15.0;0.6521739130434783;0.0;0.0;8.0;0.34782608695652173;0.0;0.0;0.32608695652173914;0.5;0.2717391304347826;0.4166666666666667;0.2927536231884058;0.4488888888888889;loc;ide;diff;11f;recall;0.2717391304347826
30;30_ab8d7e7e99dce24a5499641314192b64a62bd045-LOC.arff;RAkELd;95.0;95.0;1.0;0.0;0.0;30.0;0.3157894736842105;65.0;0.6842105263157895;43.0;0.45263157894736844;30.0;0.3157894736842105;28.0;0.29473684210526313;0.5824561403508772;0.8512820512820514;0.5135087719298246;0.7505128205128205;0.5317293233082706;0.7771428571428571;loc;ide;diff;11f;recall;0.5135087719298246
31;31_746ef129fab6c2ec90fa3356a637c38e7aa460a7-LOC.arff;RAkELd;97.0;97.0;1.0;8.0;0.08247422680412371;38.0;0.3917525773195876;51.0;0.5257731958762887;43.0;0.44329896907216493;46.0;0.4742268041237113;18.0;0.18556701030927836;0.5280898876404494;0.9215686274509803;0.4067415730337079;0.7098039215686275;0.4507223113964687;0.7865546218487395;loc;ide;diff;11f;recall;0.4067415730337079
37;37_a6f39393b82fcb801d316dedd94a191091db6ad5-LOC.arff;RAkELd;48.0;48.0;1.0;0.0;0.0;33.0;0.6875;15.0;0.3125;15.0;0.3125;33.0;0.6875;12.0;0.25;0.3125;1.0;0.28125;0.9;0.2916666666666667;0.9333333333333333;loc;ide;diff;11f;recall;0.28125
39;39_8b1f7e8cf42523fa177eef78cae189393d8909bb-LOC.arff;RAkELd;16.0;16.0;1.0;0.0;0.0;0.0;0.0;16.0;1.0;16.0;1.0;0.0;0.0;12.0;0.75;1.0;1.0;0.875;0.875;0.9166666666666666;0.9166666666666666;loc;ide;diff;11f;recall;0.875
40;40_4a99f9ffea0f6f9a7ef3305190a689b6fc50926a-LOC.arff;RAkELd;16.0;16.0;1.0;0.0;0.0;0.0;0.0;16.0;1.0;15.0;0.9375;0.0;0.0;15.0;0.9375;0.96875;0.96875;0.96875;0.96875;0.9583333333333334;0.9583333333333334;loc;ide;diff;11f;recall;0.96875
46;46_0b8dd9dc6033b1155378977f10d881b602c0425e-LOC.arff;RAkELd;37.0;37.0;1.0;17.0;0.4594594594594595;14.0;0.3783783783783784;6.0;0.16216216216216217;6.0;0.16216216216216217;31.0;0.8378378378378378;0.0;0.0;0.3;1.0;0.07166666666666667;0.2388888888888889;0.11500000000000002;0.38333333333333336;loc;ide;diff;11f;recall;0.07166666666666667
47;47_5cfd31e4828489d82d4bbe335865b8b993632a1b-LOC.arff;RAkELd;3.0;3.0;1.0;0.0;0.0;3.0;1.0;0.0;0.0;0.0;0.0;3.0;1.0;0.0;0.0;0.0;0.0;0.0;0.0;0.0;0.0;loc;ide;diff;11f;recall;0.0
48;48_794650939a51f20a13e6d97c0c87727e8ba2f47c-LOC.arff;RAkELd;3.0;3.0;1.0;0.0;0.0;0.0;0.0;3.0;1.0;3.0;1.0;0.0;0.0;3.0;1.0;1.0;1.0;1.0;1.0;1.0;1.0;loc;ide;diff;11f;recall;1.0
52;52_21339b2f9739c5d801601cfc2a2c997196389e69-LOC.arff;RAkELd;28.0;28.0;1.0;0.0;0.0;24.0;0.8571428571428571;4.0;0.14285714285714285;4.0;0.14285714285714285;24.0;0.8571428571428571;0.0;0.0;0.14285714285714285;1.0;0.07142857142857142;0.5;0.09523809523809523;0.6666666666666666;loc;ide;diff;11f;recall;0.07142857142857142
53;53_3844b6bd98df06f8bcb8ca905eae8e4b83d29fd6-LOC.arff;RAkELd;17.0;17.0;1.0;0.0;0.0;0.0;0.0;17.0;1.0;17.0;1.0;0.0;0.0;13.0;0.7647058823529411;1.0;1.0;0.8823529411764706;0.8823529411764706;0.9215686274509803;0.9215686274509803;loc;ide;diff;11f;recall;0.8823529411764706
54;54_f12128dcfa9a723a013f5bdbe6ee3d17099b6d71-LOC.arff;RAkELd;84.0;84.0;1.0;0.0;0.0;33.0;0.39285714285714285;51.0;0.6071428571428571;24.0;0.2857142857142857;33.0;0.39285714285714285;19.0;0.2261904761904762;0.44642857142857145;0.7352941176470589;0.417063492063492;0.6869281045751634;0.411281179138322;0.6774042950513539;loc;ide;diff;11f;recall;0.417063492063492
55;55_cbc0de4f9ad2930d2b879b642f72e59416f9e977-LOC.arff;RAkELd;140.0;140.0;1.0;0.0;0.0;67.0;0.4785714285714286;73.0;0.5214285714285715;2.0;0.014285714285714285;67.0;0.4785714285714286;15.0;0.10714285714285714;0.26785714285714285;0.5136986301369864;0.2892857142857143;0.5547945205479452;0.26595238095238094;0.5100456621004567;loc;ide;diff;11f;recall;0.2892857142857143
57;57_7f0c85eae897fbcd687f55d915507c322ceb7cae-LOC.arff;RAkELd;101.0;101.0;1.0;0.0;0.0;44.0;0.43564356435643564;57.0;0.5643564356435643;8.0;0.07920792079207921;44.0;0.43564356435643564;23.0;0.22772277227722773;0.3316831683168317;0.5877192982456141;0.41089108910891087;0.7280701754385965;0.3534653465346535;0.6263157894736843;loc;ide;diff;11f;recall;0.41089108910891087
58;58_0a3d36c57cc9defe930071eb0f3d7ac33223e116-LOC.arff;RAkELd;128.0;128.0;1.0;0.0;0.0;65.0;0.5078125;63.0;0.4921875;22.0;0.171875;65.0;0.5078125;28.0;0.21875;0.33203125;0.6746031746031746;0.3372395833333333;0.6851851851851851;0.32057291666666665;0.6513227513227513;loc;ide;diff;11f;recall;0.3372395833333333
59;59_d407796e499262d2063bdb8bdf556fe237daca75-LOC.arff;RAkELd;20.0;20.0;1.0;0.0;0.0;11.0;0.55;9.0;0.45;0.0;0.0;11.0;0.55;1.0;0.05;0.24166666666666664;0.537037037037037;0.20833333333333334;0.462962962962963;0.215;0.47777777777777775;loc;ide;diff;11f;recall;0.20833333333333334
62;62_6fb26410e33b9aae4de58f33132efd09f4cd992c-LOC.arff;RAkELd;22.0;22.0;1.0;0.0;0.0;12.0;0.5454545454545454;10.0;0.45454545454545453;0.0;0.0;12.0;0.5454545454545454;0.0;0.0;0.26515151515151514;0.5833333333333333;0.18939393939393936;0.41666666666666663;0.2207792207792208;0.48571428571428577;loc;ide;diff;11f;recall;0.18939393939393936
63;63_12dcc99d75cd3cd9d8efb7d316656e4d19bc8d52-LOC.arff;RAkELd;25.0;25.0;1.0;0.0;0.0;9.0;0.36;16.0;0.64;14.0;0.56;9.0;0.36;4.0;0.16;0.6066666666666667;0.9479166666666666;0.44666666666666666;0.6979166666666666;0.4944761904761905;0.7726190476190476;loc;ide;diff;11f;recall;0.44666666666666666
64;64_b33605b07445d3258df8229a1e786dc5b4ab4a06-LOC.arff;RAkELd;70.0;70.0;1.0;25.0;0.35714285714285715;19.0;0.2714285714285714;26.0;0.37142857142857144;11.0;0.15714285714285714;44.0;0.6285714285714286;15.0;0.21428571428571427;0.3888888888888889;0.6730769230769231;0.40925925925925927;0.7083333333333334;0.38708994708994704;0.6699633699633699;loc;ide;diff;11f;recall;0.40925925925925927
65;65_a40b2b29bb20a3c1ec25b73360d6712cdb97cd98-LOC.arff;RAkELd;194.0;194.0;1.0;0.0;0.0;80.0;0.41237113402061853;114.0;0.5876288659793815;48.0;0.24742268041237114;80.0;0.41237113402061853;67.0;0.34536082474226804;0.41494845360824745;0.706140350877193;0.47465635738831613;0.8077485380116959;0.4258468335787923;0.7246867167919799;loc;ide;diff;11f;recall;0.47465635738831613
68;68_e041ff570250275045c01f6d4a87b9a73f92f416-LOC.arff;RAkELd;18.0;18.0;1.0;2.0;0.1111111111111111;12.0;0.6666666666666666;4.0;0.2222222222222222;2.0;0.1111111111111111;14.0;0.7777777777777778;2.0;0.1111111111111111;0.17708333333333334;0.7083333333333334;0.17708333333333334;0.7083333333333334;0.175;0.7;loc;ide;diff;11f;recall;0.17708333333333334
69;69_5b6d5707ee06cf659ff4d3d7e71241e532fcfeb2-LOC.arff;RAkELd;19.0;19.0;1.0;0.0;0.0;19.0;1.0;0.0;0.0;0.0;0.0;19.0;1.0;0.0;0.0;0.0;0.0;0.0;0.0;0.0;0.0;loc;ide;diff;11f;recall;0.0
70;70_c4ade34b0c9b55328fad8c3294289e3a086aa0d2-LOC.arff;RAkELd;19.0;19.0;1.0;0.0;0.0;0.0;0.0;19.0;1.0;19.0;1.0;0.0;0.0;19.0;1.0;1.0;1.0;1.0;1.0;1.0;1.0;loc;ide;diff;11f;recall;1.0
75;75_13ec2a47ff332e9c1a1c642068d26a7fae43e5cb-LOC.arff;RAkELd;53.0;53.0;1.0;0.0;0.0;53.0;1.0;0.0;0.0;0.0;0.0;53.0;1.0;0.0;0.0;0.0;0.0;0.0;0.0;0.0;0.0;loc;ide;diff;11f;recall;0.0
76;76_3955fd03aad3b9ea6cc6e8fc5c6e421f9c90d79d-LOC.arff;RAkELd;57.0;57.0;1.0;54.0;0.9473684210526315;3.0;0.05263157894736842;0.0;0.0;0.0;0.0;57.0;1.0;0.0;0.0;0.0;0.0;0.0;0.0;0.0;0.0;loc;ide;diff;11f;recall;0.0
77;77_d9d81ba61b4b3897a898e54fdd7867898f222550-LOC.arff;RAkELd;63.0;63.0;1.0;0.0;0.0;50.0;0.7936507936507936;13.0;0.20634920634920634;0.0;0.0;50.0;0.7936507936507936;9.0;0.14285714285714285;0.10317460317460317;0.5;0.16402116402116404;0.7948717948717949;0.12063492063492062;0.5846153846153845;loc;ide;diff;11f;recall;0.16402116402116404
78;78_c5d04b9750c4053c726bd4950d1c78bedb75f8e7-LOC.arff;RAkELd;44.0;44.0;1.0;0.0;0.0;0.0;0.0;44.0;1.0;41.0;0.9318181818181818;0.0;0.0;37.0;0.8409090909090909;0.9659090909090909;0.9659090909090909;0.9204545454545454;0.9204545454545454;0.9242424242424242;0.9242424242424242;loc;ide;diff;11f;recall;0.9204545454545454
79;79_04c38c3d1120e0d8b9741e41bd62cbdfa3109a65-LOC.arff;RAkELd;203.0;203.0;1.0;0.0;0.0;137.0;0.6748768472906403;66.0;0.3251231527093596;55.0;0.270935960591133;137.0;0.6748768472906403;8.0;0.03940886699507389;0.29802955665024633;0.9166666666666666;0.1564039408866995;0.4810606060606061;0.19638752052545155;0.604040404040404;loc;ide;diff;11f;recall;0.1564039408866995
80;80_3e1f7782b8b8f1d2b8ddabc9cbeeaa7d9c199e5f-LOC.arff;RAkELd;312.0;312.0;1.0;0.0;0.0;151.0;0.483974358974359;161.0;0.5160256410256411;49.0;0.15705128205128205;151.0;0.483974358974359;47.0;0.15064102564102563;0.3143696581196581;0.6092132505175983;0.3213141025641026;0.6226708074534162;0.27431318681318684;0.5315882874889086;loc;ide;diff;11f;recall;0.3213141025641026
81;81_e316290ea16a2bff350a5e0a481e408c38272e12-LOC.arff;RAkELd;10.0;10.0;1.0;10.0;1.0;0.0;0.0;0.0;0.0;0.0;0.0;10.0;1.0;0.0;0.0;0.0;0.0;0.0;0.0;0.0;0.0;loc;ide;diff;11f;recall;0.0
82;82_4f6a8c5831459ebfd4d552f8766037a94723f21b-LOC.arff;RAkELd;223.0;223.0;1.0;52.0;0.23318385650224216;68.0;0.30493273542600896;103.0;0.4618834080717489;84.0;0.37668161434977576;120.0;0.5381165919282511;44.0;0.19730941704035873;0.5467836257309941;0.9077669902912622;0.4244639376218323;0.7046925566343042;0.4559454191033139;0.756957928802589;loc;ide;diff;11f;recall;0.4244639376218323
83;83_73532e34ce3061f98657eb2ef02af7e4258c825b-LOC.arff;RAkELd;239.0;239.0;1.0;1.0;0.0041841004184100415;68.0;0.28451882845188287;170.0;0.7112970711297071;113.0;0.47280334728033474;69.0;0.28870292887029286;79.0;0.3305439330543933;0.5966386554621849;0.8352941176470589;0.5016806722689076;0.7023529411764706;0.5230092036814726;0.7322128851540617;loc;ide;diff;11f;recall;0.5016806722689076
85;85_f13f5ee8af1d30ba46330b284421a0147aaaedd4-LOC.arff;RAkELd;206.0;206.0;1.0;2.0;0.009708737864077669;59.0;0.28640776699029125;145.0;0.7038834951456311;69.0;0.33495145631067963;61.0;0.2961165048543689;45.0;0.21844660194174756;0.5004901960784314;0.7041379310344827;0.43619281045751634;0.6136781609195402;0.42785558667911605;0.6019485495347564;loc;ide;diff;11f;recall;0.43619281045751634
86;86_34014198f540fe0f148017b2e0afed1ef33bb30a-LOC.arff;RAkELd;240.0;240.0;1.0;8.0;0.03333333333333333;70.0;0.2916666666666667;162.0;0.675;56.0;0.23333333333333334;78.0;0.325;66.0;0.275;0.4525862068965517;0.6481481481481481;0.44267241379310346;0.6339506172839506;0.41845238095238096;0.599265138154027;loc;ide;diff;11f;recall;0.44267241379310346
87;87_3e1eb7278e5c8ad2a2dc7855b03075496f8c9322-LOC.arff;RAkELd;68.0;68.0;1.0;0.0;0.0;56.0;0.8235294117647058;12.0;0.17647058823529413;1.0;0.014705882352941176;56.0;0.8235294117647058;8.0;0.11764705882352941;0.09558823529411764;0.5416666666666666;0.14460784313725492;0.8194444444444445;0.10784313725490195;0.611111111111111;loc;ide;diff;11f;recall;0.14460784313725492
90;90_0de35212b89a2e229aa9b7cc8e73cef3c15671b2-LOC.arff;RAkELd;81.0;81.0;1.0;78.0;0.9629629629629629;1.0;0.012345679012345678;2.0;0.024691358024691357;2.0;0.024691358024691357;79.0;0.9753086419753086;0.0;0.0;0.6666666666666666;1.0;0.3333333333333333;0.5;0.4444444444444444;0.6666666666666666;loc;ide;diff;11f;recall;0.3333333333333333
94;94_69f575891baa1bf137729b22345f2d8c4bd265d5-LOC.arff;RAkELd;158.0;158.0;1.0;5.0;0.03164556962025317;71.0;0.44936708860759494;82.0;0.5189873417721519;37.0;0.23417721518987342;76.0;0.4810126582278481;36.0;0.22784810126582278;0.38344226579520696;0.7154471544715447;0.35751633986928105;0.6670731707317074;0.35297230003112356;0.6585946573751452;loc;ide;diff;11f;recall;0.35751633986928105
95;95_45f1b327dadc5d5b562989a10b03eea5d185c64a-LOC.arff;RAkELd;271.0;271.0;1.0;1.0;0.0036900369003690036;138.0;0.5092250922509225;132.0;0.4870848708487085;17.0;0.06273062730627306;139.0;0.5129151291512916;36.0;0.13284132841328414;0.2595679012345679;0.5309343434343434;0.2726543209876543;0.5577020202020202;0.23370370370370372;0.478030303030303;loc;ide;diff;11f;recall;0.2726543209876543
96;96_40ae2d7f4054d46863164655d2d345f31ea563a8-LOC.arff;RAkELd;231.0;231.0;1.0;0.0;0.0;16.0;0.06926406926406926;215.0;0.9307359307359307;150.0;0.6493506493506493;16.0;0.06926406926406926;56.0;0.24242424242424243;0.7875180375180375;0.8461240310077519;0.5213564213564214;0.56015503875969;0.5645433931148217;0.6065559246954596;loc;ide;diff;11f;recall;0.5213564213564214
105;105_8e0a9c9d4b56543d4831f5db223438409f16ec9f-LOC.arff;RAkELd;8.0;8.0;1.0;0.0;0.0;8.0;1.0;0.0;0.0;0.0;0.0;8.0;1.0;0.0;0.0;0.0;0.0;0.0;0.0;0.0;0.0;loc;ide;diff;11f;recall;0.0
106;106_9beb91f475006d702261b0afe2ca588009c417fe-LOC.arff;RAkELd;415.0;415.0;1.0;0.0;0.0;132.0;0.3180722891566265;283.0;0.6819277108433734;122.0;0.29397590361445786;132.0;0.3180722891566265;84.0;0.20240963855421687;0.4947791164658635;0.7255594817432274;0.4298795180722892;0.6303886925795054;0.43674507554025627;0.6404565595378316;loc;ide;diff;11f;recall;0.4298795180722892
107;107_7fadfaa725eb44af2d806a6a3aa35b16ae371ff8-LOC.arff;RAkELd;475.0;475.0;1.0;0.0;0.0;91.0;0.19157894736842104;384.0;0.8084210526315789;163.0;0.3431578947368421;91.0;0.19157894736842104;130.0;0.2736842105263158;0.5901754385964912;0.7300347222222222;0.5480802005012531;0.6779637896825396;0.5388627629680262;0.6665620114838865;loc;ide;diff;11f;recall;0.5480802005012531
108;108_69720a40bf191c4c154feee060ac050397db4291-LOC.arff;RAkELd;43.0;43.0;1.0;8.0;0.18604651162790697;17.0;0.3953488372093023;18.0;0.4186046511627907;6.0;0.13953488372093023;25.0;0.5813953488372093;7.0;0.16279069767441862;0.3476190476190476;0.6759259259259259;0.3685714285714286;0.7166666666666667;0.31918367346938775;0.6206349206349207;loc;ide;diff;11f;recall;0.3685714285714286
112;112_2ac838a86290cda81b832ef110afbc4056bcfc4f-LOC.arff;RAkELd;309.0;309.0;1.0;0.0;0.0;163.0;0.5275080906148867;146.0;0.47249190938511326;10.0;0.032362459546925564;163.0;0.5275080906148867;27.0;0.08737864077669903;0.24455231930960086;0.5175799086757991;0.2609415934658653;0.5522667971298109;0.23787785389727137;0.5034538140702524;loc;ide;diff;11f;recall;0.2609415934658653
115;115_0cc320cee1b10428c462ac68b0644004e3a69053-LOC.arff;RAkELd;34.0;34.0;1.0;0.0;0.0;11.0;0.3235294117647059;23.0;0.6764705882352942;8.0;0.23529411764705882;11.0;0.3235294117647059;8.0;0.23529411764705882;0.45833333333333337;0.677536231884058;0.4284313725490196;0.6333333333333333;0.4064425770308123;0.6008281573498965;loc;ide;diff;11f;recall;0.4284313725490196
117;117_f7cbe1b67fe1ef68e553f67da1d9cc3c0a16e9a9-LOC.arff;RAkELd;204.0;204.0;1.0;0.0;0.0;44.0;0.21568627450980393;160.0;0.7843137254901961;0.0;0.0;44.0;0.21568627450980393;25.0;0.12254901960784313;0.2985294117647059;0.380625;0.42516339869281045;0.5420833333333334;0.3378657018362901;0.43077876984126984;loc;ide;diff;11f;recall;0.42516339869281045
120;120_5fb9be28bbfcdfad3bcec2788f55f87c685fae3b-LOC.arff;RAkELd;85.0;85.0;1.0;29.0;0.3411764705882353;56.0;0.6588235294117647;0.0;0.0;0.0;0.0;85.0;1.0;0.0;0.0;0.0;0.0;0.0;0.0;0.0;0.0;loc;ide;diff;11f;recall;0.0
123;123_d74a45886ca4f6bac539dced1606e18a0d9c10a1-LOC.arff;RAkELd;5.0;5.0;1.0;0.0;0.0;0.0;0.0;5.0;1.0;0.0;0.0;0.0;0.0;5.0;1.0;0.5;0.5;1.0;1.0;0.6666666666666666;0.6666666666666666;loc;ide;diff;11f;recall;1.0
124;124_dedd036e78209467b61c048a465b51035ad0e395-LOC.arff;RAkELd;34.0;34.0;1.0;31.0;0.9117647058823529;3.0;0.08823529411764706;0.0;0.0;0.0;0.0;34.0;1.0;0.0;0.0;0.0;0.0;0.0;0.0;0.0;0.0;loc;ide;diff;11f;recall;0.0
125;125_c788062f4afa815da069ba62783435db249ca8f2-LOC.arff;RAkELd;331.0;331.0;1.0;6.0;0.01812688821752266;3.0;0.00906344410876133;322.0;0.972809667673716;146.0;0.44108761329305135;9.0;0.027190332326283987;64.0;0.1933534743202417;0.7363589743589743;0.7432194616977226;0.6045750915750916;0.6102077787636794;0.6215586635586636;0.6273495827843655;loc;ide;diff;11f;recall;0.6045750915750916
127;127_71f987e0d06152d6f802b7e861fc362403762b10-LOC.arff;RAkELd;407.0;407.0;1.0;0.0;0.0;29.0;0.07125307125307126;378.0;0.9287469287469288;157.0;0.3857493857493858;29.0;0.07125307125307126;92.0;0.22604422604422605;0.6543407043407043;0.7045414462081129;0.5605826605826606;0.6035903250188964;0.5573171164080255;0.6000742496774243;loc;ide;diff;11f;recall;0.5605826605826606
128;128_427e104c2d7f815f2f303213cf610fe8bd245c72-LOC.arff;RAkELd;66.0;66.0;1.0;0.0;0.0;5.0;0.07575757575757576;61.0;0.9242424242424242;19.0;0.2878787878787879;5.0;0.07575757575757576;54.0;0.8181818181818182;0.5934343434343434;0.6420765027322404;0.8712121212121212;0.9426229508196722;0.6787878787878787;0.7344262295081967;loc;ide;diff;11f;recall;0.8712121212121212
131;131_2c66a92ba29d45f4f4db2c90d440f4e7a1d10f08-LOC.arff;RAkELd;648.0;648.0;1.0;0.0;0.0;183.0;0.2824074074074074;465.0;0.7175925925925926;145.0;0.22376543209876543;183.0;0.2824074074074074;129.0;0.19907407407407407;0.4657150205761316;0.6489964157706093;0.4300870811287478;0.5993471582181259;0.4130443544795397;0.5755972939843907;loc;ide;diff;11f;recall;0.4300870811287478
139;139_b893fc56df181c0bd90303135564c28b90f3fb4d-LOC.arff;RAkELd;112.0;112.0;1.0;0.0;0.0;112.0;1.0;0.0;0.0;0.0;0.0;112.0;1.0;0.0;0.0;0.0;0.0;0.0;0.0;0.0;0.0;loc;ide;diff;11f;recall;0.0
141;141_5abbfbed6ab735ca92637637c76a4c3fe558eb42-LOC.arff;RAkELd;26.0;26.0;1.0;0.0;0.0;14.0;0.5384615384615384;12.0;0.46153846153846156;0.0;0.0;14.0;0.5384615384615384;2.0;0.07692307692307693;0.20512820512820512;0.4444444444444444;0.25641025641025644;0.5555555555555556;0.2141025641025641;0.46388888888888885;loc;ide;diff;11f;recall;0.25641025641025644
142;142_fea98ef906bd11fc42f3f0d272fd76015496201c-LOC.arff;RAkELd;320.0;320.0;1.0;0.0;0.0;114.0;0.35625;206.0;0.64375;1.0;0.003125;114.0;0.35625;62.0;0.19375;0.3093080357142857;0.48047850208044385;0.38645089285714285;0.6003120665742024;0.31692933802308804;0.49231741828829206;loc;ide;diff;11f;recall;0.38645089285714285
143;143_e23e91c882cbfb52f47f5617e621459350f3fe38-LOC.arff;RAkELd;15.0;15.0;1.0;1.0;0.06666666666666667;14.0;0.9333333333333333;0.0;0.0;0.0;0.0;15.0;1.0;0.0;0.0;0.0;0.0;0.0;0.0;0.0;0.0;loc;ide;diff;11f;recall;0.0
144;144_05fbbcf48a0710c29e67cfaf2d39a12b2d17ff04-LOC.arff;RAkELd;49.0;49.0;1.0;0.0;0.0;34.0;0.6938775510204082;15.0;0.30612244897959184;15.0;0.30612244897959184;34.0;0.6938775510204082;0.0;0.0;0.30612244897959184;1.0;0.15306122448979592;0.5;0.20408163265306123;0.6666666666666666;loc;ide;diff;11f;recall;0.15306122448979592
145;145_9e32bb6b85d9eb129437616a3ae3021865b76d56-LOC.arff;RAkELd;408.0;408.0;1.0;225.0;0.5514705882352942;70.0;0.1715686274509804;113.0;0.2769607843137255;86.0;0.2107843137254902;295.0;0.7230392156862745;0.0;0.0;0.5432604735883425;0.8797935103244838;0.2248568826437679;0.3641487568478719;0.3068838265559577;0.4969888518561085;loc;ide;diff;11f;recall;0.2248568826437679
146;146_91177058a0f52c25b501205a628e1f1e68b868d6-LOC.arff;RAkELd;144.0;144.0;1.0;0.0;0.0;123.0;0.8541666666666666;21.0;0.14583333333333334;18.0;0.125;123.0;0.8541666666666666;21.0;0.14583333333333334;0.13541666666666666;0.9285714285714286;0.14583333333333334;1.0;0.1388888888888889;0.9523809523809523;loc;ide;diff;11f;recall;0.14583333333333334
147;147_01955f4f4df4579405a8bb1868f60af30e9a028b-LOC.arff;RAkELd;101.0;101.0;1.0;0.0;0.0;73.0;0.7227722772277227;28.0;0.27722772277227725;28.0;0.27722772277227725;73.0;0.7227722772277227;2.0;0.019801980198019802;0.27722772277227725;1.0;0.1485148514851485;0.5357142857142857;0.1914191419141914;0.6904761904761905;loc;ide;diff;11f;recall;0.1485148514851485
148;148_4cfd7fef412fb7e2bfb4e4cf6800400783e88901-LOC.arff;RAkELd;103.0;103.0;1.0;0.0;0.0;4.0;0.038834951456310676;99.0;0.9611650485436893;97.0;0.941747572815534;4.0;0.038834951456310676;79.0;0.7669902912621359;0.9514563106796117;0.98989898989899;0.8640776699029126;0.898989898989899;0.8899676375404532;0.9259259259259259;loc;ide;diff;11f;recall;0.8640776699029126
151;151_87ad682eace7ceb5bc0034546f74f5be3a058ca9-LOC.arff;RAkELd;678.0;678.0;1.0;322.0;0.4749262536873156;164.0;0.24188790560471976;192.0;0.2831858407079646;99.0;0.14601769911504425;486.0;0.7168141592920354;16.0;0.02359882005899705;0.3981741573033708;0.73828125;0.20983814874264312;0.38907490079365076;0.24942259675405745;0.46247106481481487;loc;ide;diff;11f;recall;0.20983814874264312
152;152_78a952ea672d71661caa3de4b643979e5c1d96db-LOC.arff;RAkELd;797.0;797.0;1.0;162.0;0.20326223337515684;222.0;0.27854454203262236;413.0;0.5181932245922208;319.0;0.4002509410288582;384.0;0.48180677540777916;65.0;0.08155583437892096;0.5757217847769028;0.8851896690879741;0.3112429696287964;0.47854548599100655;0.36526968219881606;0.5616131917584702;loc;ide;diff;11f;recall;0.3112429696287964
153;153_935ceeb6394c6f854d84fbfe7502dae01b6f8367-LOC.arff;RAkELd;710.0;710.0;1.0;512.0;0.7211267605633803;118.0;0.16619718309859155;80.0;0.11267605633802817;61.0;0.08591549295774648;630.0;0.8873239436619719;4.0;0.005633802816901409;0.3560606060606061;0.88125;0.1303992303992304;0.32273809523809527;0.17592592592592593;0.4354166666666667;loc;ide;diff;11f;recall;0.1303992303992304
155;155_956ca7cd27d99797b93148ef364d7fc34ac936f0-LOC.arff;RAkELd;832.0;832.0;1.0;204.0;0.24519230769230768;198.0;0.23798076923076922;430.0;0.5168269230769231;118.0;0.14182692307692307;402.0;0.4831730769230769;37.0;0.04447115384615385;0.4241507430997877;0.6194573643410853;0.341579466181377;0.49886489479512736;0.35527132103565223;0.5188613711869525;loc;ide;diff;11f;recall;0.341579466181377
156;156_0125cdcf18ce905b5de6cc0f490c93da1df1d1fc-LOC.arff;RAkELd;246.0;246.0;1.0;39.0;0.15853658536585366;121.0;0.491869918699187;86.0;0.34959349593495936;62.0;0.25203252032520324;160.0;0.6504065040650406;0.0;0.0;0.3611111111111111;0.8691860465116279;0.14930411778237865;0.35937153931339977;0.20243462924622344;0.48725544481358435;loc;ide;diff;11f;recall;0.14930411778237865
157;157_eca6766f586b0a38da97c6b21e4d4838e847c006-LOC.arff;RAkELd;67.0;67.0;1.0;0.0;0.0;28.0;0.417910447761194;39.0;0.582089552238806;39.0;0.582089552238806;28.0;0.417910447761194;8.0;0.11940298507462686;0.582089552238806;1.0;0.35074626865671643;0.6025641025641025;0.4278606965174129;0.735042735042735;loc;ide;diff;11f;recall;0.35074626865671643
158;158_b7261cb7d2fe73e24b9b2651e1070132de77bda2-LOC.arff;RAkELd;357.0;357.0;1.0;214.0;0.5994397759103641;1.0;0.0028011204481792717;142.0;0.39775910364145656;92.0;0.25770308123249297;215.0;0.6022408963585434;21.0;0.058823529411764705;0.8251748251748252;0.8309859154929577;0.5705877455877456;0.5746059691482226;0.6354438490802128;0.6399188057638762;loc;ide;diff;11f;recall;0.5705877455877456
161;161_1234c65895cdf69c37f097cfd4b398c89a2ca895-LOC.arff;RAkELd;64.0;64.0;1.0;0.0;0.0;64.0;1.0;0.0;0.0;0.0;0.0;64.0;1.0;0.0;0.0;0.0;0.0;0.0;0.0;0.0;0.0;loc;ide;diff;11f;recall;0.0
162;162_3cc07f679c1ad20289d31cdd30837b6f0aebe2f8-LOC.arff;RAkELd;51.0;51.0;1.0;51.0;1.0;0.0;0.0;0.0;0.0;0.0;0.0;51.0;1.0;0.0;0.0;0.0;0.0;0.0;0.0;0.0;0.0;loc;ide;diff;11f;recall;0.0
163;163_58bbc0aa99753e917efe16aa0dd1149ecdbf6aa1-LOC.arff;RAkELd;52.0;52.0;1.0;7.0;0.1346153846153846;17.0;0.3269230769230769;28.0;0.5384615384615384;15.0;0.28846153846153844;24.0;0.46153846153846156;22.0;0.4230769230769231;0.4777777777777778;0.7678571428571429;0.5555555555555556;0.8928571428571429;0.4814814814814815;0.7738095238095238;loc;ide;diff;11f;recall;0.5555555555555556
7;7_7a7c87aedb9974d4b1f84ca4ab80dba640d0e0d4-LOC.arff;RAkELd;6.0;6.0;1.0;6.0;1.0;0.0;0.0;0.0;0.0;0.0;0.0;6.0;1.0;0.0;0.0;0.0;0.0;0.0;0.0;0.0;0.0;loc;ide;diff;11f;fscore;0.0
11;11_9bf8b2fda3eb5feee5a8fa644dd2a559fea95fc5-LOC.arff;RAkELd;14.0;14.0;1.0;14.0;1.0;0.0;0.0;0.0;0.0;0.0;0.0;14.0;1.0;0.0;0.0;0.0;0.0;0.0;0.0;0.0;0.0;loc;ide;diff;11f;fscore;0.0
17;17_da3e20a4618706b4fefe6668860120973f261174-LOC.arff;RAkELd;2.0;2.0;1.0;0.0;0.0;1.0;0.5;1.0;0.5;0.0;0.0;1.0;0.5;1.0;0.5;0.25;0.5;0.5;1.0;0.3333333333333333;0.6666666666666666;loc;ide;diff;11f;fscore;0.3333333333333333
18;18_f9744676f5fc2b1cd17e1d529e834a1aa25baedb-LOC.arff;RAkELd;2.0;2.0;1.0;1.0;0.5;0.0;0.0;1.0;0.5;1.0;0.5;1.0;0.5;1.0;0.5;1.0;1.0;1.0;1.0;1.0;1.0;loc;ide;diff;11f;fscore;1.0
20;20_efa08edd831faabee1ca5dae56561504f1435e16-LOC.arff;RAkELd;36.0;36.0;1.0;0.0;0.0;33.0;0.9166666666666666;3.0;0.08333333333333333;2.0;0.05555555555555555;33.0;0.9166666666666666;1.0;0.027777777777777776;0.06944444444444445;0.8333333333333334;0.05555555555555555;0.6666666666666666;0.05555555555555555;0.6666666666666666;loc;ide;diff;11f;fscore;0.05555555555555555
24;24_d8b4a77b6f37179a265b120bdfbd8c44f7e66b80-LOC.arff;RAkELd;26.0;26.0;1.0;5.0;0.19230769230769232;8.0;0.3076923076923077;13.0;0.5;13.0;0.5;13.0;0.5;11.0;0.4230769230769231;0.6190476190476191;1.0;0.5714285714285714;0.9230769230769231;0.5873015873015873;0.9487179487179488;loc;ide;diff;11f;fscore;0.5873015873015873
29;29_4e2d4bf3ba8d393c0161924911a21570ba25d7a0-LOC.arff;RAkELd;23.0;23.0;1.0;0.0;0.0;8.0;0.34782608695652173;15.0;0.6521739130434783;0.0;0.0;8.0;0.34782608695652173;0.0;0.0;0.32608695652173914;0.5;0.2717391304347826;0.4166666666666667;0.2927536231884058;0.4488888888888889;loc;ide;diff;11f;fscore;0.2927536231884058
30;30_ab8d7e7e99dce24a5499641314192b64a62bd045-LOC.arff;RAkELd;95.0;95.0;1.0;0.0;0.0;30.0;0.3157894736842105;65.0;0.6842105263157895;43.0;0.45263157894736844;30.0;0.3157894736842105;28.0;0.29473684210526313;0.5824561403508772;0.8512820512820514;0.5135087719298246;0.7505128205128205;0.5317293233082706;0.7771428571428571;loc;ide;diff;11f;fscore;0.5317293233082706
31;31_746ef129fab6c2ec90fa3356a637c38e7aa460a7-LOC.arff;RAkELd;97.0;97.0;1.0;8.0;0.08247422680412371;38.0;0.3917525773195876;51.0;0.5257731958762887;43.0;0.44329896907216493;46.0;0.4742268041237113;18.0;0.18556701030927836;0.5280898876404494;0.9215686274509803;0.4067415730337079;0.7098039215686275;0.4507223113964687;0.7865546218487395;loc;ide;diff;11f;fscore;0.4507223113964687
37;37_a6f39393b82fcb801d316dedd94a191091db6ad5-LOC.arff;RAkELd;48.0;48.0;1.0;0.0;0.0;33.0;0.6875;15.0;0.3125;15.0;0.3125;33.0;0.6875;12.0;0.25;0.3125;1.0;0.28125;0.9;0.2916666666666667;0.9333333333333333;loc;ide;diff;11f;fscore;0.2916666666666667
39;39_8b1f7e8cf42523fa177eef78cae189393d8909bb-LOC.arff;RAkELd;16.0;16.0;1.0;0.0;0.0;0.0;0.0;16.0;1.0;16.0;1.0;0.0;0.0;12.0;0.75;1.0;1.0;0.875;0.875;0.9166666666666666;0.9166666666666666;loc;ide;diff;11f;fscore;0.9166666666666666
40;40_4a99f9ffea0f6f9a7ef3305190a689b6fc50926a-LOC.arff;RAkELd;16.0;16.0;1.0;0.0;0.0;0.0;0.0;16.0;1.0;15.0;0.9375;0.0;0.0;15.0;0.9375;0.96875;0.96875;0.96875;0.96875;0.9583333333333334;0.9583333333333334;loc;ide;diff;11f;fscore;0.9583333333333334
46;46_0b8dd9dc6033b1155378977f10d881b602c0425e-LOC.arff;RAkELd;37.0;37.0;1.0;17.0;0.4594594594594595;14.0;0.3783783783783784;6.0;0.16216216216216217;6.0;0.16216216216216217;31.0;0.8378378378378378;0.0;0.0;0.3;1.0;0.07166666666666667;0.2388888888888889;0.11500000000000002;0.38333333333333336;loc;ide;diff;11f;fscore;0.11500000000000002
47;47_5cfd31e4828489d82d4bbe335865b8b993632a1b-LOC.arff;RAkELd;3.0;3.0;1.0;0.0;0.0;3.0;1.0;0.0;0.0;0.0;0.0;3.0;1.0;0.0;0.0;0.0;0.0;0.0;0.0;0.0;0.0;loc;ide;diff;11f;fscore;0.0
48;48_794650939a51f20a13e6d97c0c87727e8ba2f47c-LOC.arff;RAkELd;3.0;3.0;1.0;0.0;0.0;0.0;0.0;3.0;1.0;3.0;1.0;0.0;0.0;3.0;1.0;1.0;1.0;1.0;1.0;1.0;1.0;loc;ide;diff;11f;fscore;1.0
52;52_21339b2f9739c5d801601cfc2a2c997196389e69-LOC.arff;RAkELd;28.0;28.0;1.0;0.0;0.0;24.0;0.8571428571428571;4.0;0.14285714285714285;4.0;0.14285714285714285;24.0;0.8571428571428571;0.0;0.0;0.14285714285714285;1.0;0.07142857142857142;0.5;0.09523809523809523;0.6666666666666666;loc;ide;diff;11f;fscore;0.09523809523809523
53;53_3844b6bd98df06f8bcb8ca905eae8e4b83d29fd6-LOC.arff;RAkELd;17.0;17.0;1.0;0.0;0.0;0.0;0.0;17.0;1.0;17.0;1.0;0.0;0.0;13.0;0.7647058823529411;1.0;1.0;0.8823529411764706;0.8823529411764706;0.9215686274509803;0.9215686274509803;loc;ide;diff;11f;fscore;0.9215686274509803
54;54_f12128dcfa9a723a013f5bdbe6ee3d17099b6d71-LOC.arff;RAkELd;84.0;84.0;1.0;0.0;0.0;33.0;0.39285714285714285;51.0;0.6071428571428571;24.0;0.2857142857142857;33.0;0.39285714285714285;19.0;0.2261904761904762;0.44642857142857145;0.7352941176470589;0.417063492063492;0.6869281045751634;0.411281179138322;0.6774042950513539;loc;ide;diff;11f;fscore;0.411281179138322
55;55_cbc0de4f9ad2930d2b879b642f72e59416f9e977-LOC.arff;RAkELd;140.0;140.0;1.0;0.0;0.0;67.0;0.4785714285714286;73.0;0.5214285714285715;2.0;0.014285714285714285;67.0;0.4785714285714286;15.0;0.10714285714285714;0.26785714285714285;0.5136986301369864;0.2892857142857143;0.5547945205479452;0.26595238095238094;0.5100456621004567;loc;ide;diff;11f;fscore;0.26595238095238094
57;57_7f0c85eae897fbcd687f55d915507c322ceb7cae-LOC.arff;RAkELd;101.0;101.0;1.0;0.0;0.0;44.0;0.43564356435643564;57.0;0.5643564356435643;8.0;0.07920792079207921;44.0;0.43564356435643564;23.0;0.22772277227722773;0.3316831683168317;0.5877192982456141;0.41089108910891087;0.7280701754385965;0.3534653465346535;0.6263157894736843;loc;ide;diff;11f;fscore;0.3534653465346535
58;58_0a3d36c57cc9defe930071eb0f3d7ac33223e116-LOC.arff;RAkELd;128.0;128.0;1.0;0.0;0.0;65.0;0.5078125;63.0;0.4921875;22.0;0.171875;65.0;0.5078125;28.0;0.21875;0.33203125;0.6746031746031746;0.3372395833333333;0.6851851851851851;0.32057291666666665;0.6513227513227513;loc;ide;diff;11f;fscore;0.32057291666666665
59;59_d407796e499262d2063bdb8bdf556fe237daca75-LOC.arff;RAkELd;20.0;20.0;1.0;0.0;0.0;11.0;0.55;9.0;0.45;0.0;0.0;11.0;0.55;1.0;0.05;0.24166666666666664;0.537037037037037;0.20833333333333334;0.462962962962963;0.215;0.47777777777777775;loc;ide;diff;11f;fscore;0.215
62;62_6fb26410e33b9aae4de58f33132efd09f4cd992c-LOC.arff;RAkELd;22.0;22.0;1.0;0.0;0.0;12.0;0.5454545454545454;10.0;0.45454545454545453;0.0;0.0;12.0;0.5454545454545454;0.0;0.0;0.26515151515151514;0.5833333333333333;0.18939393939393936;0.41666666666666663;0.2207792207792208;0.48571428571428577;loc;ide;diff;11f;fscore;0.2207792207792208
63;63_12dcc99d75cd3cd9d8efb7d316656e4d19bc8d52-LOC.arff;RAkELd;25.0;25.0;1.0;0.0;0.0;9.0;0.36;16.0;0.64;14.0;0.56;9.0;0.36;4.0;0.16;0.6066666666666667;0.9479166666666666;0.44666666666666666;0.6979166666666666;0.4944761904761905;0.7726190476190476;loc;ide;diff;11f;fscore;0.4944761904761905
64;64_b33605b07445d3258df8229a1e786dc5b4ab4a06-LOC.arff;RAkELd;70.0;70.0;1.0;25.0;0.35714285714285715;19.0;0.2714285714285714;26.0;0.37142857142857144;11.0;0.15714285714285714;44.0;0.6285714285714286;15.0;0.21428571428571427;0.3888888888888889;0.6730769230769231;0.40925925925925927;0.7083333333333334;0.38708994708994704;0.6699633699633699;loc;ide;diff;11f;fscore;0.38708994708994704
65;65_a40b2b29bb20a3c1ec25b73360d6712cdb97cd98-LOC.arff;RAkELd;194.0;194.0;1.0;0.0;0.0;80.0;0.41237113402061853;114.0;0.5876288659793815;48.0;0.24742268041237114;80.0;0.41237113402061853;67.0;0.34536082474226804;0.41494845360824745;0.706140350877193;0.47465635738831613;0.8077485380116959;0.4258468335787923;0.7246867167919799;loc;ide;diff;11f;fscore;0.4258468335787923
68;68_e041ff570250275045c01f6d4a87b9a73f92f416-LOC.arff;RAkELd;18.0;18.0;1.0;2.0;0.1111111111111111;12.0;0.6666666666666666;4.0;0.2222222222222222;2.0;0.1111111111111111;14.0;0.7777777777777778;2.0;0.1111111111111111;0.17708333333333334;0.7083333333333334;0.17708333333333334;0.7083333333333334;0.175;0.7;loc;ide;diff;11f;fscore;0.175
69;69_5b6d5707ee06cf659ff4d3d7e71241e532fcfeb2-LOC.arff;RAkELd;19.0;19.0;1.0;0.0;0.0;19.0;1.0;0.0;0.0;0.0;0.0;19.0;1.0;0.0;0.0;0.0;0.0;0.0;0.0;0.0;0.0;loc;ide;diff;11f;fscore;0.0
70;70_c4ade34b0c9b55328fad8c3294289e3a086aa0d2-LOC.arff;RAkELd;19.0;19.0;1.0;0.0;0.0;0.0;0.0;19.0;1.0;19.0;1.0;0.0;0.0;19.0;1.0;1.0;1.0;1.0;1.0;1.0;1.0;loc;ide;diff;11f;fscore;1.0
75;75_13ec2a47ff332e9c1a1c642068d26a7fae43e5cb-LOC.arff;RAkELd;53.0;53.0;1.0;0.0;0.0;53.0;1.0;0.0;0.0;0.0;0.0;53.0;1.0;0.0;0.0;0.0;0.0;0.0;0.0;0.0;0.0;loc;ide;diff;11f;fscore;0.0
76;76_3955fd03aad3b9ea6cc6e8fc5c6e421f9c90d79d-LOC.arff;RAkELd;57.0;57.0;1.0;54.0;0.9473684210526315;3.0;0.05263157894736842;0.0;0.0;0.0;0.0;57.0;1.0;0.0;0.0;0.0;0.0;0.0;0.0;0.0;0.0;loc;ide;diff;11f;fscore;0.0
77;77_d9d81ba61b4b3897a898e54fdd7867898f222550-LOC.arff;RAkELd;63.0;63.0;1.0;0.0;0.0;50.0;0.7936507936507936;13.0;0.20634920634920634;0.0;0.0;50.0;0.7936507936507936;9.0;0.14285714285714285;0.10317460317460317;0.5;0.16402116402116404;0.7948717948717949;0.12063492063492062;0.5846153846153845;loc;ide;diff;11f;fscore;0.12063492063492062
78;78_c5d04b9750c4053c726bd4950d1c78bedb75f8e7-LOC.arff;RAkELd;44.0;44.0;1.0;0.0;0.0;0.0;0.0;44.0;1.0;41.0;0.9318181818181818;0.0;0.0;37.0;0.8409090909090909;0.9659090909090909;0.9659090909090909;0.9204545454545454;0.9204545454545454;0.9242424242424242;0.9242424242424242;loc;ide;diff;11f;fscore;0.9242424242424242
79;79_04c38c3d1120e0d8b9741e41bd62cbdfa3109a65-LOC.arff;RAkELd;203.0;203.0;1.0;0.0;0.0;137.0;0.6748768472906403;66.0;0.3251231527093596;55.0;0.270935960591133;137.0;0.6748768472906403;8.0;0.03940886699507389;0.29802955665024633;0.9166666666666666;0.1564039408866995;0.4810606060606061;0.19638752052545155;0.604040404040404;loc;ide;diff;11f;fscore;0.19638752052545155
80;80_3e1f7782b8b8f1d2b8ddabc9cbeeaa7d9c199e5f-LOC.arff;RAkELd;312.0;312.0;1.0;0.0;0.0;151.0;0.483974358974359;161.0;0.5160256410256411;49.0;0.15705128205128205;151.0;0.483974358974359;47.0;0.15064102564102563;0.3143696581196581;0.6092132505175983;0.3213141025641026;0.6226708074534162;0.27431318681318684;0.5315882874889086;loc;ide;diff;11f;fscore;0.27431318681318684
81;81_e316290ea16a2bff350a5e0a481e408c38272e12-LOC.arff;RAkELd;10.0;10.0;1.0;10.0;1.0;0.0;0.0;0.0;0.0;0.0;0.0;10.0;1.0;0.0;0.0;0.0;0.0;0.0;0.0;0.0;0.0;loc;ide;diff;11f;fscore;0.0
82;82_4f6a8c5831459ebfd4d552f8766037a94723f21b-LOC.arff;RAkELd;223.0;223.0;1.0;52.0;0.23318385650224216;68.0;0.30493273542600896;103.0;0.4618834080717489;84.0;0.37668161434977576;120.0;0.5381165919282511;44.0;0.19730941704035873;0.5467836257309941;0.9077669902912622;0.4244639376218323;0.7046925566343042;0.4559454191033139;0.756957928802589;loc;ide;diff;11f;fscore;0.4559454191033139
83;83_73532e34ce3061f98657eb2ef02af7e4258c825b-LOC.arff;RAkELd;239.0;239.0;1.0;1.0;0.0041841004184100415;68.0;0.28451882845188287;170.0;0.7112970711297071;113.0;0.47280334728033474;69.0;0.28870292887029286;79.0;0.3305439330543933;0.5966386554621849;0.8352941176470589;0.5016806722689076;0.7023529411764706;0.5230092036814726;0.7322128851540617;loc;ide;diff;11f;fscore;0.5230092036814726
85;85_f13f5ee8af1d30ba46330b284421a0147aaaedd4-LOC.arff;RAkELd;206.0;206.0;1.0;2.0;0.009708737864077669;59.0;0.28640776699029125;145.0;0.7038834951456311;69.0;0.33495145631067963;61.0;0.2961165048543689;45.0;0.21844660194174756;0.5004901960784314;0.7041379310344827;0.43619281045751634;0.6136781609195402;0.42785558667911605;0.6019485495347564;loc;ide;diff;11f;fscore;0.42785558667911605
86;86_34014198f540fe0f148017b2e0afed1ef33bb30a-LOC.arff;RAkELd;240.0;240.0;1.0;8.0;0.03333333333333333;70.0;0.2916666666666667;162.0;0.675;56.0;0.23333333333333334;78.0;0.325;66.0;0.275;0.4525862068965517;0.6481481481481481;0.44267241379310346;0.6339506172839506;0.41845238095238096;0.599265138154027;loc;ide;diff;11f;fscore;0.41845238095238096
87;87_3e1eb7278e5c8ad2a2dc7855b03075496f8c9322-LOC.arff;RAkELd;68.0;68.0;1.0;0.0;0.0;56.0;0.8235294117647058;12.0;0.17647058823529413;1.0;0.014705882352941176;56.0;0.8235294117647058;8.0;0.11764705882352941;0.09558823529411764;0.5416666666666666;0.14460784313725492;0.8194444444444445;0.10784313725490195;0.611111111111111;loc;ide;diff;11f;fscore;0.10784313725490195
90;90_0de35212b89a2e229aa9b7cc8e73cef3c15671b2-LOC.arff;RAkELd;81.0;81.0;1.0;78.0;0.9629629629629629;1.0;0.012345679012345678;2.0;0.024691358024691357;2.0;0.024691358024691357;79.0;0.9753086419753086;0.0;0.0;0.6666666666666666;1.0;0.3333333333333333;0.5;0.4444444444444444;0.6666666666666666;loc;ide;diff;11f;fscore;0.4444444444444444
94;94_69f575891baa1bf137729b22345f2d8c4bd265d5-LOC.arff;RAkELd;158.0;158.0;1.0;5.0;0.03164556962025317;71.0;0.44936708860759494;82.0;0.5189873417721519;37.0;0.23417721518987342;76.0;0.4810126582278481;36.0;0.22784810126582278;0.38344226579520696;0.7154471544715447;0.35751633986928105;0.6670731707317074;0.35297230003112356;0.6585946573751452;loc;ide;diff;11f;fscore;0.35297230003112356
95;95_45f1b327dadc5d5b562989a10b03eea5d185c64a-LOC.arff;RAkELd;271.0;271.0;1.0;1.0;0.0036900369003690036;138.0;0.5092250922509225;132.0;0.4870848708487085;17.0;0.06273062730627306;139.0;0.5129151291512916;36.0;0.13284132841328414;0.2595679012345679;0.5309343434343434;0.2726543209876543;0.5577020202020202;0.23370370370370372;0.478030303030303;loc;ide;diff;11f;fscore;0.23370370370370372
96;96_40ae2d7f4054d46863164655d2d345f31ea563a8-LOC.arff;RAkELd;231.0;231.0;1.0;0.0;0.0;16.0;0.06926406926406926;215.0;0.9307359307359307;150.0;0.6493506493506493;16.0;0.06926406926406926;56.0;0.24242424242424243;0.7875180375180375;0.8461240310077519;0.5213564213564214;0.56015503875969;0.5645433931148217;0.6065559246954596;loc;ide;diff;11f;fscore;0.5645433931148217
105;105_8e0a9c9d4b56543d4831f5db223438409f16ec9f-LOC.arff;RAkELd;8.0;8.0;1.0;0.0;0.0;8.0;1.0;0.0;0.0;0.0;0.0;8.0;1.0;0.0;0.0;0.0;0.0;0.0;0.0;0.0;0.0;loc;ide;diff;11f;fscore;0.0
106;106_9beb91f475006d702261b0afe2ca588009c417fe-LOC.arff;RAkELd;415.0;415.0;1.0;0.0;0.0;132.0;0.3180722891566265;283.0;0.6819277108433734;122.0;0.29397590361445786;132.0;0.3180722891566265;84.0;0.20240963855421687;0.4947791164658635;0.7255594817432274;0.4298795180722892;0.6303886925795054;0.43674507554025627;0.6404565595378316;loc;ide;diff;11f;fscore;0.43674507554025627
107;107_7fadfaa725eb44af2d806a6a3aa35b16ae371ff8-LOC.arff;RAkELd;475.0;475.0;1.0;0.0;0.0;91.0;0.19157894736842104;384.0;0.8084210526315789;163.0;0.3431578947368421;91.0;0.19157894736842104;130.0;0.2736842105263158;0.5901754385964912;0.7300347222222222;0.5480802005012531;0.6779637896825396;0.5388627629680262;0.6665620114838865;loc;ide;diff;11f;fscore;0.5388627629680262
108;108_69720a40bf191c4c154feee060ac050397db4291-LOC.arff;RAkELd;43.0;43.0;1.0;8.0;0.18604651162790697;17.0;0.3953488372093023;18.0;0.4186046511627907;6.0;0.13953488372093023;25.0;0.5813953488372093;7.0;0.16279069767441862;0.3476190476190476;0.6759259259259259;0.3685714285714286;0.7166666666666667;0.31918367346938775;0.6206349206349207;loc;ide;diff;11f;fscore;0.31918367346938775
112;112_2ac838a86290cda81b832ef110afbc4056bcfc4f-LOC.arff;RAkELd;309.0;309.0;1.0;0.0;0.0;163.0;0.5275080906148867;146.0;0.47249190938511326;10.0;0.032362459546925564;163.0;0.5275080906148867;27.0;0.08737864077669903;0.24455231930960086;0.5175799086757991;0.2609415934658653;0.5522667971298109;0.23787785389727137;0.5034538140702524;loc;ide;diff;11f;fscore;0.23787785389727137
115;115_0cc320cee1b10428c462ac68b0644004e3a69053-LOC.arff;RAkELd;34.0;34.0;1.0;0.0;0.0;11.0;0.3235294117647059;23.0;0.6764705882352942;8.0;0.23529411764705882;11.0;0.3235294117647059;8.0;0.23529411764705882;0.45833333333333337;0.677536231884058;0.4284313725490196;0.6333333333333333;0.4064425770308123;0.6008281573498965;loc;ide;diff;11f;fscore;0.4064425770308123
117;117_f7cbe1b67fe1ef68e553f67da1d9cc3c0a16e9a9-LOC.arff;RAkELd;204.0;204.0;1.0;0.0;0.0;44.0;0.21568627450980393;160.0;0.7843137254901961;0.0;0.0;44.0;0.21568627450980393;25.0;0.12254901960784313;0.2985294117647059;0.380625;0.42516339869281045;0.5420833333333334;0.3378657018362901;0.43077876984126984;loc;ide;diff;11f;fscore;0.3378657018362901
120;120_5fb9be28bbfcdfad3bcec2788f55f87c685fae3b-LOC.arff;RAkELd;85.0;85.0;1.0;29.0;0.3411764705882353;56.0;0.6588235294117647;0.0;0.0;0.0;0.0;85.0;1.0;0.0;0.0;0.0;0.0;0.0;0.0;0.0;0.0;loc;ide;diff;11f;fscore;0.0
123;123_d74a45886ca4f6bac539dced1606e18a0d9c10a1-LOC.arff;RAkELd;5.0;5.0;1.0;0.0;0.0;0.0;0.0;5.0;1.0;0.0;0.0;0.0;0.0;5.0;1.0;0.5;0.5;1.0;1.0;0.6666666666666666;0.6666666666666666;loc;ide;diff;11f;fscore;0.6666666666666666
124;124_dedd036e78209467b61c048a465b51035ad0e395-LOC.arff;RAkELd;34.0;34.0;1.0;31.0;0.9117647058823529;3.0;0.08823529411764706;0.0;0.0;0.0;0.0;34.0;1.0;0.0;0.0;0.0;0.0;0.0;0.0;0.0;0.0;loc;ide;diff;11f;fscore;0.0
125;125_c788062f4afa815da069ba62783435db249ca8f2-LOC.arff;RAkELd;331.0;331.0;1.0;6.0;0.01812688821752266;3.0;0.00906344410876133;322.0;0.972809667673716;146.0;0.44108761329305135;9.0;0.027190332326283987;64.0;0.1933534743202417;0.7363589743589743;0.7432194616977226;0.6045750915750916;0.6102077787636794;0.6215586635586636;0.6273495827843655;loc;ide;diff;11f;fscore;0.6215586635586636
127;127_71f987e0d06152d6f802b7e861fc362403762b10-LOC.arff;RAkELd;407.0;407.0;1.0;0.0;0.0;29.0;0.07125307125307126;378.0;0.9287469287469288;157.0;0.3857493857493858;29.0;0.07125307125307126;92.0;0.22604422604422605;0.6543407043407043;0.7045414462081129;0.5605826605826606;0.6035903250188964;0.5573171164080255;0.6000742496774243;loc;ide;diff;11f;fscore;0.5573171164080255
128;128_427e104c2d7f815f2f303213cf610fe8bd245c72-LOC.arff;RAkELd;66.0;66.0;1.0;0.0;0.0;5.0;0.07575757575757576;61.0;0.9242424242424242;19.0;0.2878787878787879;5.0;0.07575757575757576;54.0;0.8181818181818182;0.5934343434343434;0.6420765027322404;0.8712121212121212;0.9426229508196722;0.6787878787878787;0.7344262295081967;loc;ide;diff;11f;fscore;0.6787878787878787
131;131_2c66a92ba29d45f4f4db2c90d440f4e7a1d10f08-LOC.arff;RAkELd;648.0;648.0;1.0;0.0;0.0;183.0;0.2824074074074074;465.0;0.7175925925925926;145.0;0.22376543209876543;183.0;0.2824074074074074;129.0;0.19907407407407407;0.4657150205761316;0.6489964157706093;0.4300870811287478;0.5993471582181259;0.4130443544795397;0.5755972939843907;loc;ide;diff;11f;fscore;0.4130443544795397
139;139_b893fc56df181c0bd90303135564c28b90f3fb4d-LOC.arff;RAkELd;112.0;112.0;1.0;0.0;0.0;112.0;1.0;0.0;0.0;0.0;0.0;112.0;1.0;0.0;0.0;0.0;0.0;0.0;0.0;0.0;0.0;loc;ide;diff;11f;fscore;0.0
141;141_5abbfbed6ab735ca92637637c76a4c3fe558eb42-LOC.arff;RAkELd;26.0;26.0;1.0;0.0;0.0;14.0;0.5384615384615384;12.0;0.46153846153846156;0.0;0.0;14.0;0.5384615384615384;2.0;0.07692307692307693;0.20512820512820512;0.4444444444444444;0.25641025641025644;0.5555555555555556;0.2141025641025641;0.46388888888888885;loc;ide;diff;11f;fscore;0.2141025641025641
142;142_fea98ef906bd11fc42f3f0d272fd76015496201c-LOC.arff;RAkELd;320.0;320.0;1.0;0.0;0.0;114.0;0.35625;206.0;0.64375;1.0;0.003125;114.0;0.35625;62.0;0.19375;0.3093080357142857;0.48047850208044385;0.38645089285714285;0.6003120665742024;0.31692933802308804;0.49231741828829206;loc;ide;diff;11f;fscore;0.31692933802308804
143;143_e23e91c882cbfb52f47f5617e621459350f3fe38-LOC.arff;RAkELd;15.0;15.0;1.0;1.0;0.06666666666666667;14.0;0.9333333333333333;0.0;0.0;0.0;0.0;15.0;1.0;0.0;0.0;0.0;0.0;0.0;0.0;0.0;0.0;loc;ide;diff;11f;fscore;0.0
144;144_05fbbcf48a0710c29e67cfaf2d39a12b2d17ff04-LOC.arff;RAkELd;49.0;49.0;1.0;0.0;0.0;34.0;0.6938775510204082;15.0;0.30612244897959184;15.0;0.30612244897959184;34.0;0.6938775510204082;0.0;0.0;0.30612244897959184;1.0;0.15306122448979592;0.5;0.20408163265306123;0.6666666666666666;loc;ide;diff;11f;fscore;0.20408163265306123
145;145_9e32bb6b85d9eb129437616a3ae3021865b76d56-LOC.arff;RAkELd;408.0;408.0;1.0;225.0;0.5514705882352942;70.0;0.1715686274509804;113.0;0.2769607843137255;86.0;0.2107843137254902;295.0;0.7230392156862745;0.0;0.0;0.5432604735883425;0.8797935103244838;0.2248568826437679;0.3641487568478719;0.3068838265559577;0.4969888518561085;loc;ide;diff;11f;fscore;0.3068838265559577
146;146_91177058a0f52c25b501205a628e1f1e68b868d6-LOC.arff;RAkELd;144.0;144.0;1.0;0.0;0.0;123.0;0.8541666666666666;21.0;0.14583333333333334;18.0;0.125;123.0;0.8541666666666666;21.0;0.14583333333333334;0.13541666666666666;0.9285714285714286;0.14583333333333334;1.0;0.1388888888888889;0.9523809523809523;loc;ide;diff;11f;fscore;0.1388888888888889
147;147_01955f4f4df4579405a8bb1868f60af30e9a028b-LOC.arff;RAkELd;101.0;101.0;1.0;0.0;0.0;73.0;0.7227722772277227;28.0;0.27722772277227725;28.0;0.27722772277227725;73.0;0.7227722772277227;2.0;0.019801980198019802;0.27722772277227725;1.0;0.1485148514851485;0.5357142857142857;0.1914191419141914;0.6904761904761905;loc;ide;diff;11f;fscore;0.1914191419141914
148;148_4cfd7fef412fb7e2bfb4e4cf6800400783e88901-LOC.arff;RAkELd;103.0;103.0;1.0;0.0;0.0;4.0;0.038834951456310676;99.0;0.9611650485436893;97.0;0.941747572815534;4.0;0.038834951456310676;79.0;0.7669902912621359;0.9514563106796117;0.98989898989899;0.8640776699029126;0.898989898989899;0.8899676375404532;0.9259259259259259;loc;ide;diff;11f;fscore;0.8899676375404532
151;151_87ad682eace7ceb5bc0034546f74f5be3a058ca9-LOC.arff;RAkELd;678.0;678.0;1.0;322.0;0.4749262536873156;164.0;0.24188790560471976;192.0;0.2831858407079646;99.0;0.14601769911504425;486.0;0.7168141592920354;16.0;0.02359882005899705;0.3981741573033708;0.73828125;0.20983814874264312;0.38907490079365076;0.24942259675405745;0.46247106481481487;loc;ide;diff;11f;fscore;0.24942259675405745
152;152_78a952ea672d71661caa3de4b643979e5c1d96db-LOC.arff;RAkELd;797.0;797.0;1.0;162.0;0.20326223337515684;222.0;0.27854454203262236;413.0;0.5181932245922208;319.0;0.4002509410288582;384.0;0.48180677540777916;65.0;0.08155583437892096;0.5757217847769028;0.8851896690879741;0.3112429696287964;0.47854548599100655;0.36526968219881606;0.5616131917584702;loc;ide;diff;11f;fscore;0.36526968219881606
153;153_935ceeb6394c6f854d84fbfe7502dae01b6f8367-LOC.arff;RAkELd;710.0;710.0;1.0;512.0;0.7211267605633803;118.0;0.16619718309859155;80.0;0.11267605633802817;61.0;0.08591549295774648;630.0;0.8873239436619719;4.0;0.005633802816901409;0.3560606060606061;0.88125;0.1303992303992304;0.32273809523809527;0.17592592592592593;0.4354166666666667;loc;ide;diff;11f;fscore;0.17592592592592593
155;155_956ca7cd27d99797b93148ef364d7fc34ac936f0-LOC.arff;RAkELd;832.0;832.0;1.0;204.0;0.24519230769230768;198.0;0.23798076923076922;430.0;0.5168269230769231;118.0;0.14182692307692307;402.0;0.4831730769230769;37.0;0.04447115384615385;0.4241507430997877;0.6194573643410853;0.341579466181377;0.49886489479512736;0.35527132103565223;0.5188613711869525;loc;ide;diff;11f;fscore;0.35527132103565223
156;156_0125cdcf18ce905b5de6cc0f490c93da1df1d1fc-LOC.arff;RAkELd;246.0;246.0;1.0;39.0;0.15853658536585366;121.0;0.491869918699187;86.0;0.34959349593495936;62.0;0.25203252032520324;160.0;0.6504065040650406;0.0;0.0;0.3611111111111111;0.8691860465116279;0.14930411778237865;0.35937153931339977;0.20243462924622344;0.48725544481358435;loc;ide;diff;11f;fscore;0.20243462924622344
157;157_eca6766f586b0a38da97c6b21e4d4838e847c006-LOC.arff;RAkELd;67.0;67.0;1.0;0.0;0.0;28.0;0.417910447761194;39.0;0.582089552238806;39.0;0.582089552238806;28.0;0.417910447761194;8.0;0.11940298507462686;0.582089552238806;1.0;0.35074626865671643;0.6025641025641025;0.4278606965174129;0.735042735042735;loc;ide;diff;11f;fscore;0.4278606965174129
158;158_b7261cb7d2fe73e24b9b2651e1070132de77bda2-LOC.arff;RAkELd;357.0;357.0;1.0;214.0;0.5994397759103641;1.0;0.0028011204481792717;142.0;0.39775910364145656;92.0;0.25770308123249297;215.0;0.6022408963585434;21.0;0.058823529411764705;0.8251748251748252;0.8309859154929577;0.5705877455877456;0.5746059691482226;0.6354438490802128;0.6399188057638762;loc;ide;diff;11f;fscore;0.6354438490802128
161;161_1234c65895cdf69c37f097cfd4b398c89a2ca895-LOC.arff;RAkELd;64.0;64.0;1.0;0.0;0.0;64.0;1.0;0.0;0.0;0.0;0.0;64.0;1.0;0.0;0.0;0.0;0.0;0.0;0.0;0.0;0.0;loc;ide;diff;11f;fscore;0.0
162;162_3cc07f679c1ad20289d31cdd30837b6f0aebe2f8-LOC.arff;RAkELd;51.0;51.0;1.0;51.0;1.0;0.0;0.0;0.0;0.0;0.0;0.0;51.0;1.0;0.0;0.0;0.0;0.0;0.0;0.0;0.0;0.0;loc;ide;diff;11f;fscore;0.0
163;163_58bbc0aa99753e917efe16aa0dd1149ecdbf6aa1-LOC.arff;RAkELd;52.0;52.0;1.0;7.0;0.1346153846153846;17.0;0.3269230769230769;28.0;0.5384615384615384;15.0;0.28846153846153844;24.0;0.46153846153846156;22.0;0.4230769230769231;0.4777777777777778;0.7678571428571429;0.5555555555555556;0.8928571428571429;0.4814814814814815;0.7738095238095238;loc;ide;diff;11f;fscore;0.4814814814814815
