commit;DataSet;Classifier;TotalInstances;InstancesWithRankedLabels;PercentageOfInstancesWithRankedLabels;InstancesWithPrecisionNull;PercentageOfInstancesWithPrecisionNull;InstancesWithPrecisionZero;PercentageOfInstancesWithPrecisionZero;InstancesWithPrecisionNonZero;PercentageOfInstancesWithPrecisionNonZero;InstancesWithPrecisionOne;PercentageOfInstancesWithPrecisionOne;InstancesWithRecallZero;PercentageOfInstancesWithRecallZero;InstancesWithRecallOne;PercentageOfInstancesWithRecallOne;AveragePrecisionForAllNonNullPrecision;AveragePrecisionForNonZeroPrecision;AverageRecallForAllNonNullPrecision;AverageRecallForAllNonZeroPrecision;AverageFScoreForAllNonNullPrecision;AverageFScoreForAllNonZeroPrecision;Level;project;clusters;feature;measure;measurevalue
9;9_553771a4efe103fef602ebb012b909232c87d90c-FILE.arff;BR;2.0;2.0;1.0;0.0;0.0;0.0;0.0;2.0;1.0;0.0;0.0;0.0;0.0;2.0;1.0;0.5;0.5;1.0;1.0;0.6666666666666666;0.6666666666666666;file;config;diff;11f;precision;0.5
9;9_553771a4efe103fef602ebb012b909232c87d90c-FILE.arff;LP;2.0;2.0;1.0;0.0;0.0;0.0;0.0;2.0;1.0;2.0;1.0;0.0;0.0;2.0;1.0;1.0;1.0;1.0;1.0;1.0;1.0;file;config;diff;11f;precision;1.0
9;9_553771a4efe103fef602ebb012b909232c87d90c-FILE.arff;RAkELd;2.0;2.0;1.0;0.0;0.0;2.0;1.0;0.0;0.0;0.0;0.0;2.0;1.0;0.0;0.0;0.0;0.0;0.0;0.0;0.0;0.0;file;config;diff;11f;precision;0.0
10;10_6e6bbcad3d2c374d6b07749cecb5740b9c329e5f-FILE.arff;BR;2.0;2.0;1.0;0.0;0.0;0.0;0.0;2.0;1.0;0.0;0.0;0.0;0.0;2.0;1.0;0.5;0.5;1.0;1.0;0.6666666666666666;0.6666666666666666;file;config;diff;11f;precision;0.5
10;10_6e6bbcad3d2c374d6b07749cecb5740b9c329e5f-FILE.arff;LP;2.0;2.0;1.0;0.0;0.0;2.0;1.0;0.0;0.0;0.0;0.0;2.0;1.0;0.0;0.0;0.0;0.0;0.0;0.0;0.0;0.0;file;config;diff;11f;precision;0.0
10;10_6e6bbcad3d2c374d6b07749cecb5740b9c329e5f-FILE.arff;RAkELd;2.0;2.0;1.0;0.0;0.0;2.0;1.0;0.0;0.0;0.0;0.0;2.0;1.0;0.0;0.0;0.0;0.0;0.0;0.0;0.0;0.0;file;config;diff;11f;precision;0.0
15;15_e9ec5b47c3d417981f4b46f861a85525c2de3e42-FILE.arff;BR;1.0;1.0;1.0;0.0;0.0;1.0;1.0;0.0;0.0;0.0;0.0;1.0;1.0;0.0;0.0;0.0;0.0;0.0;0.0;0.0;0.0;file;config;diff;11f;precision;0.0
15;15_e9ec5b47c3d417981f4b46f861a85525c2de3e42-FILE.arff;LP;1.0;1.0;1.0;0.0;0.0;1.0;1.0;0.0;0.0;0.0;0.0;1.0;1.0;0.0;0.0;0.0;0.0;0.0;0.0;0.0;0.0;file;config;diff;11f;precision;0.0
15;15_e9ec5b47c3d417981f4b46f861a85525c2de3e42-FILE.arff;RAkELd;1.0;1.0;1.0;0.0;0.0;1.0;1.0;0.0;0.0;0.0;0.0;1.0;1.0;0.0;0.0;0.0;0.0;0.0;0.0;0.0;0.0;file;config;diff;11f;precision;0.0
17;17_452234143f8a0e450634432d6bc51d1a944b51b5-FILE.arff;BR;5.0;5.0;1.0;5.0;1.0;0.0;0.0;0.0;0.0;0.0;0.0;5.0;1.0;0.0;0.0;0.0;0.0;0.0;0.0;0.0;0.0;file;config;diff;11f;precision;0.0
17;17_452234143f8a0e450634432d6bc51d1a944b51b5-FILE.arff;LP;5.0;5.0;1.0;0.0;0.0;5.0;1.0;0.0;0.0;0.0;0.0;5.0;1.0;0.0;0.0;0.0;0.0;0.0;0.0;0.0;0.0;file;config;diff;11f;precision;0.0
17;17_452234143f8a0e450634432d6bc51d1a944b51b5-FILE.arff;RAkELd;5.0;5.0;1.0;2.0;0.4;2.0;0.4;1.0;0.2;1.0;0.2;4.0;0.8;1.0;0.2;0.3333333333333333;1.0;0.3333333333333333;1.0;0.3333333333333333;1.0;file;config;diff;11f;precision;0.3333333333333333
18;18_3e80266e8dfc03687dac1b8a77effe7ea66cdb34-FILE.arff;BR;3.0;3.0;1.0;3.0;1.0;0.0;0.0;0.0;0.0;0.0;0.0;3.0;1.0;0.0;0.0;0.0;0.0;0.0;0.0;0.0;0.0;file;config;diff;11f;precision;0.0
18;18_3e80266e8dfc03687dac1b8a77effe7ea66cdb34-FILE.arff;LP;3.0;3.0;1.0;0.0;0.0;2.0;0.6666666666666666;1.0;0.3333333333333333;1.0;0.3333333333333333;2.0;0.6666666666666666;1.0;0.3333333333333333;0.3333333333333333;1.0;0.3333333333333333;1.0;0.3333333333333333;1.0;file;config;diff;11f;precision;0.3333333333333333
18;18_3e80266e8dfc03687dac1b8a77effe7ea66cdb34-FILE.arff;RAkELd;3.0;3.0;1.0;2.0;0.6666666666666666;0.0;0.0;1.0;0.3333333333333333;1.0;0.3333333333333333;2.0;0.6666666666666666;1.0;0.3333333333333333;1.0;1.0;1.0;1.0;1.0;1.0;file;config;diff;11f;precision;1.0
19;19_82829deb0d4c81f35ab73c4c92a95a4713ca2da7-FILE.arff;BR;4.0;4.0;1.0;4.0;1.0;0.0;0.0;0.0;0.0;0.0;0.0;4.0;1.0;0.0;0.0;0.0;0.0;0.0;0.0;0.0;0.0;file;config;diff;11f;precision;0.0
19;19_82829deb0d4c81f35ab73c4c92a95a4713ca2da7-FILE.arff;LP;4.0;4.0;1.0;0.0;0.0;3.0;0.75;1.0;0.25;1.0;0.25;3.0;0.75;1.0;0.25;0.25;1.0;0.25;1.0;0.25;1.0;file;config;diff;11f;precision;0.25
19;19_82829deb0d4c81f35ab73c4c92a95a4713ca2da7-FILE.arff;RAkELd;4.0;4.0;1.0;3.0;0.75;0.0;0.0;1.0;0.25;1.0;0.25;3.0;0.75;1.0;0.25;1.0;1.0;1.0;1.0;1.0;1.0;file;config;diff;11f;precision;1.0
20;20_a0390a1945d87e77960e3b49bfc5293bdf4cc7f1-FILE.arff;BR;2.0;2.0;1.0;2.0;1.0;0.0;0.0;0.0;0.0;0.0;0.0;2.0;1.0;0.0;0.0;0.0;0.0;0.0;0.0;0.0;0.0;file;config;diff;11f;precision;0.0
20;20_a0390a1945d87e77960e3b49bfc5293bdf4cc7f1-FILE.arff;LP;2.0;2.0;1.0;0.0;0.0;1.0;0.5;1.0;0.5;1.0;0.5;1.0;0.5;1.0;0.5;0.5;1.0;0.5;1.0;0.5;1.0;file;config;diff;11f;precision;0.5
20;20_a0390a1945d87e77960e3b49bfc5293bdf4cc7f1-FILE.arff;RAkELd;2.0;2.0;1.0;1.0;0.5;0.0;0.0;1.0;0.5;1.0;0.5;1.0;0.5;1.0;0.5;1.0;1.0;1.0;1.0;1.0;1.0;file;config;diff;11f;precision;1.0
21;21_8ea5cba374125e90d9474b19e9f009f2c8c1e393-FILE.arff;BR;2.0;2.0;1.0;2.0;1.0;0.0;0.0;0.0;0.0;0.0;0.0;2.0;1.0;0.0;0.0;0.0;0.0;0.0;0.0;0.0;0.0;file;config;diff;11f;precision;0.0
21;21_8ea5cba374125e90d9474b19e9f009f2c8c1e393-FILE.arff;LP;2.0;2.0;1.0;0.0;0.0;1.0;0.5;1.0;0.5;1.0;0.5;1.0;0.5;1.0;0.5;0.5;1.0;0.5;1.0;0.5;1.0;file;config;diff;11f;precision;0.5
21;21_8ea5cba374125e90d9474b19e9f009f2c8c1e393-FILE.arff;RAkELd;2.0;2.0;1.0;1.0;0.5;1.0;0.5;0.0;0.0;0.0;0.0;2.0;1.0;0.0;0.0;0.0;0.0;0.0;0.0;0.0;0.0;file;config;diff;11f;precision;0.0
22;22_cdb3ce045bf29e12febbf41e55d6af4e4b223cc9-FILE.arff;BR;1.0;1.0;1.0;1.0;1.0;0.0;0.0;0.0;0.0;0.0;0.0;1.0;1.0;0.0;0.0;0.0;0.0;0.0;0.0;0.0;0.0;file;config;diff;11f;precision;0.0
22;22_cdb3ce045bf29e12febbf41e55d6af4e4b223cc9-FILE.arff;LP;1.0;1.0;1.0;0.0;0.0;0.0;0.0;1.0;1.0;1.0;1.0;0.0;0.0;1.0;1.0;1.0;1.0;1.0;1.0;1.0;1.0;file;config;diff;11f;precision;1.0
22;22_cdb3ce045bf29e12febbf41e55d6af4e4b223cc9-FILE.arff;RAkELd;1.0;1.0;1.0;0.0;0.0;1.0;1.0;0.0;0.0;0.0;0.0;1.0;1.0;0.0;0.0;0.0;0.0;0.0;0.0;0.0;0.0;file;config;diff;11f;precision;0.0
23;23_c86910dc5497dadec1d525edb7e2c0b9de2ecce3-FILE.arff;BR;2.0;2.0;1.0;2.0;1.0;0.0;0.0;0.0;0.0;0.0;0.0;2.0;1.0;0.0;0.0;0.0;0.0;0.0;0.0;0.0;0.0;file;config;diff;11f;precision;0.0
23;23_c86910dc5497dadec1d525edb7e2c0b9de2ecce3-FILE.arff;LP;2.0;2.0;1.0;0.0;0.0;2.0;1.0;0.0;0.0;0.0;0.0;2.0;1.0;0.0;0.0;0.0;0.0;0.0;0.0;0.0;0.0;file;config;diff;11f;precision;0.0
23;23_c86910dc5497dadec1d525edb7e2c0b9de2ecce3-FILE.arff;RAkELd;2.0;2.0;1.0;1.0;0.5;0.0;0.0;1.0;0.5;1.0;0.5;1.0;0.5;1.0;0.5;1.0;1.0;1.0;1.0;1.0;1.0;file;config;diff;11f;precision;1.0
28;28_31ed4148d24c716f53674190194d678a10963319-FILE.arff;BR;2.0;2.0;1.0;2.0;1.0;0.0;0.0;0.0;0.0;0.0;0.0;2.0;1.0;0.0;0.0;0.0;0.0;0.0;0.0;0.0;0.0;file;config;diff;11f;precision;0.0
28;28_31ed4148d24c716f53674190194d678a10963319-FILE.arff;LP;2.0;2.0;1.0;0.0;0.0;2.0;1.0;0.0;0.0;0.0;0.0;2.0;1.0;0.0;0.0;0.0;0.0;0.0;0.0;0.0;0.0;file;config;diff;11f;precision;0.0
28;28_31ed4148d24c716f53674190194d678a10963319-FILE.arff;RAkELd;2.0;2.0;1.0;2.0;1.0;0.0;0.0;0.0;0.0;0.0;0.0;2.0;1.0;0.0;0.0;0.0;0.0;0.0;0.0;0.0;0.0;file;config;diff;11f;precision;0.0
29;29_2d4fee10f0a276a0319faefcef3008745b37a67f-FILE.arff;BR;1.0;1.0;1.0;1.0;1.0;0.0;0.0;0.0;0.0;0.0;0.0;1.0;1.0;0.0;0.0;0.0;0.0;0.0;0.0;0.0;0.0;file;config;diff;11f;precision;0.0
29;29_2d4fee10f0a276a0319faefcef3008745b37a67f-FILE.arff;LP;1.0;1.0;1.0;0.0;0.0;0.0;0.0;1.0;1.0;1.0;1.0;0.0;0.0;1.0;1.0;1.0;1.0;1.0;1.0;1.0;1.0;file;config;diff;11f;precision;1.0
29;29_2d4fee10f0a276a0319faefcef3008745b37a67f-FILE.arff;RAkELd;1.0;1.0;1.0;0.0;0.0;1.0;1.0;0.0;0.0;0.0;0.0;1.0;1.0;0.0;0.0;0.0;0.0;0.0;0.0;0.0;0.0;file;config;diff;11f;precision;0.0
30;30_3e09f8b1096836f89d0bc60e3537406a16459fbd-FILE.arff;BR;3.0;3.0;1.0;3.0;1.0;0.0;0.0;0.0;0.0;0.0;0.0;3.0;1.0;0.0;0.0;0.0;0.0;0.0;0.0;0.0;0.0;file;config;diff;11f;precision;0.0
30;30_3e09f8b1096836f89d0bc60e3537406a16459fbd-FILE.arff;LP;3.0;3.0;1.0;0.0;0.0;3.0;1.0;0.0;0.0;0.0;0.0;3.0;1.0;0.0;0.0;0.0;0.0;0.0;0.0;0.0;0.0;file;config;diff;11f;precision;0.0
30;30_3e09f8b1096836f89d0bc60e3537406a16459fbd-FILE.arff;RAkELd;3.0;3.0;1.0;2.0;0.6666666666666666;0.0;0.0;1.0;0.3333333333333333;1.0;0.3333333333333333;2.0;0.6666666666666666;1.0;0.3333333333333333;1.0;1.0;1.0;1.0;1.0;1.0;file;config;diff;11f;precision;1.0
31;31_38272079aa0d488a2fb6cb62b383c5f79cc22a09-FILE.arff;BR;2.0;2.0;1.0;2.0;1.0;0.0;0.0;0.0;0.0;0.0;0.0;2.0;1.0;0.0;0.0;0.0;0.0;0.0;0.0;0.0;0.0;file;config;diff;11f;precision;0.0
31;31_38272079aa0d488a2fb6cb62b383c5f79cc22a09-FILE.arff;LP;2.0;2.0;1.0;0.0;0.0;1.0;0.5;1.0;0.5;1.0;0.5;1.0;0.5;1.0;0.5;0.5;1.0;0.5;1.0;0.5;1.0;file;config;diff;11f;precision;0.5
31;31_38272079aa0d488a2fb6cb62b383c5f79cc22a09-FILE.arff;RAkELd;2.0;2.0;1.0;0.0;0.0;2.0;1.0;0.0;0.0;0.0;0.0;2.0;1.0;0.0;0.0;0.0;0.0;0.0;0.0;0.0;0.0;file;config;diff;11f;precision;0.0
35;35_4be4ce5788f752150327e8be666eb84afef6881a-FILE.arff;BR;2.0;2.0;1.0;2.0;1.0;0.0;0.0;0.0;0.0;0.0;0.0;2.0;1.0;0.0;0.0;0.0;0.0;0.0;0.0;0.0;0.0;file;config;diff;11f;precision;0.0
35;35_4be4ce5788f752150327e8be666eb84afef6881a-FILE.arff;LP;2.0;2.0;1.0;0.0;0.0;1.0;0.5;1.0;0.5;1.0;0.5;1.0;0.5;1.0;0.5;0.5;1.0;0.5;1.0;0.5;1.0;file;config;diff;11f;precision;0.5
35;35_4be4ce5788f752150327e8be666eb84afef6881a-FILE.arff;RAkELd;2.0;2.0;1.0;1.0;0.5;0.0;0.0;1.0;0.5;1.0;0.5;1.0;0.5;1.0;0.5;1.0;1.0;1.0;1.0;1.0;1.0;file;config;diff;11f;precision;1.0
37;37_a3ff951e4ab64bda60f0bbd05c697257120e41bb-FILE.arff;BR;5.0;5.0;1.0;5.0;1.0;0.0;0.0;0.0;0.0;0.0;0.0;5.0;1.0;0.0;0.0;0.0;0.0;0.0;0.0;0.0;0.0;file;config;diff;11f;precision;0.0
37;37_a3ff951e4ab64bda60f0bbd05c697257120e41bb-FILE.arff;LP;5.0;5.0;1.0;0.0;0.0;1.0;0.2;4.0;0.8;4.0;0.8;1.0;0.2;4.0;0.8;0.8;1.0;0.8;1.0;0.8;1.0;file;config;diff;11f;precision;0.8
37;37_a3ff951e4ab64bda60f0bbd05c697257120e41bb-FILE.arff;RAkELd;5.0;5.0;1.0;1.0;0.2;4.0;0.8;0.0;0.0;0.0;0.0;5.0;1.0;0.0;0.0;0.0;0.0;0.0;0.0;0.0;0.0;file;config;diff;11f;precision;0.0
38;38_a3a52fed8df123af995b39816c6a1eb531fd91a9-FILE.arff;BR;7.0;7.0;1.0;7.0;1.0;0.0;0.0;0.0;0.0;0.0;0.0;7.0;1.0;0.0;0.0;0.0;0.0;0.0;0.0;0.0;0.0;file;config;diff;11f;precision;0.0
38;38_a3a52fed8df123af995b39816c6a1eb531fd91a9-FILE.arff;LP;7.0;7.0;1.0;0.0;0.0;7.0;1.0;0.0;0.0;0.0;0.0;7.0;1.0;0.0;0.0;0.0;0.0;0.0;0.0;0.0;0.0;file;config;diff;11f;precision;0.0
38;38_a3a52fed8df123af995b39816c6a1eb531fd91a9-FILE.arff;RAkELd;7.0;7.0;1.0;2.0;0.2857142857142857;5.0;0.7142857142857143;0.0;0.0;0.0;0.0;7.0;1.0;0.0;0.0;0.0;0.0;0.0;0.0;0.0;0.0;file;config;diff;11f;precision;0.0
40;40_61060284aaefc13a758eaa5d56ea15ef00940d50-FILE.arff;BR;1.0;1.0;1.0;1.0;1.0;0.0;0.0;0.0;0.0;0.0;0.0;1.0;1.0;0.0;0.0;0.0;0.0;0.0;0.0;0.0;0.0;file;config;diff;11f;precision;0.0
40;40_61060284aaefc13a758eaa5d56ea15ef00940d50-FILE.arff;LP;1.0;1.0;1.0;0.0;0.0;1.0;1.0;0.0;0.0;0.0;0.0;1.0;1.0;0.0;0.0;0.0;0.0;0.0;0.0;0.0;0.0;file;config;diff;11f;precision;0.0
40;40_61060284aaefc13a758eaa5d56ea15ef00940d50-FILE.arff;RAkELd;1.0;1.0;1.0;1.0;1.0;0.0;0.0;0.0;0.0;0.0;0.0;1.0;1.0;0.0;0.0;0.0;0.0;0.0;0.0;0.0;0.0;file;config;diff;11f;precision;0.0
41;41_f27292734432228765446ca71db00314424fce48-FILE.arff;BR;1.0;1.0;1.0;1.0;1.0;0.0;0.0;0.0;0.0;0.0;0.0;1.0;1.0;0.0;0.0;0.0;0.0;0.0;0.0;0.0;0.0;file;config;diff;11f;precision;0.0
41;41_f27292734432228765446ca71db00314424fce48-FILE.arff;LP;1.0;1.0;1.0;0.0;0.0;1.0;1.0;0.0;0.0;0.0;0.0;1.0;1.0;0.0;0.0;0.0;0.0;0.0;0.0;0.0;0.0;file;config;diff;11f;precision;0.0
41;41_f27292734432228765446ca71db00314424fce48-FILE.arff;RAkELd;1.0;1.0;1.0;1.0;1.0;0.0;0.0;0.0;0.0;0.0;0.0;1.0;1.0;0.0;0.0;0.0;0.0;0.0;0.0;0.0;0.0;file;config;diff;11f;precision;0.0
42;42_369ff94e4d3a476e60c6105eb90d4bdd477f0b8b-FILE.arff;BR;5.0;5.0;1.0;5.0;1.0;0.0;0.0;0.0;0.0;0.0;0.0;5.0;1.0;0.0;0.0;0.0;0.0;0.0;0.0;0.0;0.0;file;config;diff;11f;precision;0.0
42;42_369ff94e4d3a476e60c6105eb90d4bdd477f0b8b-FILE.arff;LP;5.0;5.0;1.0;0.0;0.0;2.0;0.4;3.0;0.6;3.0;0.6;2.0;0.4;3.0;0.6;0.6;1.0;0.6;1.0;0.6;1.0;file;config;diff;11f;precision;0.6
42;42_369ff94e4d3a476e60c6105eb90d4bdd477f0b8b-FILE.arff;RAkELd;5.0;5.0;1.0;2.0;0.4;3.0;0.6;0.0;0.0;0.0;0.0;5.0;1.0;0.0;0.0;0.0;0.0;0.0;0.0;0.0;0.0;file;config;diff;11f;precision;0.0
43;43_b18c4172f5a973f38241f1f997a9df14635ab54f-FILE.arff;BR;5.0;5.0;1.0;5.0;1.0;0.0;0.0;0.0;0.0;0.0;0.0;5.0;1.0;0.0;0.0;0.0;0.0;0.0;0.0;0.0;0.0;file;config;diff;11f;precision;0.0
43;43_b18c4172f5a973f38241f1f997a9df14635ab54f-FILE.arff;LP;5.0;5.0;1.0;0.0;0.0;4.0;0.8;1.0;0.2;1.0;0.2;4.0;0.8;1.0;0.2;0.2;1.0;0.2;1.0;0.2;1.0;file;config;diff;11f;precision;0.2
43;43_b18c4172f5a973f38241f1f997a9df14635ab54f-FILE.arff;RAkELd;5.0;5.0;1.0;2.0;0.4;3.0;0.6;0.0;0.0;0.0;0.0;5.0;1.0;0.0;0.0;0.0;0.0;0.0;0.0;0.0;0.0;file;config;diff;11f;precision;0.0
46;46_59bcd268f5d06568e409bcbe8a5eb11002bb567d-FILE.arff;BR;4.0;4.0;1.0;4.0;1.0;0.0;0.0;0.0;0.0;0.0;0.0;4.0;1.0;0.0;0.0;0.0;0.0;0.0;0.0;0.0;0.0;file;config;diff;11f;precision;0.0
46;46_59bcd268f5d06568e409bcbe8a5eb11002bb567d-FILE.arff;LP;4.0;4.0;1.0;0.0;0.0;4.0;1.0;0.0;0.0;0.0;0.0;4.0;1.0;0.0;0.0;0.0;0.0;0.0;0.0;0.0;0.0;file;config;diff;11f;precision;0.0
46;46_59bcd268f5d06568e409bcbe8a5eb11002bb567d-FILE.arff;RAkELd;4.0;4.0;1.0;2.0;0.5;1.0;0.25;1.0;0.25;1.0;0.25;3.0;0.75;1.0;0.25;0.5;1.0;0.5;1.0;0.5;1.0;file;config;diff;11f;precision;0.5
47;47_c98853c8e5e62551fef443045ba4a1e28ce97ef7-FILE.arff;BR;3.0;3.0;1.0;3.0;1.0;0.0;0.0;0.0;0.0;0.0;0.0;3.0;1.0;0.0;0.0;0.0;0.0;0.0;0.0;0.0;0.0;file;config;diff;11f;precision;0.0
47;47_c98853c8e5e62551fef443045ba4a1e28ce97ef7-FILE.arff;LP;3.0;3.0;1.0;0.0;0.0;3.0;1.0;0.0;0.0;0.0;0.0;3.0;1.0;0.0;0.0;0.0;0.0;0.0;0.0;0.0;0.0;file;config;diff;11f;precision;0.0
47;47_c98853c8e5e62551fef443045ba4a1e28ce97ef7-FILE.arff;RAkELd;3.0;3.0;1.0;2.0;0.6666666666666666;1.0;0.3333333333333333;0.0;0.0;0.0;0.0;3.0;1.0;0.0;0.0;0.0;0.0;0.0;0.0;0.0;0.0;file;config;diff;11f;precision;0.0
49;49_530b5a0317e4ca2ed7eef9a4fcf786479d13ea67-FILE.arff;BR;3.0;3.0;1.0;3.0;1.0;0.0;0.0;0.0;0.0;0.0;0.0;3.0;1.0;0.0;0.0;0.0;0.0;0.0;0.0;0.0;0.0;file;config;diff;11f;precision;0.0
49;49_530b5a0317e4ca2ed7eef9a4fcf786479d13ea67-FILE.arff;LP;3.0;3.0;1.0;0.0;0.0;3.0;1.0;0.0;0.0;0.0;0.0;3.0;1.0;0.0;0.0;0.0;0.0;0.0;0.0;0.0;0.0;file;config;diff;11f;precision;0.0
49;49_530b5a0317e4ca2ed7eef9a4fcf786479d13ea67-FILE.arff;RAkELd;3.0;3.0;1.0;2.0;0.6666666666666666;1.0;0.3333333333333333;0.0;0.0;0.0;0.0;3.0;1.0;0.0;0.0;0.0;0.0;0.0;0.0;0.0;0.0;file;config;diff;11f;precision;0.0
52;52_9e22f13942eee52d3fe5091d9d33a050c455631d-FILE.arff;BR;5.0;5.0;1.0;5.0;1.0;0.0;0.0;0.0;0.0;0.0;0.0;5.0;1.0;0.0;0.0;0.0;0.0;0.0;0.0;0.0;0.0;file;config;diff;11f;precision;0.0
52;52_9e22f13942eee52d3fe5091d9d33a050c455631d-FILE.arff;LP;5.0;5.0;1.0;0.0;0.0;4.0;0.8;1.0;0.2;1.0;0.2;4.0;0.8;1.0;0.2;0.2;1.0;0.2;1.0;0.2;1.0;file;config;diff;11f;precision;0.2
52;52_9e22f13942eee52d3fe5091d9d33a050c455631d-FILE.arff;RAkELd;5.0;5.0;1.0;2.0;0.4;3.0;0.6;0.0;0.0;0.0;0.0;5.0;1.0;0.0;0.0;0.0;0.0;0.0;0.0;0.0;0.0;file;config;diff;11f;precision;0.0
55;55_4c654aaab13f778145cfdf2b88d15ee9a1392b91-FILE.arff;BR;3.0;3.0;1.0;3.0;1.0;0.0;0.0;0.0;0.0;0.0;0.0;3.0;1.0;0.0;0.0;0.0;0.0;0.0;0.0;0.0;0.0;file;config;diff;11f;precision;0.0
55;55_4c654aaab13f778145cfdf2b88d15ee9a1392b91-FILE.arff;LP;3.0;3.0;1.0;0.0;0.0;3.0;1.0;0.0;0.0;0.0;0.0;3.0;1.0;0.0;0.0;0.0;0.0;0.0;0.0;0.0;0.0;file;config;diff;11f;precision;0.0
55;55_4c654aaab13f778145cfdf2b88d15ee9a1392b91-FILE.arff;RAkELd;3.0;3.0;1.0;2.0;0.6666666666666666;0.0;0.0;1.0;0.3333333333333333;1.0;0.3333333333333333;2.0;0.6666666666666666;1.0;0.3333333333333333;1.0;1.0;1.0;1.0;1.0;1.0;file;config;diff;11f;precision;1.0
57;57_3364b99ef9f6c0d28d26219dd4803c87757c218a-FILE.arff;BR;2.0;2.0;1.0;2.0;1.0;0.0;0.0;0.0;0.0;0.0;0.0;2.0;1.0;0.0;0.0;0.0;0.0;0.0;0.0;0.0;0.0;file;config;diff;11f;precision;0.0
57;57_3364b99ef9f6c0d28d26219dd4803c87757c218a-FILE.arff;LP;2.0;2.0;1.0;0.0;0.0;1.0;0.5;1.0;0.5;1.0;0.5;1.0;0.5;1.0;0.5;0.5;1.0;0.5;1.0;0.5;1.0;file;config;diff;11f;precision;0.5
57;57_3364b99ef9f6c0d28d26219dd4803c87757c218a-FILE.arff;RAkELd;2.0;2.0;1.0;2.0;1.0;0.0;0.0;0.0;0.0;0.0;0.0;2.0;1.0;0.0;0.0;0.0;0.0;0.0;0.0;0.0;0.0;file;config;diff;11f;precision;0.0
58;58_0940c6491e5adc00cf3ce40e27d499cf3482dffd-FILE.arff;BR;3.0;3.0;1.0;3.0;1.0;0.0;0.0;0.0;0.0;0.0;0.0;3.0;1.0;0.0;0.0;0.0;0.0;0.0;0.0;0.0;0.0;file;config;diff;11f;precision;0.0
58;58_0940c6491e5adc00cf3ce40e27d499cf3482dffd-FILE.arff;LP;3.0;3.0;1.0;0.0;0.0;3.0;1.0;0.0;0.0;0.0;0.0;3.0;1.0;0.0;0.0;0.0;0.0;0.0;0.0;0.0;0.0;file;config;diff;11f;precision;0.0
58;58_0940c6491e5adc00cf3ce40e27d499cf3482dffd-FILE.arff;RAkELd;3.0;3.0;1.0;3.0;1.0;0.0;0.0;0.0;0.0;0.0;0.0;3.0;1.0;0.0;0.0;0.0;0.0;0.0;0.0;0.0;0.0;file;config;diff;11f;precision;0.0
77;77_1005b084492bd5b92e76dc2cb6d22f97494fdc4c-FILE.arff;BR;5.0;5.0;1.0;5.0;1.0;0.0;0.0;0.0;0.0;0.0;0.0;5.0;1.0;0.0;0.0;0.0;0.0;0.0;0.0;0.0;0.0;file;config;diff;11f;precision;0.0
77;77_1005b084492bd5b92e76dc2cb6d22f97494fdc4c-FILE.arff;LP;5.0;5.0;1.0;0.0;0.0;3.0;0.6;2.0;0.4;2.0;0.4;3.0;0.6;2.0;0.4;0.4;1.0;0.4;1.0;0.4;1.0;file;config;diff;11f;precision;0.4
77;77_1005b084492bd5b92e76dc2cb6d22f97494fdc4c-FILE.arff;RAkELd;5.0;5.0;1.0;5.0;1.0;0.0;0.0;0.0;0.0;0.0;0.0;5.0;1.0;0.0;0.0;0.0;0.0;0.0;0.0;0.0;0.0;file;config;diff;11f;precision;0.0
80;80_260095a268721fcfab443af2b9118bb8bc6dae8e-FILE.arff;BR;2.0;2.0;1.0;2.0;1.0;0.0;0.0;0.0;0.0;0.0;0.0;2.0;1.0;0.0;0.0;0.0;0.0;0.0;0.0;0.0;0.0;file;config;diff;11f;precision;0.0
80;80_260095a268721fcfab443af2b9118bb8bc6dae8e-FILE.arff;LP;2.0;2.0;1.0;0.0;0.0;2.0;1.0;0.0;0.0;0.0;0.0;2.0;1.0;0.0;0.0;0.0;0.0;0.0;0.0;0.0;0.0;file;config;diff;11f;precision;0.0
80;80_260095a268721fcfab443af2b9118bb8bc6dae8e-FILE.arff;RAkELd;2.0;2.0;1.0;2.0;1.0;0.0;0.0;0.0;0.0;0.0;0.0;2.0;1.0;0.0;0.0;0.0;0.0;0.0;0.0;0.0;0.0;file;config;diff;11f;precision;0.0
88;88_405f496ace817ae66797ea23030b7345de965bfa-FILE.arff;BR;9.0;9.0;1.0;9.0;1.0;0.0;0.0;0.0;0.0;0.0;0.0;9.0;1.0;0.0;0.0;0.0;0.0;0.0;0.0;0.0;0.0;file;config;diff;11f;precision;0.0
88;88_405f496ace817ae66797ea23030b7345de965bfa-FILE.arff;LP;9.0;9.0;1.0;0.0;0.0;7.0;0.7777777777777778;2.0;0.2222222222222222;2.0;0.2222222222222222;7.0;0.7777777777777778;2.0;0.2222222222222222;0.2222222222222222;1.0;0.2222222222222222;1.0;0.2222222222222222;1.0;file;config;diff;11f;precision;0.2222222222222222
88;88_405f496ace817ae66797ea23030b7345de965bfa-FILE.arff;RAkELd;9.0;9.0;1.0;9.0;1.0;0.0;0.0;0.0;0.0;0.0;0.0;9.0;1.0;0.0;0.0;0.0;0.0;0.0;0.0;0.0;0.0;file;config;diff;11f;precision;0.0
95;95_40a5739790479472c05f0126cc9625bccdcb5efa-FILE.arff;BR;1.0;1.0;1.0;1.0;1.0;0.0;0.0;0.0;0.0;0.0;0.0;1.0;1.0;0.0;0.0;0.0;0.0;0.0;0.0;0.0;0.0;file;config;diff;11f;precision;0.0
95;95_40a5739790479472c05f0126cc9625bccdcb5efa-FILE.arff;LP;1.0;1.0;1.0;0.0;0.0;1.0;1.0;0.0;0.0;0.0;0.0;1.0;1.0;0.0;0.0;0.0;0.0;0.0;0.0;0.0;0.0;file;config;diff;11f;precision;0.0
95;95_40a5739790479472c05f0126cc9625bccdcb5efa-FILE.arff;RAkELd;1.0;1.0;1.0;1.0;1.0;0.0;0.0;0.0;0.0;0.0;0.0;1.0;1.0;0.0;0.0;0.0;0.0;0.0;0.0;0.0;0.0;file;config;diff;11f;precision;0.0
108;108_772f5dd67bec6cf79de3823c52b2c3c80c0388d1-FILE.arff;BR;1.0;1.0;1.0;1.0;1.0;0.0;0.0;0.0;0.0;0.0;0.0;1.0;1.0;0.0;0.0;0.0;0.0;0.0;0.0;0.0;0.0;file;config;diff;11f;precision;0.0
108;108_772f5dd67bec6cf79de3823c52b2c3c80c0388d1-FILE.arff;LP;1.0;1.0;1.0;0.0;0.0;1.0;1.0;0.0;0.0;0.0;0.0;1.0;1.0;0.0;0.0;0.0;0.0;0.0;0.0;0.0;0.0;file;config;diff;11f;precision;0.0
108;108_772f5dd67bec6cf79de3823c52b2c3c80c0388d1-FILE.arff;RAkELd;1.0;1.0;1.0;1.0;1.0;0.0;0.0;0.0;0.0;0.0;0.0;1.0;1.0;0.0;0.0;0.0;0.0;0.0;0.0;0.0;0.0;file;config;diff;11f;precision;0.0
9;9_553771a4efe103fef602ebb012b909232c87d90c-FILE.arff;BR;2.0;2.0;1.0;0.0;0.0;0.0;0.0;2.0;1.0;0.0;0.0;0.0;0.0;2.0;1.0;0.5;0.5;1.0;1.0;0.6666666666666666;0.6666666666666666;file;config;diff;11f;recall;1.0
9;9_553771a4efe103fef602ebb012b909232c87d90c-FILE.arff;LP;2.0;2.0;1.0;0.0;0.0;0.0;0.0;2.0;1.0;2.0;1.0;0.0;0.0;2.0;1.0;1.0;1.0;1.0;1.0;1.0;1.0;file;config;diff;11f;recall;1.0
9;9_553771a4efe103fef602ebb012b909232c87d90c-FILE.arff;RAkELd;2.0;2.0;1.0;0.0;0.0;2.0;1.0;0.0;0.0;0.0;0.0;2.0;1.0;0.0;0.0;0.0;0.0;0.0;0.0;0.0;0.0;file;config;diff;11f;recall;0.0
10;10_6e6bbcad3d2c374d6b07749cecb5740b9c329e5f-FILE.arff;BR;2.0;2.0;1.0;0.0;0.0;0.0;0.0;2.0;1.0;0.0;0.0;0.0;0.0;2.0;1.0;0.5;0.5;1.0;1.0;0.6666666666666666;0.6666666666666666;file;config;diff;11f;recall;1.0
10;10_6e6bbcad3d2c374d6b07749cecb5740b9c329e5f-FILE.arff;LP;2.0;2.0;1.0;0.0;0.0;2.0;1.0;0.0;0.0;0.0;0.0;2.0;1.0;0.0;0.0;0.0;0.0;0.0;0.0;0.0;0.0;file;config;diff;11f;recall;0.0
10;10_6e6bbcad3d2c374d6b07749cecb5740b9c329e5f-FILE.arff;RAkELd;2.0;2.0;1.0;0.0;0.0;2.0;1.0;0.0;0.0;0.0;0.0;2.0;1.0;0.0;0.0;0.0;0.0;0.0;0.0;0.0;0.0;file;config;diff;11f;recall;0.0
15;15_e9ec5b47c3d417981f4b46f861a85525c2de3e42-FILE.arff;BR;1.0;1.0;1.0;0.0;0.0;1.0;1.0;0.0;0.0;0.0;0.0;1.0;1.0;0.0;0.0;0.0;0.0;0.0;0.0;0.0;0.0;file;config;diff;11f;recall;0.0
15;15_e9ec5b47c3d417981f4b46f861a85525c2de3e42-FILE.arff;LP;1.0;1.0;1.0;0.0;0.0;1.0;1.0;0.0;0.0;0.0;0.0;1.0;1.0;0.0;0.0;0.0;0.0;0.0;0.0;0.0;0.0;file;config;diff;11f;recall;0.0
15;15_e9ec5b47c3d417981f4b46f861a85525c2de3e42-FILE.arff;RAkELd;1.0;1.0;1.0;0.0;0.0;1.0;1.0;0.0;0.0;0.0;0.0;1.0;1.0;0.0;0.0;0.0;0.0;0.0;0.0;0.0;0.0;file;config;diff;11f;recall;0.0
17;17_452234143f8a0e450634432d6bc51d1a944b51b5-FILE.arff;BR;5.0;5.0;1.0;5.0;1.0;0.0;0.0;0.0;0.0;0.0;0.0;5.0;1.0;0.0;0.0;0.0;0.0;0.0;0.0;0.0;0.0;file;config;diff;11f;recall;0.0
17;17_452234143f8a0e450634432d6bc51d1a944b51b5-FILE.arff;LP;5.0;5.0;1.0;0.0;0.0;5.0;1.0;0.0;0.0;0.0;0.0;5.0;1.0;0.0;0.0;0.0;0.0;0.0;0.0;0.0;0.0;file;config;diff;11f;recall;0.0
17;17_452234143f8a0e450634432d6bc51d1a944b51b5-FILE.arff;RAkELd;5.0;5.0;1.0;2.0;0.4;2.0;0.4;1.0;0.2;1.0;0.2;4.0;0.8;1.0;0.2;0.3333333333333333;1.0;0.3333333333333333;1.0;0.3333333333333333;1.0;file;config;diff;11f;recall;0.3333333333333333
18;18_3e80266e8dfc03687dac1b8a77effe7ea66cdb34-FILE.arff;BR;3.0;3.0;1.0;3.0;1.0;0.0;0.0;0.0;0.0;0.0;0.0;3.0;1.0;0.0;0.0;0.0;0.0;0.0;0.0;0.0;0.0;file;config;diff;11f;recall;0.0
18;18_3e80266e8dfc03687dac1b8a77effe7ea66cdb34-FILE.arff;LP;3.0;3.0;1.0;0.0;0.0;2.0;0.6666666666666666;1.0;0.3333333333333333;1.0;0.3333333333333333;2.0;0.6666666666666666;1.0;0.3333333333333333;0.3333333333333333;1.0;0.3333333333333333;1.0;0.3333333333333333;1.0;file;config;diff;11f;recall;0.3333333333333333
18;18_3e80266e8dfc03687dac1b8a77effe7ea66cdb34-FILE.arff;RAkELd;3.0;3.0;1.0;2.0;0.6666666666666666;0.0;0.0;1.0;0.3333333333333333;1.0;0.3333333333333333;2.0;0.6666666666666666;1.0;0.3333333333333333;1.0;1.0;1.0;1.0;1.0;1.0;file;config;diff;11f;recall;1.0
19;19_82829deb0d4c81f35ab73c4c92a95a4713ca2da7-FILE.arff;BR;4.0;4.0;1.0;4.0;1.0;0.0;0.0;0.0;0.0;0.0;0.0;4.0;1.0;0.0;0.0;0.0;0.0;0.0;0.0;0.0;0.0;file;config;diff;11f;recall;0.0
19;19_82829deb0d4c81f35ab73c4c92a95a4713ca2da7-FILE.arff;LP;4.0;4.0;1.0;0.0;0.0;3.0;0.75;1.0;0.25;1.0;0.25;3.0;0.75;1.0;0.25;0.25;1.0;0.25;1.0;0.25;1.0;file;config;diff;11f;recall;0.25
19;19_82829deb0d4c81f35ab73c4c92a95a4713ca2da7-FILE.arff;RAkELd;4.0;4.0;1.0;3.0;0.75;0.0;0.0;1.0;0.25;1.0;0.25;3.0;0.75;1.0;0.25;1.0;1.0;1.0;1.0;1.0;1.0;file;config;diff;11f;recall;1.0
20;20_a0390a1945d87e77960e3b49bfc5293bdf4cc7f1-FILE.arff;BR;2.0;2.0;1.0;2.0;1.0;0.0;0.0;0.0;0.0;0.0;0.0;2.0;1.0;0.0;0.0;0.0;0.0;0.0;0.0;0.0;0.0;file;config;diff;11f;recall;0.0
20;20_a0390a1945d87e77960e3b49bfc5293bdf4cc7f1-FILE.arff;LP;2.0;2.0;1.0;0.0;0.0;1.0;0.5;1.0;0.5;1.0;0.5;1.0;0.5;1.0;0.5;0.5;1.0;0.5;1.0;0.5;1.0;file;config;diff;11f;recall;0.5
20;20_a0390a1945d87e77960e3b49bfc5293bdf4cc7f1-FILE.arff;RAkELd;2.0;2.0;1.0;1.0;0.5;0.0;0.0;1.0;0.5;1.0;0.5;1.0;0.5;1.0;0.5;1.0;1.0;1.0;1.0;1.0;1.0;file;config;diff;11f;recall;1.0
21;21_8ea5cba374125e90d9474b19e9f009f2c8c1e393-FILE.arff;BR;2.0;2.0;1.0;2.0;1.0;0.0;0.0;0.0;0.0;0.0;0.0;2.0;1.0;0.0;0.0;0.0;0.0;0.0;0.0;0.0;0.0;file;config;diff;11f;recall;0.0
21;21_8ea5cba374125e90d9474b19e9f009f2c8c1e393-FILE.arff;LP;2.0;2.0;1.0;0.0;0.0;1.0;0.5;1.0;0.5;1.0;0.5;1.0;0.5;1.0;0.5;0.5;1.0;0.5;1.0;0.5;1.0;file;config;diff;11f;recall;0.5
21;21_8ea5cba374125e90d9474b19e9f009f2c8c1e393-FILE.arff;RAkELd;2.0;2.0;1.0;1.0;0.5;1.0;0.5;0.0;0.0;0.0;0.0;2.0;1.0;0.0;0.0;0.0;0.0;0.0;0.0;0.0;0.0;file;config;diff;11f;recall;0.0
22;22_cdb3ce045bf29e12febbf41e55d6af4e4b223cc9-FILE.arff;BR;1.0;1.0;1.0;1.0;1.0;0.0;0.0;0.0;0.0;0.0;0.0;1.0;1.0;0.0;0.0;0.0;0.0;0.0;0.0;0.0;0.0;file;config;diff;11f;recall;0.0
22;22_cdb3ce045bf29e12febbf41e55d6af4e4b223cc9-FILE.arff;LP;1.0;1.0;1.0;0.0;0.0;0.0;0.0;1.0;1.0;1.0;1.0;0.0;0.0;1.0;1.0;1.0;1.0;1.0;1.0;1.0;1.0;file;config;diff;11f;recall;1.0
22;22_cdb3ce045bf29e12febbf41e55d6af4e4b223cc9-FILE.arff;RAkELd;1.0;1.0;1.0;0.0;0.0;1.0;1.0;0.0;0.0;0.0;0.0;1.0;1.0;0.0;0.0;0.0;0.0;0.0;0.0;0.0;0.0;file;config;diff;11f;recall;0.0
23;23_c86910dc5497dadec1d525edb7e2c0b9de2ecce3-FILE.arff;BR;2.0;2.0;1.0;2.0;1.0;0.0;0.0;0.0;0.0;0.0;0.0;2.0;1.0;0.0;0.0;0.0;0.0;0.0;0.0;0.0;0.0;file;config;diff;11f;recall;0.0
23;23_c86910dc5497dadec1d525edb7e2c0b9de2ecce3-FILE.arff;LP;2.0;2.0;1.0;0.0;0.0;2.0;1.0;0.0;0.0;0.0;0.0;2.0;1.0;0.0;0.0;0.0;0.0;0.0;0.0;0.0;0.0;file;config;diff;11f;recall;0.0
23;23_c86910dc5497dadec1d525edb7e2c0b9de2ecce3-FILE.arff;RAkELd;2.0;2.0;1.0;1.0;0.5;0.0;0.0;1.0;0.5;1.0;0.5;1.0;0.5;1.0;0.5;1.0;1.0;1.0;1.0;1.0;1.0;file;config;diff;11f;recall;1.0
28;28_31ed4148d24c716f53674190194d678a10963319-FILE.arff;BR;2.0;2.0;1.0;2.0;1.0;0.0;0.0;0.0;0.0;0.0;0.0;2.0;1.0;0.0;0.0;0.0;0.0;0.0;0.0;0.0;0.0;file;config;diff;11f;recall;0.0
28;28_31ed4148d24c716f53674190194d678a10963319-FILE.arff;LP;2.0;2.0;1.0;0.0;0.0;2.0;1.0;0.0;0.0;0.0;0.0;2.0;1.0;0.0;0.0;0.0;0.0;0.0;0.0;0.0;0.0;file;config;diff;11f;recall;0.0
28;28_31ed4148d24c716f53674190194d678a10963319-FILE.arff;RAkELd;2.0;2.0;1.0;2.0;1.0;0.0;0.0;0.0;0.0;0.0;0.0;2.0;1.0;0.0;0.0;0.0;0.0;0.0;0.0;0.0;0.0;file;config;diff;11f;recall;0.0
29;29_2d4fee10f0a276a0319faefcef3008745b37a67f-FILE.arff;BR;1.0;1.0;1.0;1.0;1.0;0.0;0.0;0.0;0.0;0.0;0.0;1.0;1.0;0.0;0.0;0.0;0.0;0.0;0.0;0.0;0.0;file;config;diff;11f;recall;0.0
29;29_2d4fee10f0a276a0319faefcef3008745b37a67f-FILE.arff;LP;1.0;1.0;1.0;0.0;0.0;0.0;0.0;1.0;1.0;1.0;1.0;0.0;0.0;1.0;1.0;1.0;1.0;1.0;1.0;1.0;1.0;file;config;diff;11f;recall;1.0
29;29_2d4fee10f0a276a0319faefcef3008745b37a67f-FILE.arff;RAkELd;1.0;1.0;1.0;0.0;0.0;1.0;1.0;0.0;0.0;0.0;0.0;1.0;1.0;0.0;0.0;0.0;0.0;0.0;0.0;0.0;0.0;file;config;diff;11f;recall;0.0
30;30_3e09f8b1096836f89d0bc60e3537406a16459fbd-FILE.arff;BR;3.0;3.0;1.0;3.0;1.0;0.0;0.0;0.0;0.0;0.0;0.0;3.0;1.0;0.0;0.0;0.0;0.0;0.0;0.0;0.0;0.0;file;config;diff;11f;recall;0.0
30;30_3e09f8b1096836f89d0bc60e3537406a16459fbd-FILE.arff;LP;3.0;3.0;1.0;0.0;0.0;3.0;1.0;0.0;0.0;0.0;0.0;3.0;1.0;0.0;0.0;0.0;0.0;0.0;0.0;0.0;0.0;file;config;diff;11f;recall;0.0
30;30_3e09f8b1096836f89d0bc60e3537406a16459fbd-FILE.arff;RAkELd;3.0;3.0;1.0;2.0;0.6666666666666666;0.0;0.0;1.0;0.3333333333333333;1.0;0.3333333333333333;2.0;0.6666666666666666;1.0;0.3333333333333333;1.0;1.0;1.0;1.0;1.0;1.0;file;config;diff;11f;recall;1.0
31;31_38272079aa0d488a2fb6cb62b383c5f79cc22a09-FILE.arff;BR;2.0;2.0;1.0;2.0;1.0;0.0;0.0;0.0;0.0;0.0;0.0;2.0;1.0;0.0;0.0;0.0;0.0;0.0;0.0;0.0;0.0;file;config;diff;11f;recall;0.0
31;31_38272079aa0d488a2fb6cb62b383c5f79cc22a09-FILE.arff;LP;2.0;2.0;1.0;0.0;0.0;1.0;0.5;1.0;0.5;1.0;0.5;1.0;0.5;1.0;0.5;0.5;1.0;0.5;1.0;0.5;1.0;file;config;diff;11f;recall;0.5
31;31_38272079aa0d488a2fb6cb62b383c5f79cc22a09-FILE.arff;RAkELd;2.0;2.0;1.0;0.0;0.0;2.0;1.0;0.0;0.0;0.0;0.0;2.0;1.0;0.0;0.0;0.0;0.0;0.0;0.0;0.0;0.0;file;config;diff;11f;recall;0.0
35;35_4be4ce5788f752150327e8be666eb84afef6881a-FILE.arff;BR;2.0;2.0;1.0;2.0;1.0;0.0;0.0;0.0;0.0;0.0;0.0;2.0;1.0;0.0;0.0;0.0;0.0;0.0;0.0;0.0;0.0;file;config;diff;11f;recall;0.0
35;35_4be4ce5788f752150327e8be666eb84afef6881a-FILE.arff;LP;2.0;2.0;1.0;0.0;0.0;1.0;0.5;1.0;0.5;1.0;0.5;1.0;0.5;1.0;0.5;0.5;1.0;0.5;1.0;0.5;1.0;file;config;diff;11f;recall;0.5
35;35_4be4ce5788f752150327e8be666eb84afef6881a-FILE.arff;RAkELd;2.0;2.0;1.0;1.0;0.5;0.0;0.0;1.0;0.5;1.0;0.5;1.0;0.5;1.0;0.5;1.0;1.0;1.0;1.0;1.0;1.0;file;config;diff;11f;recall;1.0
37;37_a3ff951e4ab64bda60f0bbd05c697257120e41bb-FILE.arff;BR;5.0;5.0;1.0;5.0;1.0;0.0;0.0;0.0;0.0;0.0;0.0;5.0;1.0;0.0;0.0;0.0;0.0;0.0;0.0;0.0;0.0;file;config;diff;11f;recall;0.0
37;37_a3ff951e4ab64bda60f0bbd05c697257120e41bb-FILE.arff;LP;5.0;5.0;1.0;0.0;0.0;1.0;0.2;4.0;0.8;4.0;0.8;1.0;0.2;4.0;0.8;0.8;1.0;0.8;1.0;0.8;1.0;file;config;diff;11f;recall;0.8
37;37_a3ff951e4ab64bda60f0bbd05c697257120e41bb-FILE.arff;RAkELd;5.0;5.0;1.0;1.0;0.2;4.0;0.8;0.0;0.0;0.0;0.0;5.0;1.0;0.0;0.0;0.0;0.0;0.0;0.0;0.0;0.0;file;config;diff;11f;recall;0.0
38;38_a3a52fed8df123af995b39816c6a1eb531fd91a9-FILE.arff;BR;7.0;7.0;1.0;7.0;1.0;0.0;0.0;0.0;0.0;0.0;0.0;7.0;1.0;0.0;0.0;0.0;0.0;0.0;0.0;0.0;0.0;file;config;diff;11f;recall;0.0
38;38_a3a52fed8df123af995b39816c6a1eb531fd91a9-FILE.arff;LP;7.0;7.0;1.0;0.0;0.0;7.0;1.0;0.0;0.0;0.0;0.0;7.0;1.0;0.0;0.0;0.0;0.0;0.0;0.0;0.0;0.0;file;config;diff;11f;recall;0.0
38;38_a3a52fed8df123af995b39816c6a1eb531fd91a9-FILE.arff;RAkELd;7.0;7.0;1.0;2.0;0.2857142857142857;5.0;0.7142857142857143;0.0;0.0;0.0;0.0;7.0;1.0;0.0;0.0;0.0;0.0;0.0;0.0;0.0;0.0;file;config;diff;11f;recall;0.0
40;40_61060284aaefc13a758eaa5d56ea15ef00940d50-FILE.arff;BR;1.0;1.0;1.0;1.0;1.0;0.0;0.0;0.0;0.0;0.0;0.0;1.0;1.0;0.0;0.0;0.0;0.0;0.0;0.0;0.0;0.0;file;config;diff;11f;recall;0.0
40;40_61060284aaefc13a758eaa5d56ea15ef00940d50-FILE.arff;LP;1.0;1.0;1.0;0.0;0.0;1.0;1.0;0.0;0.0;0.0;0.0;1.0;1.0;0.0;0.0;0.0;0.0;0.0;0.0;0.0;0.0;file;config;diff;11f;recall;0.0
40;40_61060284aaefc13a758eaa5d56ea15ef00940d50-FILE.arff;RAkELd;1.0;1.0;1.0;1.0;1.0;0.0;0.0;0.0;0.0;0.0;0.0;1.0;1.0;0.0;0.0;0.0;0.0;0.0;0.0;0.0;0.0;file;config;diff;11f;recall;0.0
41;41_f27292734432228765446ca71db00314424fce48-FILE.arff;BR;1.0;1.0;1.0;1.0;1.0;0.0;0.0;0.0;0.0;0.0;0.0;1.0;1.0;0.0;0.0;0.0;0.0;0.0;0.0;0.0;0.0;file;config;diff;11f;recall;0.0
41;41_f27292734432228765446ca71db00314424fce48-FILE.arff;LP;1.0;1.0;1.0;0.0;0.0;1.0;1.0;0.0;0.0;0.0;0.0;1.0;1.0;0.0;0.0;0.0;0.0;0.0;0.0;0.0;0.0;file;config;diff;11f;recall;0.0
41;41_f27292734432228765446ca71db00314424fce48-FILE.arff;RAkELd;1.0;1.0;1.0;1.0;1.0;0.0;0.0;0.0;0.0;0.0;0.0;1.0;1.0;0.0;0.0;0.0;0.0;0.0;0.0;0.0;0.0;file;config;diff;11f;recall;0.0
42;42_369ff94e4d3a476e60c6105eb90d4bdd477f0b8b-FILE.arff;BR;5.0;5.0;1.0;5.0;1.0;0.0;0.0;0.0;0.0;0.0;0.0;5.0;1.0;0.0;0.0;0.0;0.0;0.0;0.0;0.0;0.0;file;config;diff;11f;recall;0.0
42;42_369ff94e4d3a476e60c6105eb90d4bdd477f0b8b-FILE.arff;LP;5.0;5.0;1.0;0.0;0.0;2.0;0.4;3.0;0.6;3.0;0.6;2.0;0.4;3.0;0.6;0.6;1.0;0.6;1.0;0.6;1.0;file;config;diff;11f;recall;0.6
42;42_369ff94e4d3a476e60c6105eb90d4bdd477f0b8b-FILE.arff;RAkELd;5.0;5.0;1.0;2.0;0.4;3.0;0.6;0.0;0.0;0.0;0.0;5.0;1.0;0.0;0.0;0.0;0.0;0.0;0.0;0.0;0.0;file;config;diff;11f;recall;0.0
43;43_b18c4172f5a973f38241f1f997a9df14635ab54f-FILE.arff;BR;5.0;5.0;1.0;5.0;1.0;0.0;0.0;0.0;0.0;0.0;0.0;5.0;1.0;0.0;0.0;0.0;0.0;0.0;0.0;0.0;0.0;file;config;diff;11f;recall;0.0
43;43_b18c4172f5a973f38241f1f997a9df14635ab54f-FILE.arff;LP;5.0;5.0;1.0;0.0;0.0;4.0;0.8;1.0;0.2;1.0;0.2;4.0;0.8;1.0;0.2;0.2;1.0;0.2;1.0;0.2;1.0;file;config;diff;11f;recall;0.2
43;43_b18c4172f5a973f38241f1f997a9df14635ab54f-FILE.arff;RAkELd;5.0;5.0;1.0;2.0;0.4;3.0;0.6;0.0;0.0;0.0;0.0;5.0;1.0;0.0;0.0;0.0;0.0;0.0;0.0;0.0;0.0;file;config;diff;11f;recall;0.0
46;46_59bcd268f5d06568e409bcbe8a5eb11002bb567d-FILE.arff;BR;4.0;4.0;1.0;4.0;1.0;0.0;0.0;0.0;0.0;0.0;0.0;4.0;1.0;0.0;0.0;0.0;0.0;0.0;0.0;0.0;0.0;file;config;diff;11f;recall;0.0
46;46_59bcd268f5d06568e409bcbe8a5eb11002bb567d-FILE.arff;LP;4.0;4.0;1.0;0.0;0.0;4.0;1.0;0.0;0.0;0.0;0.0;4.0;1.0;0.0;0.0;0.0;0.0;0.0;0.0;0.0;0.0;file;config;diff;11f;recall;0.0
46;46_59bcd268f5d06568e409bcbe8a5eb11002bb567d-FILE.arff;RAkELd;4.0;4.0;1.0;2.0;0.5;1.0;0.25;1.0;0.25;1.0;0.25;3.0;0.75;1.0;0.25;0.5;1.0;0.5;1.0;0.5;1.0;file;config;diff;11f;recall;0.5
47;47_c98853c8e5e62551fef443045ba4a1e28ce97ef7-FILE.arff;BR;3.0;3.0;1.0;3.0;1.0;0.0;0.0;0.0;0.0;0.0;0.0;3.0;1.0;0.0;0.0;0.0;0.0;0.0;0.0;0.0;0.0;file;config;diff;11f;recall;0.0
47;47_c98853c8e5e62551fef443045ba4a1e28ce97ef7-FILE.arff;LP;3.0;3.0;1.0;0.0;0.0;3.0;1.0;0.0;0.0;0.0;0.0;3.0;1.0;0.0;0.0;0.0;0.0;0.0;0.0;0.0;0.0;file;config;diff;11f;recall;0.0
47;47_c98853c8e5e62551fef443045ba4a1e28ce97ef7-FILE.arff;RAkELd;3.0;3.0;1.0;2.0;0.6666666666666666;1.0;0.3333333333333333;0.0;0.0;0.0;0.0;3.0;1.0;0.0;0.0;0.0;0.0;0.0;0.0;0.0;0.0;file;config;diff;11f;recall;0.0
49;49_530b5a0317e4ca2ed7eef9a4fcf786479d13ea67-FILE.arff;BR;3.0;3.0;1.0;3.0;1.0;0.0;0.0;0.0;0.0;0.0;0.0;3.0;1.0;0.0;0.0;0.0;0.0;0.0;0.0;0.0;0.0;file;config;diff;11f;recall;0.0
49;49_530b5a0317e4ca2ed7eef9a4fcf786479d13ea67-FILE.arff;LP;3.0;3.0;1.0;0.0;0.0;3.0;1.0;0.0;0.0;0.0;0.0;3.0;1.0;0.0;0.0;0.0;0.0;0.0;0.0;0.0;0.0;file;config;diff;11f;recall;0.0
49;49_530b5a0317e4ca2ed7eef9a4fcf786479d13ea67-FILE.arff;RAkELd;3.0;3.0;1.0;2.0;0.6666666666666666;1.0;0.3333333333333333;0.0;0.0;0.0;0.0;3.0;1.0;0.0;0.0;0.0;0.0;0.0;0.0;0.0;0.0;file;config;diff;11f;recall;0.0
52;52_9e22f13942eee52d3fe5091d9d33a050c455631d-FILE.arff;BR;5.0;5.0;1.0;5.0;1.0;0.0;0.0;0.0;0.0;0.0;0.0;5.0;1.0;0.0;0.0;0.0;0.0;0.0;0.0;0.0;0.0;file;config;diff;11f;recall;0.0
52;52_9e22f13942eee52d3fe5091d9d33a050c455631d-FILE.arff;LP;5.0;5.0;1.0;0.0;0.0;4.0;0.8;1.0;0.2;1.0;0.2;4.0;0.8;1.0;0.2;0.2;1.0;0.2;1.0;0.2;1.0;file;config;diff;11f;recall;0.2
52;52_9e22f13942eee52d3fe5091d9d33a050c455631d-FILE.arff;RAkELd;5.0;5.0;1.0;2.0;0.4;3.0;0.6;0.0;0.0;0.0;0.0;5.0;1.0;0.0;0.0;0.0;0.0;0.0;0.0;0.0;0.0;file;config;diff;11f;recall;0.0
55;55_4c654aaab13f778145cfdf2b88d15ee9a1392b91-FILE.arff;BR;3.0;3.0;1.0;3.0;1.0;0.0;0.0;0.0;0.0;0.0;0.0;3.0;1.0;0.0;0.0;0.0;0.0;0.0;0.0;0.0;0.0;file;config;diff;11f;recall;0.0
55;55_4c654aaab13f778145cfdf2b88d15ee9a1392b91-FILE.arff;LP;3.0;3.0;1.0;0.0;0.0;3.0;1.0;0.0;0.0;0.0;0.0;3.0;1.0;0.0;0.0;0.0;0.0;0.0;0.0;0.0;0.0;file;config;diff;11f;recall;0.0
55;55_4c654aaab13f778145cfdf2b88d15ee9a1392b91-FILE.arff;RAkELd;3.0;3.0;1.0;2.0;0.6666666666666666;0.0;0.0;1.0;0.3333333333333333;1.0;0.3333333333333333;2.0;0.6666666666666666;1.0;0.3333333333333333;1.0;1.0;1.0;1.0;1.0;1.0;file;config;diff;11f;recall;1.0
57;57_3364b99ef9f6c0d28d26219dd4803c87757c218a-FILE.arff;BR;2.0;2.0;1.0;2.0;1.0;0.0;0.0;0.0;0.0;0.0;0.0;2.0;1.0;0.0;0.0;0.0;0.0;0.0;0.0;0.0;0.0;file;config;diff;11f;recall;0.0
57;57_3364b99ef9f6c0d28d26219dd4803c87757c218a-FILE.arff;LP;2.0;2.0;1.0;0.0;0.0;1.0;0.5;1.0;0.5;1.0;0.5;1.0;0.5;1.0;0.5;0.5;1.0;0.5;1.0;0.5;1.0;file;config;diff;11f;recall;0.5
57;57_3364b99ef9f6c0d28d26219dd4803c87757c218a-FILE.arff;RAkELd;2.0;2.0;1.0;2.0;1.0;0.0;0.0;0.0;0.0;0.0;0.0;2.0;1.0;0.0;0.0;0.0;0.0;0.0;0.0;0.0;0.0;file;config;diff;11f;recall;0.0
58;58_0940c6491e5adc00cf3ce40e27d499cf3482dffd-FILE.arff;BR;3.0;3.0;1.0;3.0;1.0;0.0;0.0;0.0;0.0;0.0;0.0;3.0;1.0;0.0;0.0;0.0;0.0;0.0;0.0;0.0;0.0;file;config;diff;11f;recall;0.0
58;58_0940c6491e5adc00cf3ce40e27d499cf3482dffd-FILE.arff;LP;3.0;3.0;1.0;0.0;0.0;3.0;1.0;0.0;0.0;0.0;0.0;3.0;1.0;0.0;0.0;0.0;0.0;0.0;0.0;0.0;0.0;file;config;diff;11f;recall;0.0
58;58_0940c6491e5adc00cf3ce40e27d499cf3482dffd-FILE.arff;RAkELd;3.0;3.0;1.0;3.0;1.0;0.0;0.0;0.0;0.0;0.0;0.0;3.0;1.0;0.0;0.0;0.0;0.0;0.0;0.0;0.0;0.0;file;config;diff;11f;recall;0.0
77;77_1005b084492bd5b92e76dc2cb6d22f97494fdc4c-FILE.arff;BR;5.0;5.0;1.0;5.0;1.0;0.0;0.0;0.0;0.0;0.0;0.0;5.0;1.0;0.0;0.0;0.0;0.0;0.0;0.0;0.0;0.0;file;config;diff;11f;recall;0.0
77;77_1005b084492bd5b92e76dc2cb6d22f97494fdc4c-FILE.arff;LP;5.0;5.0;1.0;0.0;0.0;3.0;0.6;2.0;0.4;2.0;0.4;3.0;0.6;2.0;0.4;0.4;1.0;0.4;1.0;0.4;1.0;file;config;diff;11f;recall;0.4
77;77_1005b084492bd5b92e76dc2cb6d22f97494fdc4c-FILE.arff;RAkELd;5.0;5.0;1.0;5.0;1.0;0.0;0.0;0.0;0.0;0.0;0.0;5.0;1.0;0.0;0.0;0.0;0.0;0.0;0.0;0.0;0.0;file;config;diff;11f;recall;0.0
80;80_260095a268721fcfab443af2b9118bb8bc6dae8e-FILE.arff;BR;2.0;2.0;1.0;2.0;1.0;0.0;0.0;0.0;0.0;0.0;0.0;2.0;1.0;0.0;0.0;0.0;0.0;0.0;0.0;0.0;0.0;file;config;diff;11f;recall;0.0
80;80_260095a268721fcfab443af2b9118bb8bc6dae8e-FILE.arff;LP;2.0;2.0;1.0;0.0;0.0;2.0;1.0;0.0;0.0;0.0;0.0;2.0;1.0;0.0;0.0;0.0;0.0;0.0;0.0;0.0;0.0;file;config;diff;11f;recall;0.0
80;80_260095a268721fcfab443af2b9118bb8bc6dae8e-FILE.arff;RAkELd;2.0;2.0;1.0;2.0;1.0;0.0;0.0;0.0;0.0;0.0;0.0;2.0;1.0;0.0;0.0;0.0;0.0;0.0;0.0;0.0;0.0;file;config;diff;11f;recall;0.0
88;88_405f496ace817ae66797ea23030b7345de965bfa-FILE.arff;BR;9.0;9.0;1.0;9.0;1.0;0.0;0.0;0.0;0.0;0.0;0.0;9.0;1.0;0.0;0.0;0.0;0.0;0.0;0.0;0.0;0.0;file;config;diff;11f;recall;0.0
88;88_405f496ace817ae66797ea23030b7345de965bfa-FILE.arff;LP;9.0;9.0;1.0;0.0;0.0;7.0;0.7777777777777778;2.0;0.2222222222222222;2.0;0.2222222222222222;7.0;0.7777777777777778;2.0;0.2222222222222222;0.2222222222222222;1.0;0.2222222222222222;1.0;0.2222222222222222;1.0;file;config;diff;11f;recall;0.2222222222222222
88;88_405f496ace817ae66797ea23030b7345de965bfa-FILE.arff;RAkELd;9.0;9.0;1.0;9.0;1.0;0.0;0.0;0.0;0.0;0.0;0.0;9.0;1.0;0.0;0.0;0.0;0.0;0.0;0.0;0.0;0.0;file;config;diff;11f;recall;0.0
95;95_40a5739790479472c05f0126cc9625bccdcb5efa-FILE.arff;BR;1.0;1.0;1.0;1.0;1.0;0.0;0.0;0.0;0.0;0.0;0.0;1.0;1.0;0.0;0.0;0.0;0.0;0.0;0.0;0.0;0.0;file;config;diff;11f;recall;0.0
95;95_40a5739790479472c05f0126cc9625bccdcb5efa-FILE.arff;LP;1.0;1.0;1.0;0.0;0.0;1.0;1.0;0.0;0.0;0.0;0.0;1.0;1.0;0.0;0.0;0.0;0.0;0.0;0.0;0.0;0.0;file;config;diff;11f;recall;0.0
95;95_40a5739790479472c05f0126cc9625bccdcb5efa-FILE.arff;RAkELd;1.0;1.0;1.0;1.0;1.0;0.0;0.0;0.0;0.0;0.0;0.0;1.0;1.0;0.0;0.0;0.0;0.0;0.0;0.0;0.0;0.0;file;config;diff;11f;recall;0.0
108;108_772f5dd67bec6cf79de3823c52b2c3c80c0388d1-FILE.arff;BR;1.0;1.0;1.0;1.0;1.0;0.0;0.0;0.0;0.0;0.0;0.0;1.0;1.0;0.0;0.0;0.0;0.0;0.0;0.0;0.0;0.0;file;config;diff;11f;recall;0.0
108;108_772f5dd67bec6cf79de3823c52b2c3c80c0388d1-FILE.arff;LP;1.0;1.0;1.0;0.0;0.0;1.0;1.0;0.0;0.0;0.0;0.0;1.0;1.0;0.0;0.0;0.0;0.0;0.0;0.0;0.0;0.0;file;config;diff;11f;recall;0.0
108;108_772f5dd67bec6cf79de3823c52b2c3c80c0388d1-FILE.arff;RAkELd;1.0;1.0;1.0;1.0;1.0;0.0;0.0;0.0;0.0;0.0;0.0;1.0;1.0;0.0;0.0;0.0;0.0;0.0;0.0;0.0;0.0;file;config;diff;11f;recall;0.0
9;9_553771a4efe103fef602ebb012b909232c87d90c-FILE.arff;BR;2.0;2.0;1.0;0.0;0.0;0.0;0.0;2.0;1.0;0.0;0.0;0.0;0.0;2.0;1.0;0.5;0.5;1.0;1.0;0.6666666666666666;0.6666666666666666;file;config;diff;11f;fscore;0.6666666666666666
9;9_553771a4efe103fef602ebb012b909232c87d90c-FILE.arff;LP;2.0;2.0;1.0;0.0;0.0;0.0;0.0;2.0;1.0;2.0;1.0;0.0;0.0;2.0;1.0;1.0;1.0;1.0;1.0;1.0;1.0;file;config;diff;11f;fscore;1.0
9;9_553771a4efe103fef602ebb012b909232c87d90c-FILE.arff;RAkELd;2.0;2.0;1.0;0.0;0.0;2.0;1.0;0.0;0.0;0.0;0.0;2.0;1.0;0.0;0.0;0.0;0.0;0.0;0.0;0.0;0.0;file;config;diff;11f;fscore;0.0
10;10_6e6bbcad3d2c374d6b07749cecb5740b9c329e5f-FILE.arff;BR;2.0;2.0;1.0;0.0;0.0;0.0;0.0;2.0;1.0;0.0;0.0;0.0;0.0;2.0;1.0;0.5;0.5;1.0;1.0;0.6666666666666666;0.6666666666666666;file;config;diff;11f;fscore;0.6666666666666666
10;10_6e6bbcad3d2c374d6b07749cecb5740b9c329e5f-FILE.arff;LP;2.0;2.0;1.0;0.0;0.0;2.0;1.0;0.0;0.0;0.0;0.0;2.0;1.0;0.0;0.0;0.0;0.0;0.0;0.0;0.0;0.0;file;config;diff;11f;fscore;0.0
10;10_6e6bbcad3d2c374d6b07749cecb5740b9c329e5f-FILE.arff;RAkELd;2.0;2.0;1.0;0.0;0.0;2.0;1.0;0.0;0.0;0.0;0.0;2.0;1.0;0.0;0.0;0.0;0.0;0.0;0.0;0.0;0.0;file;config;diff;11f;fscore;0.0
15;15_e9ec5b47c3d417981f4b46f861a85525c2de3e42-FILE.arff;BR;1.0;1.0;1.0;0.0;0.0;1.0;1.0;0.0;0.0;0.0;0.0;1.0;1.0;0.0;0.0;0.0;0.0;0.0;0.0;0.0;0.0;file;config;diff;11f;fscore;0.0
15;15_e9ec5b47c3d417981f4b46f861a85525c2de3e42-FILE.arff;LP;1.0;1.0;1.0;0.0;0.0;1.0;1.0;0.0;0.0;0.0;0.0;1.0;1.0;0.0;0.0;0.0;0.0;0.0;0.0;0.0;0.0;file;config;diff;11f;fscore;0.0
15;15_e9ec5b47c3d417981f4b46f861a85525c2de3e42-FILE.arff;RAkELd;1.0;1.0;1.0;0.0;0.0;1.0;1.0;0.0;0.0;0.0;0.0;1.0;1.0;0.0;0.0;0.0;0.0;0.0;0.0;0.0;0.0;file;config;diff;11f;fscore;0.0
17;17_452234143f8a0e450634432d6bc51d1a944b51b5-FILE.arff;BR;5.0;5.0;1.0;5.0;1.0;0.0;0.0;0.0;0.0;0.0;0.0;5.0;1.0;0.0;0.0;0.0;0.0;0.0;0.0;0.0;0.0;file;config;diff;11f;fscore;0.0
17;17_452234143f8a0e450634432d6bc51d1a944b51b5-FILE.arff;LP;5.0;5.0;1.0;0.0;0.0;5.0;1.0;0.0;0.0;0.0;0.0;5.0;1.0;0.0;0.0;0.0;0.0;0.0;0.0;0.0;0.0;file;config;diff;11f;fscore;0.0
17;17_452234143f8a0e450634432d6bc51d1a944b51b5-FILE.arff;RAkELd;5.0;5.0;1.0;2.0;0.4;2.0;0.4;1.0;0.2;1.0;0.2;4.0;0.8;1.0;0.2;0.3333333333333333;1.0;0.3333333333333333;1.0;0.3333333333333333;1.0;file;config;diff;11f;fscore;0.3333333333333333
18;18_3e80266e8dfc03687dac1b8a77effe7ea66cdb34-FILE.arff;BR;3.0;3.0;1.0;3.0;1.0;0.0;0.0;0.0;0.0;0.0;0.0;3.0;1.0;0.0;0.0;0.0;0.0;0.0;0.0;0.0;0.0;file;config;diff;11f;fscore;0.0
18;18_3e80266e8dfc03687dac1b8a77effe7ea66cdb34-FILE.arff;LP;3.0;3.0;1.0;0.0;0.0;2.0;0.6666666666666666;1.0;0.3333333333333333;1.0;0.3333333333333333;2.0;0.6666666666666666;1.0;0.3333333333333333;0.3333333333333333;1.0;0.3333333333333333;1.0;0.3333333333333333;1.0;file;config;diff;11f;fscore;0.3333333333333333
18;18_3e80266e8dfc03687dac1b8a77effe7ea66cdb34-FILE.arff;RAkELd;3.0;3.0;1.0;2.0;0.6666666666666666;0.0;0.0;1.0;0.3333333333333333;1.0;0.3333333333333333;2.0;0.6666666666666666;1.0;0.3333333333333333;1.0;1.0;1.0;1.0;1.0;1.0;file;config;diff;11f;fscore;1.0
19;19_82829deb0d4c81f35ab73c4c92a95a4713ca2da7-FILE.arff;BR;4.0;4.0;1.0;4.0;1.0;0.0;0.0;0.0;0.0;0.0;0.0;4.0;1.0;0.0;0.0;0.0;0.0;0.0;0.0;0.0;0.0;file;config;diff;11f;fscore;0.0
19;19_82829deb0d4c81f35ab73c4c92a95a4713ca2da7-FILE.arff;LP;4.0;4.0;1.0;0.0;0.0;3.0;0.75;1.0;0.25;1.0;0.25;3.0;0.75;1.0;0.25;0.25;1.0;0.25;1.0;0.25;1.0;file;config;diff;11f;fscore;0.25
19;19_82829deb0d4c81f35ab73c4c92a95a4713ca2da7-FILE.arff;RAkELd;4.0;4.0;1.0;3.0;0.75;0.0;0.0;1.0;0.25;1.0;0.25;3.0;0.75;1.0;0.25;1.0;1.0;1.0;1.0;1.0;1.0;file;config;diff;11f;fscore;1.0
20;20_a0390a1945d87e77960e3b49bfc5293bdf4cc7f1-FILE.arff;BR;2.0;2.0;1.0;2.0;1.0;0.0;0.0;0.0;0.0;0.0;0.0;2.0;1.0;0.0;0.0;0.0;0.0;0.0;0.0;0.0;0.0;file;config;diff;11f;fscore;0.0
20;20_a0390a1945d87e77960e3b49bfc5293bdf4cc7f1-FILE.arff;LP;2.0;2.0;1.0;0.0;0.0;1.0;0.5;1.0;0.5;1.0;0.5;1.0;0.5;1.0;0.5;0.5;1.0;0.5;1.0;0.5;1.0;file;config;diff;11f;fscore;0.5
20;20_a0390a1945d87e77960e3b49bfc5293bdf4cc7f1-FILE.arff;RAkELd;2.0;2.0;1.0;1.0;0.5;0.0;0.0;1.0;0.5;1.0;0.5;1.0;0.5;1.0;0.5;1.0;1.0;1.0;1.0;1.0;1.0;file;config;diff;11f;fscore;1.0
21;21_8ea5cba374125e90d9474b19e9f009f2c8c1e393-FILE.arff;BR;2.0;2.0;1.0;2.0;1.0;0.0;0.0;0.0;0.0;0.0;0.0;2.0;1.0;0.0;0.0;0.0;0.0;0.0;0.0;0.0;0.0;file;config;diff;11f;fscore;0.0
21;21_8ea5cba374125e90d9474b19e9f009f2c8c1e393-FILE.arff;LP;2.0;2.0;1.0;0.0;0.0;1.0;0.5;1.0;0.5;1.0;0.5;1.0;0.5;1.0;0.5;0.5;1.0;0.5;1.0;0.5;1.0;file;config;diff;11f;fscore;0.5
21;21_8ea5cba374125e90d9474b19e9f009f2c8c1e393-FILE.arff;RAkELd;2.0;2.0;1.0;1.0;0.5;1.0;0.5;0.0;0.0;0.0;0.0;2.0;1.0;0.0;0.0;0.0;0.0;0.0;0.0;0.0;0.0;file;config;diff;11f;fscore;0.0
22;22_cdb3ce045bf29e12febbf41e55d6af4e4b223cc9-FILE.arff;BR;1.0;1.0;1.0;1.0;1.0;0.0;0.0;0.0;0.0;0.0;0.0;1.0;1.0;0.0;0.0;0.0;0.0;0.0;0.0;0.0;0.0;file;config;diff;11f;fscore;0.0
22;22_cdb3ce045bf29e12febbf41e55d6af4e4b223cc9-FILE.arff;LP;1.0;1.0;1.0;0.0;0.0;0.0;0.0;1.0;1.0;1.0;1.0;0.0;0.0;1.0;1.0;1.0;1.0;1.0;1.0;1.0;1.0;file;config;diff;11f;fscore;1.0
22;22_cdb3ce045bf29e12febbf41e55d6af4e4b223cc9-FILE.arff;RAkELd;1.0;1.0;1.0;0.0;0.0;1.0;1.0;0.0;0.0;0.0;0.0;1.0;1.0;0.0;0.0;0.0;0.0;0.0;0.0;0.0;0.0;file;config;diff;11f;fscore;0.0
23;23_c86910dc5497dadec1d525edb7e2c0b9de2ecce3-FILE.arff;BR;2.0;2.0;1.0;2.0;1.0;0.0;0.0;0.0;0.0;0.0;0.0;2.0;1.0;0.0;0.0;0.0;0.0;0.0;0.0;0.0;0.0;file;config;diff;11f;fscore;0.0
23;23_c86910dc5497dadec1d525edb7e2c0b9de2ecce3-FILE.arff;LP;2.0;2.0;1.0;0.0;0.0;2.0;1.0;0.0;0.0;0.0;0.0;2.0;1.0;0.0;0.0;0.0;0.0;0.0;0.0;0.0;0.0;file;config;diff;11f;fscore;0.0
23;23_c86910dc5497dadec1d525edb7e2c0b9de2ecce3-FILE.arff;RAkELd;2.0;2.0;1.0;1.0;0.5;0.0;0.0;1.0;0.5;1.0;0.5;1.0;0.5;1.0;0.5;1.0;1.0;1.0;1.0;1.0;1.0;file;config;diff;11f;fscore;1.0
28;28_31ed4148d24c716f53674190194d678a10963319-FILE.arff;BR;2.0;2.0;1.0;2.0;1.0;0.0;0.0;0.0;0.0;0.0;0.0;2.0;1.0;0.0;0.0;0.0;0.0;0.0;0.0;0.0;0.0;file;config;diff;11f;fscore;0.0
28;28_31ed4148d24c716f53674190194d678a10963319-FILE.arff;LP;2.0;2.0;1.0;0.0;0.0;2.0;1.0;0.0;0.0;0.0;0.0;2.0;1.0;0.0;0.0;0.0;0.0;0.0;0.0;0.0;0.0;file;config;diff;11f;fscore;0.0
28;28_31ed4148d24c716f53674190194d678a10963319-FILE.arff;RAkELd;2.0;2.0;1.0;2.0;1.0;0.0;0.0;0.0;0.0;0.0;0.0;2.0;1.0;0.0;0.0;0.0;0.0;0.0;0.0;0.0;0.0;file;config;diff;11f;fscore;0.0
29;29_2d4fee10f0a276a0319faefcef3008745b37a67f-FILE.arff;BR;1.0;1.0;1.0;1.0;1.0;0.0;0.0;0.0;0.0;0.0;0.0;1.0;1.0;0.0;0.0;0.0;0.0;0.0;0.0;0.0;0.0;file;config;diff;11f;fscore;0.0
29;29_2d4fee10f0a276a0319faefcef3008745b37a67f-FILE.arff;LP;1.0;1.0;1.0;0.0;0.0;0.0;0.0;1.0;1.0;1.0;1.0;0.0;0.0;1.0;1.0;1.0;1.0;1.0;1.0;1.0;1.0;file;config;diff;11f;fscore;1.0
29;29_2d4fee10f0a276a0319faefcef3008745b37a67f-FILE.arff;RAkELd;1.0;1.0;1.0;0.0;0.0;1.0;1.0;0.0;0.0;0.0;0.0;1.0;1.0;0.0;0.0;0.0;0.0;0.0;0.0;0.0;0.0;file;config;diff;11f;fscore;0.0
30;30_3e09f8b1096836f89d0bc60e3537406a16459fbd-FILE.arff;BR;3.0;3.0;1.0;3.0;1.0;0.0;0.0;0.0;0.0;0.0;0.0;3.0;1.0;0.0;0.0;0.0;0.0;0.0;0.0;0.0;0.0;file;config;diff;11f;fscore;0.0
30;30_3e09f8b1096836f89d0bc60e3537406a16459fbd-FILE.arff;LP;3.0;3.0;1.0;0.0;0.0;3.0;1.0;0.0;0.0;0.0;0.0;3.0;1.0;0.0;0.0;0.0;0.0;0.0;0.0;0.0;0.0;file;config;diff;11f;fscore;0.0
30;30_3e09f8b1096836f89d0bc60e3537406a16459fbd-FILE.arff;RAkELd;3.0;3.0;1.0;2.0;0.6666666666666666;0.0;0.0;1.0;0.3333333333333333;1.0;0.3333333333333333;2.0;0.6666666666666666;1.0;0.3333333333333333;1.0;1.0;1.0;1.0;1.0;1.0;file;config;diff;11f;fscore;1.0
31;31_38272079aa0d488a2fb6cb62b383c5f79cc22a09-FILE.arff;BR;2.0;2.0;1.0;2.0;1.0;0.0;0.0;0.0;0.0;0.0;0.0;2.0;1.0;0.0;0.0;0.0;0.0;0.0;0.0;0.0;0.0;file;config;diff;11f;fscore;0.0
31;31_38272079aa0d488a2fb6cb62b383c5f79cc22a09-FILE.arff;LP;2.0;2.0;1.0;0.0;0.0;1.0;0.5;1.0;0.5;1.0;0.5;1.0;0.5;1.0;0.5;0.5;1.0;0.5;1.0;0.5;1.0;file;config;diff;11f;fscore;0.5
31;31_38272079aa0d488a2fb6cb62b383c5f79cc22a09-FILE.arff;RAkELd;2.0;2.0;1.0;0.0;0.0;2.0;1.0;0.0;0.0;0.0;0.0;2.0;1.0;0.0;0.0;0.0;0.0;0.0;0.0;0.0;0.0;file;config;diff;11f;fscore;0.0
35;35_4be4ce5788f752150327e8be666eb84afef6881a-FILE.arff;BR;2.0;2.0;1.0;2.0;1.0;0.0;0.0;0.0;0.0;0.0;0.0;2.0;1.0;0.0;0.0;0.0;0.0;0.0;0.0;0.0;0.0;file;config;diff;11f;fscore;0.0
35;35_4be4ce5788f752150327e8be666eb84afef6881a-FILE.arff;LP;2.0;2.0;1.0;0.0;0.0;1.0;0.5;1.0;0.5;1.0;0.5;1.0;0.5;1.0;0.5;0.5;1.0;0.5;1.0;0.5;1.0;file;config;diff;11f;fscore;0.5
35;35_4be4ce5788f752150327e8be666eb84afef6881a-FILE.arff;RAkELd;2.0;2.0;1.0;1.0;0.5;0.0;0.0;1.0;0.5;1.0;0.5;1.0;0.5;1.0;0.5;1.0;1.0;1.0;1.0;1.0;1.0;file;config;diff;11f;fscore;1.0
37;37_a3ff951e4ab64bda60f0bbd05c697257120e41bb-FILE.arff;BR;5.0;5.0;1.0;5.0;1.0;0.0;0.0;0.0;0.0;0.0;0.0;5.0;1.0;0.0;0.0;0.0;0.0;0.0;0.0;0.0;0.0;file;config;diff;11f;fscore;0.0
37;37_a3ff951e4ab64bda60f0bbd05c697257120e41bb-FILE.arff;LP;5.0;5.0;1.0;0.0;0.0;1.0;0.2;4.0;0.8;4.0;0.8;1.0;0.2;4.0;0.8;0.8;1.0;0.8;1.0;0.8;1.0;file;config;diff;11f;fscore;0.8
37;37_a3ff951e4ab64bda60f0bbd05c697257120e41bb-FILE.arff;RAkELd;5.0;5.0;1.0;1.0;0.2;4.0;0.8;0.0;0.0;0.0;0.0;5.0;1.0;0.0;0.0;0.0;0.0;0.0;0.0;0.0;0.0;file;config;diff;11f;fscore;0.0
38;38_a3a52fed8df123af995b39816c6a1eb531fd91a9-FILE.arff;BR;7.0;7.0;1.0;7.0;1.0;0.0;0.0;0.0;0.0;0.0;0.0;7.0;1.0;0.0;0.0;0.0;0.0;0.0;0.0;0.0;0.0;file;config;diff;11f;fscore;0.0
38;38_a3a52fed8df123af995b39816c6a1eb531fd91a9-FILE.arff;LP;7.0;7.0;1.0;0.0;0.0;7.0;1.0;0.0;0.0;0.0;0.0;7.0;1.0;0.0;0.0;0.0;0.0;0.0;0.0;0.0;0.0;file;config;diff;11f;fscore;0.0
38;38_a3a52fed8df123af995b39816c6a1eb531fd91a9-FILE.arff;RAkELd;7.0;7.0;1.0;2.0;0.2857142857142857;5.0;0.7142857142857143;0.0;0.0;0.0;0.0;7.0;1.0;0.0;0.0;0.0;0.0;0.0;0.0;0.0;0.0;file;config;diff;11f;fscore;0.0
40;40_61060284aaefc13a758eaa5d56ea15ef00940d50-FILE.arff;BR;1.0;1.0;1.0;1.0;1.0;0.0;0.0;0.0;0.0;0.0;0.0;1.0;1.0;0.0;0.0;0.0;0.0;0.0;0.0;0.0;0.0;file;config;diff;11f;fscore;0.0
40;40_61060284aaefc13a758eaa5d56ea15ef00940d50-FILE.arff;LP;1.0;1.0;1.0;0.0;0.0;1.0;1.0;0.0;0.0;0.0;0.0;1.0;1.0;0.0;0.0;0.0;0.0;0.0;0.0;0.0;0.0;file;config;diff;11f;fscore;0.0
40;40_61060284aaefc13a758eaa5d56ea15ef00940d50-FILE.arff;RAkELd;1.0;1.0;1.0;1.0;1.0;0.0;0.0;0.0;0.0;0.0;0.0;1.0;1.0;0.0;0.0;0.0;0.0;0.0;0.0;0.0;0.0;file;config;diff;11f;fscore;0.0
41;41_f27292734432228765446ca71db00314424fce48-FILE.arff;BR;1.0;1.0;1.0;1.0;1.0;0.0;0.0;0.0;0.0;0.0;0.0;1.0;1.0;0.0;0.0;0.0;0.0;0.0;0.0;0.0;0.0;file;config;diff;11f;fscore;0.0
41;41_f27292734432228765446ca71db00314424fce48-FILE.arff;LP;1.0;1.0;1.0;0.0;0.0;1.0;1.0;0.0;0.0;0.0;0.0;1.0;1.0;0.0;0.0;0.0;0.0;0.0;0.0;0.0;0.0;file;config;diff;11f;fscore;0.0
41;41_f27292734432228765446ca71db00314424fce48-FILE.arff;RAkELd;1.0;1.0;1.0;1.0;1.0;0.0;0.0;0.0;0.0;0.0;0.0;1.0;1.0;0.0;0.0;0.0;0.0;0.0;0.0;0.0;0.0;file;config;diff;11f;fscore;0.0
42;42_369ff94e4d3a476e60c6105eb90d4bdd477f0b8b-FILE.arff;BR;5.0;5.0;1.0;5.0;1.0;0.0;0.0;0.0;0.0;0.0;0.0;5.0;1.0;0.0;0.0;0.0;0.0;0.0;0.0;0.0;0.0;file;config;diff;11f;fscore;0.0
42;42_369ff94e4d3a476e60c6105eb90d4bdd477f0b8b-FILE.arff;LP;5.0;5.0;1.0;0.0;0.0;2.0;0.4;3.0;0.6;3.0;0.6;2.0;0.4;3.0;0.6;0.6;1.0;0.6;1.0;0.6;1.0;file;config;diff;11f;fscore;0.6
42;42_369ff94e4d3a476e60c6105eb90d4bdd477f0b8b-FILE.arff;RAkELd;5.0;5.0;1.0;2.0;0.4;3.0;0.6;0.0;0.0;0.0;0.0;5.0;1.0;0.0;0.0;0.0;0.0;0.0;0.0;0.0;0.0;file;config;diff;11f;fscore;0.0
43;43_b18c4172f5a973f38241f1f997a9df14635ab54f-FILE.arff;BR;5.0;5.0;1.0;5.0;1.0;0.0;0.0;0.0;0.0;0.0;0.0;5.0;1.0;0.0;0.0;0.0;0.0;0.0;0.0;0.0;0.0;file;config;diff;11f;fscore;0.0
43;43_b18c4172f5a973f38241f1f997a9df14635ab54f-FILE.arff;LP;5.0;5.0;1.0;0.0;0.0;4.0;0.8;1.0;0.2;1.0;0.2;4.0;0.8;1.0;0.2;0.2;1.0;0.2;1.0;0.2;1.0;file;config;diff;11f;fscore;0.2
43;43_b18c4172f5a973f38241f1f997a9df14635ab54f-FILE.arff;RAkELd;5.0;5.0;1.0;2.0;0.4;3.0;0.6;0.0;0.0;0.0;0.0;5.0;1.0;0.0;0.0;0.0;0.0;0.0;0.0;0.0;0.0;file;config;diff;11f;fscore;0.0
46;46_59bcd268f5d06568e409bcbe8a5eb11002bb567d-FILE.arff;BR;4.0;4.0;1.0;4.0;1.0;0.0;0.0;0.0;0.0;0.0;0.0;4.0;1.0;0.0;0.0;0.0;0.0;0.0;0.0;0.0;0.0;file;config;diff;11f;fscore;0.0
46;46_59bcd268f5d06568e409bcbe8a5eb11002bb567d-FILE.arff;LP;4.0;4.0;1.0;0.0;0.0;4.0;1.0;0.0;0.0;0.0;0.0;4.0;1.0;0.0;0.0;0.0;0.0;0.0;0.0;0.0;0.0;file;config;diff;11f;fscore;0.0
46;46_59bcd268f5d06568e409bcbe8a5eb11002bb567d-FILE.arff;RAkELd;4.0;4.0;1.0;2.0;0.5;1.0;0.25;1.0;0.25;1.0;0.25;3.0;0.75;1.0;0.25;0.5;1.0;0.5;1.0;0.5;1.0;file;config;diff;11f;fscore;0.5
47;47_c98853c8e5e62551fef443045ba4a1e28ce97ef7-FILE.arff;BR;3.0;3.0;1.0;3.0;1.0;0.0;0.0;0.0;0.0;0.0;0.0;3.0;1.0;0.0;0.0;0.0;0.0;0.0;0.0;0.0;0.0;file;config;diff;11f;fscore;0.0
47;47_c98853c8e5e62551fef443045ba4a1e28ce97ef7-FILE.arff;LP;3.0;3.0;1.0;0.0;0.0;3.0;1.0;0.0;0.0;0.0;0.0;3.0;1.0;0.0;0.0;0.0;0.0;0.0;0.0;0.0;0.0;file;config;diff;11f;fscore;0.0
47;47_c98853c8e5e62551fef443045ba4a1e28ce97ef7-FILE.arff;RAkELd;3.0;3.0;1.0;2.0;0.6666666666666666;1.0;0.3333333333333333;0.0;0.0;0.0;0.0;3.0;1.0;0.0;0.0;0.0;0.0;0.0;0.0;0.0;0.0;file;config;diff;11f;fscore;0.0
49;49_530b5a0317e4ca2ed7eef9a4fcf786479d13ea67-FILE.arff;BR;3.0;3.0;1.0;3.0;1.0;0.0;0.0;0.0;0.0;0.0;0.0;3.0;1.0;0.0;0.0;0.0;0.0;0.0;0.0;0.0;0.0;file;config;diff;11f;fscore;0.0
49;49_530b5a0317e4ca2ed7eef9a4fcf786479d13ea67-FILE.arff;LP;3.0;3.0;1.0;0.0;0.0;3.0;1.0;0.0;0.0;0.0;0.0;3.0;1.0;0.0;0.0;0.0;0.0;0.0;0.0;0.0;0.0;file;config;diff;11f;fscore;0.0
49;49_530b5a0317e4ca2ed7eef9a4fcf786479d13ea67-FILE.arff;RAkELd;3.0;3.0;1.0;2.0;0.6666666666666666;1.0;0.3333333333333333;0.0;0.0;0.0;0.0;3.0;1.0;0.0;0.0;0.0;0.0;0.0;0.0;0.0;0.0;file;config;diff;11f;fscore;0.0
52;52_9e22f13942eee52d3fe5091d9d33a050c455631d-FILE.arff;BR;5.0;5.0;1.0;5.0;1.0;0.0;0.0;0.0;0.0;0.0;0.0;5.0;1.0;0.0;0.0;0.0;0.0;0.0;0.0;0.0;0.0;file;config;diff;11f;fscore;0.0
52;52_9e22f13942eee52d3fe5091d9d33a050c455631d-FILE.arff;LP;5.0;5.0;1.0;0.0;0.0;4.0;0.8;1.0;0.2;1.0;0.2;4.0;0.8;1.0;0.2;0.2;1.0;0.2;1.0;0.2;1.0;file;config;diff;11f;fscore;0.2
52;52_9e22f13942eee52d3fe5091d9d33a050c455631d-FILE.arff;RAkELd;5.0;5.0;1.0;2.0;0.4;3.0;0.6;0.0;0.0;0.0;0.0;5.0;1.0;0.0;0.0;0.0;0.0;0.0;0.0;0.0;0.0;file;config;diff;11f;fscore;0.0
55;55_4c654aaab13f778145cfdf2b88d15ee9a1392b91-FILE.arff;BR;3.0;3.0;1.0;3.0;1.0;0.0;0.0;0.0;0.0;0.0;0.0;3.0;1.0;0.0;0.0;0.0;0.0;0.0;0.0;0.0;0.0;file;config;diff;11f;fscore;0.0
55;55_4c654aaab13f778145cfdf2b88d15ee9a1392b91-FILE.arff;LP;3.0;3.0;1.0;0.0;0.0;3.0;1.0;0.0;0.0;0.0;0.0;3.0;1.0;0.0;0.0;0.0;0.0;0.0;0.0;0.0;0.0;file;config;diff;11f;fscore;0.0
55;55_4c654aaab13f778145cfdf2b88d15ee9a1392b91-FILE.arff;RAkELd;3.0;3.0;1.0;2.0;0.6666666666666666;0.0;0.0;1.0;0.3333333333333333;1.0;0.3333333333333333;2.0;0.6666666666666666;1.0;0.3333333333333333;1.0;1.0;1.0;1.0;1.0;1.0;file;config;diff;11f;fscore;1.0
57;57_3364b99ef9f6c0d28d26219dd4803c87757c218a-FILE.arff;BR;2.0;2.0;1.0;2.0;1.0;0.0;0.0;0.0;0.0;0.0;0.0;2.0;1.0;0.0;0.0;0.0;0.0;0.0;0.0;0.0;0.0;file;config;diff;11f;fscore;0.0
57;57_3364b99ef9f6c0d28d26219dd4803c87757c218a-FILE.arff;LP;2.0;2.0;1.0;0.0;0.0;1.0;0.5;1.0;0.5;1.0;0.5;1.0;0.5;1.0;0.5;0.5;1.0;0.5;1.0;0.5;1.0;file;config;diff;11f;fscore;0.5
57;57_3364b99ef9f6c0d28d26219dd4803c87757c218a-FILE.arff;RAkELd;2.0;2.0;1.0;2.0;1.0;0.0;0.0;0.0;0.0;0.0;0.0;2.0;1.0;0.0;0.0;0.0;0.0;0.0;0.0;0.0;0.0;file;config;diff;11f;fscore;0.0
58;58_0940c6491e5adc00cf3ce40e27d499cf3482dffd-FILE.arff;BR;3.0;3.0;1.0;3.0;1.0;0.0;0.0;0.0;0.0;0.0;0.0;3.0;1.0;0.0;0.0;0.0;0.0;0.0;0.0;0.0;0.0;file;config;diff;11f;fscore;0.0
58;58_0940c6491e5adc00cf3ce40e27d499cf3482dffd-FILE.arff;LP;3.0;3.0;1.0;0.0;0.0;3.0;1.0;0.0;0.0;0.0;0.0;3.0;1.0;0.0;0.0;0.0;0.0;0.0;0.0;0.0;0.0;file;config;diff;11f;fscore;0.0
58;58_0940c6491e5adc00cf3ce40e27d499cf3482dffd-FILE.arff;RAkELd;3.0;3.0;1.0;3.0;1.0;0.0;0.0;0.0;0.0;0.0;0.0;3.0;1.0;0.0;0.0;0.0;0.0;0.0;0.0;0.0;0.0;file;config;diff;11f;fscore;0.0
77;77_1005b084492bd5b92e76dc2cb6d22f97494fdc4c-FILE.arff;BR;5.0;5.0;1.0;5.0;1.0;0.0;0.0;0.0;0.0;0.0;0.0;5.0;1.0;0.0;0.0;0.0;0.0;0.0;0.0;0.0;0.0;file;config;diff;11f;fscore;0.0
77;77_1005b084492bd5b92e76dc2cb6d22f97494fdc4c-FILE.arff;LP;5.0;5.0;1.0;0.0;0.0;3.0;0.6;2.0;0.4;2.0;0.4;3.0;0.6;2.0;0.4;0.4;1.0;0.4;1.0;0.4;1.0;file;config;diff;11f;fscore;0.4
77;77_1005b084492bd5b92e76dc2cb6d22f97494fdc4c-FILE.arff;RAkELd;5.0;5.0;1.0;5.0;1.0;0.0;0.0;0.0;0.0;0.0;0.0;5.0;1.0;0.0;0.0;0.0;0.0;0.0;0.0;0.0;0.0;file;config;diff;11f;fscore;0.0
80;80_260095a268721fcfab443af2b9118bb8bc6dae8e-FILE.arff;BR;2.0;2.0;1.0;2.0;1.0;0.0;0.0;0.0;0.0;0.0;0.0;2.0;1.0;0.0;0.0;0.0;0.0;0.0;0.0;0.0;0.0;file;config;diff;11f;fscore;0.0
80;80_260095a268721fcfab443af2b9118bb8bc6dae8e-FILE.arff;LP;2.0;2.0;1.0;0.0;0.0;2.0;1.0;0.0;0.0;0.0;0.0;2.0;1.0;0.0;0.0;0.0;0.0;0.0;0.0;0.0;0.0;file;config;diff;11f;fscore;0.0
80;80_260095a268721fcfab443af2b9118bb8bc6dae8e-FILE.arff;RAkELd;2.0;2.0;1.0;2.0;1.0;0.0;0.0;0.0;0.0;0.0;0.0;2.0;1.0;0.0;0.0;0.0;0.0;0.0;0.0;0.0;0.0;file;config;diff;11f;fscore;0.0
88;88_405f496ace817ae66797ea23030b7345de965bfa-FILE.arff;BR;9.0;9.0;1.0;9.0;1.0;0.0;0.0;0.0;0.0;0.0;0.0;9.0;1.0;0.0;0.0;0.0;0.0;0.0;0.0;0.0;0.0;file;config;diff;11f;fscore;0.0
88;88_405f496ace817ae66797ea23030b7345de965bfa-FILE.arff;LP;9.0;9.0;1.0;0.0;0.0;7.0;0.7777777777777778;2.0;0.2222222222222222;2.0;0.2222222222222222;7.0;0.7777777777777778;2.0;0.2222222222222222;0.2222222222222222;1.0;0.2222222222222222;1.0;0.2222222222222222;1.0;file;config;diff;11f;fscore;0.2222222222222222
88;88_405f496ace817ae66797ea23030b7345de965bfa-FILE.arff;RAkELd;9.0;9.0;1.0;9.0;1.0;0.0;0.0;0.0;0.0;0.0;0.0;9.0;1.0;0.0;0.0;0.0;0.0;0.0;0.0;0.0;0.0;file;config;diff;11f;fscore;0.0
95;95_40a5739790479472c05f0126cc9625bccdcb5efa-FILE.arff;BR;1.0;1.0;1.0;1.0;1.0;0.0;0.0;0.0;0.0;0.0;0.0;1.0;1.0;0.0;0.0;0.0;0.0;0.0;0.0;0.0;0.0;file;config;diff;11f;fscore;0.0
95;95_40a5739790479472c05f0126cc9625bccdcb5efa-FILE.arff;LP;1.0;1.0;1.0;0.0;0.0;1.0;1.0;0.0;0.0;0.0;0.0;1.0;1.0;0.0;0.0;0.0;0.0;0.0;0.0;0.0;0.0;file;config;diff;11f;fscore;0.0
95;95_40a5739790479472c05f0126cc9625bccdcb5efa-FILE.arff;RAkELd;1.0;1.0;1.0;1.0;1.0;0.0;0.0;0.0;0.0;0.0;0.0;1.0;1.0;0.0;0.0;0.0;0.0;0.0;0.0;0.0;0.0;file;config;diff;11f;fscore;0.0
108;108_772f5dd67bec6cf79de3823c52b2c3c80c0388d1-FILE.arff;BR;1.0;1.0;1.0;1.0;1.0;0.0;0.0;0.0;0.0;0.0;0.0;1.0;1.0;0.0;0.0;0.0;0.0;0.0;0.0;0.0;0.0;file;config;diff;11f;fscore;0.0
108;108_772f5dd67bec6cf79de3823c52b2c3c80c0388d1-FILE.arff;LP;1.0;1.0;1.0;0.0;0.0;1.0;1.0;0.0;0.0;0.0;0.0;1.0;1.0;0.0;0.0;0.0;0.0;0.0;0.0;0.0;0.0;file;config;diff;11f;fscore;0.0
108;108_772f5dd67bec6cf79de3823c52b2c3c80c0388d1-FILE.arff;RAkELd;1.0;1.0;1.0;1.0;1.0;0.0;0.0;0.0;0.0;0.0;0.0;1.0;1.0;0.0;0.0;0.0;0.0;0.0;0.0;0.0;0.0;file;config;diff;11f;fscore;0.0
