commit;DataSet;Classifier;TotalInstances;InstancesWithRankedLabels;PercentageOfInstancesWithRankedLabels;InstancesWithPrecisionNull;PercentageOfInstancesWithPrecisionNull;InstancesWithPrecisionZero;PercentageOfInstancesWithPrecisionZero;InstancesWithPrecisionNonZero;PercentageOfInstancesWithPrecisionNonZero;InstancesWithPrecisionOne;PercentageOfInstancesWithPrecisionOne;InstancesWithRecallZero;PercentageOfInstancesWithRecallZero;InstancesWithRecallOne;PercentageOfInstancesWithRecallOne;AveragePrecisionForAllNonNullPrecision;AveragePrecisionForNonZeroPrecision;AverageRecallForAllNonNullPrecision;AverageRecallForAllNonZeroPrecision;AverageFScoreForAllNonNullPrecision;AverageFScoreForAllNonZeroPrecision;Level;project;clusters;feature
7;7_7a7c87aedb9974d4b1f84ca4ab80dba640d0e0d4-FILE.arff;BR;2.0;2.0;1.0;0.0;0.0;0.0;0.0;2.0;1.0;0.0;0.0;0.0;0.0;2.0;1.0;0.5;0.5;1.0;1.0;0.6666666666666666;0.6666666666666666;file;ide;diff;11f
7;7_7a7c87aedb9974d4b1f84ca4ab80dba640d0e0d4-FILE.arff;LP;2.0;2.0;1.0;0.0;0.0;2.0;1.0;0.0;0.0;0.0;0.0;2.0;1.0;0.0;0.0;0.0;0.0;0.0;0.0;0.0;0.0;file;ide;diff;11f
7;7_7a7c87aedb9974d4b1f84ca4ab80dba640d0e0d4-FILE.arff;RAkELd;2.0;2.0;1.0;1.0;0.5;0.0;0.0;1.0;0.5;0.0;0.0;1.0;0.5;1.0;0.5;0.5;0.5;1.0;1.0;0.6666666666666666;0.6666666666666666;file;ide;diff;11f
11;11_9bf8b2fda3eb5feee5a8fa644dd2a559fea95fc5-FILE.arff;BR;1.0;1.0;1.0;0.0;0.0;0.0;0.0;1.0;1.0;0.0;0.0;0.0;0.0;1.0;1.0;0.5;0.5;1.0;1.0;0.6666666666666666;0.6666666666666666;file;ide;diff;11f
11;11_9bf8b2fda3eb5feee5a8fa644dd2a559fea95fc5-FILE.arff;LP;1.0;1.0;1.0;0.0;0.0;0.0;0.0;1.0;1.0;1.0;1.0;0.0;0.0;1.0;1.0;1.0;1.0;1.0;1.0;1.0;1.0;file;ide;diff;11f
11;11_9bf8b2fda3eb5feee5a8fa644dd2a559fea95fc5-FILE.arff;RAkELd;1.0;1.0;1.0;0.0;0.0;0.0;0.0;1.0;1.0;0.0;0.0;0.0;0.0;1.0;1.0;0.5;0.5;1.0;1.0;0.6666666666666666;0.6666666666666666;file;ide;diff;11f
14;14_71e4840ffd0f918a662de8f6dfe57fc3e81a4313-FILE.arff;BR;1.0;1.0;1.0;0.0;0.0;0.0;0.0;1.0;1.0;0.0;0.0;0.0;0.0;1.0;1.0;0.5;0.5;1.0;1.0;0.6666666666666666;0.6666666666666666;file;ide;diff;11f
14;14_71e4840ffd0f918a662de8f6dfe57fc3e81a4313-FILE.arff;LP;1.0;1.0;1.0;0.0;0.0;0.0;0.0;1.0;1.0;1.0;1.0;0.0;0.0;1.0;1.0;1.0;1.0;1.0;1.0;1.0;1.0;file;ide;diff;11f
14;14_71e4840ffd0f918a662de8f6dfe57fc3e81a4313-FILE.arff;RAkELd;1.0;1.0;1.0;0.0;0.0;0.0;0.0;1.0;1.0;0.0;0.0;0.0;0.0;1.0;1.0;0.5;0.5;1.0;1.0;0.6666666666666666;0.6666666666666666;file;ide;diff;11f
17;17_da3e20a4618706b4fefe6668860120973f261174-FILE.arff;BR;2.0;2.0;1.0;0.0;0.0;0.0;0.0;2.0;1.0;0.0;0.0;0.0;0.0;2.0;1.0;0.5;0.5;1.0;1.0;0.6666666666666666;0.6666666666666666;file;ide;diff;11f
17;17_da3e20a4618706b4fefe6668860120973f261174-FILE.arff;LP;2.0;2.0;1.0;0.0;0.0;0.0;0.0;2.0;1.0;2.0;1.0;0.0;0.0;2.0;1.0;1.0;1.0;1.0;1.0;1.0;1.0;file;ide;diff;11f
17;17_da3e20a4618706b4fefe6668860120973f261174-FILE.arff;RAkELd;2.0;2.0;1.0;1.0;0.5;0.0;0.0;1.0;0.5;0.0;0.0;1.0;0.5;1.0;0.5;0.5;0.5;1.0;1.0;0.6666666666666666;0.6666666666666666;file;ide;diff;11f
18;18_f9744676f5fc2b1cd17e1d529e834a1aa25baedb-FILE.arff;BR;2.0;2.0;1.0;0.0;0.0;0.0;0.0;2.0;1.0;0.0;0.0;0.0;0.0;2.0;1.0;0.5;0.5;1.0;1.0;0.6666666666666666;0.6666666666666666;file;ide;diff;11f
18;18_f9744676f5fc2b1cd17e1d529e834a1aa25baedb-FILE.arff;LP;2.0;2.0;1.0;0.0;0.0;0.0;0.0;2.0;1.0;2.0;1.0;0.0;0.0;2.0;1.0;1.0;1.0;1.0;1.0;1.0;1.0;file;ide;diff;11f
18;18_f9744676f5fc2b1cd17e1d529e834a1aa25baedb-FILE.arff;RAkELd;2.0;2.0;1.0;1.0;0.5;0.0;0.0;1.0;0.5;0.0;0.0;1.0;0.5;1.0;0.5;0.5;0.5;1.0;1.0;0.6666666666666666;0.6666666666666666;file;ide;diff;11f
19;19_8801d730480d660370094d13c6490c8ccd763ca8-FILE.arff;BR;1.0;1.0;1.0;0.0;0.0;0.0;0.0;1.0;1.0;0.0;0.0;0.0;0.0;1.0;1.0;0.5;0.5;1.0;1.0;0.6666666666666666;0.6666666666666666;file;ide;diff;11f
19;19_8801d730480d660370094d13c6490c8ccd763ca8-FILE.arff;LP;1.0;1.0;1.0;0.0;0.0;1.0;1.0;0.0;0.0;0.0;0.0;1.0;1.0;0.0;0.0;0.0;0.0;0.0;0.0;0.0;0.0;file;ide;diff;11f
19;19_8801d730480d660370094d13c6490c8ccd763ca8-FILE.arff;RAkELd;1.0;1.0;1.0;0.0;0.0;0.0;0.0;1.0;1.0;0.0;0.0;0.0;0.0;1.0;1.0;0.5;0.5;1.0;1.0;0.6666666666666666;0.6666666666666666;file;ide;diff;11f
20;20_efa08edd831faabee1ca5dae56561504f1435e16-FILE.arff;BR;2.0;2.0;1.0;0.0;0.0;0.0;0.0;2.0;1.0;0.0;0.0;0.0;0.0;2.0;1.0;0.5;0.5;1.0;1.0;0.6666666666666666;0.6666666666666666;file;ide;diff;11f
20;20_efa08edd831faabee1ca5dae56561504f1435e16-FILE.arff;LP;2.0;2.0;1.0;0.0;0.0;0.0;0.0;2.0;1.0;2.0;1.0;0.0;0.0;2.0;1.0;1.0;1.0;1.0;1.0;1.0;1.0;file;ide;diff;11f
20;20_efa08edd831faabee1ca5dae56561504f1435e16-FILE.arff;RAkELd;2.0;2.0;1.0;1.0;0.5;0.0;0.0;1.0;0.5;0.0;0.0;1.0;0.5;1.0;0.5;0.5;0.5;1.0;1.0;0.6666666666666666;0.6666666666666666;file;ide;diff;11f
30;30_ab8d7e7e99dce24a5499641314192b64a62bd045-FILE.arff;BR;1.0;1.0;1.0;0.0;0.0;0.0;0.0;1.0;1.0;0.0;0.0;0.0;0.0;1.0;1.0;0.5;0.5;1.0;1.0;0.6666666666666666;0.6666666666666666;file;ide;diff;11f
30;30_ab8d7e7e99dce24a5499641314192b64a62bd045-FILE.arff;LP;1.0;1.0;1.0;0.0;0.0;0.0;0.0;1.0;1.0;1.0;1.0;0.0;0.0;1.0;1.0;1.0;1.0;1.0;1.0;1.0;1.0;file;ide;diff;11f
30;30_ab8d7e7e99dce24a5499641314192b64a62bd045-FILE.arff;RAkELd;1.0;1.0;1.0;0.0;0.0;0.0;0.0;1.0;1.0;0.0;0.0;0.0;0.0;1.0;1.0;0.5;0.5;1.0;1.0;0.6666666666666666;0.6666666666666666;file;ide;diff;11f
31;31_746ef129fab6c2ec90fa3356a637c38e7aa460a7-FILE.arff;BR;1.0;1.0;1.0;0.0;0.0;0.0;0.0;1.0;1.0;0.0;0.0;0.0;0.0;1.0;1.0;0.5;0.5;1.0;1.0;0.6666666666666666;0.6666666666666666;file;ide;diff;11f
31;31_746ef129fab6c2ec90fa3356a637c38e7aa460a7-FILE.arff;LP;1.0;1.0;1.0;0.0;0.0;0.0;0.0;1.0;1.0;1.0;1.0;0.0;0.0;1.0;1.0;1.0;1.0;1.0;1.0;1.0;1.0;file;ide;diff;11f
31;31_746ef129fab6c2ec90fa3356a637c38e7aa460a7-FILE.arff;RAkELd;1.0;1.0;1.0;0.0;0.0;0.0;0.0;1.0;1.0;0.0;0.0;0.0;0.0;1.0;1.0;0.5;0.5;1.0;1.0;0.6666666666666666;0.6666666666666666;file;ide;diff;11f
37;37_a6f39393b82fcb801d316dedd94a191091db6ad5-FILE.arff;BR;2.0;2.0;1.0;0.0;0.0;0.0;0.0;2.0;1.0;0.0;0.0;0.0;0.0;2.0;1.0;0.5;0.5;1.0;1.0;0.6666666666666666;0.6666666666666666;file;ide;diff;11f
37;37_a6f39393b82fcb801d316dedd94a191091db6ad5-FILE.arff;LP;2.0;2.0;1.0;0.0;0.0;0.0;0.0;2.0;1.0;2.0;1.0;0.0;0.0;2.0;1.0;1.0;1.0;1.0;1.0;1.0;1.0;file;ide;diff;11f
37;37_a6f39393b82fcb801d316dedd94a191091db6ad5-FILE.arff;RAkELd;2.0;2.0;1.0;1.0;0.5;0.0;0.0;1.0;0.5;0.0;0.0;1.0;0.5;1.0;0.5;0.5;0.5;1.0;1.0;0.6666666666666666;0.6666666666666666;file;ide;diff;11f
46;46_0b8dd9dc6033b1155378977f10d881b602c0425e-FILE.arff;BR;1.0;1.0;1.0;0.0;0.0;0.0;0.0;1.0;1.0;0.0;0.0;0.0;0.0;1.0;1.0;0.5;0.5;1.0;1.0;0.6666666666666666;0.6666666666666666;file;ide;diff;11f
46;46_0b8dd9dc6033b1155378977f10d881b602c0425e-FILE.arff;LP;1.0;1.0;1.0;0.0;0.0;1.0;1.0;0.0;0.0;0.0;0.0;1.0;1.0;0.0;0.0;0.0;0.0;0.0;0.0;0.0;0.0;file;ide;diff;11f
46;46_0b8dd9dc6033b1155378977f10d881b602c0425e-FILE.arff;RAkELd;1.0;1.0;1.0;0.0;0.0;0.0;0.0;1.0;1.0;0.0;0.0;0.0;0.0;1.0;1.0;0.5;0.5;1.0;1.0;0.6666666666666666;0.6666666666666666;file;ide;diff;11f
50;50_7d889067b2c2113bd011f1386a6b8c12e453f650-FILE.arff;BR;1.0;1.0;1.0;0.0;0.0;0.0;0.0;1.0;1.0;0.0;0.0;0.0;0.0;1.0;1.0;0.5;0.5;1.0;1.0;0.6666666666666666;0.6666666666666666;file;ide;diff;11f
50;50_7d889067b2c2113bd011f1386a6b8c12e453f650-FILE.arff;LP;1.0;1.0;1.0;0.0;0.0;0.0;0.0;1.0;1.0;1.0;1.0;0.0;0.0;1.0;1.0;1.0;1.0;1.0;1.0;1.0;1.0;file;ide;diff;11f
50;50_7d889067b2c2113bd011f1386a6b8c12e453f650-FILE.arff;RAkELd;1.0;1.0;1.0;0.0;0.0;0.0;0.0;1.0;1.0;0.0;0.0;0.0;0.0;1.0;1.0;0.5;0.5;1.0;1.0;0.6666666666666666;0.6666666666666666;file;ide;diff;11f
51;51_dbafc437af6c2f4219f7294b50b1be51a8d0c729-FILE.arff;BR;1.0;1.0;1.0;0.0;0.0;0.0;0.0;1.0;1.0;0.0;0.0;0.0;0.0;1.0;1.0;0.5;0.5;1.0;1.0;0.6666666666666666;0.6666666666666666;file;ide;diff;11f
51;51_dbafc437af6c2f4219f7294b50b1be51a8d0c729-FILE.arff;LP;1.0;1.0;1.0;0.0;0.0;0.0;0.0;1.0;1.0;1.0;1.0;0.0;0.0;1.0;1.0;1.0;1.0;1.0;1.0;1.0;1.0;file;ide;diff;11f
51;51_dbafc437af6c2f4219f7294b50b1be51a8d0c729-FILE.arff;RAkELd;1.0;1.0;1.0;0.0;0.0;0.0;0.0;1.0;1.0;0.0;0.0;0.0;0.0;1.0;1.0;0.5;0.5;1.0;1.0;0.6666666666666666;0.6666666666666666;file;ide;diff;11f
52;52_21339b2f9739c5d801601cfc2a2c997196389e69-FILE.arff;BR;1.0;1.0;1.0;0.0;0.0;0.0;0.0;1.0;1.0;0.0;0.0;0.0;0.0;1.0;1.0;0.5;0.5;1.0;1.0;0.6666666666666666;0.6666666666666666;file;ide;diff;11f
52;52_21339b2f9739c5d801601cfc2a2c997196389e69-FILE.arff;LP;1.0;1.0;1.0;0.0;0.0;0.0;0.0;1.0;1.0;1.0;1.0;0.0;0.0;1.0;1.0;1.0;1.0;1.0;1.0;1.0;1.0;file;ide;diff;11f
52;52_21339b2f9739c5d801601cfc2a2c997196389e69-FILE.arff;RAkELd;1.0;1.0;1.0;0.0;0.0;0.0;0.0;1.0;1.0;0.0;0.0;0.0;0.0;1.0;1.0;0.5;0.5;1.0;1.0;0.6666666666666666;0.6666666666666666;file;ide;diff;11f
53;53_3844b6bd98df06f8bcb8ca905eae8e4b83d29fd6-FILE.arff;BR;3.0;3.0;1.0;0.0;0.0;3.0;1.0;0.0;0.0;0.0;0.0;3.0;1.0;0.0;0.0;0.0;0.0;0.0;0.0;0.0;0.0;file;ide;diff;11f
53;53_3844b6bd98df06f8bcb8ca905eae8e4b83d29fd6-FILE.arff;LP;3.0;3.0;1.0;0.0;0.0;3.0;1.0;0.0;0.0;0.0;0.0;3.0;1.0;0.0;0.0;0.0;0.0;0.0;0.0;0.0;0.0;file;ide;diff;11f
53;53_3844b6bd98df06f8bcb8ca905eae8e4b83d29fd6-FILE.arff;RAkELd;3.0;3.0;1.0;2.0;0.6666666666666666;1.0;0.3333333333333333;0.0;0.0;0.0;0.0;3.0;1.0;0.0;0.0;0.0;0.0;0.0;0.0;0.0;0.0;file;ide;diff;11f
55;55_cbc0de4f9ad2930d2b879b642f72e59416f9e977-FILE.arff;BR;5.0;5.0;1.0;5.0;1.0;0.0;0.0;0.0;0.0;0.0;0.0;5.0;1.0;0.0;0.0;0.0;0.0;0.0;0.0;0.0;0.0;file;ide;diff;11f
55;55_cbc0de4f9ad2930d2b879b642f72e59416f9e977-FILE.arff;LP;5.0;5.0;1.0;0.0;0.0;3.0;0.6;2.0;0.4;2.0;0.4;3.0;0.6;2.0;0.4;0.4;1.0;0.4;1.0;0.4;1.0;file;ide;diff;11f
55;55_cbc0de4f9ad2930d2b879b642f72e59416f9e977-FILE.arff;RAkELd;5.0;5.0;1.0;5.0;1.0;0.0;0.0;0.0;0.0;0.0;0.0;5.0;1.0;0.0;0.0;0.0;0.0;0.0;0.0;0.0;0.0;file;ide;diff;11f
62;62_6fb26410e33b9aae4de58f33132efd09f4cd992c-FILE.arff;BR;1.0;1.0;1.0;1.0;1.0;0.0;0.0;0.0;0.0;0.0;0.0;1.0;1.0;0.0;0.0;0.0;0.0;0.0;0.0;0.0;0.0;file;ide;diff;11f
62;62_6fb26410e33b9aae4de58f33132efd09f4cd992c-FILE.arff;LP;1.0;1.0;1.0;0.0;0.0;1.0;1.0;0.0;0.0;0.0;0.0;1.0;1.0;0.0;0.0;0.0;0.0;0.0;0.0;0.0;0.0;file;ide;diff;11f
62;62_6fb26410e33b9aae4de58f33132efd09f4cd992c-FILE.arff;RAkELd;1.0;1.0;1.0;1.0;1.0;0.0;0.0;0.0;0.0;0.0;0.0;1.0;1.0;0.0;0.0;0.0;0.0;0.0;0.0;0.0;0.0;file;ide;diff;11f
64;64_b33605b07445d3258df8229a1e786dc5b4ab4a06-FILE.arff;BR;5.0;5.0;1.0;5.0;1.0;0.0;0.0;0.0;0.0;0.0;0.0;5.0;1.0;0.0;0.0;0.0;0.0;0.0;0.0;0.0;0.0;file;ide;diff;11f
64;64_b33605b07445d3258df8229a1e786dc5b4ab4a06-FILE.arff;LP;5.0;5.0;1.0;0.0;0.0;4.0;0.8;1.0;0.2;1.0;0.2;4.0;0.8;1.0;0.2;0.2;1.0;0.2;1.0;0.2;1.0;file;ide;diff;11f
64;64_b33605b07445d3258df8229a1e786dc5b4ab4a06-FILE.arff;RAkELd;5.0;5.0;1.0;5.0;1.0;0.0;0.0;0.0;0.0;0.0;0.0;5.0;1.0;0.0;0.0;0.0;0.0;0.0;0.0;0.0;0.0;file;ide;diff;11f
65;65_a40b2b29bb20a3c1ec25b73360d6712cdb97cd98-FILE.arff;BR;5.0;5.0;1.0;5.0;1.0;0.0;0.0;0.0;0.0;0.0;0.0;5.0;1.0;0.0;0.0;0.0;0.0;0.0;0.0;0.0;0.0;file;ide;diff;11f
65;65_a40b2b29bb20a3c1ec25b73360d6712cdb97cd98-FILE.arff;LP;5.0;5.0;1.0;0.0;0.0;2.0;0.4;3.0;0.6;3.0;0.6;2.0;0.4;3.0;0.6;0.6;1.0;0.6;1.0;0.6;1.0;file;ide;diff;11f
65;65_a40b2b29bb20a3c1ec25b73360d6712cdb97cd98-FILE.arff;RAkELd;5.0;5.0;1.0;2.0;0.4;2.0;0.4;1.0;0.2;1.0;0.2;4.0;0.8;1.0;0.2;0.3333333333333333;1.0;0.3333333333333333;1.0;0.3333333333333333;1.0;file;ide;diff;11f
67;67_35a2e788ba2020b545bc456b3eeb002997bd445c-FILE.arff;BR;1.0;1.0;1.0;1.0;1.0;0.0;0.0;0.0;0.0;0.0;0.0;1.0;1.0;0.0;0.0;0.0;0.0;0.0;0.0;0.0;0.0;file;ide;diff;11f
67;67_35a2e788ba2020b545bc456b3eeb002997bd445c-FILE.arff;LP;1.0;1.0;1.0;0.0;0.0;1.0;1.0;0.0;0.0;0.0;0.0;1.0;1.0;0.0;0.0;0.0;0.0;0.0;0.0;0.0;0.0;file;ide;diff;11f
67;67_35a2e788ba2020b545bc456b3eeb002997bd445c-FILE.arff;RAkELd;1.0;1.0;1.0;0.0;0.0;1.0;1.0;0.0;0.0;0.0;0.0;1.0;1.0;0.0;0.0;0.0;0.0;0.0;0.0;0.0;0.0;file;ide;diff;11f
71;71_55fefc50a452222a65ad710429548b2b671fea98-FILE.arff;BR;1.0;1.0;1.0;1.0;1.0;0.0;0.0;0.0;0.0;0.0;0.0;1.0;1.0;0.0;0.0;0.0;0.0;0.0;0.0;0.0;0.0;file;ide;diff;11f
71;71_55fefc50a452222a65ad710429548b2b671fea98-FILE.arff;LP;1.0;1.0;1.0;0.0;0.0;1.0;1.0;0.0;0.0;0.0;0.0;1.0;1.0;0.0;0.0;0.0;0.0;0.0;0.0;0.0;0.0;file;ide;diff;11f
71;71_55fefc50a452222a65ad710429548b2b671fea98-FILE.arff;RAkELd;1.0;1.0;1.0;0.0;0.0;0.0;0.0;1.0;1.0;1.0;1.0;0.0;0.0;1.0;1.0;1.0;1.0;1.0;1.0;1.0;1.0;file;ide;diff;11f
75;75_13ec2a47ff332e9c1a1c642068d26a7fae43e5cb-FILE.arff;BR;2.0;2.0;1.0;2.0;1.0;0.0;0.0;0.0;0.0;0.0;0.0;2.0;1.0;0.0;0.0;0.0;0.0;0.0;0.0;0.0;0.0;file;ide;diff;11f
75;75_13ec2a47ff332e9c1a1c642068d26a7fae43e5cb-FILE.arff;LP;2.0;2.0;1.0;0.0;0.0;2.0;1.0;0.0;0.0;0.0;0.0;2.0;1.0;0.0;0.0;0.0;0.0;0.0;0.0;0.0;0.0;file;ide;diff;11f
75;75_13ec2a47ff332e9c1a1c642068d26a7fae43e5cb-FILE.arff;RAkELd;2.0;2.0;1.0;0.0;0.0;2.0;1.0;0.0;0.0;0.0;0.0;2.0;1.0;0.0;0.0;0.0;0.0;0.0;0.0;0.0;0.0;file;ide;diff;11f
76;76_3955fd03aad3b9ea6cc6e8fc5c6e421f9c90d79d-FILE.arff;BR;2.0;2.0;1.0;2.0;1.0;0.0;0.0;0.0;0.0;0.0;0.0;2.0;1.0;0.0;0.0;0.0;0.0;0.0;0.0;0.0;0.0;file;ide;diff;11f
76;76_3955fd03aad3b9ea6cc6e8fc5c6e421f9c90d79d-FILE.arff;LP;2.0;2.0;1.0;0.0;0.0;1.0;0.5;1.0;0.5;1.0;0.5;1.0;0.5;1.0;0.5;0.5;1.0;0.5;1.0;0.5;1.0;file;ide;diff;11f
76;76_3955fd03aad3b9ea6cc6e8fc5c6e421f9c90d79d-FILE.arff;RAkELd;2.0;2.0;1.0;0.0;0.0;1.0;0.5;1.0;0.5;1.0;0.5;1.0;0.5;1.0;0.5;0.5;1.0;0.5;1.0;0.5;1.0;file;ide;diff;11f
78;78_c5d04b9750c4053c726bd4950d1c78bedb75f8e7-FILE.arff;BR;1.0;1.0;1.0;1.0;1.0;0.0;0.0;0.0;0.0;0.0;0.0;1.0;1.0;0.0;0.0;0.0;0.0;0.0;0.0;0.0;0.0;file;ide;diff;11f
78;78_c5d04b9750c4053c726bd4950d1c78bedb75f8e7-FILE.arff;LP;1.0;1.0;1.0;0.0;0.0;1.0;1.0;0.0;0.0;0.0;0.0;1.0;1.0;0.0;0.0;0.0;0.0;0.0;0.0;0.0;0.0;file;ide;diff;11f
78;78_c5d04b9750c4053c726bd4950d1c78bedb75f8e7-FILE.arff;RAkELd;1.0;1.0;1.0;1.0;1.0;0.0;0.0;0.0;0.0;0.0;0.0;1.0;1.0;0.0;0.0;0.0;0.0;0.0;0.0;0.0;0.0;file;ide;diff;11f
79;79_04c38c3d1120e0d8b9741e41bd62cbdfa3109a65-FILE.arff;BR;1.0;1.0;1.0;1.0;1.0;0.0;0.0;0.0;0.0;0.0;0.0;1.0;1.0;0.0;0.0;0.0;0.0;0.0;0.0;0.0;0.0;file;ide;diff;11f
79;79_04c38c3d1120e0d8b9741e41bd62cbdfa3109a65-FILE.arff;LP;1.0;1.0;1.0;0.0;0.0;1.0;1.0;0.0;0.0;0.0;0.0;1.0;1.0;0.0;0.0;0.0;0.0;0.0;0.0;0.0;0.0;file;ide;diff;11f
79;79_04c38c3d1120e0d8b9741e41bd62cbdfa3109a65-FILE.arff;RAkELd;1.0;1.0;1.0;1.0;1.0;0.0;0.0;0.0;0.0;0.0;0.0;1.0;1.0;0.0;0.0;0.0;0.0;0.0;0.0;0.0;0.0;file;ide;diff;11f
80;80_3e1f7782b8b8f1d2b8ddabc9cbeeaa7d9c199e5f-FILE.arff;BR;1.0;1.0;1.0;1.0;1.0;0.0;0.0;0.0;0.0;0.0;0.0;1.0;1.0;0.0;0.0;0.0;0.0;0.0;0.0;0.0;0.0;file;ide;diff;11f
80;80_3e1f7782b8b8f1d2b8ddabc9cbeeaa7d9c199e5f-FILE.arff;LP;1.0;1.0;1.0;0.0;0.0;1.0;1.0;0.0;0.0;0.0;0.0;1.0;1.0;0.0;0.0;0.0;0.0;0.0;0.0;0.0;0.0;file;ide;diff;11f
80;80_3e1f7782b8b8f1d2b8ddabc9cbeeaa7d9c199e5f-FILE.arff;RAkELd;1.0;1.0;1.0;1.0;1.0;0.0;0.0;0.0;0.0;0.0;0.0;1.0;1.0;0.0;0.0;0.0;0.0;0.0;0.0;0.0;0.0;file;ide;diff;11f
95;95_45f1b327dadc5d5b562989a10b03eea5d185c64a-FILE.arff;BR;3.0;3.0;1.0;3.0;1.0;0.0;0.0;0.0;0.0;0.0;0.0;3.0;1.0;0.0;0.0;0.0;0.0;0.0;0.0;0.0;0.0;file;ide;diff;11f
95;95_45f1b327dadc5d5b562989a10b03eea5d185c64a-FILE.arff;LP;3.0;3.0;1.0;0.0;0.0;2.0;0.6666666666666666;1.0;0.3333333333333333;1.0;0.3333333333333333;2.0;0.6666666666666666;1.0;0.3333333333333333;0.3333333333333333;1.0;0.3333333333333333;1.0;0.3333333333333333;1.0;file;ide;diff;11f
95;95_45f1b327dadc5d5b562989a10b03eea5d185c64a-FILE.arff;RAkELd;3.0;3.0;1.0;3.0;1.0;0.0;0.0;0.0;0.0;0.0;0.0;3.0;1.0;0.0;0.0;0.0;0.0;0.0;0.0;0.0;0.0;file;ide;diff;11f
97;97_f1eabe4741d7789e41c57775baf4277a158350c6-FILE.arff;BR;2.0;2.0;1.0;2.0;1.0;0.0;0.0;0.0;0.0;0.0;0.0;2.0;1.0;0.0;0.0;0.0;0.0;0.0;0.0;0.0;0.0;file;ide;diff;11f
97;97_f1eabe4741d7789e41c57775baf4277a158350c6-FILE.arff;LP;2.0;2.0;1.0;0.0;0.0;2.0;1.0;0.0;0.0;0.0;0.0;2.0;1.0;0.0;0.0;0.0;0.0;0.0;0.0;0.0;0.0;file;ide;diff;11f
97;97_f1eabe4741d7789e41c57775baf4277a158350c6-FILE.arff;RAkELd;2.0;2.0;1.0;2.0;1.0;0.0;0.0;0.0;0.0;0.0;0.0;2.0;1.0;0.0;0.0;0.0;0.0;0.0;0.0;0.0;0.0;file;ide;diff;11f
139;139_b893fc56df181c0bd90303135564c28b90f3fb4d-FILE.arff;BR;1.0;1.0;1.0;1.0;1.0;0.0;0.0;0.0;0.0;0.0;0.0;1.0;1.0;0.0;0.0;0.0;0.0;0.0;0.0;0.0;0.0;file;ide;diff;11f
139;139_b893fc56df181c0bd90303135564c28b90f3fb4d-FILE.arff;LP;1.0;1.0;1.0;0.0;0.0;1.0;1.0;0.0;0.0;0.0;0.0;1.0;1.0;0.0;0.0;0.0;0.0;0.0;0.0;0.0;0.0;file;ide;diff;11f
139;139_b893fc56df181c0bd90303135564c28b90f3fb4d-FILE.arff;RAkELd;1.0;1.0;1.0;1.0;1.0;0.0;0.0;0.0;0.0;0.0;0.0;1.0;1.0;0.0;0.0;0.0;0.0;0.0;0.0;0.0;0.0;file;ide;diff;11f
143;143_e23e91c882cbfb52f47f5617e621459350f3fe38-FILE.arff;BR;1.0;1.0;1.0;1.0;1.0;0.0;0.0;0.0;0.0;0.0;0.0;1.0;1.0;0.0;0.0;0.0;0.0;0.0;0.0;0.0;0.0;file;ide;diff;11f
143;143_e23e91c882cbfb52f47f5617e621459350f3fe38-FILE.arff;LP;1.0;1.0;1.0;0.0;0.0;0.0;0.0;1.0;1.0;1.0;1.0;0.0;0.0;1.0;1.0;1.0;1.0;1.0;1.0;1.0;1.0;file;ide;diff;11f
143;143_e23e91c882cbfb52f47f5617e621459350f3fe38-FILE.arff;RAkELd;1.0;1.0;1.0;1.0;1.0;0.0;0.0;0.0;0.0;0.0;0.0;1.0;1.0;0.0;0.0;0.0;0.0;0.0;0.0;0.0;0.0;file;ide;diff;11f
146;146_91177058a0f52c25b501205a628e1f1e68b868d6-FILE.arff;BR;2.0;2.0;1.0;1.0;0.5;0.0;0.0;1.0;0.5;1.0;0.5;1.0;0.5;1.0;0.5;1.0;1.0;1.0;1.0;1.0;1.0;file;ide;diff;11f
146;146_91177058a0f52c25b501205a628e1f1e68b868d6-FILE.arff;LP;2.0;2.0;1.0;0.0;0.0;0.0;0.0;2.0;1.0;2.0;1.0;0.0;0.0;2.0;1.0;1.0;1.0;1.0;1.0;1.0;1.0;file;ide;diff;11f
146;146_91177058a0f52c25b501205a628e1f1e68b868d6-FILE.arff;RAkELd;2.0;2.0;1.0;1.0;0.5;0.0;0.0;1.0;0.5;1.0;0.5;1.0;0.5;1.0;0.5;1.0;1.0;1.0;1.0;1.0;1.0;file;ide;diff;11f
147;147_01955f4f4df4579405a8bb1868f60af30e9a028b-FILE.arff;BR;2.0;2.0;1.0;1.0;0.5;0.0;0.0;1.0;0.5;1.0;0.5;1.0;0.5;1.0;0.5;1.0;1.0;1.0;1.0;1.0;1.0;file;ide;diff;11f
147;147_01955f4f4df4579405a8bb1868f60af30e9a028b-FILE.arff;LP;2.0;2.0;1.0;0.0;0.0;1.0;0.5;1.0;0.5;1.0;0.5;1.0;0.5;1.0;0.5;0.5;1.0;0.5;1.0;0.5;1.0;file;ide;diff;11f
147;147_01955f4f4df4579405a8bb1868f60af30e9a028b-FILE.arff;RAkELd;2.0;2.0;1.0;1.0;0.5;0.0;0.0;1.0;0.5;1.0;0.5;1.0;0.5;1.0;0.5;1.0;1.0;1.0;1.0;1.0;1.0;file;ide;diff;11f
148;148_4cfd7fef412fb7e2bfb4e4cf6800400783e88901-FILE.arff;BR;1.0;1.0;1.0;0.0;0.0;0.0;0.0;1.0;1.0;1.0;1.0;0.0;0.0;1.0;1.0;1.0;1.0;1.0;1.0;1.0;1.0;file;ide;diff;11f
148;148_4cfd7fef412fb7e2bfb4e4cf6800400783e88901-FILE.arff;LP;1.0;1.0;1.0;0.0;0.0;0.0;0.0;1.0;1.0;1.0;1.0;0.0;0.0;1.0;1.0;1.0;1.0;1.0;1.0;1.0;1.0;file;ide;diff;11f
148;148_4cfd7fef412fb7e2bfb4e4cf6800400783e88901-FILE.arff;RAkELd;1.0;1.0;1.0;0.0;0.0;0.0;0.0;1.0;1.0;1.0;1.0;0.0;0.0;1.0;1.0;1.0;1.0;1.0;1.0;1.0;1.0;file;ide;diff;11f
149;149_a3862fc69053415592fdfb43a903d56e568b89c3-FILE.arff;BR;1.0;1.0;1.0;1.0;1.0;0.0;0.0;0.0;0.0;0.0;0.0;1.0;1.0;0.0;0.0;0.0;0.0;0.0;0.0;0.0;0.0;file;ide;diff;11f
149;149_a3862fc69053415592fdfb43a903d56e568b89c3-FILE.arff;LP;1.0;1.0;1.0;0.0;0.0;1.0;1.0;0.0;0.0;0.0;0.0;1.0;1.0;0.0;0.0;0.0;0.0;0.0;0.0;0.0;0.0;file;ide;diff;11f
149;149_a3862fc69053415592fdfb43a903d56e568b89c3-FILE.arff;RAkELd;1.0;1.0;1.0;1.0;1.0;0.0;0.0;0.0;0.0;0.0;0.0;1.0;1.0;0.0;0.0;0.0;0.0;0.0;0.0;0.0;0.0;file;ide;diff;11f
7;7_7a7c87aedb9974d4b1f84ca4ab80dba640d0e0d4-FILE.arff;BR;2.0;2.0;1.0;0.0;0.0;0.0;0.0;2.0;1.0;0.0;0.0;0.0;0.0;2.0;1.0;0.5;0.5;1.0;1.0;0.6666666666666666;0.6666666666666666;file;ide;diff;4f
7;7_7a7c87aedb9974d4b1f84ca4ab80dba640d0e0d4-FILE.arff;LP;2.0;2.0;1.0;0.0;0.0;2.0;1.0;0.0;0.0;0.0;0.0;2.0;1.0;0.0;0.0;0.0;0.0;0.0;0.0;0.0;0.0;file;ide;diff;4f
7;7_7a7c87aedb9974d4b1f84ca4ab80dba640d0e0d4-FILE.arff;RAkELd;2.0;2.0;1.0;1.0;0.5;0.0;0.0;1.0;0.5;0.0;0.0;1.0;0.5;1.0;0.5;0.5;0.5;1.0;1.0;0.6666666666666666;0.6666666666666666;file;ide;diff;4f
11;11_9bf8b2fda3eb5feee5a8fa644dd2a559fea95fc5-FILE.arff;BR;1.0;1.0;1.0;0.0;0.0;0.0;0.0;1.0;1.0;0.0;0.0;0.0;0.0;1.0;1.0;0.5;0.5;1.0;1.0;0.6666666666666666;0.6666666666666666;file;ide;diff;4f
11;11_9bf8b2fda3eb5feee5a8fa644dd2a559fea95fc5-FILE.arff;LP;1.0;1.0;1.0;0.0;0.0;0.0;0.0;1.0;1.0;1.0;1.0;0.0;0.0;1.0;1.0;1.0;1.0;1.0;1.0;1.0;1.0;file;ide;diff;4f
11;11_9bf8b2fda3eb5feee5a8fa644dd2a559fea95fc5-FILE.arff;RAkELd;1.0;1.0;1.0;0.0;0.0;0.0;0.0;1.0;1.0;0.0;0.0;0.0;0.0;1.0;1.0;0.5;0.5;1.0;1.0;0.6666666666666666;0.6666666666666666;file;ide;diff;4f
14;14_71e4840ffd0f918a662de8f6dfe57fc3e81a4313-FILE.arff;BR;1.0;1.0;1.0;0.0;0.0;0.0;0.0;1.0;1.0;0.0;0.0;0.0;0.0;1.0;1.0;0.5;0.5;1.0;1.0;0.6666666666666666;0.6666666666666666;file;ide;diff;4f
14;14_71e4840ffd0f918a662de8f6dfe57fc3e81a4313-FILE.arff;LP;1.0;1.0;1.0;0.0;0.0;0.0;0.0;1.0;1.0;1.0;1.0;0.0;0.0;1.0;1.0;1.0;1.0;1.0;1.0;1.0;1.0;file;ide;diff;4f
14;14_71e4840ffd0f918a662de8f6dfe57fc3e81a4313-FILE.arff;RAkELd;1.0;1.0;1.0;0.0;0.0;0.0;0.0;1.0;1.0;0.0;0.0;0.0;0.0;1.0;1.0;0.5;0.5;1.0;1.0;0.6666666666666666;0.6666666666666666;file;ide;diff;4f
17;17_da3e20a4618706b4fefe6668860120973f261174-FILE.arff;BR;2.0;2.0;1.0;0.0;0.0;0.0;0.0;2.0;1.0;0.0;0.0;0.0;0.0;2.0;1.0;0.5;0.5;1.0;1.0;0.6666666666666666;0.6666666666666666;file;ide;diff;4f
17;17_da3e20a4618706b4fefe6668860120973f261174-FILE.arff;LP;2.0;2.0;1.0;0.0;0.0;0.0;0.0;2.0;1.0;2.0;1.0;0.0;0.0;2.0;1.0;1.0;1.0;1.0;1.0;1.0;1.0;file;ide;diff;4f
17;17_da3e20a4618706b4fefe6668860120973f261174-FILE.arff;RAkELd;2.0;2.0;1.0;1.0;0.5;0.0;0.0;1.0;0.5;0.0;0.0;1.0;0.5;1.0;0.5;0.5;0.5;1.0;1.0;0.6666666666666666;0.6666666666666666;file;ide;diff;4f
18;18_f9744676f5fc2b1cd17e1d529e834a1aa25baedb-FILE.arff;BR;2.0;2.0;1.0;0.0;0.0;0.0;0.0;2.0;1.0;0.0;0.0;0.0;0.0;2.0;1.0;0.5;0.5;1.0;1.0;0.6666666666666666;0.6666666666666666;file;ide;diff;4f
18;18_f9744676f5fc2b1cd17e1d529e834a1aa25baedb-FILE.arff;LP;2.0;2.0;1.0;0.0;0.0;0.0;0.0;2.0;1.0;2.0;1.0;0.0;0.0;2.0;1.0;1.0;1.0;1.0;1.0;1.0;1.0;file;ide;diff;4f
18;18_f9744676f5fc2b1cd17e1d529e834a1aa25baedb-FILE.arff;RAkELd;2.0;2.0;1.0;1.0;0.5;0.0;0.0;1.0;0.5;0.0;0.0;1.0;0.5;1.0;0.5;0.5;0.5;1.0;1.0;0.6666666666666666;0.6666666666666666;file;ide;diff;4f
19;19_8801d730480d660370094d13c6490c8ccd763ca8-FILE.arff;BR;1.0;1.0;1.0;0.0;0.0;0.0;0.0;1.0;1.0;0.0;0.0;0.0;0.0;1.0;1.0;0.5;0.5;1.0;1.0;0.6666666666666666;0.6666666666666666;file;ide;diff;4f
19;19_8801d730480d660370094d13c6490c8ccd763ca8-FILE.arff;LP;1.0;1.0;1.0;0.0;0.0;1.0;1.0;0.0;0.0;0.0;0.0;1.0;1.0;0.0;0.0;0.0;0.0;0.0;0.0;0.0;0.0;file;ide;diff;4f
19;19_8801d730480d660370094d13c6490c8ccd763ca8-FILE.arff;RAkELd;1.0;1.0;1.0;0.0;0.0;0.0;0.0;1.0;1.0;0.0;0.0;0.0;0.0;1.0;1.0;0.5;0.5;1.0;1.0;0.6666666666666666;0.6666666666666666;file;ide;diff;4f
20;20_efa08edd831faabee1ca5dae56561504f1435e16-FILE.arff;BR;2.0;2.0;1.0;0.0;0.0;0.0;0.0;2.0;1.0;0.0;0.0;0.0;0.0;2.0;1.0;0.5;0.5;1.0;1.0;0.6666666666666666;0.6666666666666666;file;ide;diff;4f
20;20_efa08edd831faabee1ca5dae56561504f1435e16-FILE.arff;LP;2.0;2.0;1.0;0.0;0.0;0.0;0.0;2.0;1.0;2.0;1.0;0.0;0.0;2.0;1.0;1.0;1.0;1.0;1.0;1.0;1.0;file;ide;diff;4f
20;20_efa08edd831faabee1ca5dae56561504f1435e16-FILE.arff;RAkELd;2.0;2.0;1.0;1.0;0.5;0.0;0.0;1.0;0.5;0.0;0.0;1.0;0.5;1.0;0.5;0.5;0.5;1.0;1.0;0.6666666666666666;0.6666666666666666;file;ide;diff;4f
30;30_ab8d7e7e99dce24a5499641314192b64a62bd045-FILE.arff;BR;1.0;1.0;1.0;0.0;0.0;0.0;0.0;1.0;1.0;0.0;0.0;0.0;0.0;1.0;1.0;0.5;0.5;1.0;1.0;0.6666666666666666;0.6666666666666666;file;ide;diff;4f
30;30_ab8d7e7e99dce24a5499641314192b64a62bd045-FILE.arff;LP;1.0;1.0;1.0;0.0;0.0;0.0;0.0;1.0;1.0;1.0;1.0;0.0;0.0;1.0;1.0;1.0;1.0;1.0;1.0;1.0;1.0;file;ide;diff;4f
30;30_ab8d7e7e99dce24a5499641314192b64a62bd045-FILE.arff;RAkELd;1.0;1.0;1.0;0.0;0.0;0.0;0.0;1.0;1.0;0.0;0.0;0.0;0.0;1.0;1.0;0.5;0.5;1.0;1.0;0.6666666666666666;0.6666666666666666;file;ide;diff;4f
31;31_746ef129fab6c2ec90fa3356a637c38e7aa460a7-FILE.arff;BR;1.0;1.0;1.0;0.0;0.0;0.0;0.0;1.0;1.0;0.0;0.0;0.0;0.0;1.0;1.0;0.5;0.5;1.0;1.0;0.6666666666666666;0.6666666666666666;file;ide;diff;4f
31;31_746ef129fab6c2ec90fa3356a637c38e7aa460a7-FILE.arff;LP;1.0;1.0;1.0;0.0;0.0;0.0;0.0;1.0;1.0;1.0;1.0;0.0;0.0;1.0;1.0;1.0;1.0;1.0;1.0;1.0;1.0;file;ide;diff;4f
31;31_746ef129fab6c2ec90fa3356a637c38e7aa460a7-FILE.arff;RAkELd;1.0;1.0;1.0;0.0;0.0;0.0;0.0;1.0;1.0;0.0;0.0;0.0;0.0;1.0;1.0;0.5;0.5;1.0;1.0;0.6666666666666666;0.6666666666666666;file;ide;diff;4f
37;37_a6f39393b82fcb801d316dedd94a191091db6ad5-FILE.arff;BR;2.0;2.0;1.0;0.0;0.0;0.0;0.0;2.0;1.0;0.0;0.0;0.0;0.0;2.0;1.0;0.5;0.5;1.0;1.0;0.6666666666666666;0.6666666666666666;file;ide;diff;4f
37;37_a6f39393b82fcb801d316dedd94a191091db6ad5-FILE.arff;LP;2.0;2.0;1.0;0.0;0.0;0.0;0.0;2.0;1.0;2.0;1.0;0.0;0.0;2.0;1.0;1.0;1.0;1.0;1.0;1.0;1.0;file;ide;diff;4f
37;37_a6f39393b82fcb801d316dedd94a191091db6ad5-FILE.arff;RAkELd;2.0;2.0;1.0;1.0;0.5;0.0;0.0;1.0;0.5;0.0;0.0;1.0;0.5;1.0;0.5;0.5;0.5;1.0;1.0;0.6666666666666666;0.6666666666666666;file;ide;diff;4f
46;46_0b8dd9dc6033b1155378977f10d881b602c0425e-FILE.arff;BR;1.0;1.0;1.0;0.0;0.0;0.0;0.0;1.0;1.0;0.0;0.0;0.0;0.0;1.0;1.0;0.5;0.5;1.0;1.0;0.6666666666666666;0.6666666666666666;file;ide;diff;4f
46;46_0b8dd9dc6033b1155378977f10d881b602c0425e-FILE.arff;LP;1.0;1.0;1.0;0.0;0.0;1.0;1.0;0.0;0.0;0.0;0.0;1.0;1.0;0.0;0.0;0.0;0.0;0.0;0.0;0.0;0.0;file;ide;diff;4f
46;46_0b8dd9dc6033b1155378977f10d881b602c0425e-FILE.arff;RAkELd;1.0;1.0;1.0;0.0;0.0;0.0;0.0;1.0;1.0;0.0;0.0;0.0;0.0;1.0;1.0;0.5;0.5;1.0;1.0;0.6666666666666666;0.6666666666666666;file;ide;diff;4f
50;50_7d889067b2c2113bd011f1386a6b8c12e453f650-FILE.arff;BR;1.0;1.0;1.0;0.0;0.0;0.0;0.0;1.0;1.0;0.0;0.0;0.0;0.0;1.0;1.0;0.5;0.5;1.0;1.0;0.6666666666666666;0.6666666666666666;file;ide;diff;4f
50;50_7d889067b2c2113bd011f1386a6b8c12e453f650-FILE.arff;LP;1.0;1.0;1.0;0.0;0.0;0.0;0.0;1.0;1.0;1.0;1.0;0.0;0.0;1.0;1.0;1.0;1.0;1.0;1.0;1.0;1.0;file;ide;diff;4f
50;50_7d889067b2c2113bd011f1386a6b8c12e453f650-FILE.arff;RAkELd;1.0;1.0;1.0;0.0;0.0;0.0;0.0;1.0;1.0;0.0;0.0;0.0;0.0;1.0;1.0;0.5;0.5;1.0;1.0;0.6666666666666666;0.6666666666666666;file;ide;diff;4f
51;51_dbafc437af6c2f4219f7294b50b1be51a8d0c729-FILE.arff;BR;1.0;1.0;1.0;0.0;0.0;0.0;0.0;1.0;1.0;0.0;0.0;0.0;0.0;1.0;1.0;0.5;0.5;1.0;1.0;0.6666666666666666;0.6666666666666666;file;ide;diff;4f
51;51_dbafc437af6c2f4219f7294b50b1be51a8d0c729-FILE.arff;LP;1.0;1.0;1.0;0.0;0.0;0.0;0.0;1.0;1.0;1.0;1.0;0.0;0.0;1.0;1.0;1.0;1.0;1.0;1.0;1.0;1.0;file;ide;diff;4f
51;51_dbafc437af6c2f4219f7294b50b1be51a8d0c729-FILE.arff;RAkELd;1.0;1.0;1.0;0.0;0.0;0.0;0.0;1.0;1.0;0.0;0.0;0.0;0.0;1.0;1.0;0.5;0.5;1.0;1.0;0.6666666666666666;0.6666666666666666;file;ide;diff;4f
52;52_21339b2f9739c5d801601cfc2a2c997196389e69-FILE.arff;BR;1.0;1.0;1.0;0.0;0.0;0.0;0.0;1.0;1.0;0.0;0.0;0.0;0.0;1.0;1.0;0.5;0.5;1.0;1.0;0.6666666666666666;0.6666666666666666;file;ide;diff;4f
52;52_21339b2f9739c5d801601cfc2a2c997196389e69-FILE.arff;LP;1.0;1.0;1.0;0.0;0.0;0.0;0.0;1.0;1.0;1.0;1.0;0.0;0.0;1.0;1.0;1.0;1.0;1.0;1.0;1.0;1.0;file;ide;diff;4f
52;52_21339b2f9739c5d801601cfc2a2c997196389e69-FILE.arff;RAkELd;1.0;1.0;1.0;0.0;0.0;0.0;0.0;1.0;1.0;0.0;0.0;0.0;0.0;1.0;1.0;0.5;0.5;1.0;1.0;0.6666666666666666;0.6666666666666666;file;ide;diff;4f
53;53_3844b6bd98df06f8bcb8ca905eae8e4b83d29fd6-FILE.arff;BR;3.0;3.0;1.0;0.0;0.0;3.0;1.0;0.0;0.0;0.0;0.0;3.0;1.0;0.0;0.0;0.0;0.0;0.0;0.0;0.0;0.0;file;ide;diff;4f
53;53_3844b6bd98df06f8bcb8ca905eae8e4b83d29fd6-FILE.arff;LP;3.0;3.0;1.0;0.0;0.0;3.0;1.0;0.0;0.0;0.0;0.0;3.0;1.0;0.0;0.0;0.0;0.0;0.0;0.0;0.0;0.0;file;ide;diff;4f
53;53_3844b6bd98df06f8bcb8ca905eae8e4b83d29fd6-FILE.arff;RAkELd;3.0;3.0;1.0;2.0;0.6666666666666666;1.0;0.3333333333333333;0.0;0.0;0.0;0.0;3.0;1.0;0.0;0.0;0.0;0.0;0.0;0.0;0.0;0.0;file;ide;diff;4f
55;55_cbc0de4f9ad2930d2b879b642f72e59416f9e977-FILE.arff;BR;5.0;5.0;1.0;5.0;1.0;0.0;0.0;0.0;0.0;0.0;0.0;5.0;1.0;0.0;0.0;0.0;0.0;0.0;0.0;0.0;0.0;file;ide;diff;4f
55;55_cbc0de4f9ad2930d2b879b642f72e59416f9e977-FILE.arff;LP;5.0;5.0;1.0;0.0;0.0;3.0;0.6;2.0;0.4;2.0;0.4;3.0;0.6;2.0;0.4;0.4;1.0;0.4;1.0;0.4;1.0;file;ide;diff;4f
55;55_cbc0de4f9ad2930d2b879b642f72e59416f9e977-FILE.arff;RAkELd;5.0;5.0;1.0;2.0;0.4;2.0;0.4;1.0;0.2;1.0;0.2;4.0;0.8;1.0;0.2;0.3333333333333333;1.0;0.3333333333333333;1.0;0.3333333333333333;1.0;file;ide;diff;4f
62;62_6fb26410e33b9aae4de58f33132efd09f4cd992c-FILE.arff;BR;1.0;1.0;1.0;1.0;1.0;0.0;0.0;0.0;0.0;0.0;0.0;1.0;1.0;0.0;0.0;0.0;0.0;0.0;0.0;0.0;0.0;file;ide;diff;4f
62;62_6fb26410e33b9aae4de58f33132efd09f4cd992c-FILE.arff;LP;1.0;1.0;1.0;0.0;0.0;1.0;1.0;0.0;0.0;0.0;0.0;1.0;1.0;0.0;0.0;0.0;0.0;0.0;0.0;0.0;0.0;file;ide;diff;4f
62;62_6fb26410e33b9aae4de58f33132efd09f4cd992c-FILE.arff;RAkELd;1.0;1.0;1.0;0.0;0.0;1.0;1.0;0.0;0.0;0.0;0.0;1.0;1.0;0.0;0.0;0.0;0.0;0.0;0.0;0.0;0.0;file;ide;diff;4f
64;64_b33605b07445d3258df8229a1e786dc5b4ab4a06-FILE.arff;BR;5.0;5.0;1.0;5.0;1.0;0.0;0.0;0.0;0.0;0.0;0.0;5.0;1.0;0.0;0.0;0.0;0.0;0.0;0.0;0.0;0.0;file;ide;diff;4f
64;64_b33605b07445d3258df8229a1e786dc5b4ab4a06-FILE.arff;LP;5.0;5.0;1.0;0.0;0.0;3.0;0.6;2.0;0.4;2.0;0.4;3.0;0.6;2.0;0.4;0.4;1.0;0.4;1.0;0.4;1.0;file;ide;diff;4f
64;64_b33605b07445d3258df8229a1e786dc5b4ab4a06-FILE.arff;RAkELd;5.0;5.0;1.0;2.0;0.4;2.0;0.4;1.0;0.2;1.0;0.2;4.0;0.8;1.0;0.2;0.3333333333333333;1.0;0.3333333333333333;1.0;0.3333333333333333;1.0;file;ide;diff;4f
65;65_a40b2b29bb20a3c1ec25b73360d6712cdb97cd98-FILE.arff;BR;5.0;5.0;1.0;5.0;1.0;0.0;0.0;0.0;0.0;0.0;0.0;5.0;1.0;0.0;0.0;0.0;0.0;0.0;0.0;0.0;0.0;file;ide;diff;4f
65;65_a40b2b29bb20a3c1ec25b73360d6712cdb97cd98-FILE.arff;LP;5.0;5.0;1.0;0.0;0.0;2.0;0.4;3.0;0.6;3.0;0.6;2.0;0.4;3.0;0.6;0.6;1.0;0.6;1.0;0.6;1.0;file;ide;diff;4f
65;65_a40b2b29bb20a3c1ec25b73360d6712cdb97cd98-FILE.arff;RAkELd;5.0;5.0;1.0;2.0;0.4;2.0;0.4;1.0;0.2;1.0;0.2;4.0;0.8;1.0;0.2;0.3333333333333333;1.0;0.3333333333333333;1.0;0.3333333333333333;1.0;file;ide;diff;4f
67;67_35a2e788ba2020b545bc456b3eeb002997bd445c-FILE.arff;BR;1.0;1.0;1.0;1.0;1.0;0.0;0.0;0.0;0.0;0.0;0.0;1.0;1.0;0.0;0.0;0.0;0.0;0.0;0.0;0.0;0.0;file;ide;diff;4f
67;67_35a2e788ba2020b545bc456b3eeb002997bd445c-FILE.arff;LP;1.0;1.0;1.0;0.0;0.0;1.0;1.0;0.0;0.0;0.0;0.0;1.0;1.0;0.0;0.0;0.0;0.0;0.0;0.0;0.0;0.0;file;ide;diff;4f
67;67_35a2e788ba2020b545bc456b3eeb002997bd445c-FILE.arff;RAkELd;1.0;1.0;1.0;0.0;0.0;1.0;1.0;0.0;0.0;0.0;0.0;1.0;1.0;0.0;0.0;0.0;0.0;0.0;0.0;0.0;0.0;file;ide;diff;4f
71;71_55fefc50a452222a65ad710429548b2b671fea98-FILE.arff;BR;1.0;1.0;1.0;1.0;1.0;0.0;0.0;0.0;0.0;0.0;0.0;1.0;1.0;0.0;0.0;0.0;0.0;0.0;0.0;0.0;0.0;file;ide;diff;4f
71;71_55fefc50a452222a65ad710429548b2b671fea98-FILE.arff;LP;1.0;1.0;1.0;0.0;0.0;0.0;0.0;1.0;1.0;1.0;1.0;0.0;0.0;1.0;1.0;1.0;1.0;1.0;1.0;1.0;1.0;file;ide;diff;4f
71;71_55fefc50a452222a65ad710429548b2b671fea98-FILE.arff;RAkELd;1.0;1.0;1.0;1.0;1.0;0.0;0.0;0.0;0.0;0.0;0.0;1.0;1.0;0.0;0.0;0.0;0.0;0.0;0.0;0.0;0.0;file;ide;diff;4f
75;75_13ec2a47ff332e9c1a1c642068d26a7fae43e5cb-FILE.arff;BR;2.0;2.0;1.0;2.0;1.0;0.0;0.0;0.0;0.0;0.0;0.0;2.0;1.0;0.0;0.0;0.0;0.0;0.0;0.0;0.0;0.0;file;ide;diff;4f
75;75_13ec2a47ff332e9c1a1c642068d26a7fae43e5cb-FILE.arff;LP;2.0;2.0;1.0;0.0;0.0;2.0;1.0;0.0;0.0;0.0;0.0;2.0;1.0;0.0;0.0;0.0;0.0;0.0;0.0;0.0;0.0;file;ide;diff;4f
75;75_13ec2a47ff332e9c1a1c642068d26a7fae43e5cb-FILE.arff;RAkELd;2.0;2.0;1.0;2.0;1.0;0.0;0.0;0.0;0.0;0.0;0.0;2.0;1.0;0.0;0.0;0.0;0.0;0.0;0.0;0.0;0.0;file;ide;diff;4f
76;76_3955fd03aad3b9ea6cc6e8fc5c6e421f9c90d79d-FILE.arff;BR;2.0;2.0;1.0;2.0;1.0;0.0;0.0;0.0;0.0;0.0;0.0;2.0;1.0;0.0;0.0;0.0;0.0;0.0;0.0;0.0;0.0;file;ide;diff;4f
76;76_3955fd03aad3b9ea6cc6e8fc5c6e421f9c90d79d-FILE.arff;LP;2.0;2.0;1.0;0.0;0.0;0.0;0.0;2.0;1.0;2.0;1.0;0.0;0.0;2.0;1.0;1.0;1.0;1.0;1.0;1.0;1.0;file;ide;diff;4f
76;76_3955fd03aad3b9ea6cc6e8fc5c6e421f9c90d79d-FILE.arff;RAkELd;2.0;2.0;1.0;2.0;1.0;0.0;0.0;0.0;0.0;0.0;0.0;2.0;1.0;0.0;0.0;0.0;0.0;0.0;0.0;0.0;0.0;file;ide;diff;4f
78;78_c5d04b9750c4053c726bd4950d1c78bedb75f8e7-FILE.arff;BR;1.0;1.0;1.0;1.0;1.0;0.0;0.0;0.0;0.0;0.0;0.0;1.0;1.0;0.0;0.0;0.0;0.0;0.0;0.0;0.0;0.0;file;ide;diff;4f
78;78_c5d04b9750c4053c726bd4950d1c78bedb75f8e7-FILE.arff;LP;1.0;1.0;1.0;0.0;0.0;1.0;1.0;0.0;0.0;0.0;0.0;1.0;1.0;0.0;0.0;0.0;0.0;0.0;0.0;0.0;0.0;file;ide;diff;4f
78;78_c5d04b9750c4053c726bd4950d1c78bedb75f8e7-FILE.arff;RAkELd;1.0;1.0;1.0;1.0;1.0;0.0;0.0;0.0;0.0;0.0;0.0;1.0;1.0;0.0;0.0;0.0;0.0;0.0;0.0;0.0;0.0;file;ide;diff;4f
79;79_04c38c3d1120e0d8b9741e41bd62cbdfa3109a65-FILE.arff;BR;1.0;1.0;1.0;1.0;1.0;0.0;0.0;0.0;0.0;0.0;0.0;1.0;1.0;0.0;0.0;0.0;0.0;0.0;0.0;0.0;0.0;file;ide;diff;4f
79;79_04c38c3d1120e0d8b9741e41bd62cbdfa3109a65-FILE.arff;LP;1.0;1.0;1.0;0.0;0.0;1.0;1.0;0.0;0.0;0.0;0.0;1.0;1.0;0.0;0.0;0.0;0.0;0.0;0.0;0.0;0.0;file;ide;diff;4f
79;79_04c38c3d1120e0d8b9741e41bd62cbdfa3109a65-FILE.arff;RAkELd;1.0;1.0;1.0;1.0;1.0;0.0;0.0;0.0;0.0;0.0;0.0;1.0;1.0;0.0;0.0;0.0;0.0;0.0;0.0;0.0;0.0;file;ide;diff;4f
80;80_3e1f7782b8b8f1d2b8ddabc9cbeeaa7d9c199e5f-FILE.arff;BR;1.0;1.0;1.0;1.0;1.0;0.0;0.0;0.0;0.0;0.0;0.0;1.0;1.0;0.0;0.0;0.0;0.0;0.0;0.0;0.0;0.0;file;ide;diff;4f
80;80_3e1f7782b8b8f1d2b8ddabc9cbeeaa7d9c199e5f-FILE.arff;LP;1.0;1.0;1.0;0.0;0.0;1.0;1.0;0.0;0.0;0.0;0.0;1.0;1.0;0.0;0.0;0.0;0.0;0.0;0.0;0.0;0.0;file;ide;diff;4f
80;80_3e1f7782b8b8f1d2b8ddabc9cbeeaa7d9c199e5f-FILE.arff;RAkELd;1.0;1.0;1.0;1.0;1.0;0.0;0.0;0.0;0.0;0.0;0.0;1.0;1.0;0.0;0.0;0.0;0.0;0.0;0.0;0.0;0.0;file;ide;diff;4f
95;95_45f1b327dadc5d5b562989a10b03eea5d185c64a-FILE.arff;BR;3.0;3.0;1.0;3.0;1.0;0.0;0.0;0.0;0.0;0.0;0.0;3.0;1.0;0.0;0.0;0.0;0.0;0.0;0.0;0.0;0.0;file;ide;diff;4f
95;95_45f1b327dadc5d5b562989a10b03eea5d185c64a-FILE.arff;LP;3.0;3.0;1.0;0.0;0.0;2.0;0.6666666666666666;1.0;0.3333333333333333;1.0;0.3333333333333333;2.0;0.6666666666666666;1.0;0.3333333333333333;0.3333333333333333;1.0;0.3333333333333333;1.0;0.3333333333333333;1.0;file;ide;diff;4f
95;95_45f1b327dadc5d5b562989a10b03eea5d185c64a-FILE.arff;RAkELd;3.0;3.0;1.0;3.0;1.0;0.0;0.0;0.0;0.0;0.0;0.0;3.0;1.0;0.0;0.0;0.0;0.0;0.0;0.0;0.0;0.0;file;ide;diff;4f
97;97_f1eabe4741d7789e41c57775baf4277a158350c6-FILE.arff;BR;2.0;2.0;1.0;2.0;1.0;0.0;0.0;0.0;0.0;0.0;0.0;2.0;1.0;0.0;0.0;0.0;0.0;0.0;0.0;0.0;0.0;file;ide;diff;4f
97;97_f1eabe4741d7789e41c57775baf4277a158350c6-FILE.arff;LP;2.0;2.0;1.0;0.0;0.0;2.0;1.0;0.0;0.0;0.0;0.0;2.0;1.0;0.0;0.0;0.0;0.0;0.0;0.0;0.0;0.0;file;ide;diff;4f
97;97_f1eabe4741d7789e41c57775baf4277a158350c6-FILE.arff;RAkELd;2.0;2.0;1.0;2.0;1.0;0.0;0.0;0.0;0.0;0.0;0.0;2.0;1.0;0.0;0.0;0.0;0.0;0.0;0.0;0.0;0.0;file;ide;diff;4f
139;139_b893fc56df181c0bd90303135564c28b90f3fb4d-FILE.arff;BR;1.0;1.0;1.0;1.0;1.0;0.0;0.0;0.0;0.0;0.0;0.0;1.0;1.0;0.0;0.0;0.0;0.0;0.0;0.0;0.0;0.0;file;ide;diff;4f
139;139_b893fc56df181c0bd90303135564c28b90f3fb4d-FILE.arff;LP;1.0;1.0;1.0;0.0;0.0;1.0;1.0;0.0;0.0;0.0;0.0;1.0;1.0;0.0;0.0;0.0;0.0;0.0;0.0;0.0;0.0;file;ide;diff;4f
139;139_b893fc56df181c0bd90303135564c28b90f3fb4d-FILE.arff;RAkELd;1.0;1.0;1.0;1.0;1.0;0.0;0.0;0.0;0.0;0.0;0.0;1.0;1.0;0.0;0.0;0.0;0.0;0.0;0.0;0.0;0.0;file;ide;diff;4f
143;143_e23e91c882cbfb52f47f5617e621459350f3fe38-FILE.arff;BR;1.0;1.0;1.0;1.0;1.0;0.0;0.0;0.0;0.0;0.0;0.0;1.0;1.0;0.0;0.0;0.0;0.0;0.0;0.0;0.0;0.0;file;ide;diff;4f
143;143_e23e91c882cbfb52f47f5617e621459350f3fe38-FILE.arff;LP;1.0;1.0;1.0;0.0;0.0;1.0;1.0;0.0;0.0;0.0;0.0;1.0;1.0;0.0;0.0;0.0;0.0;0.0;0.0;0.0;0.0;file;ide;diff;4f
143;143_e23e91c882cbfb52f47f5617e621459350f3fe38-FILE.arff;RAkELd;1.0;1.0;1.0;1.0;1.0;0.0;0.0;0.0;0.0;0.0;0.0;1.0;1.0;0.0;0.0;0.0;0.0;0.0;0.0;0.0;0.0;file;ide;diff;4f
146;146_91177058a0f52c25b501205a628e1f1e68b868d6-FILE.arff;BR;2.0;2.0;1.0;1.0;0.5;0.0;0.0;1.0;0.5;1.0;0.5;1.0;0.5;1.0;0.5;1.0;1.0;1.0;1.0;1.0;1.0;file;ide;diff;4f
146;146_91177058a0f52c25b501205a628e1f1e68b868d6-FILE.arff;LP;2.0;2.0;1.0;0.0;0.0;0.0;0.0;2.0;1.0;2.0;1.0;0.0;0.0;2.0;1.0;1.0;1.0;1.0;1.0;1.0;1.0;file;ide;diff;4f
146;146_91177058a0f52c25b501205a628e1f1e68b868d6-FILE.arff;RAkELd;2.0;2.0;1.0;1.0;0.5;0.0;0.0;1.0;0.5;1.0;0.5;1.0;0.5;1.0;0.5;1.0;1.0;1.0;1.0;1.0;1.0;file;ide;diff;4f
147;147_01955f4f4df4579405a8bb1868f60af30e9a028b-FILE.arff;BR;2.0;2.0;1.0;1.0;0.5;0.0;0.0;1.0;0.5;1.0;0.5;1.0;0.5;1.0;0.5;1.0;1.0;1.0;1.0;1.0;1.0;file;ide;diff;4f
147;147_01955f4f4df4579405a8bb1868f60af30e9a028b-FILE.arff;LP;2.0;2.0;1.0;0.0;0.0;1.0;0.5;1.0;0.5;1.0;0.5;1.0;0.5;1.0;0.5;0.5;1.0;0.5;1.0;0.5;1.0;file;ide;diff;4f
147;147_01955f4f4df4579405a8bb1868f60af30e9a028b-FILE.arff;RAkELd;2.0;2.0;1.0;1.0;0.5;0.0;0.0;1.0;0.5;1.0;0.5;1.0;0.5;1.0;0.5;1.0;1.0;1.0;1.0;1.0;1.0;file;ide;diff;4f
148;148_4cfd7fef412fb7e2bfb4e4cf6800400783e88901-FILE.arff;BR;1.0;1.0;1.0;0.0;0.0;0.0;0.0;1.0;1.0;1.0;1.0;0.0;0.0;1.0;1.0;1.0;1.0;1.0;1.0;1.0;1.0;file;ide;diff;4f
148;148_4cfd7fef412fb7e2bfb4e4cf6800400783e88901-FILE.arff;LP;1.0;1.0;1.0;0.0;0.0;0.0;0.0;1.0;1.0;1.0;1.0;0.0;0.0;1.0;1.0;1.0;1.0;1.0;1.0;1.0;1.0;file;ide;diff;4f
148;148_4cfd7fef412fb7e2bfb4e4cf6800400783e88901-FILE.arff;RAkELd;1.0;1.0;1.0;0.0;0.0;0.0;0.0;1.0;1.0;1.0;1.0;0.0;0.0;1.0;1.0;1.0;1.0;1.0;1.0;1.0;1.0;file;ide;diff;4f
149;149_a3862fc69053415592fdfb43a903d56e568b89c3-FILE.arff;BR;1.0;1.0;1.0;0.0;0.0;0.0;0.0;1.0;1.0;1.0;1.0;0.0;0.0;1.0;1.0;1.0;1.0;1.0;1.0;1.0;1.0;file;ide;diff;4f
149;149_a3862fc69053415592fdfb43a903d56e568b89c3-FILE.arff;LP;1.0;1.0;1.0;0.0;0.0;0.0;0.0;1.0;1.0;1.0;1.0;0.0;0.0;1.0;1.0;1.0;1.0;1.0;1.0;1.0;1.0;file;ide;diff;4f
149;149_a3862fc69053415592fdfb43a903d56e568b89c3-FILE.arff;RAkELd;1.0;1.0;1.0;0.0;0.0;0.0;0.0;1.0;1.0;1.0;1.0;0.0;0.0;1.0;1.0;1.0;1.0;1.0;1.0;1.0;1.0;file;ide;diff;4f
7;7_7a7c87aedb9974d4b1f84ca4ab80dba640d0e0d4-FILE.arff;BR;2.0;2.0;1.0;0.0;0.0;0.0;0.0;2.0;1.0;0.0;0.0;0.0;0.0;2.0;1.0;0.5;0.5;1.0;1.0;0.6666666666666666;0.6666666666666666;file;ide;diff;6f
7;7_7a7c87aedb9974d4b1f84ca4ab80dba640d0e0d4-FILE.arff;LP;2.0;2.0;1.0;0.0;0.0;2.0;1.0;0.0;0.0;0.0;0.0;2.0;1.0;0.0;0.0;0.0;0.0;0.0;0.0;0.0;0.0;file;ide;diff;6f
7;7_7a7c87aedb9974d4b1f84ca4ab80dba640d0e0d4-FILE.arff;RAkELd;2.0;2.0;1.0;1.0;0.5;0.0;0.0;1.0;0.5;0.0;0.0;1.0;0.5;1.0;0.5;0.5;0.5;1.0;1.0;0.6666666666666666;0.6666666666666666;file;ide;diff;6f
11;11_9bf8b2fda3eb5feee5a8fa644dd2a559fea95fc5-FILE.arff;BR;1.0;1.0;1.0;0.0;0.0;0.0;0.0;1.0;1.0;0.0;0.0;0.0;0.0;1.0;1.0;0.5;0.5;1.0;1.0;0.6666666666666666;0.6666666666666666;file;ide;diff;6f
11;11_9bf8b2fda3eb5feee5a8fa644dd2a559fea95fc5-FILE.arff;LP;1.0;1.0;1.0;0.0;0.0;0.0;0.0;1.0;1.0;1.0;1.0;0.0;0.0;1.0;1.0;1.0;1.0;1.0;1.0;1.0;1.0;file;ide;diff;6f
11;11_9bf8b2fda3eb5feee5a8fa644dd2a559fea95fc5-FILE.arff;RAkELd;1.0;1.0;1.0;0.0;0.0;0.0;0.0;1.0;1.0;0.0;0.0;0.0;0.0;1.0;1.0;0.5;0.5;1.0;1.0;0.6666666666666666;0.6666666666666666;file;ide;diff;6f
14;14_71e4840ffd0f918a662de8f6dfe57fc3e81a4313-FILE.arff;BR;1.0;1.0;1.0;0.0;0.0;0.0;0.0;1.0;1.0;0.0;0.0;0.0;0.0;1.0;1.0;0.5;0.5;1.0;1.0;0.6666666666666666;0.6666666666666666;file;ide;diff;6f
14;14_71e4840ffd0f918a662de8f6dfe57fc3e81a4313-FILE.arff;LP;1.0;1.0;1.0;0.0;0.0;0.0;0.0;1.0;1.0;1.0;1.0;0.0;0.0;1.0;1.0;1.0;1.0;1.0;1.0;1.0;1.0;file;ide;diff;6f
14;14_71e4840ffd0f918a662de8f6dfe57fc3e81a4313-FILE.arff;RAkELd;1.0;1.0;1.0;0.0;0.0;0.0;0.0;1.0;1.0;0.0;0.0;0.0;0.0;1.0;1.0;0.5;0.5;1.0;1.0;0.6666666666666666;0.6666666666666666;file;ide;diff;6f
17;17_da3e20a4618706b4fefe6668860120973f261174-FILE.arff;BR;2.0;2.0;1.0;0.0;0.0;0.0;0.0;2.0;1.0;0.0;0.0;0.0;0.0;2.0;1.0;0.5;0.5;1.0;1.0;0.6666666666666666;0.6666666666666666;file;ide;diff;6f
17;17_da3e20a4618706b4fefe6668860120973f261174-FILE.arff;LP;2.0;2.0;1.0;0.0;0.0;0.0;0.0;2.0;1.0;2.0;1.0;0.0;0.0;2.0;1.0;1.0;1.0;1.0;1.0;1.0;1.0;file;ide;diff;6f
17;17_da3e20a4618706b4fefe6668860120973f261174-FILE.arff;RAkELd;2.0;2.0;1.0;1.0;0.5;0.0;0.0;1.0;0.5;0.0;0.0;1.0;0.5;1.0;0.5;0.5;0.5;1.0;1.0;0.6666666666666666;0.6666666666666666;file;ide;diff;6f
18;18_f9744676f5fc2b1cd17e1d529e834a1aa25baedb-FILE.arff;BR;2.0;2.0;1.0;0.0;0.0;0.0;0.0;2.0;1.0;0.0;0.0;0.0;0.0;2.0;1.0;0.5;0.5;1.0;1.0;0.6666666666666666;0.6666666666666666;file;ide;diff;6f
18;18_f9744676f5fc2b1cd17e1d529e834a1aa25baedb-FILE.arff;LP;2.0;2.0;1.0;0.0;0.0;0.0;0.0;2.0;1.0;2.0;1.0;0.0;0.0;2.0;1.0;1.0;1.0;1.0;1.0;1.0;1.0;file;ide;diff;6f
18;18_f9744676f5fc2b1cd17e1d529e834a1aa25baedb-FILE.arff;RAkELd;2.0;2.0;1.0;1.0;0.5;0.0;0.0;1.0;0.5;0.0;0.0;1.0;0.5;1.0;0.5;0.5;0.5;1.0;1.0;0.6666666666666666;0.6666666666666666;file;ide;diff;6f
19;19_8801d730480d660370094d13c6490c8ccd763ca8-FILE.arff;BR;1.0;1.0;1.0;0.0;0.0;0.0;0.0;1.0;1.0;0.0;0.0;0.0;0.0;1.0;1.0;0.5;0.5;1.0;1.0;0.6666666666666666;0.6666666666666666;file;ide;diff;6f
19;19_8801d730480d660370094d13c6490c8ccd763ca8-FILE.arff;LP;1.0;1.0;1.0;0.0;0.0;1.0;1.0;0.0;0.0;0.0;0.0;1.0;1.0;0.0;0.0;0.0;0.0;0.0;0.0;0.0;0.0;file;ide;diff;6f
19;19_8801d730480d660370094d13c6490c8ccd763ca8-FILE.arff;RAkELd;1.0;1.0;1.0;0.0;0.0;0.0;0.0;1.0;1.0;0.0;0.0;0.0;0.0;1.0;1.0;0.5;0.5;1.0;1.0;0.6666666666666666;0.6666666666666666;file;ide;diff;6f
20;20_efa08edd831faabee1ca5dae56561504f1435e16-FILE.arff;BR;2.0;2.0;1.0;0.0;0.0;0.0;0.0;2.0;1.0;0.0;0.0;0.0;0.0;2.0;1.0;0.5;0.5;1.0;1.0;0.6666666666666666;0.6666666666666666;file;ide;diff;6f
20;20_efa08edd831faabee1ca5dae56561504f1435e16-FILE.arff;LP;2.0;2.0;1.0;0.0;0.0;0.0;0.0;2.0;1.0;2.0;1.0;0.0;0.0;2.0;1.0;1.0;1.0;1.0;1.0;1.0;1.0;file;ide;diff;6f
20;20_efa08edd831faabee1ca5dae56561504f1435e16-FILE.arff;RAkELd;2.0;2.0;1.0;1.0;0.5;0.0;0.0;1.0;0.5;0.0;0.0;1.0;0.5;1.0;0.5;0.5;0.5;1.0;1.0;0.6666666666666666;0.6666666666666666;file;ide;diff;6f
30;30_ab8d7e7e99dce24a5499641314192b64a62bd045-FILE.arff;BR;1.0;1.0;1.0;0.0;0.0;0.0;0.0;1.0;1.0;0.0;0.0;0.0;0.0;1.0;1.0;0.5;0.5;1.0;1.0;0.6666666666666666;0.6666666666666666;file;ide;diff;6f
30;30_ab8d7e7e99dce24a5499641314192b64a62bd045-FILE.arff;LP;1.0;1.0;1.0;0.0;0.0;0.0;0.0;1.0;1.0;1.0;1.0;0.0;0.0;1.0;1.0;1.0;1.0;1.0;1.0;1.0;1.0;file;ide;diff;6f
30;30_ab8d7e7e99dce24a5499641314192b64a62bd045-FILE.arff;RAkELd;1.0;1.0;1.0;0.0;0.0;0.0;0.0;1.0;1.0;0.0;0.0;0.0;0.0;1.0;1.0;0.5;0.5;1.0;1.0;0.6666666666666666;0.6666666666666666;file;ide;diff;6f
31;31_746ef129fab6c2ec90fa3356a637c38e7aa460a7-FILE.arff;BR;1.0;1.0;1.0;0.0;0.0;0.0;0.0;1.0;1.0;0.0;0.0;0.0;0.0;1.0;1.0;0.5;0.5;1.0;1.0;0.6666666666666666;0.6666666666666666;file;ide;diff;6f
31;31_746ef129fab6c2ec90fa3356a637c38e7aa460a7-FILE.arff;LP;1.0;1.0;1.0;0.0;0.0;0.0;0.0;1.0;1.0;1.0;1.0;0.0;0.0;1.0;1.0;1.0;1.0;1.0;1.0;1.0;1.0;file;ide;diff;6f
31;31_746ef129fab6c2ec90fa3356a637c38e7aa460a7-FILE.arff;RAkELd;1.0;1.0;1.0;0.0;0.0;0.0;0.0;1.0;1.0;0.0;0.0;0.0;0.0;1.0;1.0;0.5;0.5;1.0;1.0;0.6666666666666666;0.6666666666666666;file;ide;diff;6f
37;37_a6f39393b82fcb801d316dedd94a191091db6ad5-FILE.arff;BR;2.0;2.0;1.0;0.0;0.0;0.0;0.0;2.0;1.0;0.0;0.0;0.0;0.0;2.0;1.0;0.5;0.5;1.0;1.0;0.6666666666666666;0.6666666666666666;file;ide;diff;6f
37;37_a6f39393b82fcb801d316dedd94a191091db6ad5-FILE.arff;LP;2.0;2.0;1.0;0.0;0.0;0.0;0.0;2.0;1.0;2.0;1.0;0.0;0.0;2.0;1.0;1.0;1.0;1.0;1.0;1.0;1.0;file;ide;diff;6f
37;37_a6f39393b82fcb801d316dedd94a191091db6ad5-FILE.arff;RAkELd;2.0;2.0;1.0;1.0;0.5;0.0;0.0;1.0;0.5;0.0;0.0;1.0;0.5;1.0;0.5;0.5;0.5;1.0;1.0;0.6666666666666666;0.6666666666666666;file;ide;diff;6f
46;46_0b8dd9dc6033b1155378977f10d881b602c0425e-FILE.arff;BR;1.0;1.0;1.0;0.0;0.0;0.0;0.0;1.0;1.0;0.0;0.0;0.0;0.0;1.0;1.0;0.5;0.5;1.0;1.0;0.6666666666666666;0.6666666666666666;file;ide;diff;6f
46;46_0b8dd9dc6033b1155378977f10d881b602c0425e-FILE.arff;LP;1.0;1.0;1.0;0.0;0.0;1.0;1.0;0.0;0.0;0.0;0.0;1.0;1.0;0.0;0.0;0.0;0.0;0.0;0.0;0.0;0.0;file;ide;diff;6f
46;46_0b8dd9dc6033b1155378977f10d881b602c0425e-FILE.arff;RAkELd;1.0;1.0;1.0;0.0;0.0;0.0;0.0;1.0;1.0;0.0;0.0;0.0;0.0;1.0;1.0;0.5;0.5;1.0;1.0;0.6666666666666666;0.6666666666666666;file;ide;diff;6f
50;50_7d889067b2c2113bd011f1386a6b8c12e453f650-FILE.arff;BR;1.0;1.0;1.0;0.0;0.0;0.0;0.0;1.0;1.0;0.0;0.0;0.0;0.0;1.0;1.0;0.5;0.5;1.0;1.0;0.6666666666666666;0.6666666666666666;file;ide;diff;6f
50;50_7d889067b2c2113bd011f1386a6b8c12e453f650-FILE.arff;LP;1.0;1.0;1.0;0.0;0.0;0.0;0.0;1.0;1.0;1.0;1.0;0.0;0.0;1.0;1.0;1.0;1.0;1.0;1.0;1.0;1.0;file;ide;diff;6f
50;50_7d889067b2c2113bd011f1386a6b8c12e453f650-FILE.arff;RAkELd;1.0;1.0;1.0;0.0;0.0;0.0;0.0;1.0;1.0;0.0;0.0;0.0;0.0;1.0;1.0;0.5;0.5;1.0;1.0;0.6666666666666666;0.6666666666666666;file;ide;diff;6f
51;51_dbafc437af6c2f4219f7294b50b1be51a8d0c729-FILE.arff;BR;1.0;1.0;1.0;0.0;0.0;0.0;0.0;1.0;1.0;0.0;0.0;0.0;0.0;1.0;1.0;0.5;0.5;1.0;1.0;0.6666666666666666;0.6666666666666666;file;ide;diff;6f
51;51_dbafc437af6c2f4219f7294b50b1be51a8d0c729-FILE.arff;LP;1.0;1.0;1.0;0.0;0.0;0.0;0.0;1.0;1.0;1.0;1.0;0.0;0.0;1.0;1.0;1.0;1.0;1.0;1.0;1.0;1.0;file;ide;diff;6f
51;51_dbafc437af6c2f4219f7294b50b1be51a8d0c729-FILE.arff;RAkELd;1.0;1.0;1.0;0.0;0.0;0.0;0.0;1.0;1.0;0.0;0.0;0.0;0.0;1.0;1.0;0.5;0.5;1.0;1.0;0.6666666666666666;0.6666666666666666;file;ide;diff;6f
52;52_21339b2f9739c5d801601cfc2a2c997196389e69-FILE.arff;BR;1.0;1.0;1.0;0.0;0.0;0.0;0.0;1.0;1.0;0.0;0.0;0.0;0.0;1.0;1.0;0.5;0.5;1.0;1.0;0.6666666666666666;0.6666666666666666;file;ide;diff;6f
52;52_21339b2f9739c5d801601cfc2a2c997196389e69-FILE.arff;LP;1.0;1.0;1.0;0.0;0.0;0.0;0.0;1.0;1.0;1.0;1.0;0.0;0.0;1.0;1.0;1.0;1.0;1.0;1.0;1.0;1.0;file;ide;diff;6f
52;52_21339b2f9739c5d801601cfc2a2c997196389e69-FILE.arff;RAkELd;1.0;1.0;1.0;0.0;0.0;0.0;0.0;1.0;1.0;0.0;0.0;0.0;0.0;1.0;1.0;0.5;0.5;1.0;1.0;0.6666666666666666;0.6666666666666666;file;ide;diff;6f
53;53_3844b6bd98df06f8bcb8ca905eae8e4b83d29fd6-FILE.arff;BR;3.0;3.0;1.0;0.0;0.0;3.0;1.0;0.0;0.0;0.0;0.0;3.0;1.0;0.0;0.0;0.0;0.0;0.0;0.0;0.0;0.0;file;ide;diff;6f
53;53_3844b6bd98df06f8bcb8ca905eae8e4b83d29fd6-FILE.arff;LP;3.0;3.0;1.0;0.0;0.0;3.0;1.0;0.0;0.0;0.0;0.0;3.0;1.0;0.0;0.0;0.0;0.0;0.0;0.0;0.0;0.0;file;ide;diff;6f
53;53_3844b6bd98df06f8bcb8ca905eae8e4b83d29fd6-FILE.arff;RAkELd;3.0;3.0;1.0;2.0;0.6666666666666666;1.0;0.3333333333333333;0.0;0.0;0.0;0.0;3.0;1.0;0.0;0.0;0.0;0.0;0.0;0.0;0.0;0.0;file;ide;diff;6f
55;55_cbc0de4f9ad2930d2b879b642f72e59416f9e977-FILE.arff;BR;5.0;5.0;1.0;5.0;1.0;0.0;0.0;0.0;0.0;0.0;0.0;5.0;1.0;0.0;0.0;0.0;0.0;0.0;0.0;0.0;0.0;file;ide;diff;6f
55;55_cbc0de4f9ad2930d2b879b642f72e59416f9e977-FILE.arff;LP;5.0;5.0;1.0;0.0;0.0;3.0;0.6;2.0;0.4;2.0;0.4;3.0;0.6;2.0;0.4;0.4;1.0;0.4;1.0;0.4;1.0;file;ide;diff;6f
55;55_cbc0de4f9ad2930d2b879b642f72e59416f9e977-FILE.arff;RAkELd;5.0;5.0;1.0;2.0;0.4;2.0;0.4;1.0;0.2;1.0;0.2;4.0;0.8;1.0;0.2;0.3333333333333333;1.0;0.3333333333333333;1.0;0.3333333333333333;1.0;file;ide;diff;6f
62;62_6fb26410e33b9aae4de58f33132efd09f4cd992c-FILE.arff;BR;1.0;1.0;1.0;1.0;1.0;0.0;0.0;0.0;0.0;0.0;0.0;1.0;1.0;0.0;0.0;0.0;0.0;0.0;0.0;0.0;0.0;file;ide;diff;6f
62;62_6fb26410e33b9aae4de58f33132efd09f4cd992c-FILE.arff;LP;1.0;1.0;1.0;0.0;0.0;1.0;1.0;0.0;0.0;0.0;0.0;1.0;1.0;0.0;0.0;0.0;0.0;0.0;0.0;0.0;0.0;file;ide;diff;6f
62;62_6fb26410e33b9aae4de58f33132efd09f4cd992c-FILE.arff;RAkELd;1.0;1.0;1.0;0.0;0.0;1.0;1.0;0.0;0.0;0.0;0.0;1.0;1.0;0.0;0.0;0.0;0.0;0.0;0.0;0.0;0.0;file;ide;diff;6f
64;64_b33605b07445d3258df8229a1e786dc5b4ab4a06-FILE.arff;BR;5.0;5.0;1.0;5.0;1.0;0.0;0.0;0.0;0.0;0.0;0.0;5.0;1.0;0.0;0.0;0.0;0.0;0.0;0.0;0.0;0.0;file;ide;diff;6f
64;64_b33605b07445d3258df8229a1e786dc5b4ab4a06-FILE.arff;LP;5.0;5.0;1.0;0.0;0.0;3.0;0.6;2.0;0.4;2.0;0.4;3.0;0.6;2.0;0.4;0.4;1.0;0.4;1.0;0.4;1.0;file;ide;diff;6f
64;64_b33605b07445d3258df8229a1e786dc5b4ab4a06-FILE.arff;RAkELd;5.0;5.0;1.0;2.0;0.4;2.0;0.4;1.0;0.2;1.0;0.2;4.0;0.8;1.0;0.2;0.3333333333333333;1.0;0.3333333333333333;1.0;0.3333333333333333;1.0;file;ide;diff;6f
65;65_a40b2b29bb20a3c1ec25b73360d6712cdb97cd98-FILE.arff;BR;5.0;5.0;1.0;5.0;1.0;0.0;0.0;0.0;0.0;0.0;0.0;5.0;1.0;0.0;0.0;0.0;0.0;0.0;0.0;0.0;0.0;file;ide;diff;6f
65;65_a40b2b29bb20a3c1ec25b73360d6712cdb97cd98-FILE.arff;LP;5.0;5.0;1.0;0.0;0.0;2.0;0.4;3.0;0.6;3.0;0.6;2.0;0.4;3.0;0.6;0.6;1.0;0.6;1.0;0.6;1.0;file;ide;diff;6f
65;65_a40b2b29bb20a3c1ec25b73360d6712cdb97cd98-FILE.arff;RAkELd;5.0;5.0;1.0;2.0;0.4;2.0;0.4;1.0;0.2;1.0;0.2;4.0;0.8;1.0;0.2;0.3333333333333333;1.0;0.3333333333333333;1.0;0.3333333333333333;1.0;file;ide;diff;6f
67;67_35a2e788ba2020b545bc456b3eeb002997bd445c-FILE.arff;BR;1.0;1.0;1.0;1.0;1.0;0.0;0.0;0.0;0.0;0.0;0.0;1.0;1.0;0.0;0.0;0.0;0.0;0.0;0.0;0.0;0.0;file;ide;diff;6f
67;67_35a2e788ba2020b545bc456b3eeb002997bd445c-FILE.arff;LP;1.0;1.0;1.0;0.0;0.0;1.0;1.0;0.0;0.0;0.0;0.0;1.0;1.0;0.0;0.0;0.0;0.0;0.0;0.0;0.0;0.0;file;ide;diff;6f
67;67_35a2e788ba2020b545bc456b3eeb002997bd445c-FILE.arff;RAkELd;1.0;1.0;1.0;0.0;0.0;1.0;1.0;0.0;0.0;0.0;0.0;1.0;1.0;0.0;0.0;0.0;0.0;0.0;0.0;0.0;0.0;file;ide;diff;6f
71;71_55fefc50a452222a65ad710429548b2b671fea98-FILE.arff;BR;1.0;1.0;1.0;1.0;1.0;0.0;0.0;0.0;0.0;0.0;0.0;1.0;1.0;0.0;0.0;0.0;0.0;0.0;0.0;0.0;0.0;file;ide;diff;6f
71;71_55fefc50a452222a65ad710429548b2b671fea98-FILE.arff;LP;1.0;1.0;1.0;0.0;0.0;0.0;0.0;1.0;1.0;1.0;1.0;0.0;0.0;1.0;1.0;1.0;1.0;1.0;1.0;1.0;1.0;file;ide;diff;6f
71;71_55fefc50a452222a65ad710429548b2b671fea98-FILE.arff;RAkELd;1.0;1.0;1.0;1.0;1.0;0.0;0.0;0.0;0.0;0.0;0.0;1.0;1.0;0.0;0.0;0.0;0.0;0.0;0.0;0.0;0.0;file;ide;diff;6f
75;75_13ec2a47ff332e9c1a1c642068d26a7fae43e5cb-FILE.arff;BR;2.0;2.0;1.0;2.0;1.0;0.0;0.0;0.0;0.0;0.0;0.0;2.0;1.0;0.0;0.0;0.0;0.0;0.0;0.0;0.0;0.0;file;ide;diff;6f
75;75_13ec2a47ff332e9c1a1c642068d26a7fae43e5cb-FILE.arff;LP;2.0;2.0;1.0;0.0;0.0;2.0;1.0;0.0;0.0;0.0;0.0;2.0;1.0;0.0;0.0;0.0;0.0;0.0;0.0;0.0;0.0;file;ide;diff;6f
75;75_13ec2a47ff332e9c1a1c642068d26a7fae43e5cb-FILE.arff;RAkELd;2.0;2.0;1.0;0.0;0.0;2.0;1.0;0.0;0.0;0.0;0.0;2.0;1.0;0.0;0.0;0.0;0.0;0.0;0.0;0.0;0.0;file;ide;diff;6f
76;76_3955fd03aad3b9ea6cc6e8fc5c6e421f9c90d79d-FILE.arff;BR;2.0;2.0;1.0;2.0;1.0;0.0;0.0;0.0;0.0;0.0;0.0;2.0;1.0;0.0;0.0;0.0;0.0;0.0;0.0;0.0;0.0;file;ide;diff;6f
76;76_3955fd03aad3b9ea6cc6e8fc5c6e421f9c90d79d-FILE.arff;LP;2.0;2.0;1.0;0.0;0.0;0.0;0.0;2.0;1.0;2.0;1.0;0.0;0.0;2.0;1.0;1.0;1.0;1.0;1.0;1.0;1.0;file;ide;diff;6f
76;76_3955fd03aad3b9ea6cc6e8fc5c6e421f9c90d79d-FILE.arff;RAkELd;2.0;2.0;1.0;0.0;0.0;1.0;0.5;1.0;0.5;1.0;0.5;1.0;0.5;1.0;0.5;0.5;1.0;0.5;1.0;0.5;1.0;file;ide;diff;6f
78;78_c5d04b9750c4053c726bd4950d1c78bedb75f8e7-FILE.arff;BR;1.0;1.0;1.0;1.0;1.0;0.0;0.0;0.0;0.0;0.0;0.0;1.0;1.0;0.0;0.0;0.0;0.0;0.0;0.0;0.0;0.0;file;ide;diff;6f
78;78_c5d04b9750c4053c726bd4950d1c78bedb75f8e7-FILE.arff;LP;1.0;1.0;1.0;0.0;0.0;1.0;1.0;0.0;0.0;0.0;0.0;1.0;1.0;0.0;0.0;0.0;0.0;0.0;0.0;0.0;0.0;file;ide;diff;6f
78;78_c5d04b9750c4053c726bd4950d1c78bedb75f8e7-FILE.arff;RAkELd;1.0;1.0;1.0;1.0;1.0;0.0;0.0;0.0;0.0;0.0;0.0;1.0;1.0;0.0;0.0;0.0;0.0;0.0;0.0;0.0;0.0;file;ide;diff;6f
79;79_04c38c3d1120e0d8b9741e41bd62cbdfa3109a65-FILE.arff;BR;1.0;1.0;1.0;1.0;1.0;0.0;0.0;0.0;0.0;0.0;0.0;1.0;1.0;0.0;0.0;0.0;0.0;0.0;0.0;0.0;0.0;file;ide;diff;6f
79;79_04c38c3d1120e0d8b9741e41bd62cbdfa3109a65-FILE.arff;LP;1.0;1.0;1.0;0.0;0.0;1.0;1.0;0.0;0.0;0.0;0.0;1.0;1.0;0.0;0.0;0.0;0.0;0.0;0.0;0.0;0.0;file;ide;diff;6f
79;79_04c38c3d1120e0d8b9741e41bd62cbdfa3109a65-FILE.arff;RAkELd;1.0;1.0;1.0;1.0;1.0;0.0;0.0;0.0;0.0;0.0;0.0;1.0;1.0;0.0;0.0;0.0;0.0;0.0;0.0;0.0;0.0;file;ide;diff;6f
80;80_3e1f7782b8b8f1d2b8ddabc9cbeeaa7d9c199e5f-FILE.arff;BR;1.0;1.0;1.0;1.0;1.0;0.0;0.0;0.0;0.0;0.0;0.0;1.0;1.0;0.0;0.0;0.0;0.0;0.0;0.0;0.0;0.0;file;ide;diff;6f
80;80_3e1f7782b8b8f1d2b8ddabc9cbeeaa7d9c199e5f-FILE.arff;LP;1.0;1.0;1.0;0.0;0.0;1.0;1.0;0.0;0.0;0.0;0.0;1.0;1.0;0.0;0.0;0.0;0.0;0.0;0.0;0.0;0.0;file;ide;diff;6f
80;80_3e1f7782b8b8f1d2b8ddabc9cbeeaa7d9c199e5f-FILE.arff;RAkELd;1.0;1.0;1.0;1.0;1.0;0.0;0.0;0.0;0.0;0.0;0.0;1.0;1.0;0.0;0.0;0.0;0.0;0.0;0.0;0.0;0.0;file;ide;diff;6f
95;95_45f1b327dadc5d5b562989a10b03eea5d185c64a-FILE.arff;BR;3.0;3.0;1.0;3.0;1.0;0.0;0.0;0.0;0.0;0.0;0.0;3.0;1.0;0.0;0.0;0.0;0.0;0.0;0.0;0.0;0.0;file;ide;diff;6f
95;95_45f1b327dadc5d5b562989a10b03eea5d185c64a-FILE.arff;LP;3.0;3.0;1.0;0.0;0.0;2.0;0.6666666666666666;1.0;0.3333333333333333;1.0;0.3333333333333333;2.0;0.6666666666666666;1.0;0.3333333333333333;0.3333333333333333;1.0;0.3333333333333333;1.0;0.3333333333333333;1.0;file;ide;diff;6f
95;95_45f1b327dadc5d5b562989a10b03eea5d185c64a-FILE.arff;RAkELd;3.0;3.0;1.0;3.0;1.0;0.0;0.0;0.0;0.0;0.0;0.0;3.0;1.0;0.0;0.0;0.0;0.0;0.0;0.0;0.0;0.0;file;ide;diff;6f
97;97_f1eabe4741d7789e41c57775baf4277a158350c6-FILE.arff;BR;2.0;2.0;1.0;2.0;1.0;0.0;0.0;0.0;0.0;0.0;0.0;2.0;1.0;0.0;0.0;0.0;0.0;0.0;0.0;0.0;0.0;file;ide;diff;6f
97;97_f1eabe4741d7789e41c57775baf4277a158350c6-FILE.arff;LP;2.0;2.0;1.0;0.0;0.0;2.0;1.0;0.0;0.0;0.0;0.0;2.0;1.0;0.0;0.0;0.0;0.0;0.0;0.0;0.0;0.0;file;ide;diff;6f
97;97_f1eabe4741d7789e41c57775baf4277a158350c6-FILE.arff;RAkELd;2.0;2.0;1.0;2.0;1.0;0.0;0.0;0.0;0.0;0.0;0.0;2.0;1.0;0.0;0.0;0.0;0.0;0.0;0.0;0.0;0.0;file;ide;diff;6f
139;139_b893fc56df181c0bd90303135564c28b90f3fb4d-FILE.arff;BR;1.0;1.0;1.0;1.0;1.0;0.0;0.0;0.0;0.0;0.0;0.0;1.0;1.0;0.0;0.0;0.0;0.0;0.0;0.0;0.0;0.0;file;ide;diff;6f
139;139_b893fc56df181c0bd90303135564c28b90f3fb4d-FILE.arff;LP;1.0;1.0;1.0;0.0;0.0;1.0;1.0;0.0;0.0;0.0;0.0;1.0;1.0;0.0;0.0;0.0;0.0;0.0;0.0;0.0;0.0;file;ide;diff;6f
139;139_b893fc56df181c0bd90303135564c28b90f3fb4d-FILE.arff;RAkELd;1.0;1.0;1.0;1.0;1.0;0.0;0.0;0.0;0.0;0.0;0.0;1.0;1.0;0.0;0.0;0.0;0.0;0.0;0.0;0.0;0.0;file;ide;diff;6f
143;143_e23e91c882cbfb52f47f5617e621459350f3fe38-FILE.arff;BR;1.0;1.0;1.0;1.0;1.0;0.0;0.0;0.0;0.0;0.0;0.0;1.0;1.0;0.0;0.0;0.0;0.0;0.0;0.0;0.0;0.0;file;ide;diff;6f
143;143_e23e91c882cbfb52f47f5617e621459350f3fe38-FILE.arff;LP;1.0;1.0;1.0;0.0;0.0;1.0;1.0;0.0;0.0;0.0;0.0;1.0;1.0;0.0;0.0;0.0;0.0;0.0;0.0;0.0;0.0;file;ide;diff;6f
143;143_e23e91c882cbfb52f47f5617e621459350f3fe38-FILE.arff;RAkELd;1.0;1.0;1.0;1.0;1.0;0.0;0.0;0.0;0.0;0.0;0.0;1.0;1.0;0.0;0.0;0.0;0.0;0.0;0.0;0.0;0.0;file;ide;diff;6f
146;146_91177058a0f52c25b501205a628e1f1e68b868d6-FILE.arff;BR;2.0;2.0;1.0;1.0;0.5;0.0;0.0;1.0;0.5;1.0;0.5;1.0;0.5;1.0;0.5;1.0;1.0;1.0;1.0;1.0;1.0;file;ide;diff;6f
146;146_91177058a0f52c25b501205a628e1f1e68b868d6-FILE.arff;LP;2.0;2.0;1.0;0.0;0.0;0.0;0.0;2.0;1.0;2.0;1.0;0.0;0.0;2.0;1.0;1.0;1.0;1.0;1.0;1.0;1.0;file;ide;diff;6f
146;146_91177058a0f52c25b501205a628e1f1e68b868d6-FILE.arff;RAkELd;2.0;2.0;1.0;1.0;0.5;0.0;0.0;1.0;0.5;1.0;0.5;1.0;0.5;1.0;0.5;1.0;1.0;1.0;1.0;1.0;1.0;file;ide;diff;6f
147;147_01955f4f4df4579405a8bb1868f60af30e9a028b-FILE.arff;BR;2.0;2.0;1.0;1.0;0.5;0.0;0.0;1.0;0.5;1.0;0.5;1.0;0.5;1.0;0.5;1.0;1.0;1.0;1.0;1.0;1.0;file;ide;diff;6f
147;147_01955f4f4df4579405a8bb1868f60af30e9a028b-FILE.arff;LP;2.0;2.0;1.0;0.0;0.0;1.0;0.5;1.0;0.5;1.0;0.5;1.0;0.5;1.0;0.5;0.5;1.0;0.5;1.0;0.5;1.0;file;ide;diff;6f
147;147_01955f4f4df4579405a8bb1868f60af30e9a028b-FILE.arff;RAkELd;2.0;2.0;1.0;1.0;0.5;0.0;0.0;1.0;0.5;1.0;0.5;1.0;0.5;1.0;0.5;1.0;1.0;1.0;1.0;1.0;1.0;file;ide;diff;6f
148;148_4cfd7fef412fb7e2bfb4e4cf6800400783e88901-FILE.arff;BR;1.0;1.0;1.0;0.0;0.0;0.0;0.0;1.0;1.0;1.0;1.0;0.0;0.0;1.0;1.0;1.0;1.0;1.0;1.0;1.0;1.0;file;ide;diff;6f
148;148_4cfd7fef412fb7e2bfb4e4cf6800400783e88901-FILE.arff;LP;1.0;1.0;1.0;0.0;0.0;0.0;0.0;1.0;1.0;1.0;1.0;0.0;0.0;1.0;1.0;1.0;1.0;1.0;1.0;1.0;1.0;file;ide;diff;6f
148;148_4cfd7fef412fb7e2bfb4e4cf6800400783e88901-FILE.arff;RAkELd;1.0;1.0;1.0;0.0;0.0;0.0;0.0;1.0;1.0;1.0;1.0;0.0;0.0;1.0;1.0;1.0;1.0;1.0;1.0;1.0;1.0;file;ide;diff;6f
149;149_a3862fc69053415592fdfb43a903d56e568b89c3-FILE.arff;BR;1.0;1.0;1.0;0.0;0.0;0.0;0.0;1.0;1.0;1.0;1.0;0.0;0.0;1.0;1.0;1.0;1.0;1.0;1.0;1.0;1.0;file;ide;diff;6f
149;149_a3862fc69053415592fdfb43a903d56e568b89c3-FILE.arff;LP;1.0;1.0;1.0;0.0;0.0;0.0;0.0;1.0;1.0;1.0;1.0;0.0;0.0;1.0;1.0;1.0;1.0;1.0;1.0;1.0;1.0;file;ide;diff;6f
149;149_a3862fc69053415592fdfb43a903d56e568b89c3-FILE.arff;RAkELd;1.0;1.0;1.0;0.0;0.0;0.0;0.0;1.0;1.0;1.0;1.0;0.0;0.0;1.0;1.0;1.0;1.0;1.0;1.0;1.0;1.0;file;ide;diff;6f
7;7_7a7c87aedb9974d4b1f84ca4ab80dba640d0e0d4-FILE.arff;BR;2.0;2.0;1.0;0.0;0.0;0.0;0.0;2.0;1.0;0.0;0.0;0.0;0.0;2.0;1.0;0.5;0.5;1.0;1.0;0.6666666666666666;0.6666666666666666;file;ide;diff;8f
7;7_7a7c87aedb9974d4b1f84ca4ab80dba640d0e0d4-FILE.arff;LP;2.0;2.0;1.0;0.0;0.0;2.0;1.0;0.0;0.0;0.0;0.0;2.0;1.0;0.0;0.0;0.0;0.0;0.0;0.0;0.0;0.0;file;ide;diff;8f
7;7_7a7c87aedb9974d4b1f84ca4ab80dba640d0e0d4-FILE.arff;RAkELd;2.0;2.0;1.0;1.0;0.5;0.0;0.0;1.0;0.5;0.0;0.0;1.0;0.5;1.0;0.5;0.5;0.5;1.0;1.0;0.6666666666666666;0.6666666666666666;file;ide;diff;8f
11;11_9bf8b2fda3eb5feee5a8fa644dd2a559fea95fc5-FILE.arff;BR;1.0;1.0;1.0;0.0;0.0;0.0;0.0;1.0;1.0;0.0;0.0;0.0;0.0;1.0;1.0;0.5;0.5;1.0;1.0;0.6666666666666666;0.6666666666666666;file;ide;diff;8f
11;11_9bf8b2fda3eb5feee5a8fa644dd2a559fea95fc5-FILE.arff;LP;1.0;1.0;1.0;0.0;0.0;0.0;0.0;1.0;1.0;1.0;1.0;0.0;0.0;1.0;1.0;1.0;1.0;1.0;1.0;1.0;1.0;file;ide;diff;8f
11;11_9bf8b2fda3eb5feee5a8fa644dd2a559fea95fc5-FILE.arff;RAkELd;1.0;1.0;1.0;0.0;0.0;0.0;0.0;1.0;1.0;0.0;0.0;0.0;0.0;1.0;1.0;0.5;0.5;1.0;1.0;0.6666666666666666;0.6666666666666666;file;ide;diff;8f
14;14_71e4840ffd0f918a662de8f6dfe57fc3e81a4313-FILE.arff;BR;1.0;1.0;1.0;0.0;0.0;0.0;0.0;1.0;1.0;0.0;0.0;0.0;0.0;1.0;1.0;0.5;0.5;1.0;1.0;0.6666666666666666;0.6666666666666666;file;ide;diff;8f
14;14_71e4840ffd0f918a662de8f6dfe57fc3e81a4313-FILE.arff;LP;1.0;1.0;1.0;0.0;0.0;0.0;0.0;1.0;1.0;1.0;1.0;0.0;0.0;1.0;1.0;1.0;1.0;1.0;1.0;1.0;1.0;file;ide;diff;8f
14;14_71e4840ffd0f918a662de8f6dfe57fc3e81a4313-FILE.arff;RAkELd;1.0;1.0;1.0;0.0;0.0;0.0;0.0;1.0;1.0;0.0;0.0;0.0;0.0;1.0;1.0;0.5;0.5;1.0;1.0;0.6666666666666666;0.6666666666666666;file;ide;diff;8f
17;17_da3e20a4618706b4fefe6668860120973f261174-FILE.arff;BR;2.0;2.0;1.0;0.0;0.0;0.0;0.0;2.0;1.0;0.0;0.0;0.0;0.0;2.0;1.0;0.5;0.5;1.0;1.0;0.6666666666666666;0.6666666666666666;file;ide;diff;8f
17;17_da3e20a4618706b4fefe6668860120973f261174-FILE.arff;LP;2.0;2.0;1.0;0.0;0.0;0.0;0.0;2.0;1.0;2.0;1.0;0.0;0.0;2.0;1.0;1.0;1.0;1.0;1.0;1.0;1.0;file;ide;diff;8f
17;17_da3e20a4618706b4fefe6668860120973f261174-FILE.arff;RAkELd;2.0;2.0;1.0;1.0;0.5;0.0;0.0;1.0;0.5;0.0;0.0;1.0;0.5;1.0;0.5;0.5;0.5;1.0;1.0;0.6666666666666666;0.6666666666666666;file;ide;diff;8f
18;18_f9744676f5fc2b1cd17e1d529e834a1aa25baedb-FILE.arff;BR;2.0;2.0;1.0;0.0;0.0;0.0;0.0;2.0;1.0;0.0;0.0;0.0;0.0;2.0;1.0;0.5;0.5;1.0;1.0;0.6666666666666666;0.6666666666666666;file;ide;diff;8f
18;18_f9744676f5fc2b1cd17e1d529e834a1aa25baedb-FILE.arff;LP;2.0;2.0;1.0;0.0;0.0;0.0;0.0;2.0;1.0;2.0;1.0;0.0;0.0;2.0;1.0;1.0;1.0;1.0;1.0;1.0;1.0;file;ide;diff;8f
18;18_f9744676f5fc2b1cd17e1d529e834a1aa25baedb-FILE.arff;RAkELd;2.0;2.0;1.0;1.0;0.5;0.0;0.0;1.0;0.5;0.0;0.0;1.0;0.5;1.0;0.5;0.5;0.5;1.0;1.0;0.6666666666666666;0.6666666666666666;file;ide;diff;8f
19;19_8801d730480d660370094d13c6490c8ccd763ca8-FILE.arff;BR;1.0;1.0;1.0;0.0;0.0;0.0;0.0;1.0;1.0;0.0;0.0;0.0;0.0;1.0;1.0;0.5;0.5;1.0;1.0;0.6666666666666666;0.6666666666666666;file;ide;diff;8f
19;19_8801d730480d660370094d13c6490c8ccd763ca8-FILE.arff;LP;1.0;1.0;1.0;0.0;0.0;1.0;1.0;0.0;0.0;0.0;0.0;1.0;1.0;0.0;0.0;0.0;0.0;0.0;0.0;0.0;0.0;file;ide;diff;8f
19;19_8801d730480d660370094d13c6490c8ccd763ca8-FILE.arff;RAkELd;1.0;1.0;1.0;0.0;0.0;0.0;0.0;1.0;1.0;0.0;0.0;0.0;0.0;1.0;1.0;0.5;0.5;1.0;1.0;0.6666666666666666;0.6666666666666666;file;ide;diff;8f
20;20_efa08edd831faabee1ca5dae56561504f1435e16-FILE.arff;BR;2.0;2.0;1.0;0.0;0.0;0.0;0.0;2.0;1.0;0.0;0.0;0.0;0.0;2.0;1.0;0.5;0.5;1.0;1.0;0.6666666666666666;0.6666666666666666;file;ide;diff;8f
20;20_efa08edd831faabee1ca5dae56561504f1435e16-FILE.arff;LP;2.0;2.0;1.0;0.0;0.0;0.0;0.0;2.0;1.0;2.0;1.0;0.0;0.0;2.0;1.0;1.0;1.0;1.0;1.0;1.0;1.0;file;ide;diff;8f
20;20_efa08edd831faabee1ca5dae56561504f1435e16-FILE.arff;RAkELd;2.0;2.0;1.0;1.0;0.5;0.0;0.0;1.0;0.5;0.0;0.0;1.0;0.5;1.0;0.5;0.5;0.5;1.0;1.0;0.6666666666666666;0.6666666666666666;file;ide;diff;8f
30;30_ab8d7e7e99dce24a5499641314192b64a62bd045-FILE.arff;BR;1.0;1.0;1.0;0.0;0.0;0.0;0.0;1.0;1.0;0.0;0.0;0.0;0.0;1.0;1.0;0.5;0.5;1.0;1.0;0.6666666666666666;0.6666666666666666;file;ide;diff;8f
30;30_ab8d7e7e99dce24a5499641314192b64a62bd045-FILE.arff;LP;1.0;1.0;1.0;0.0;0.0;0.0;0.0;1.0;1.0;1.0;1.0;0.0;0.0;1.0;1.0;1.0;1.0;1.0;1.0;1.0;1.0;file;ide;diff;8f
30;30_ab8d7e7e99dce24a5499641314192b64a62bd045-FILE.arff;RAkELd;1.0;1.0;1.0;0.0;0.0;0.0;0.0;1.0;1.0;0.0;0.0;0.0;0.0;1.0;1.0;0.5;0.5;1.0;1.0;0.6666666666666666;0.6666666666666666;file;ide;diff;8f
31;31_746ef129fab6c2ec90fa3356a637c38e7aa460a7-FILE.arff;BR;1.0;1.0;1.0;0.0;0.0;0.0;0.0;1.0;1.0;0.0;0.0;0.0;0.0;1.0;1.0;0.5;0.5;1.0;1.0;0.6666666666666666;0.6666666666666666;file;ide;diff;8f
31;31_746ef129fab6c2ec90fa3356a637c38e7aa460a7-FILE.arff;LP;1.0;1.0;1.0;0.0;0.0;0.0;0.0;1.0;1.0;1.0;1.0;0.0;0.0;1.0;1.0;1.0;1.0;1.0;1.0;1.0;1.0;file;ide;diff;8f
31;31_746ef129fab6c2ec90fa3356a637c38e7aa460a7-FILE.arff;RAkELd;1.0;1.0;1.0;0.0;0.0;0.0;0.0;1.0;1.0;0.0;0.0;0.0;0.0;1.0;1.0;0.5;0.5;1.0;1.0;0.6666666666666666;0.6666666666666666;file;ide;diff;8f
37;37_a6f39393b82fcb801d316dedd94a191091db6ad5-FILE.arff;BR;2.0;2.0;1.0;0.0;0.0;0.0;0.0;2.0;1.0;0.0;0.0;0.0;0.0;2.0;1.0;0.5;0.5;1.0;1.0;0.6666666666666666;0.6666666666666666;file;ide;diff;8f
37;37_a6f39393b82fcb801d316dedd94a191091db6ad5-FILE.arff;LP;2.0;2.0;1.0;0.0;0.0;0.0;0.0;2.0;1.0;2.0;1.0;0.0;0.0;2.0;1.0;1.0;1.0;1.0;1.0;1.0;1.0;file;ide;diff;8f
37;37_a6f39393b82fcb801d316dedd94a191091db6ad5-FILE.arff;RAkELd;2.0;2.0;1.0;1.0;0.5;0.0;0.0;1.0;0.5;0.0;0.0;1.0;0.5;1.0;0.5;0.5;0.5;1.0;1.0;0.6666666666666666;0.6666666666666666;file;ide;diff;8f
46;46_0b8dd9dc6033b1155378977f10d881b602c0425e-FILE.arff;BR;1.0;1.0;1.0;0.0;0.0;0.0;0.0;1.0;1.0;0.0;0.0;0.0;0.0;1.0;1.0;0.5;0.5;1.0;1.0;0.6666666666666666;0.6666666666666666;file;ide;diff;8f
46;46_0b8dd9dc6033b1155378977f10d881b602c0425e-FILE.arff;LP;1.0;1.0;1.0;0.0;0.0;1.0;1.0;0.0;0.0;0.0;0.0;1.0;1.0;0.0;0.0;0.0;0.0;0.0;0.0;0.0;0.0;file;ide;diff;8f
46;46_0b8dd9dc6033b1155378977f10d881b602c0425e-FILE.arff;RAkELd;1.0;1.0;1.0;0.0;0.0;0.0;0.0;1.0;1.0;0.0;0.0;0.0;0.0;1.0;1.0;0.5;0.5;1.0;1.0;0.6666666666666666;0.6666666666666666;file;ide;diff;8f
50;50_7d889067b2c2113bd011f1386a6b8c12e453f650-FILE.arff;BR;1.0;1.0;1.0;0.0;0.0;0.0;0.0;1.0;1.0;0.0;0.0;0.0;0.0;1.0;1.0;0.5;0.5;1.0;1.0;0.6666666666666666;0.6666666666666666;file;ide;diff;8f
50;50_7d889067b2c2113bd011f1386a6b8c12e453f650-FILE.arff;LP;1.0;1.0;1.0;0.0;0.0;0.0;0.0;1.0;1.0;1.0;1.0;0.0;0.0;1.0;1.0;1.0;1.0;1.0;1.0;1.0;1.0;file;ide;diff;8f
50;50_7d889067b2c2113bd011f1386a6b8c12e453f650-FILE.arff;RAkELd;1.0;1.0;1.0;0.0;0.0;0.0;0.0;1.0;1.0;0.0;0.0;0.0;0.0;1.0;1.0;0.5;0.5;1.0;1.0;0.6666666666666666;0.6666666666666666;file;ide;diff;8f
51;51_dbafc437af6c2f4219f7294b50b1be51a8d0c729-FILE.arff;BR;1.0;1.0;1.0;0.0;0.0;0.0;0.0;1.0;1.0;0.0;0.0;0.0;0.0;1.0;1.0;0.5;0.5;1.0;1.0;0.6666666666666666;0.6666666666666666;file;ide;diff;8f
51;51_dbafc437af6c2f4219f7294b50b1be51a8d0c729-FILE.arff;LP;1.0;1.0;1.0;0.0;0.0;0.0;0.0;1.0;1.0;1.0;1.0;0.0;0.0;1.0;1.0;1.0;1.0;1.0;1.0;1.0;1.0;file;ide;diff;8f
51;51_dbafc437af6c2f4219f7294b50b1be51a8d0c729-FILE.arff;RAkELd;1.0;1.0;1.0;0.0;0.0;0.0;0.0;1.0;1.0;0.0;0.0;0.0;0.0;1.0;1.0;0.5;0.5;1.0;1.0;0.6666666666666666;0.6666666666666666;file;ide;diff;8f
52;52_21339b2f9739c5d801601cfc2a2c997196389e69-FILE.arff;BR;1.0;1.0;1.0;0.0;0.0;0.0;0.0;1.0;1.0;0.0;0.0;0.0;0.0;1.0;1.0;0.5;0.5;1.0;1.0;0.6666666666666666;0.6666666666666666;file;ide;diff;8f
52;52_21339b2f9739c5d801601cfc2a2c997196389e69-FILE.arff;LP;1.0;1.0;1.0;0.0;0.0;0.0;0.0;1.0;1.0;1.0;1.0;0.0;0.0;1.0;1.0;1.0;1.0;1.0;1.0;1.0;1.0;file;ide;diff;8f
52;52_21339b2f9739c5d801601cfc2a2c997196389e69-FILE.arff;RAkELd;1.0;1.0;1.0;0.0;0.0;0.0;0.0;1.0;1.0;0.0;0.0;0.0;0.0;1.0;1.0;0.5;0.5;1.0;1.0;0.6666666666666666;0.6666666666666666;file;ide;diff;8f
53;53_3844b6bd98df06f8bcb8ca905eae8e4b83d29fd6-FILE.arff;BR;3.0;3.0;1.0;0.0;0.0;3.0;1.0;0.0;0.0;0.0;0.0;3.0;1.0;0.0;0.0;0.0;0.0;0.0;0.0;0.0;0.0;file;ide;diff;8f
53;53_3844b6bd98df06f8bcb8ca905eae8e4b83d29fd6-FILE.arff;LP;3.0;3.0;1.0;0.0;0.0;3.0;1.0;0.0;0.0;0.0;0.0;3.0;1.0;0.0;0.0;0.0;0.0;0.0;0.0;0.0;0.0;file;ide;diff;8f
53;53_3844b6bd98df06f8bcb8ca905eae8e4b83d29fd6-FILE.arff;RAkELd;3.0;3.0;1.0;2.0;0.6666666666666666;1.0;0.3333333333333333;0.0;0.0;0.0;0.0;3.0;1.0;0.0;0.0;0.0;0.0;0.0;0.0;0.0;0.0;file;ide;diff;8f
55;55_cbc0de4f9ad2930d2b879b642f72e59416f9e977-FILE.arff;BR;5.0;5.0;1.0;5.0;1.0;0.0;0.0;0.0;0.0;0.0;0.0;5.0;1.0;0.0;0.0;0.0;0.0;0.0;0.0;0.0;0.0;file;ide;diff;8f
55;55_cbc0de4f9ad2930d2b879b642f72e59416f9e977-FILE.arff;LP;5.0;5.0;1.0;0.0;0.0;3.0;0.6;2.0;0.4;2.0;0.4;3.0;0.6;2.0;0.4;0.4;1.0;0.4;1.0;0.4;1.0;file;ide;diff;8f
55;55_cbc0de4f9ad2930d2b879b642f72e59416f9e977-FILE.arff;RAkELd;5.0;5.0;1.0;2.0;0.4;2.0;0.4;1.0;0.2;1.0;0.2;4.0;0.8;1.0;0.2;0.3333333333333333;1.0;0.3333333333333333;1.0;0.3333333333333333;1.0;file;ide;diff;8f
62;62_6fb26410e33b9aae4de58f33132efd09f4cd992c-FILE.arff;BR;1.0;1.0;1.0;1.0;1.0;0.0;0.0;0.0;0.0;0.0;0.0;1.0;1.0;0.0;0.0;0.0;0.0;0.0;0.0;0.0;0.0;file;ide;diff;8f
62;62_6fb26410e33b9aae4de58f33132efd09f4cd992c-FILE.arff;LP;1.0;1.0;1.0;0.0;0.0;1.0;1.0;0.0;0.0;0.0;0.0;1.0;1.0;0.0;0.0;0.0;0.0;0.0;0.0;0.0;0.0;file;ide;diff;8f
62;62_6fb26410e33b9aae4de58f33132efd09f4cd992c-FILE.arff;RAkELd;1.0;1.0;1.0;0.0;0.0;1.0;1.0;0.0;0.0;0.0;0.0;1.0;1.0;0.0;0.0;0.0;0.0;0.0;0.0;0.0;0.0;file;ide;diff;8f
64;64_b33605b07445d3258df8229a1e786dc5b4ab4a06-FILE.arff;BR;5.0;5.0;1.0;5.0;1.0;0.0;0.0;0.0;0.0;0.0;0.0;5.0;1.0;0.0;0.0;0.0;0.0;0.0;0.0;0.0;0.0;file;ide;diff;8f
64;64_b33605b07445d3258df8229a1e786dc5b4ab4a06-FILE.arff;LP;5.0;5.0;1.0;0.0;0.0;3.0;0.6;2.0;0.4;2.0;0.4;3.0;0.6;2.0;0.4;0.4;1.0;0.4;1.0;0.4;1.0;file;ide;diff;8f
64;64_b33605b07445d3258df8229a1e786dc5b4ab4a06-FILE.arff;RAkELd;5.0;5.0;1.0;2.0;0.4;2.0;0.4;1.0;0.2;1.0;0.2;4.0;0.8;1.0;0.2;0.3333333333333333;1.0;0.3333333333333333;1.0;0.3333333333333333;1.0;file;ide;diff;8f
65;65_a40b2b29bb20a3c1ec25b73360d6712cdb97cd98-FILE.arff;BR;5.0;5.0;1.0;5.0;1.0;0.0;0.0;0.0;0.0;0.0;0.0;5.0;1.0;0.0;0.0;0.0;0.0;0.0;0.0;0.0;0.0;file;ide;diff;8f
65;65_a40b2b29bb20a3c1ec25b73360d6712cdb97cd98-FILE.arff;LP;5.0;5.0;1.0;0.0;0.0;2.0;0.4;3.0;0.6;3.0;0.6;2.0;0.4;3.0;0.6;0.6;1.0;0.6;1.0;0.6;1.0;file;ide;diff;8f
65;65_a40b2b29bb20a3c1ec25b73360d6712cdb97cd98-FILE.arff;RAkELd;5.0;5.0;1.0;2.0;0.4;2.0;0.4;1.0;0.2;1.0;0.2;4.0;0.8;1.0;0.2;0.3333333333333333;1.0;0.3333333333333333;1.0;0.3333333333333333;1.0;file;ide;diff;8f
67;67_35a2e788ba2020b545bc456b3eeb002997bd445c-FILE.arff;BR;1.0;1.0;1.0;1.0;1.0;0.0;0.0;0.0;0.0;0.0;0.0;1.0;1.0;0.0;0.0;0.0;0.0;0.0;0.0;0.0;0.0;file;ide;diff;8f
67;67_35a2e788ba2020b545bc456b3eeb002997bd445c-FILE.arff;LP;1.0;1.0;1.0;0.0;0.0;1.0;1.0;0.0;0.0;0.0;0.0;1.0;1.0;0.0;0.0;0.0;0.0;0.0;0.0;0.0;0.0;file;ide;diff;8f
67;67_35a2e788ba2020b545bc456b3eeb002997bd445c-FILE.arff;RAkELd;1.0;1.0;1.0;0.0;0.0;1.0;1.0;0.0;0.0;0.0;0.0;1.0;1.0;0.0;0.0;0.0;0.0;0.0;0.0;0.0;0.0;file;ide;diff;8f
71;71_55fefc50a452222a65ad710429548b2b671fea98-FILE.arff;BR;1.0;1.0;1.0;1.0;1.0;0.0;0.0;0.0;0.0;0.0;0.0;1.0;1.0;0.0;0.0;0.0;0.0;0.0;0.0;0.0;0.0;file;ide;diff;8f
71;71_55fefc50a452222a65ad710429548b2b671fea98-FILE.arff;LP;1.0;1.0;1.0;0.0;0.0;0.0;0.0;1.0;1.0;1.0;1.0;0.0;0.0;1.0;1.0;1.0;1.0;1.0;1.0;1.0;1.0;file;ide;diff;8f
71;71_55fefc50a452222a65ad710429548b2b671fea98-FILE.arff;RAkELd;1.0;1.0;1.0;0.0;0.0;0.0;0.0;1.0;1.0;1.0;1.0;0.0;0.0;1.0;1.0;1.0;1.0;1.0;1.0;1.0;1.0;file;ide;diff;8f
75;75_13ec2a47ff332e9c1a1c642068d26a7fae43e5cb-FILE.arff;BR;2.0;2.0;1.0;2.0;1.0;0.0;0.0;0.0;0.0;0.0;0.0;2.0;1.0;0.0;0.0;0.0;0.0;0.0;0.0;0.0;0.0;file;ide;diff;8f
75;75_13ec2a47ff332e9c1a1c642068d26a7fae43e5cb-FILE.arff;LP;2.0;2.0;1.0;0.0;0.0;2.0;1.0;0.0;0.0;0.0;0.0;2.0;1.0;0.0;0.0;0.0;0.0;0.0;0.0;0.0;0.0;file;ide;diff;8f
75;75_13ec2a47ff332e9c1a1c642068d26a7fae43e5cb-FILE.arff;RAkELd;2.0;2.0;1.0;0.0;0.0;2.0;1.0;0.0;0.0;0.0;0.0;2.0;1.0;0.0;0.0;0.0;0.0;0.0;0.0;0.0;0.0;file;ide;diff;8f
76;76_3955fd03aad3b9ea6cc6e8fc5c6e421f9c90d79d-FILE.arff;BR;2.0;2.0;1.0;2.0;1.0;0.0;0.0;0.0;0.0;0.0;0.0;2.0;1.0;0.0;0.0;0.0;0.0;0.0;0.0;0.0;0.0;file;ide;diff;8f
76;76_3955fd03aad3b9ea6cc6e8fc5c6e421f9c90d79d-FILE.arff;LP;2.0;2.0;1.0;0.0;0.0;0.0;0.0;2.0;1.0;2.0;1.0;0.0;0.0;2.0;1.0;1.0;1.0;1.0;1.0;1.0;1.0;file;ide;diff;8f
76;76_3955fd03aad3b9ea6cc6e8fc5c6e421f9c90d79d-FILE.arff;RAkELd;2.0;2.0;1.0;0.0;0.0;1.0;0.5;1.0;0.5;1.0;0.5;1.0;0.5;1.0;0.5;0.5;1.0;0.5;1.0;0.5;1.0;file;ide;diff;8f
78;78_c5d04b9750c4053c726bd4950d1c78bedb75f8e7-FILE.arff;BR;1.0;1.0;1.0;1.0;1.0;0.0;0.0;0.0;0.0;0.0;0.0;1.0;1.0;0.0;0.0;0.0;0.0;0.0;0.0;0.0;0.0;file;ide;diff;8f
78;78_c5d04b9750c4053c726bd4950d1c78bedb75f8e7-FILE.arff;LP;1.0;1.0;1.0;0.0;0.0;1.0;1.0;0.0;0.0;0.0;0.0;1.0;1.0;0.0;0.0;0.0;0.0;0.0;0.0;0.0;0.0;file;ide;diff;8f
78;78_c5d04b9750c4053c726bd4950d1c78bedb75f8e7-FILE.arff;RAkELd;1.0;1.0;1.0;1.0;1.0;0.0;0.0;0.0;0.0;0.0;0.0;1.0;1.0;0.0;0.0;0.0;0.0;0.0;0.0;0.0;0.0;file;ide;diff;8f
79;79_04c38c3d1120e0d8b9741e41bd62cbdfa3109a65-FILE.arff;BR;1.0;1.0;1.0;1.0;1.0;0.0;0.0;0.0;0.0;0.0;0.0;1.0;1.0;0.0;0.0;0.0;0.0;0.0;0.0;0.0;0.0;file;ide;diff;8f
79;79_04c38c3d1120e0d8b9741e41bd62cbdfa3109a65-FILE.arff;LP;1.0;1.0;1.0;0.0;0.0;1.0;1.0;0.0;0.0;0.0;0.0;1.0;1.0;0.0;0.0;0.0;0.0;0.0;0.0;0.0;0.0;file;ide;diff;8f
79;79_04c38c3d1120e0d8b9741e41bd62cbdfa3109a65-FILE.arff;RAkELd;1.0;1.0;1.0;1.0;1.0;0.0;0.0;0.0;0.0;0.0;0.0;1.0;1.0;0.0;0.0;0.0;0.0;0.0;0.0;0.0;0.0;file;ide;diff;8f
80;80_3e1f7782b8b8f1d2b8ddabc9cbeeaa7d9c199e5f-FILE.arff;BR;1.0;1.0;1.0;1.0;1.0;0.0;0.0;0.0;0.0;0.0;0.0;1.0;1.0;0.0;0.0;0.0;0.0;0.0;0.0;0.0;0.0;file;ide;diff;8f
80;80_3e1f7782b8b8f1d2b8ddabc9cbeeaa7d9c199e5f-FILE.arff;LP;1.0;1.0;1.0;0.0;0.0;1.0;1.0;0.0;0.0;0.0;0.0;1.0;1.0;0.0;0.0;0.0;0.0;0.0;0.0;0.0;0.0;file;ide;diff;8f
80;80_3e1f7782b8b8f1d2b8ddabc9cbeeaa7d9c199e5f-FILE.arff;RAkELd;1.0;1.0;1.0;1.0;1.0;0.0;0.0;0.0;0.0;0.0;0.0;1.0;1.0;0.0;0.0;0.0;0.0;0.0;0.0;0.0;0.0;file;ide;diff;8f
95;95_45f1b327dadc5d5b562989a10b03eea5d185c64a-FILE.arff;BR;3.0;3.0;1.0;3.0;1.0;0.0;0.0;0.0;0.0;0.0;0.0;3.0;1.0;0.0;0.0;0.0;0.0;0.0;0.0;0.0;0.0;file;ide;diff;8f
95;95_45f1b327dadc5d5b562989a10b03eea5d185c64a-FILE.arff;LP;3.0;3.0;1.0;0.0;0.0;2.0;0.6666666666666666;1.0;0.3333333333333333;1.0;0.3333333333333333;2.0;0.6666666666666666;1.0;0.3333333333333333;0.3333333333333333;1.0;0.3333333333333333;1.0;0.3333333333333333;1.0;file;ide;diff;8f
95;95_45f1b327dadc5d5b562989a10b03eea5d185c64a-FILE.arff;RAkELd;3.0;3.0;1.0;3.0;1.0;0.0;0.0;0.0;0.0;0.0;0.0;3.0;1.0;0.0;0.0;0.0;0.0;0.0;0.0;0.0;0.0;file;ide;diff;8f
97;97_f1eabe4741d7789e41c57775baf4277a158350c6-FILE.arff;BR;2.0;2.0;1.0;2.0;1.0;0.0;0.0;0.0;0.0;0.0;0.0;2.0;1.0;0.0;0.0;0.0;0.0;0.0;0.0;0.0;0.0;file;ide;diff;8f
97;97_f1eabe4741d7789e41c57775baf4277a158350c6-FILE.arff;LP;2.0;2.0;1.0;0.0;0.0;2.0;1.0;0.0;0.0;0.0;0.0;2.0;1.0;0.0;0.0;0.0;0.0;0.0;0.0;0.0;0.0;file;ide;diff;8f
97;97_f1eabe4741d7789e41c57775baf4277a158350c6-FILE.arff;RAkELd;2.0;2.0;1.0;2.0;1.0;0.0;0.0;0.0;0.0;0.0;0.0;2.0;1.0;0.0;0.0;0.0;0.0;0.0;0.0;0.0;0.0;file;ide;diff;8f
139;139_b893fc56df181c0bd90303135564c28b90f3fb4d-FILE.arff;BR;1.0;1.0;1.0;1.0;1.0;0.0;0.0;0.0;0.0;0.0;0.0;1.0;1.0;0.0;0.0;0.0;0.0;0.0;0.0;0.0;0.0;file;ide;diff;8f
139;139_b893fc56df181c0bd90303135564c28b90f3fb4d-FILE.arff;LP;1.0;1.0;1.0;0.0;0.0;1.0;1.0;0.0;0.0;0.0;0.0;1.0;1.0;0.0;0.0;0.0;0.0;0.0;0.0;0.0;0.0;file;ide;diff;8f
139;139_b893fc56df181c0bd90303135564c28b90f3fb4d-FILE.arff;RAkELd;1.0;1.0;1.0;1.0;1.0;0.0;0.0;0.0;0.0;0.0;0.0;1.0;1.0;0.0;0.0;0.0;0.0;0.0;0.0;0.0;0.0;file;ide;diff;8f
143;143_e23e91c882cbfb52f47f5617e621459350f3fe38-FILE.arff;BR;1.0;1.0;1.0;1.0;1.0;0.0;0.0;0.0;0.0;0.0;0.0;1.0;1.0;0.0;0.0;0.0;0.0;0.0;0.0;0.0;0.0;file;ide;diff;8f
143;143_e23e91c882cbfb52f47f5617e621459350f3fe38-FILE.arff;LP;1.0;1.0;1.0;0.0;0.0;0.0;0.0;1.0;1.0;1.0;1.0;0.0;0.0;1.0;1.0;1.0;1.0;1.0;1.0;1.0;1.0;file;ide;diff;8f
143;143_e23e91c882cbfb52f47f5617e621459350f3fe38-FILE.arff;RAkELd;1.0;1.0;1.0;1.0;1.0;0.0;0.0;0.0;0.0;0.0;0.0;1.0;1.0;0.0;0.0;0.0;0.0;0.0;0.0;0.0;0.0;file;ide;diff;8f
146;146_91177058a0f52c25b501205a628e1f1e68b868d6-FILE.arff;BR;2.0;2.0;1.0;1.0;0.5;0.0;0.0;1.0;0.5;1.0;0.5;1.0;0.5;1.0;0.5;1.0;1.0;1.0;1.0;1.0;1.0;file;ide;diff;8f
146;146_91177058a0f52c25b501205a628e1f1e68b868d6-FILE.arff;LP;2.0;2.0;1.0;0.0;0.0;0.0;0.0;2.0;1.0;2.0;1.0;0.0;0.0;2.0;1.0;1.0;1.0;1.0;1.0;1.0;1.0;file;ide;diff;8f
146;146_91177058a0f52c25b501205a628e1f1e68b868d6-FILE.arff;RAkELd;2.0;2.0;1.0;1.0;0.5;0.0;0.0;1.0;0.5;1.0;0.5;1.0;0.5;1.0;0.5;1.0;1.0;1.0;1.0;1.0;1.0;file;ide;diff;8f
147;147_01955f4f4df4579405a8bb1868f60af30e9a028b-FILE.arff;BR;2.0;2.0;1.0;1.0;0.5;0.0;0.0;1.0;0.5;1.0;0.5;1.0;0.5;1.0;0.5;1.0;1.0;1.0;1.0;1.0;1.0;file;ide;diff;8f
147;147_01955f4f4df4579405a8bb1868f60af30e9a028b-FILE.arff;LP;2.0;2.0;1.0;0.0;0.0;1.0;0.5;1.0;0.5;1.0;0.5;1.0;0.5;1.0;0.5;0.5;1.0;0.5;1.0;0.5;1.0;file;ide;diff;8f
147;147_01955f4f4df4579405a8bb1868f60af30e9a028b-FILE.arff;RAkELd;2.0;2.0;1.0;1.0;0.5;0.0;0.0;1.0;0.5;1.0;0.5;1.0;0.5;1.0;0.5;1.0;1.0;1.0;1.0;1.0;1.0;file;ide;diff;8f
148;148_4cfd7fef412fb7e2bfb4e4cf6800400783e88901-FILE.arff;BR;1.0;1.0;1.0;0.0;0.0;0.0;0.0;1.0;1.0;1.0;1.0;0.0;0.0;1.0;1.0;1.0;1.0;1.0;1.0;1.0;1.0;file;ide;diff;8f
148;148_4cfd7fef412fb7e2bfb4e4cf6800400783e88901-FILE.arff;LP;1.0;1.0;1.0;0.0;0.0;0.0;0.0;1.0;1.0;1.0;1.0;0.0;0.0;1.0;1.0;1.0;1.0;1.0;1.0;1.0;1.0;file;ide;diff;8f
148;148_4cfd7fef412fb7e2bfb4e4cf6800400783e88901-FILE.arff;RAkELd;1.0;1.0;1.0;0.0;0.0;0.0;0.0;1.0;1.0;1.0;1.0;0.0;0.0;1.0;1.0;1.0;1.0;1.0;1.0;1.0;1.0;file;ide;diff;8f
149;149_a3862fc69053415592fdfb43a903d56e568b89c3-FILE.arff;BR;1.0;1.0;1.0;1.0;1.0;0.0;0.0;0.0;0.0;0.0;0.0;1.0;1.0;0.0;0.0;0.0;0.0;0.0;0.0;0.0;0.0;file;ide;diff;8f
149;149_a3862fc69053415592fdfb43a903d56e568b89c3-FILE.arff;LP;1.0;1.0;1.0;0.0;0.0;1.0;1.0;0.0;0.0;0.0;0.0;1.0;1.0;0.0;0.0;0.0;0.0;0.0;0.0;0.0;0.0;file;ide;diff;8f
149;149_a3862fc69053415592fdfb43a903d56e568b89c3-FILE.arff;RAkELd;1.0;1.0;1.0;1.0;1.0;0.0;0.0;0.0;0.0;0.0;0.0;1.0;1.0;0.0;0.0;0.0;0.0;0.0;0.0;0.0;0.0;file;ide;diff;8f
