commit;DataSet;Classifier;TotalInstances;InstancesWithRankedLabels;PercentageOfInstancesWithRankedLabels;InstancesWithPrecisionNull;PercentageOfInstancesWithPrecisionNull;InstancesWithPrecisionZero;PercentageOfInstancesWithPrecisionZero;InstancesWithPrecisionNonZero;PercentageOfInstancesWithPrecisionNonZero;InstancesWithPrecisionOne;PercentageOfInstancesWithPrecisionOne;InstancesWithRecallZero;PercentageOfInstancesWithRecallZero;InstancesWithRecallOne;PercentageOfInstancesWithRecallOne;AveragePrecisionForAllNonNullPrecision;AveragePrecisionForNonZeroPrecision;AverageRecallForAllNonNullPrecision;AverageRecallForAllNonZeroPrecision;AverageFScoreForAllNonNullPrecision;AverageFScoreForAllNonZeroPrecision;Level;project;clusters;feature;measure;measurevalue
7;7_7a7c87aedb9974d4b1f84ca4ab80dba640d0e0d4-FILE.arff;BR;2.0;2.0;1.0;0.0;0.0;0.0;0.0;2.0;1.0;0.0;0.0;0.0;0.0;2.0;1.0;0.5;0.5;1.0;1.0;0.6666666666666666;0.6666666666666666;file;ide;diff;8f;precision;0.5
7;7_7a7c87aedb9974d4b1f84ca4ab80dba640d0e0d4-FILE.arff;LP;2.0;2.0;1.0;0.0;0.0;2.0;1.0;0.0;0.0;0.0;0.0;2.0;1.0;0.0;0.0;0.0;0.0;0.0;0.0;0.0;0.0;file;ide;diff;8f;precision;0.0
7;7_7a7c87aedb9974d4b1f84ca4ab80dba640d0e0d4-FILE.arff;RAkELd;2.0;2.0;1.0;1.0;0.5;0.0;0.0;1.0;0.5;0.0;0.0;1.0;0.5;1.0;0.5;0.5;0.5;1.0;1.0;0.6666666666666666;0.6666666666666666;file;ide;diff;8f;precision;0.5
11;11_9bf8b2fda3eb5feee5a8fa644dd2a559fea95fc5-FILE.arff;BR;1.0;1.0;1.0;0.0;0.0;0.0;0.0;1.0;1.0;0.0;0.0;0.0;0.0;1.0;1.0;0.5;0.5;1.0;1.0;0.6666666666666666;0.6666666666666666;file;ide;diff;8f;precision;0.5
11;11_9bf8b2fda3eb5feee5a8fa644dd2a559fea95fc5-FILE.arff;LP;1.0;1.0;1.0;0.0;0.0;0.0;0.0;1.0;1.0;1.0;1.0;0.0;0.0;1.0;1.0;1.0;1.0;1.0;1.0;1.0;1.0;file;ide;diff;8f;precision;1.0
11;11_9bf8b2fda3eb5feee5a8fa644dd2a559fea95fc5-FILE.arff;RAkELd;1.0;1.0;1.0;0.0;0.0;0.0;0.0;1.0;1.0;0.0;0.0;0.0;0.0;1.0;1.0;0.5;0.5;1.0;1.0;0.6666666666666666;0.6666666666666666;file;ide;diff;8f;precision;0.5
14;14_71e4840ffd0f918a662de8f6dfe57fc3e81a4313-FILE.arff;BR;1.0;1.0;1.0;0.0;0.0;0.0;0.0;1.0;1.0;0.0;0.0;0.0;0.0;1.0;1.0;0.5;0.5;1.0;1.0;0.6666666666666666;0.6666666666666666;file;ide;diff;8f;precision;0.5
14;14_71e4840ffd0f918a662de8f6dfe57fc3e81a4313-FILE.arff;LP;1.0;1.0;1.0;0.0;0.0;0.0;0.0;1.0;1.0;1.0;1.0;0.0;0.0;1.0;1.0;1.0;1.0;1.0;1.0;1.0;1.0;file;ide;diff;8f;precision;1.0
14;14_71e4840ffd0f918a662de8f6dfe57fc3e81a4313-FILE.arff;RAkELd;1.0;1.0;1.0;0.0;0.0;0.0;0.0;1.0;1.0;0.0;0.0;0.0;0.0;1.0;1.0;0.5;0.5;1.0;1.0;0.6666666666666666;0.6666666666666666;file;ide;diff;8f;precision;0.5
17;17_da3e20a4618706b4fefe6668860120973f261174-FILE.arff;BR;2.0;2.0;1.0;0.0;0.0;0.0;0.0;2.0;1.0;0.0;0.0;0.0;0.0;2.0;1.0;0.5;0.5;1.0;1.0;0.6666666666666666;0.6666666666666666;file;ide;diff;8f;precision;0.5
17;17_da3e20a4618706b4fefe6668860120973f261174-FILE.arff;LP;2.0;2.0;1.0;0.0;0.0;0.0;0.0;2.0;1.0;2.0;1.0;0.0;0.0;2.0;1.0;1.0;1.0;1.0;1.0;1.0;1.0;file;ide;diff;8f;precision;1.0
17;17_da3e20a4618706b4fefe6668860120973f261174-FILE.arff;RAkELd;2.0;2.0;1.0;1.0;0.5;0.0;0.0;1.0;0.5;0.0;0.0;1.0;0.5;1.0;0.5;0.5;0.5;1.0;1.0;0.6666666666666666;0.6666666666666666;file;ide;diff;8f;precision;0.5
18;18_f9744676f5fc2b1cd17e1d529e834a1aa25baedb-FILE.arff;BR;2.0;2.0;1.0;0.0;0.0;0.0;0.0;2.0;1.0;0.0;0.0;0.0;0.0;2.0;1.0;0.5;0.5;1.0;1.0;0.6666666666666666;0.6666666666666666;file;ide;diff;8f;precision;0.5
18;18_f9744676f5fc2b1cd17e1d529e834a1aa25baedb-FILE.arff;LP;2.0;2.0;1.0;0.0;0.0;0.0;0.0;2.0;1.0;2.0;1.0;0.0;0.0;2.0;1.0;1.0;1.0;1.0;1.0;1.0;1.0;file;ide;diff;8f;precision;1.0
18;18_f9744676f5fc2b1cd17e1d529e834a1aa25baedb-FILE.arff;RAkELd;2.0;2.0;1.0;1.0;0.5;0.0;0.0;1.0;0.5;0.0;0.0;1.0;0.5;1.0;0.5;0.5;0.5;1.0;1.0;0.6666666666666666;0.6666666666666666;file;ide;diff;8f;precision;0.5
19;19_8801d730480d660370094d13c6490c8ccd763ca8-FILE.arff;BR;1.0;1.0;1.0;0.0;0.0;0.0;0.0;1.0;1.0;0.0;0.0;0.0;0.0;1.0;1.0;0.5;0.5;1.0;1.0;0.6666666666666666;0.6666666666666666;file;ide;diff;8f;precision;0.5
19;19_8801d730480d660370094d13c6490c8ccd763ca8-FILE.arff;LP;1.0;1.0;1.0;0.0;0.0;1.0;1.0;0.0;0.0;0.0;0.0;1.0;1.0;0.0;0.0;0.0;0.0;0.0;0.0;0.0;0.0;file;ide;diff;8f;precision;0.0
19;19_8801d730480d660370094d13c6490c8ccd763ca8-FILE.arff;RAkELd;1.0;1.0;1.0;0.0;0.0;0.0;0.0;1.0;1.0;0.0;0.0;0.0;0.0;1.0;1.0;0.5;0.5;1.0;1.0;0.6666666666666666;0.6666666666666666;file;ide;diff;8f;precision;0.5
20;20_efa08edd831faabee1ca5dae56561504f1435e16-FILE.arff;BR;2.0;2.0;1.0;0.0;0.0;0.0;0.0;2.0;1.0;0.0;0.0;0.0;0.0;2.0;1.0;0.5;0.5;1.0;1.0;0.6666666666666666;0.6666666666666666;file;ide;diff;8f;precision;0.5
20;20_efa08edd831faabee1ca5dae56561504f1435e16-FILE.arff;LP;2.0;2.0;1.0;0.0;0.0;0.0;0.0;2.0;1.0;2.0;1.0;0.0;0.0;2.0;1.0;1.0;1.0;1.0;1.0;1.0;1.0;file;ide;diff;8f;precision;1.0
20;20_efa08edd831faabee1ca5dae56561504f1435e16-FILE.arff;RAkELd;2.0;2.0;1.0;1.0;0.5;0.0;0.0;1.0;0.5;0.0;0.0;1.0;0.5;1.0;0.5;0.5;0.5;1.0;1.0;0.6666666666666666;0.6666666666666666;file;ide;diff;8f;precision;0.5
30;30_ab8d7e7e99dce24a5499641314192b64a62bd045-FILE.arff;BR;1.0;1.0;1.0;0.0;0.0;0.0;0.0;1.0;1.0;0.0;0.0;0.0;0.0;1.0;1.0;0.5;0.5;1.0;1.0;0.6666666666666666;0.6666666666666666;file;ide;diff;8f;precision;0.5
30;30_ab8d7e7e99dce24a5499641314192b64a62bd045-FILE.arff;LP;1.0;1.0;1.0;0.0;0.0;0.0;0.0;1.0;1.0;1.0;1.0;0.0;0.0;1.0;1.0;1.0;1.0;1.0;1.0;1.0;1.0;file;ide;diff;8f;precision;1.0
30;30_ab8d7e7e99dce24a5499641314192b64a62bd045-FILE.arff;RAkELd;1.0;1.0;1.0;0.0;0.0;0.0;0.0;1.0;1.0;0.0;0.0;0.0;0.0;1.0;1.0;0.5;0.5;1.0;1.0;0.6666666666666666;0.6666666666666666;file;ide;diff;8f;precision;0.5
31;31_746ef129fab6c2ec90fa3356a637c38e7aa460a7-FILE.arff;BR;1.0;1.0;1.0;0.0;0.0;0.0;0.0;1.0;1.0;0.0;0.0;0.0;0.0;1.0;1.0;0.5;0.5;1.0;1.0;0.6666666666666666;0.6666666666666666;file;ide;diff;8f;precision;0.5
31;31_746ef129fab6c2ec90fa3356a637c38e7aa460a7-FILE.arff;LP;1.0;1.0;1.0;0.0;0.0;0.0;0.0;1.0;1.0;1.0;1.0;0.0;0.0;1.0;1.0;1.0;1.0;1.0;1.0;1.0;1.0;file;ide;diff;8f;precision;1.0
31;31_746ef129fab6c2ec90fa3356a637c38e7aa460a7-FILE.arff;RAkELd;1.0;1.0;1.0;0.0;0.0;0.0;0.0;1.0;1.0;0.0;0.0;0.0;0.0;1.0;1.0;0.5;0.5;1.0;1.0;0.6666666666666666;0.6666666666666666;file;ide;diff;8f;precision;0.5
37;37_a6f39393b82fcb801d316dedd94a191091db6ad5-FILE.arff;BR;2.0;2.0;1.0;0.0;0.0;0.0;0.0;2.0;1.0;0.0;0.0;0.0;0.0;2.0;1.0;0.5;0.5;1.0;1.0;0.6666666666666666;0.6666666666666666;file;ide;diff;8f;precision;0.5
37;37_a6f39393b82fcb801d316dedd94a191091db6ad5-FILE.arff;LP;2.0;2.0;1.0;0.0;0.0;0.0;0.0;2.0;1.0;2.0;1.0;0.0;0.0;2.0;1.0;1.0;1.0;1.0;1.0;1.0;1.0;file;ide;diff;8f;precision;1.0
37;37_a6f39393b82fcb801d316dedd94a191091db6ad5-FILE.arff;RAkELd;2.0;2.0;1.0;1.0;0.5;0.0;0.0;1.0;0.5;0.0;0.0;1.0;0.5;1.0;0.5;0.5;0.5;1.0;1.0;0.6666666666666666;0.6666666666666666;file;ide;diff;8f;precision;0.5
46;46_0b8dd9dc6033b1155378977f10d881b602c0425e-FILE.arff;BR;1.0;1.0;1.0;0.0;0.0;0.0;0.0;1.0;1.0;0.0;0.0;0.0;0.0;1.0;1.0;0.5;0.5;1.0;1.0;0.6666666666666666;0.6666666666666666;file;ide;diff;8f;precision;0.5
46;46_0b8dd9dc6033b1155378977f10d881b602c0425e-FILE.arff;LP;1.0;1.0;1.0;0.0;0.0;1.0;1.0;0.0;0.0;0.0;0.0;1.0;1.0;0.0;0.0;0.0;0.0;0.0;0.0;0.0;0.0;file;ide;diff;8f;precision;0.0
46;46_0b8dd9dc6033b1155378977f10d881b602c0425e-FILE.arff;RAkELd;1.0;1.0;1.0;0.0;0.0;0.0;0.0;1.0;1.0;0.0;0.0;0.0;0.0;1.0;1.0;0.5;0.5;1.0;1.0;0.6666666666666666;0.6666666666666666;file;ide;diff;8f;precision;0.5
50;50_7d889067b2c2113bd011f1386a6b8c12e453f650-FILE.arff;BR;1.0;1.0;1.0;0.0;0.0;0.0;0.0;1.0;1.0;0.0;0.0;0.0;0.0;1.0;1.0;0.5;0.5;1.0;1.0;0.6666666666666666;0.6666666666666666;file;ide;diff;8f;precision;0.5
50;50_7d889067b2c2113bd011f1386a6b8c12e453f650-FILE.arff;LP;1.0;1.0;1.0;0.0;0.0;0.0;0.0;1.0;1.0;1.0;1.0;0.0;0.0;1.0;1.0;1.0;1.0;1.0;1.0;1.0;1.0;file;ide;diff;8f;precision;1.0
50;50_7d889067b2c2113bd011f1386a6b8c12e453f650-FILE.arff;RAkELd;1.0;1.0;1.0;0.0;0.0;0.0;0.0;1.0;1.0;0.0;0.0;0.0;0.0;1.0;1.0;0.5;0.5;1.0;1.0;0.6666666666666666;0.6666666666666666;file;ide;diff;8f;precision;0.5
51;51_dbafc437af6c2f4219f7294b50b1be51a8d0c729-FILE.arff;BR;1.0;1.0;1.0;0.0;0.0;0.0;0.0;1.0;1.0;0.0;0.0;0.0;0.0;1.0;1.0;0.5;0.5;1.0;1.0;0.6666666666666666;0.6666666666666666;file;ide;diff;8f;precision;0.5
51;51_dbafc437af6c2f4219f7294b50b1be51a8d0c729-FILE.arff;LP;1.0;1.0;1.0;0.0;0.0;0.0;0.0;1.0;1.0;1.0;1.0;0.0;0.0;1.0;1.0;1.0;1.0;1.0;1.0;1.0;1.0;file;ide;diff;8f;precision;1.0
51;51_dbafc437af6c2f4219f7294b50b1be51a8d0c729-FILE.arff;RAkELd;1.0;1.0;1.0;0.0;0.0;0.0;0.0;1.0;1.0;0.0;0.0;0.0;0.0;1.0;1.0;0.5;0.5;1.0;1.0;0.6666666666666666;0.6666666666666666;file;ide;diff;8f;precision;0.5
52;52_21339b2f9739c5d801601cfc2a2c997196389e69-FILE.arff;BR;1.0;1.0;1.0;0.0;0.0;0.0;0.0;1.0;1.0;0.0;0.0;0.0;0.0;1.0;1.0;0.5;0.5;1.0;1.0;0.6666666666666666;0.6666666666666666;file;ide;diff;8f;precision;0.5
52;52_21339b2f9739c5d801601cfc2a2c997196389e69-FILE.arff;LP;1.0;1.0;1.0;0.0;0.0;0.0;0.0;1.0;1.0;1.0;1.0;0.0;0.0;1.0;1.0;1.0;1.0;1.0;1.0;1.0;1.0;file;ide;diff;8f;precision;1.0
52;52_21339b2f9739c5d801601cfc2a2c997196389e69-FILE.arff;RAkELd;1.0;1.0;1.0;0.0;0.0;0.0;0.0;1.0;1.0;0.0;0.0;0.0;0.0;1.0;1.0;0.5;0.5;1.0;1.0;0.6666666666666666;0.6666666666666666;file;ide;diff;8f;precision;0.5
53;53_3844b6bd98df06f8bcb8ca905eae8e4b83d29fd6-FILE.arff;BR;3.0;3.0;1.0;0.0;0.0;3.0;1.0;0.0;0.0;0.0;0.0;3.0;1.0;0.0;0.0;0.0;0.0;0.0;0.0;0.0;0.0;file;ide;diff;8f;precision;0.0
53;53_3844b6bd98df06f8bcb8ca905eae8e4b83d29fd6-FILE.arff;LP;3.0;3.0;1.0;0.0;0.0;3.0;1.0;0.0;0.0;0.0;0.0;3.0;1.0;0.0;0.0;0.0;0.0;0.0;0.0;0.0;0.0;file;ide;diff;8f;precision;0.0
53;53_3844b6bd98df06f8bcb8ca905eae8e4b83d29fd6-FILE.arff;RAkELd;3.0;3.0;1.0;2.0;0.6666666666666666;1.0;0.3333333333333333;0.0;0.0;0.0;0.0;3.0;1.0;0.0;0.0;0.0;0.0;0.0;0.0;0.0;0.0;file;ide;diff;8f;precision;0.0
55;55_cbc0de4f9ad2930d2b879b642f72e59416f9e977-FILE.arff;BR;5.0;5.0;1.0;5.0;1.0;0.0;0.0;0.0;0.0;0.0;0.0;5.0;1.0;0.0;0.0;0.0;0.0;0.0;0.0;0.0;0.0;file;ide;diff;8f;precision;0.0
55;55_cbc0de4f9ad2930d2b879b642f72e59416f9e977-FILE.arff;LP;5.0;5.0;1.0;0.0;0.0;3.0;0.6;2.0;0.4;2.0;0.4;3.0;0.6;2.0;0.4;0.4;1.0;0.4;1.0;0.4;1.0;file;ide;diff;8f;precision;0.4
55;55_cbc0de4f9ad2930d2b879b642f72e59416f9e977-FILE.arff;RAkELd;5.0;5.0;1.0;2.0;0.4;2.0;0.4;1.0;0.2;1.0;0.2;4.0;0.8;1.0;0.2;0.3333333333333333;1.0;0.3333333333333333;1.0;0.3333333333333333;1.0;file;ide;diff;8f;precision;0.3333333333333333
62;62_6fb26410e33b9aae4de58f33132efd09f4cd992c-FILE.arff;BR;1.0;1.0;1.0;1.0;1.0;0.0;0.0;0.0;0.0;0.0;0.0;1.0;1.0;0.0;0.0;0.0;0.0;0.0;0.0;0.0;0.0;file;ide;diff;8f;precision;0.0
62;62_6fb26410e33b9aae4de58f33132efd09f4cd992c-FILE.arff;LP;1.0;1.0;1.0;0.0;0.0;1.0;1.0;0.0;0.0;0.0;0.0;1.0;1.0;0.0;0.0;0.0;0.0;0.0;0.0;0.0;0.0;file;ide;diff;8f;precision;0.0
62;62_6fb26410e33b9aae4de58f33132efd09f4cd992c-FILE.arff;RAkELd;1.0;1.0;1.0;0.0;0.0;1.0;1.0;0.0;0.0;0.0;0.0;1.0;1.0;0.0;0.0;0.0;0.0;0.0;0.0;0.0;0.0;file;ide;diff;8f;precision;0.0
64;64_b33605b07445d3258df8229a1e786dc5b4ab4a06-FILE.arff;BR;5.0;5.0;1.0;5.0;1.0;0.0;0.0;0.0;0.0;0.0;0.0;5.0;1.0;0.0;0.0;0.0;0.0;0.0;0.0;0.0;0.0;file;ide;diff;8f;precision;0.0
64;64_b33605b07445d3258df8229a1e786dc5b4ab4a06-FILE.arff;LP;5.0;5.0;1.0;0.0;0.0;3.0;0.6;2.0;0.4;2.0;0.4;3.0;0.6;2.0;0.4;0.4;1.0;0.4;1.0;0.4;1.0;file;ide;diff;8f;precision;0.4
64;64_b33605b07445d3258df8229a1e786dc5b4ab4a06-FILE.arff;RAkELd;5.0;5.0;1.0;2.0;0.4;2.0;0.4;1.0;0.2;1.0;0.2;4.0;0.8;1.0;0.2;0.3333333333333333;1.0;0.3333333333333333;1.0;0.3333333333333333;1.0;file;ide;diff;8f;precision;0.3333333333333333
65;65_a40b2b29bb20a3c1ec25b73360d6712cdb97cd98-FILE.arff;BR;5.0;5.0;1.0;5.0;1.0;0.0;0.0;0.0;0.0;0.0;0.0;5.0;1.0;0.0;0.0;0.0;0.0;0.0;0.0;0.0;0.0;file;ide;diff;8f;precision;0.0
65;65_a40b2b29bb20a3c1ec25b73360d6712cdb97cd98-FILE.arff;LP;5.0;5.0;1.0;0.0;0.0;2.0;0.4;3.0;0.6;3.0;0.6;2.0;0.4;3.0;0.6;0.6;1.0;0.6;1.0;0.6;1.0;file;ide;diff;8f;precision;0.6
65;65_a40b2b29bb20a3c1ec25b73360d6712cdb97cd98-FILE.arff;RAkELd;5.0;5.0;1.0;2.0;0.4;2.0;0.4;1.0;0.2;1.0;0.2;4.0;0.8;1.0;0.2;0.3333333333333333;1.0;0.3333333333333333;1.0;0.3333333333333333;1.0;file;ide;diff;8f;precision;0.3333333333333333
67;67_35a2e788ba2020b545bc456b3eeb002997bd445c-FILE.arff;BR;1.0;1.0;1.0;1.0;1.0;0.0;0.0;0.0;0.0;0.0;0.0;1.0;1.0;0.0;0.0;0.0;0.0;0.0;0.0;0.0;0.0;file;ide;diff;8f;precision;0.0
67;67_35a2e788ba2020b545bc456b3eeb002997bd445c-FILE.arff;LP;1.0;1.0;1.0;0.0;0.0;1.0;1.0;0.0;0.0;0.0;0.0;1.0;1.0;0.0;0.0;0.0;0.0;0.0;0.0;0.0;0.0;file;ide;diff;8f;precision;0.0
67;67_35a2e788ba2020b545bc456b3eeb002997bd445c-FILE.arff;RAkELd;1.0;1.0;1.0;0.0;0.0;1.0;1.0;0.0;0.0;0.0;0.0;1.0;1.0;0.0;0.0;0.0;0.0;0.0;0.0;0.0;0.0;file;ide;diff;8f;precision;0.0
71;71_55fefc50a452222a65ad710429548b2b671fea98-FILE.arff;BR;1.0;1.0;1.0;1.0;1.0;0.0;0.0;0.0;0.0;0.0;0.0;1.0;1.0;0.0;0.0;0.0;0.0;0.0;0.0;0.0;0.0;file;ide;diff;8f;precision;0.0
71;71_55fefc50a452222a65ad710429548b2b671fea98-FILE.arff;LP;1.0;1.0;1.0;0.0;0.0;0.0;0.0;1.0;1.0;1.0;1.0;0.0;0.0;1.0;1.0;1.0;1.0;1.0;1.0;1.0;1.0;file;ide;diff;8f;precision;1.0
71;71_55fefc50a452222a65ad710429548b2b671fea98-FILE.arff;RAkELd;1.0;1.0;1.0;0.0;0.0;0.0;0.0;1.0;1.0;1.0;1.0;0.0;0.0;1.0;1.0;1.0;1.0;1.0;1.0;1.0;1.0;file;ide;diff;8f;precision;1.0
75;75_13ec2a47ff332e9c1a1c642068d26a7fae43e5cb-FILE.arff;BR;2.0;2.0;1.0;2.0;1.0;0.0;0.0;0.0;0.0;0.0;0.0;2.0;1.0;0.0;0.0;0.0;0.0;0.0;0.0;0.0;0.0;file;ide;diff;8f;precision;0.0
75;75_13ec2a47ff332e9c1a1c642068d26a7fae43e5cb-FILE.arff;LP;2.0;2.0;1.0;0.0;0.0;2.0;1.0;0.0;0.0;0.0;0.0;2.0;1.0;0.0;0.0;0.0;0.0;0.0;0.0;0.0;0.0;file;ide;diff;8f;precision;0.0
75;75_13ec2a47ff332e9c1a1c642068d26a7fae43e5cb-FILE.arff;RAkELd;2.0;2.0;1.0;0.0;0.0;2.0;1.0;0.0;0.0;0.0;0.0;2.0;1.0;0.0;0.0;0.0;0.0;0.0;0.0;0.0;0.0;file;ide;diff;8f;precision;0.0
76;76_3955fd03aad3b9ea6cc6e8fc5c6e421f9c90d79d-FILE.arff;BR;2.0;2.0;1.0;2.0;1.0;0.0;0.0;0.0;0.0;0.0;0.0;2.0;1.0;0.0;0.0;0.0;0.0;0.0;0.0;0.0;0.0;file;ide;diff;8f;precision;0.0
76;76_3955fd03aad3b9ea6cc6e8fc5c6e421f9c90d79d-FILE.arff;LP;2.0;2.0;1.0;0.0;0.0;0.0;0.0;2.0;1.0;2.0;1.0;0.0;0.0;2.0;1.0;1.0;1.0;1.0;1.0;1.0;1.0;file;ide;diff;8f;precision;1.0
76;76_3955fd03aad3b9ea6cc6e8fc5c6e421f9c90d79d-FILE.arff;RAkELd;2.0;2.0;1.0;0.0;0.0;1.0;0.5;1.0;0.5;1.0;0.5;1.0;0.5;1.0;0.5;0.5;1.0;0.5;1.0;0.5;1.0;file;ide;diff;8f;precision;0.5
78;78_c5d04b9750c4053c726bd4950d1c78bedb75f8e7-FILE.arff;BR;1.0;1.0;1.0;1.0;1.0;0.0;0.0;0.0;0.0;0.0;0.0;1.0;1.0;0.0;0.0;0.0;0.0;0.0;0.0;0.0;0.0;file;ide;diff;8f;precision;0.0
78;78_c5d04b9750c4053c726bd4950d1c78bedb75f8e7-FILE.arff;LP;1.0;1.0;1.0;0.0;0.0;1.0;1.0;0.0;0.0;0.0;0.0;1.0;1.0;0.0;0.0;0.0;0.0;0.0;0.0;0.0;0.0;file;ide;diff;8f;precision;0.0
78;78_c5d04b9750c4053c726bd4950d1c78bedb75f8e7-FILE.arff;RAkELd;1.0;1.0;1.0;1.0;1.0;0.0;0.0;0.0;0.0;0.0;0.0;1.0;1.0;0.0;0.0;0.0;0.0;0.0;0.0;0.0;0.0;file;ide;diff;8f;precision;0.0
79;79_04c38c3d1120e0d8b9741e41bd62cbdfa3109a65-FILE.arff;BR;1.0;1.0;1.0;1.0;1.0;0.0;0.0;0.0;0.0;0.0;0.0;1.0;1.0;0.0;0.0;0.0;0.0;0.0;0.0;0.0;0.0;file;ide;diff;8f;precision;0.0
79;79_04c38c3d1120e0d8b9741e41bd62cbdfa3109a65-FILE.arff;LP;1.0;1.0;1.0;0.0;0.0;1.0;1.0;0.0;0.0;0.0;0.0;1.0;1.0;0.0;0.0;0.0;0.0;0.0;0.0;0.0;0.0;file;ide;diff;8f;precision;0.0
79;79_04c38c3d1120e0d8b9741e41bd62cbdfa3109a65-FILE.arff;RAkELd;1.0;1.0;1.0;1.0;1.0;0.0;0.0;0.0;0.0;0.0;0.0;1.0;1.0;0.0;0.0;0.0;0.0;0.0;0.0;0.0;0.0;file;ide;diff;8f;precision;0.0
80;80_3e1f7782b8b8f1d2b8ddabc9cbeeaa7d9c199e5f-FILE.arff;BR;1.0;1.0;1.0;1.0;1.0;0.0;0.0;0.0;0.0;0.0;0.0;1.0;1.0;0.0;0.0;0.0;0.0;0.0;0.0;0.0;0.0;file;ide;diff;8f;precision;0.0
80;80_3e1f7782b8b8f1d2b8ddabc9cbeeaa7d9c199e5f-FILE.arff;LP;1.0;1.0;1.0;0.0;0.0;1.0;1.0;0.0;0.0;0.0;0.0;1.0;1.0;0.0;0.0;0.0;0.0;0.0;0.0;0.0;0.0;file;ide;diff;8f;precision;0.0
80;80_3e1f7782b8b8f1d2b8ddabc9cbeeaa7d9c199e5f-FILE.arff;RAkELd;1.0;1.0;1.0;1.0;1.0;0.0;0.0;0.0;0.0;0.0;0.0;1.0;1.0;0.0;0.0;0.0;0.0;0.0;0.0;0.0;0.0;file;ide;diff;8f;precision;0.0
95;95_45f1b327dadc5d5b562989a10b03eea5d185c64a-FILE.arff;BR;3.0;3.0;1.0;3.0;1.0;0.0;0.0;0.0;0.0;0.0;0.0;3.0;1.0;0.0;0.0;0.0;0.0;0.0;0.0;0.0;0.0;file;ide;diff;8f;precision;0.0
95;95_45f1b327dadc5d5b562989a10b03eea5d185c64a-FILE.arff;LP;3.0;3.0;1.0;0.0;0.0;2.0;0.6666666666666666;1.0;0.3333333333333333;1.0;0.3333333333333333;2.0;0.6666666666666666;1.0;0.3333333333333333;0.3333333333333333;1.0;0.3333333333333333;1.0;0.3333333333333333;1.0;file;ide;diff;8f;precision;0.3333333333333333
95;95_45f1b327dadc5d5b562989a10b03eea5d185c64a-FILE.arff;RAkELd;3.0;3.0;1.0;3.0;1.0;0.0;0.0;0.0;0.0;0.0;0.0;3.0;1.0;0.0;0.0;0.0;0.0;0.0;0.0;0.0;0.0;file;ide;diff;8f;precision;0.0
97;97_f1eabe4741d7789e41c57775baf4277a158350c6-FILE.arff;BR;2.0;2.0;1.0;2.0;1.0;0.0;0.0;0.0;0.0;0.0;0.0;2.0;1.0;0.0;0.0;0.0;0.0;0.0;0.0;0.0;0.0;file;ide;diff;8f;precision;0.0
97;97_f1eabe4741d7789e41c57775baf4277a158350c6-FILE.arff;LP;2.0;2.0;1.0;0.0;0.0;2.0;1.0;0.0;0.0;0.0;0.0;2.0;1.0;0.0;0.0;0.0;0.0;0.0;0.0;0.0;0.0;file;ide;diff;8f;precision;0.0
97;97_f1eabe4741d7789e41c57775baf4277a158350c6-FILE.arff;RAkELd;2.0;2.0;1.0;2.0;1.0;0.0;0.0;0.0;0.0;0.0;0.0;2.0;1.0;0.0;0.0;0.0;0.0;0.0;0.0;0.0;0.0;file;ide;diff;8f;precision;0.0
139;139_b893fc56df181c0bd90303135564c28b90f3fb4d-FILE.arff;BR;1.0;1.0;1.0;1.0;1.0;0.0;0.0;0.0;0.0;0.0;0.0;1.0;1.0;0.0;0.0;0.0;0.0;0.0;0.0;0.0;0.0;file;ide;diff;8f;precision;0.0
139;139_b893fc56df181c0bd90303135564c28b90f3fb4d-FILE.arff;LP;1.0;1.0;1.0;0.0;0.0;1.0;1.0;0.0;0.0;0.0;0.0;1.0;1.0;0.0;0.0;0.0;0.0;0.0;0.0;0.0;0.0;file;ide;diff;8f;precision;0.0
139;139_b893fc56df181c0bd90303135564c28b90f3fb4d-FILE.arff;RAkELd;1.0;1.0;1.0;1.0;1.0;0.0;0.0;0.0;0.0;0.0;0.0;1.0;1.0;0.0;0.0;0.0;0.0;0.0;0.0;0.0;0.0;file;ide;diff;8f;precision;0.0
143;143_e23e91c882cbfb52f47f5617e621459350f3fe38-FILE.arff;BR;1.0;1.0;1.0;1.0;1.0;0.0;0.0;0.0;0.0;0.0;0.0;1.0;1.0;0.0;0.0;0.0;0.0;0.0;0.0;0.0;0.0;file;ide;diff;8f;precision;0.0
143;143_e23e91c882cbfb52f47f5617e621459350f3fe38-FILE.arff;LP;1.0;1.0;1.0;0.0;0.0;0.0;0.0;1.0;1.0;1.0;1.0;0.0;0.0;1.0;1.0;1.0;1.0;1.0;1.0;1.0;1.0;file;ide;diff;8f;precision;1.0
143;143_e23e91c882cbfb52f47f5617e621459350f3fe38-FILE.arff;RAkELd;1.0;1.0;1.0;1.0;1.0;0.0;0.0;0.0;0.0;0.0;0.0;1.0;1.0;0.0;0.0;0.0;0.0;0.0;0.0;0.0;0.0;file;ide;diff;8f;precision;0.0
146;146_91177058a0f52c25b501205a628e1f1e68b868d6-FILE.arff;BR;2.0;2.0;1.0;1.0;0.5;0.0;0.0;1.0;0.5;1.0;0.5;1.0;0.5;1.0;0.5;1.0;1.0;1.0;1.0;1.0;1.0;file;ide;diff;8f;precision;1.0
146;146_91177058a0f52c25b501205a628e1f1e68b868d6-FILE.arff;LP;2.0;2.0;1.0;0.0;0.0;0.0;0.0;2.0;1.0;2.0;1.0;0.0;0.0;2.0;1.0;1.0;1.0;1.0;1.0;1.0;1.0;file;ide;diff;8f;precision;1.0
146;146_91177058a0f52c25b501205a628e1f1e68b868d6-FILE.arff;RAkELd;2.0;2.0;1.0;1.0;0.5;0.0;0.0;1.0;0.5;1.0;0.5;1.0;0.5;1.0;0.5;1.0;1.0;1.0;1.0;1.0;1.0;file;ide;diff;8f;precision;1.0
147;147_01955f4f4df4579405a8bb1868f60af30e9a028b-FILE.arff;BR;2.0;2.0;1.0;1.0;0.5;0.0;0.0;1.0;0.5;1.0;0.5;1.0;0.5;1.0;0.5;1.0;1.0;1.0;1.0;1.0;1.0;file;ide;diff;8f;precision;1.0
147;147_01955f4f4df4579405a8bb1868f60af30e9a028b-FILE.arff;LP;2.0;2.0;1.0;0.0;0.0;1.0;0.5;1.0;0.5;1.0;0.5;1.0;0.5;1.0;0.5;0.5;1.0;0.5;1.0;0.5;1.0;file;ide;diff;8f;precision;0.5
147;147_01955f4f4df4579405a8bb1868f60af30e9a028b-FILE.arff;RAkELd;2.0;2.0;1.0;1.0;0.5;0.0;0.0;1.0;0.5;1.0;0.5;1.0;0.5;1.0;0.5;1.0;1.0;1.0;1.0;1.0;1.0;file;ide;diff;8f;precision;1.0
148;148_4cfd7fef412fb7e2bfb4e4cf6800400783e88901-FILE.arff;BR;1.0;1.0;1.0;0.0;0.0;0.0;0.0;1.0;1.0;1.0;1.0;0.0;0.0;1.0;1.0;1.0;1.0;1.0;1.0;1.0;1.0;file;ide;diff;8f;precision;1.0
148;148_4cfd7fef412fb7e2bfb4e4cf6800400783e88901-FILE.arff;LP;1.0;1.0;1.0;0.0;0.0;0.0;0.0;1.0;1.0;1.0;1.0;0.0;0.0;1.0;1.0;1.0;1.0;1.0;1.0;1.0;1.0;file;ide;diff;8f;precision;1.0
148;148_4cfd7fef412fb7e2bfb4e4cf6800400783e88901-FILE.arff;RAkELd;1.0;1.0;1.0;0.0;0.0;0.0;0.0;1.0;1.0;1.0;1.0;0.0;0.0;1.0;1.0;1.0;1.0;1.0;1.0;1.0;1.0;file;ide;diff;8f;precision;1.0
149;149_a3862fc69053415592fdfb43a903d56e568b89c3-FILE.arff;BR;1.0;1.0;1.0;1.0;1.0;0.0;0.0;0.0;0.0;0.0;0.0;1.0;1.0;0.0;0.0;0.0;0.0;0.0;0.0;0.0;0.0;file;ide;diff;8f;precision;0.0
149;149_a3862fc69053415592fdfb43a903d56e568b89c3-FILE.arff;LP;1.0;1.0;1.0;0.0;0.0;1.0;1.0;0.0;0.0;0.0;0.0;1.0;1.0;0.0;0.0;0.0;0.0;0.0;0.0;0.0;0.0;file;ide;diff;8f;precision;0.0
149;149_a3862fc69053415592fdfb43a903d56e568b89c3-FILE.arff;RAkELd;1.0;1.0;1.0;1.0;1.0;0.0;0.0;0.0;0.0;0.0;0.0;1.0;1.0;0.0;0.0;0.0;0.0;0.0;0.0;0.0;0.0;file;ide;diff;8f;precision;0.0
7;7_7a7c87aedb9974d4b1f84ca4ab80dba640d0e0d4-FILE.arff;BR;2.0;2.0;1.0;0.0;0.0;0.0;0.0;2.0;1.0;0.0;0.0;0.0;0.0;2.0;1.0;0.5;0.5;1.0;1.0;0.6666666666666666;0.6666666666666666;file;ide;diff;8f;recall;1.0
7;7_7a7c87aedb9974d4b1f84ca4ab80dba640d0e0d4-FILE.arff;LP;2.0;2.0;1.0;0.0;0.0;2.0;1.0;0.0;0.0;0.0;0.0;2.0;1.0;0.0;0.0;0.0;0.0;0.0;0.0;0.0;0.0;file;ide;diff;8f;recall;0.0
7;7_7a7c87aedb9974d4b1f84ca4ab80dba640d0e0d4-FILE.arff;RAkELd;2.0;2.0;1.0;1.0;0.5;0.0;0.0;1.0;0.5;0.0;0.0;1.0;0.5;1.0;0.5;0.5;0.5;1.0;1.0;0.6666666666666666;0.6666666666666666;file;ide;diff;8f;recall;1.0
11;11_9bf8b2fda3eb5feee5a8fa644dd2a559fea95fc5-FILE.arff;BR;1.0;1.0;1.0;0.0;0.0;0.0;0.0;1.0;1.0;0.0;0.0;0.0;0.0;1.0;1.0;0.5;0.5;1.0;1.0;0.6666666666666666;0.6666666666666666;file;ide;diff;8f;recall;1.0
11;11_9bf8b2fda3eb5feee5a8fa644dd2a559fea95fc5-FILE.arff;LP;1.0;1.0;1.0;0.0;0.0;0.0;0.0;1.0;1.0;1.0;1.0;0.0;0.0;1.0;1.0;1.0;1.0;1.0;1.0;1.0;1.0;file;ide;diff;8f;recall;1.0
11;11_9bf8b2fda3eb5feee5a8fa644dd2a559fea95fc5-FILE.arff;RAkELd;1.0;1.0;1.0;0.0;0.0;0.0;0.0;1.0;1.0;0.0;0.0;0.0;0.0;1.0;1.0;0.5;0.5;1.0;1.0;0.6666666666666666;0.6666666666666666;file;ide;diff;8f;recall;1.0
14;14_71e4840ffd0f918a662de8f6dfe57fc3e81a4313-FILE.arff;BR;1.0;1.0;1.0;0.0;0.0;0.0;0.0;1.0;1.0;0.0;0.0;0.0;0.0;1.0;1.0;0.5;0.5;1.0;1.0;0.6666666666666666;0.6666666666666666;file;ide;diff;8f;recall;1.0
14;14_71e4840ffd0f918a662de8f6dfe57fc3e81a4313-FILE.arff;LP;1.0;1.0;1.0;0.0;0.0;0.0;0.0;1.0;1.0;1.0;1.0;0.0;0.0;1.0;1.0;1.0;1.0;1.0;1.0;1.0;1.0;file;ide;diff;8f;recall;1.0
14;14_71e4840ffd0f918a662de8f6dfe57fc3e81a4313-FILE.arff;RAkELd;1.0;1.0;1.0;0.0;0.0;0.0;0.0;1.0;1.0;0.0;0.0;0.0;0.0;1.0;1.0;0.5;0.5;1.0;1.0;0.6666666666666666;0.6666666666666666;file;ide;diff;8f;recall;1.0
17;17_da3e20a4618706b4fefe6668860120973f261174-FILE.arff;BR;2.0;2.0;1.0;0.0;0.0;0.0;0.0;2.0;1.0;0.0;0.0;0.0;0.0;2.0;1.0;0.5;0.5;1.0;1.0;0.6666666666666666;0.6666666666666666;file;ide;diff;8f;recall;1.0
17;17_da3e20a4618706b4fefe6668860120973f261174-FILE.arff;LP;2.0;2.0;1.0;0.0;0.0;0.0;0.0;2.0;1.0;2.0;1.0;0.0;0.0;2.0;1.0;1.0;1.0;1.0;1.0;1.0;1.0;file;ide;diff;8f;recall;1.0
17;17_da3e20a4618706b4fefe6668860120973f261174-FILE.arff;RAkELd;2.0;2.0;1.0;1.0;0.5;0.0;0.0;1.0;0.5;0.0;0.0;1.0;0.5;1.0;0.5;0.5;0.5;1.0;1.0;0.6666666666666666;0.6666666666666666;file;ide;diff;8f;recall;1.0
18;18_f9744676f5fc2b1cd17e1d529e834a1aa25baedb-FILE.arff;BR;2.0;2.0;1.0;0.0;0.0;0.0;0.0;2.0;1.0;0.0;0.0;0.0;0.0;2.0;1.0;0.5;0.5;1.0;1.0;0.6666666666666666;0.6666666666666666;file;ide;diff;8f;recall;1.0
18;18_f9744676f5fc2b1cd17e1d529e834a1aa25baedb-FILE.arff;LP;2.0;2.0;1.0;0.0;0.0;0.0;0.0;2.0;1.0;2.0;1.0;0.0;0.0;2.0;1.0;1.0;1.0;1.0;1.0;1.0;1.0;file;ide;diff;8f;recall;1.0
18;18_f9744676f5fc2b1cd17e1d529e834a1aa25baedb-FILE.arff;RAkELd;2.0;2.0;1.0;1.0;0.5;0.0;0.0;1.0;0.5;0.0;0.0;1.0;0.5;1.0;0.5;0.5;0.5;1.0;1.0;0.6666666666666666;0.6666666666666666;file;ide;diff;8f;recall;1.0
19;19_8801d730480d660370094d13c6490c8ccd763ca8-FILE.arff;BR;1.0;1.0;1.0;0.0;0.0;0.0;0.0;1.0;1.0;0.0;0.0;0.0;0.0;1.0;1.0;0.5;0.5;1.0;1.0;0.6666666666666666;0.6666666666666666;file;ide;diff;8f;recall;1.0
19;19_8801d730480d660370094d13c6490c8ccd763ca8-FILE.arff;LP;1.0;1.0;1.0;0.0;0.0;1.0;1.0;0.0;0.0;0.0;0.0;1.0;1.0;0.0;0.0;0.0;0.0;0.0;0.0;0.0;0.0;file;ide;diff;8f;recall;0.0
19;19_8801d730480d660370094d13c6490c8ccd763ca8-FILE.arff;RAkELd;1.0;1.0;1.0;0.0;0.0;0.0;0.0;1.0;1.0;0.0;0.0;0.0;0.0;1.0;1.0;0.5;0.5;1.0;1.0;0.6666666666666666;0.6666666666666666;file;ide;diff;8f;recall;1.0
20;20_efa08edd831faabee1ca5dae56561504f1435e16-FILE.arff;BR;2.0;2.0;1.0;0.0;0.0;0.0;0.0;2.0;1.0;0.0;0.0;0.0;0.0;2.0;1.0;0.5;0.5;1.0;1.0;0.6666666666666666;0.6666666666666666;file;ide;diff;8f;recall;1.0
20;20_efa08edd831faabee1ca5dae56561504f1435e16-FILE.arff;LP;2.0;2.0;1.0;0.0;0.0;0.0;0.0;2.0;1.0;2.0;1.0;0.0;0.0;2.0;1.0;1.0;1.0;1.0;1.0;1.0;1.0;file;ide;diff;8f;recall;1.0
20;20_efa08edd831faabee1ca5dae56561504f1435e16-FILE.arff;RAkELd;2.0;2.0;1.0;1.0;0.5;0.0;0.0;1.0;0.5;0.0;0.0;1.0;0.5;1.0;0.5;0.5;0.5;1.0;1.0;0.6666666666666666;0.6666666666666666;file;ide;diff;8f;recall;1.0
30;30_ab8d7e7e99dce24a5499641314192b64a62bd045-FILE.arff;BR;1.0;1.0;1.0;0.0;0.0;0.0;0.0;1.0;1.0;0.0;0.0;0.0;0.0;1.0;1.0;0.5;0.5;1.0;1.0;0.6666666666666666;0.6666666666666666;file;ide;diff;8f;recall;1.0
30;30_ab8d7e7e99dce24a5499641314192b64a62bd045-FILE.arff;LP;1.0;1.0;1.0;0.0;0.0;0.0;0.0;1.0;1.0;1.0;1.0;0.0;0.0;1.0;1.0;1.0;1.0;1.0;1.0;1.0;1.0;file;ide;diff;8f;recall;1.0
30;30_ab8d7e7e99dce24a5499641314192b64a62bd045-FILE.arff;RAkELd;1.0;1.0;1.0;0.0;0.0;0.0;0.0;1.0;1.0;0.0;0.0;0.0;0.0;1.0;1.0;0.5;0.5;1.0;1.0;0.6666666666666666;0.6666666666666666;file;ide;diff;8f;recall;1.0
31;31_746ef129fab6c2ec90fa3356a637c38e7aa460a7-FILE.arff;BR;1.0;1.0;1.0;0.0;0.0;0.0;0.0;1.0;1.0;0.0;0.0;0.0;0.0;1.0;1.0;0.5;0.5;1.0;1.0;0.6666666666666666;0.6666666666666666;file;ide;diff;8f;recall;1.0
31;31_746ef129fab6c2ec90fa3356a637c38e7aa460a7-FILE.arff;LP;1.0;1.0;1.0;0.0;0.0;0.0;0.0;1.0;1.0;1.0;1.0;0.0;0.0;1.0;1.0;1.0;1.0;1.0;1.0;1.0;1.0;file;ide;diff;8f;recall;1.0
31;31_746ef129fab6c2ec90fa3356a637c38e7aa460a7-FILE.arff;RAkELd;1.0;1.0;1.0;0.0;0.0;0.0;0.0;1.0;1.0;0.0;0.0;0.0;0.0;1.0;1.0;0.5;0.5;1.0;1.0;0.6666666666666666;0.6666666666666666;file;ide;diff;8f;recall;1.0
37;37_a6f39393b82fcb801d316dedd94a191091db6ad5-FILE.arff;BR;2.0;2.0;1.0;0.0;0.0;0.0;0.0;2.0;1.0;0.0;0.0;0.0;0.0;2.0;1.0;0.5;0.5;1.0;1.0;0.6666666666666666;0.6666666666666666;file;ide;diff;8f;recall;1.0
37;37_a6f39393b82fcb801d316dedd94a191091db6ad5-FILE.arff;LP;2.0;2.0;1.0;0.0;0.0;0.0;0.0;2.0;1.0;2.0;1.0;0.0;0.0;2.0;1.0;1.0;1.0;1.0;1.0;1.0;1.0;file;ide;diff;8f;recall;1.0
37;37_a6f39393b82fcb801d316dedd94a191091db6ad5-FILE.arff;RAkELd;2.0;2.0;1.0;1.0;0.5;0.0;0.0;1.0;0.5;0.0;0.0;1.0;0.5;1.0;0.5;0.5;0.5;1.0;1.0;0.6666666666666666;0.6666666666666666;file;ide;diff;8f;recall;1.0
46;46_0b8dd9dc6033b1155378977f10d881b602c0425e-FILE.arff;BR;1.0;1.0;1.0;0.0;0.0;0.0;0.0;1.0;1.0;0.0;0.0;0.0;0.0;1.0;1.0;0.5;0.5;1.0;1.0;0.6666666666666666;0.6666666666666666;file;ide;diff;8f;recall;1.0
46;46_0b8dd9dc6033b1155378977f10d881b602c0425e-FILE.arff;LP;1.0;1.0;1.0;0.0;0.0;1.0;1.0;0.0;0.0;0.0;0.0;1.0;1.0;0.0;0.0;0.0;0.0;0.0;0.0;0.0;0.0;file;ide;diff;8f;recall;0.0
46;46_0b8dd9dc6033b1155378977f10d881b602c0425e-FILE.arff;RAkELd;1.0;1.0;1.0;0.0;0.0;0.0;0.0;1.0;1.0;0.0;0.0;0.0;0.0;1.0;1.0;0.5;0.5;1.0;1.0;0.6666666666666666;0.6666666666666666;file;ide;diff;8f;recall;1.0
50;50_7d889067b2c2113bd011f1386a6b8c12e453f650-FILE.arff;BR;1.0;1.0;1.0;0.0;0.0;0.0;0.0;1.0;1.0;0.0;0.0;0.0;0.0;1.0;1.0;0.5;0.5;1.0;1.0;0.6666666666666666;0.6666666666666666;file;ide;diff;8f;recall;1.0
50;50_7d889067b2c2113bd011f1386a6b8c12e453f650-FILE.arff;LP;1.0;1.0;1.0;0.0;0.0;0.0;0.0;1.0;1.0;1.0;1.0;0.0;0.0;1.0;1.0;1.0;1.0;1.0;1.0;1.0;1.0;file;ide;diff;8f;recall;1.0
50;50_7d889067b2c2113bd011f1386a6b8c12e453f650-FILE.arff;RAkELd;1.0;1.0;1.0;0.0;0.0;0.0;0.0;1.0;1.0;0.0;0.0;0.0;0.0;1.0;1.0;0.5;0.5;1.0;1.0;0.6666666666666666;0.6666666666666666;file;ide;diff;8f;recall;1.0
51;51_dbafc437af6c2f4219f7294b50b1be51a8d0c729-FILE.arff;BR;1.0;1.0;1.0;0.0;0.0;0.0;0.0;1.0;1.0;0.0;0.0;0.0;0.0;1.0;1.0;0.5;0.5;1.0;1.0;0.6666666666666666;0.6666666666666666;file;ide;diff;8f;recall;1.0
51;51_dbafc437af6c2f4219f7294b50b1be51a8d0c729-FILE.arff;LP;1.0;1.0;1.0;0.0;0.0;0.0;0.0;1.0;1.0;1.0;1.0;0.0;0.0;1.0;1.0;1.0;1.0;1.0;1.0;1.0;1.0;file;ide;diff;8f;recall;1.0
51;51_dbafc437af6c2f4219f7294b50b1be51a8d0c729-FILE.arff;RAkELd;1.0;1.0;1.0;0.0;0.0;0.0;0.0;1.0;1.0;0.0;0.0;0.0;0.0;1.0;1.0;0.5;0.5;1.0;1.0;0.6666666666666666;0.6666666666666666;file;ide;diff;8f;recall;1.0
52;52_21339b2f9739c5d801601cfc2a2c997196389e69-FILE.arff;BR;1.0;1.0;1.0;0.0;0.0;0.0;0.0;1.0;1.0;0.0;0.0;0.0;0.0;1.0;1.0;0.5;0.5;1.0;1.0;0.6666666666666666;0.6666666666666666;file;ide;diff;8f;recall;1.0
52;52_21339b2f9739c5d801601cfc2a2c997196389e69-FILE.arff;LP;1.0;1.0;1.0;0.0;0.0;0.0;0.0;1.0;1.0;1.0;1.0;0.0;0.0;1.0;1.0;1.0;1.0;1.0;1.0;1.0;1.0;file;ide;diff;8f;recall;1.0
52;52_21339b2f9739c5d801601cfc2a2c997196389e69-FILE.arff;RAkELd;1.0;1.0;1.0;0.0;0.0;0.0;0.0;1.0;1.0;0.0;0.0;0.0;0.0;1.0;1.0;0.5;0.5;1.0;1.0;0.6666666666666666;0.6666666666666666;file;ide;diff;8f;recall;1.0
53;53_3844b6bd98df06f8bcb8ca905eae8e4b83d29fd6-FILE.arff;BR;3.0;3.0;1.0;0.0;0.0;3.0;1.0;0.0;0.0;0.0;0.0;3.0;1.0;0.0;0.0;0.0;0.0;0.0;0.0;0.0;0.0;file;ide;diff;8f;recall;0.0
53;53_3844b6bd98df06f8bcb8ca905eae8e4b83d29fd6-FILE.arff;LP;3.0;3.0;1.0;0.0;0.0;3.0;1.0;0.0;0.0;0.0;0.0;3.0;1.0;0.0;0.0;0.0;0.0;0.0;0.0;0.0;0.0;file;ide;diff;8f;recall;0.0
53;53_3844b6bd98df06f8bcb8ca905eae8e4b83d29fd6-FILE.arff;RAkELd;3.0;3.0;1.0;2.0;0.6666666666666666;1.0;0.3333333333333333;0.0;0.0;0.0;0.0;3.0;1.0;0.0;0.0;0.0;0.0;0.0;0.0;0.0;0.0;file;ide;diff;8f;recall;0.0
55;55_cbc0de4f9ad2930d2b879b642f72e59416f9e977-FILE.arff;BR;5.0;5.0;1.0;5.0;1.0;0.0;0.0;0.0;0.0;0.0;0.0;5.0;1.0;0.0;0.0;0.0;0.0;0.0;0.0;0.0;0.0;file;ide;diff;8f;recall;0.0
55;55_cbc0de4f9ad2930d2b879b642f72e59416f9e977-FILE.arff;LP;5.0;5.0;1.0;0.0;0.0;3.0;0.6;2.0;0.4;2.0;0.4;3.0;0.6;2.0;0.4;0.4;1.0;0.4;1.0;0.4;1.0;file;ide;diff;8f;recall;0.4
55;55_cbc0de4f9ad2930d2b879b642f72e59416f9e977-FILE.arff;RAkELd;5.0;5.0;1.0;2.0;0.4;2.0;0.4;1.0;0.2;1.0;0.2;4.0;0.8;1.0;0.2;0.3333333333333333;1.0;0.3333333333333333;1.0;0.3333333333333333;1.0;file;ide;diff;8f;recall;0.3333333333333333
62;62_6fb26410e33b9aae4de58f33132efd09f4cd992c-FILE.arff;BR;1.0;1.0;1.0;1.0;1.0;0.0;0.0;0.0;0.0;0.0;0.0;1.0;1.0;0.0;0.0;0.0;0.0;0.0;0.0;0.0;0.0;file;ide;diff;8f;recall;0.0
62;62_6fb26410e33b9aae4de58f33132efd09f4cd992c-FILE.arff;LP;1.0;1.0;1.0;0.0;0.0;1.0;1.0;0.0;0.0;0.0;0.0;1.0;1.0;0.0;0.0;0.0;0.0;0.0;0.0;0.0;0.0;file;ide;diff;8f;recall;0.0
62;62_6fb26410e33b9aae4de58f33132efd09f4cd992c-FILE.arff;RAkELd;1.0;1.0;1.0;0.0;0.0;1.0;1.0;0.0;0.0;0.0;0.0;1.0;1.0;0.0;0.0;0.0;0.0;0.0;0.0;0.0;0.0;file;ide;diff;8f;recall;0.0
64;64_b33605b07445d3258df8229a1e786dc5b4ab4a06-FILE.arff;BR;5.0;5.0;1.0;5.0;1.0;0.0;0.0;0.0;0.0;0.0;0.0;5.0;1.0;0.0;0.0;0.0;0.0;0.0;0.0;0.0;0.0;file;ide;diff;8f;recall;0.0
64;64_b33605b07445d3258df8229a1e786dc5b4ab4a06-FILE.arff;LP;5.0;5.0;1.0;0.0;0.0;3.0;0.6;2.0;0.4;2.0;0.4;3.0;0.6;2.0;0.4;0.4;1.0;0.4;1.0;0.4;1.0;file;ide;diff;8f;recall;0.4
64;64_b33605b07445d3258df8229a1e786dc5b4ab4a06-FILE.arff;RAkELd;5.0;5.0;1.0;2.0;0.4;2.0;0.4;1.0;0.2;1.0;0.2;4.0;0.8;1.0;0.2;0.3333333333333333;1.0;0.3333333333333333;1.0;0.3333333333333333;1.0;file;ide;diff;8f;recall;0.3333333333333333
65;65_a40b2b29bb20a3c1ec25b73360d6712cdb97cd98-FILE.arff;BR;5.0;5.0;1.0;5.0;1.0;0.0;0.0;0.0;0.0;0.0;0.0;5.0;1.0;0.0;0.0;0.0;0.0;0.0;0.0;0.0;0.0;file;ide;diff;8f;recall;0.0
65;65_a40b2b29bb20a3c1ec25b73360d6712cdb97cd98-FILE.arff;LP;5.0;5.0;1.0;0.0;0.0;2.0;0.4;3.0;0.6;3.0;0.6;2.0;0.4;3.0;0.6;0.6;1.0;0.6;1.0;0.6;1.0;file;ide;diff;8f;recall;0.6
65;65_a40b2b29bb20a3c1ec25b73360d6712cdb97cd98-FILE.arff;RAkELd;5.0;5.0;1.0;2.0;0.4;2.0;0.4;1.0;0.2;1.0;0.2;4.0;0.8;1.0;0.2;0.3333333333333333;1.0;0.3333333333333333;1.0;0.3333333333333333;1.0;file;ide;diff;8f;recall;0.3333333333333333
67;67_35a2e788ba2020b545bc456b3eeb002997bd445c-FILE.arff;BR;1.0;1.0;1.0;1.0;1.0;0.0;0.0;0.0;0.0;0.0;0.0;1.0;1.0;0.0;0.0;0.0;0.0;0.0;0.0;0.0;0.0;file;ide;diff;8f;recall;0.0
67;67_35a2e788ba2020b545bc456b3eeb002997bd445c-FILE.arff;LP;1.0;1.0;1.0;0.0;0.0;1.0;1.0;0.0;0.0;0.0;0.0;1.0;1.0;0.0;0.0;0.0;0.0;0.0;0.0;0.0;0.0;file;ide;diff;8f;recall;0.0
67;67_35a2e788ba2020b545bc456b3eeb002997bd445c-FILE.arff;RAkELd;1.0;1.0;1.0;0.0;0.0;1.0;1.0;0.0;0.0;0.0;0.0;1.0;1.0;0.0;0.0;0.0;0.0;0.0;0.0;0.0;0.0;file;ide;diff;8f;recall;0.0
71;71_55fefc50a452222a65ad710429548b2b671fea98-FILE.arff;BR;1.0;1.0;1.0;1.0;1.0;0.0;0.0;0.0;0.0;0.0;0.0;1.0;1.0;0.0;0.0;0.0;0.0;0.0;0.0;0.0;0.0;file;ide;diff;8f;recall;0.0
71;71_55fefc50a452222a65ad710429548b2b671fea98-FILE.arff;LP;1.0;1.0;1.0;0.0;0.0;0.0;0.0;1.0;1.0;1.0;1.0;0.0;0.0;1.0;1.0;1.0;1.0;1.0;1.0;1.0;1.0;file;ide;diff;8f;recall;1.0
71;71_55fefc50a452222a65ad710429548b2b671fea98-FILE.arff;RAkELd;1.0;1.0;1.0;0.0;0.0;0.0;0.0;1.0;1.0;1.0;1.0;0.0;0.0;1.0;1.0;1.0;1.0;1.0;1.0;1.0;1.0;file;ide;diff;8f;recall;1.0
75;75_13ec2a47ff332e9c1a1c642068d26a7fae43e5cb-FILE.arff;BR;2.0;2.0;1.0;2.0;1.0;0.0;0.0;0.0;0.0;0.0;0.0;2.0;1.0;0.0;0.0;0.0;0.0;0.0;0.0;0.0;0.0;file;ide;diff;8f;recall;0.0
75;75_13ec2a47ff332e9c1a1c642068d26a7fae43e5cb-FILE.arff;LP;2.0;2.0;1.0;0.0;0.0;2.0;1.0;0.0;0.0;0.0;0.0;2.0;1.0;0.0;0.0;0.0;0.0;0.0;0.0;0.0;0.0;file;ide;diff;8f;recall;0.0
75;75_13ec2a47ff332e9c1a1c642068d26a7fae43e5cb-FILE.arff;RAkELd;2.0;2.0;1.0;0.0;0.0;2.0;1.0;0.0;0.0;0.0;0.0;2.0;1.0;0.0;0.0;0.0;0.0;0.0;0.0;0.0;0.0;file;ide;diff;8f;recall;0.0
76;76_3955fd03aad3b9ea6cc6e8fc5c6e421f9c90d79d-FILE.arff;BR;2.0;2.0;1.0;2.0;1.0;0.0;0.0;0.0;0.0;0.0;0.0;2.0;1.0;0.0;0.0;0.0;0.0;0.0;0.0;0.0;0.0;file;ide;diff;8f;recall;0.0
76;76_3955fd03aad3b9ea6cc6e8fc5c6e421f9c90d79d-FILE.arff;LP;2.0;2.0;1.0;0.0;0.0;0.0;0.0;2.0;1.0;2.0;1.0;0.0;0.0;2.0;1.0;1.0;1.0;1.0;1.0;1.0;1.0;file;ide;diff;8f;recall;1.0
76;76_3955fd03aad3b9ea6cc6e8fc5c6e421f9c90d79d-FILE.arff;RAkELd;2.0;2.0;1.0;0.0;0.0;1.0;0.5;1.0;0.5;1.0;0.5;1.0;0.5;1.0;0.5;0.5;1.0;0.5;1.0;0.5;1.0;file;ide;diff;8f;recall;0.5
78;78_c5d04b9750c4053c726bd4950d1c78bedb75f8e7-FILE.arff;BR;1.0;1.0;1.0;1.0;1.0;0.0;0.0;0.0;0.0;0.0;0.0;1.0;1.0;0.0;0.0;0.0;0.0;0.0;0.0;0.0;0.0;file;ide;diff;8f;recall;0.0
78;78_c5d04b9750c4053c726bd4950d1c78bedb75f8e7-FILE.arff;LP;1.0;1.0;1.0;0.0;0.0;1.0;1.0;0.0;0.0;0.0;0.0;1.0;1.0;0.0;0.0;0.0;0.0;0.0;0.0;0.0;0.0;file;ide;diff;8f;recall;0.0
78;78_c5d04b9750c4053c726bd4950d1c78bedb75f8e7-FILE.arff;RAkELd;1.0;1.0;1.0;1.0;1.0;0.0;0.0;0.0;0.0;0.0;0.0;1.0;1.0;0.0;0.0;0.0;0.0;0.0;0.0;0.0;0.0;file;ide;diff;8f;recall;0.0
79;79_04c38c3d1120e0d8b9741e41bd62cbdfa3109a65-FILE.arff;BR;1.0;1.0;1.0;1.0;1.0;0.0;0.0;0.0;0.0;0.0;0.0;1.0;1.0;0.0;0.0;0.0;0.0;0.0;0.0;0.0;0.0;file;ide;diff;8f;recall;0.0
79;79_04c38c3d1120e0d8b9741e41bd62cbdfa3109a65-FILE.arff;LP;1.0;1.0;1.0;0.0;0.0;1.0;1.0;0.0;0.0;0.0;0.0;1.0;1.0;0.0;0.0;0.0;0.0;0.0;0.0;0.0;0.0;file;ide;diff;8f;recall;0.0
79;79_04c38c3d1120e0d8b9741e41bd62cbdfa3109a65-FILE.arff;RAkELd;1.0;1.0;1.0;1.0;1.0;0.0;0.0;0.0;0.0;0.0;0.0;1.0;1.0;0.0;0.0;0.0;0.0;0.0;0.0;0.0;0.0;file;ide;diff;8f;recall;0.0
80;80_3e1f7782b8b8f1d2b8ddabc9cbeeaa7d9c199e5f-FILE.arff;BR;1.0;1.0;1.0;1.0;1.0;0.0;0.0;0.0;0.0;0.0;0.0;1.0;1.0;0.0;0.0;0.0;0.0;0.0;0.0;0.0;0.0;file;ide;diff;8f;recall;0.0
80;80_3e1f7782b8b8f1d2b8ddabc9cbeeaa7d9c199e5f-FILE.arff;LP;1.0;1.0;1.0;0.0;0.0;1.0;1.0;0.0;0.0;0.0;0.0;1.0;1.0;0.0;0.0;0.0;0.0;0.0;0.0;0.0;0.0;file;ide;diff;8f;recall;0.0
80;80_3e1f7782b8b8f1d2b8ddabc9cbeeaa7d9c199e5f-FILE.arff;RAkELd;1.0;1.0;1.0;1.0;1.0;0.0;0.0;0.0;0.0;0.0;0.0;1.0;1.0;0.0;0.0;0.0;0.0;0.0;0.0;0.0;0.0;file;ide;diff;8f;recall;0.0
95;95_45f1b327dadc5d5b562989a10b03eea5d185c64a-FILE.arff;BR;3.0;3.0;1.0;3.0;1.0;0.0;0.0;0.0;0.0;0.0;0.0;3.0;1.0;0.0;0.0;0.0;0.0;0.0;0.0;0.0;0.0;file;ide;diff;8f;recall;0.0
95;95_45f1b327dadc5d5b562989a10b03eea5d185c64a-FILE.arff;LP;3.0;3.0;1.0;0.0;0.0;2.0;0.6666666666666666;1.0;0.3333333333333333;1.0;0.3333333333333333;2.0;0.6666666666666666;1.0;0.3333333333333333;0.3333333333333333;1.0;0.3333333333333333;1.0;0.3333333333333333;1.0;file;ide;diff;8f;recall;0.3333333333333333
95;95_45f1b327dadc5d5b562989a10b03eea5d185c64a-FILE.arff;RAkELd;3.0;3.0;1.0;3.0;1.0;0.0;0.0;0.0;0.0;0.0;0.0;3.0;1.0;0.0;0.0;0.0;0.0;0.0;0.0;0.0;0.0;file;ide;diff;8f;recall;0.0
97;97_f1eabe4741d7789e41c57775baf4277a158350c6-FILE.arff;BR;2.0;2.0;1.0;2.0;1.0;0.0;0.0;0.0;0.0;0.0;0.0;2.0;1.0;0.0;0.0;0.0;0.0;0.0;0.0;0.0;0.0;file;ide;diff;8f;recall;0.0
97;97_f1eabe4741d7789e41c57775baf4277a158350c6-FILE.arff;LP;2.0;2.0;1.0;0.0;0.0;2.0;1.0;0.0;0.0;0.0;0.0;2.0;1.0;0.0;0.0;0.0;0.0;0.0;0.0;0.0;0.0;file;ide;diff;8f;recall;0.0
97;97_f1eabe4741d7789e41c57775baf4277a158350c6-FILE.arff;RAkELd;2.0;2.0;1.0;2.0;1.0;0.0;0.0;0.0;0.0;0.0;0.0;2.0;1.0;0.0;0.0;0.0;0.0;0.0;0.0;0.0;0.0;file;ide;diff;8f;recall;0.0
139;139_b893fc56df181c0bd90303135564c28b90f3fb4d-FILE.arff;BR;1.0;1.0;1.0;1.0;1.0;0.0;0.0;0.0;0.0;0.0;0.0;1.0;1.0;0.0;0.0;0.0;0.0;0.0;0.0;0.0;0.0;file;ide;diff;8f;recall;0.0
139;139_b893fc56df181c0bd90303135564c28b90f3fb4d-FILE.arff;LP;1.0;1.0;1.0;0.0;0.0;1.0;1.0;0.0;0.0;0.0;0.0;1.0;1.0;0.0;0.0;0.0;0.0;0.0;0.0;0.0;0.0;file;ide;diff;8f;recall;0.0
139;139_b893fc56df181c0bd90303135564c28b90f3fb4d-FILE.arff;RAkELd;1.0;1.0;1.0;1.0;1.0;0.0;0.0;0.0;0.0;0.0;0.0;1.0;1.0;0.0;0.0;0.0;0.0;0.0;0.0;0.0;0.0;file;ide;diff;8f;recall;0.0
143;143_e23e91c882cbfb52f47f5617e621459350f3fe38-FILE.arff;BR;1.0;1.0;1.0;1.0;1.0;0.0;0.0;0.0;0.0;0.0;0.0;1.0;1.0;0.0;0.0;0.0;0.0;0.0;0.0;0.0;0.0;file;ide;diff;8f;recall;0.0
143;143_e23e91c882cbfb52f47f5617e621459350f3fe38-FILE.arff;LP;1.0;1.0;1.0;0.0;0.0;0.0;0.0;1.0;1.0;1.0;1.0;0.0;0.0;1.0;1.0;1.0;1.0;1.0;1.0;1.0;1.0;file;ide;diff;8f;recall;1.0
143;143_e23e91c882cbfb52f47f5617e621459350f3fe38-FILE.arff;RAkELd;1.0;1.0;1.0;1.0;1.0;0.0;0.0;0.0;0.0;0.0;0.0;1.0;1.0;0.0;0.0;0.0;0.0;0.0;0.0;0.0;0.0;file;ide;diff;8f;recall;0.0
146;146_91177058a0f52c25b501205a628e1f1e68b868d6-FILE.arff;BR;2.0;2.0;1.0;1.0;0.5;0.0;0.0;1.0;0.5;1.0;0.5;1.0;0.5;1.0;0.5;1.0;1.0;1.0;1.0;1.0;1.0;file;ide;diff;8f;recall;1.0
146;146_91177058a0f52c25b501205a628e1f1e68b868d6-FILE.arff;LP;2.0;2.0;1.0;0.0;0.0;0.0;0.0;2.0;1.0;2.0;1.0;0.0;0.0;2.0;1.0;1.0;1.0;1.0;1.0;1.0;1.0;file;ide;diff;8f;recall;1.0
146;146_91177058a0f52c25b501205a628e1f1e68b868d6-FILE.arff;RAkELd;2.0;2.0;1.0;1.0;0.5;0.0;0.0;1.0;0.5;1.0;0.5;1.0;0.5;1.0;0.5;1.0;1.0;1.0;1.0;1.0;1.0;file;ide;diff;8f;recall;1.0
147;147_01955f4f4df4579405a8bb1868f60af30e9a028b-FILE.arff;BR;2.0;2.0;1.0;1.0;0.5;0.0;0.0;1.0;0.5;1.0;0.5;1.0;0.5;1.0;0.5;1.0;1.0;1.0;1.0;1.0;1.0;file;ide;diff;8f;recall;1.0
147;147_01955f4f4df4579405a8bb1868f60af30e9a028b-FILE.arff;LP;2.0;2.0;1.0;0.0;0.0;1.0;0.5;1.0;0.5;1.0;0.5;1.0;0.5;1.0;0.5;0.5;1.0;0.5;1.0;0.5;1.0;file;ide;diff;8f;recall;0.5
147;147_01955f4f4df4579405a8bb1868f60af30e9a028b-FILE.arff;RAkELd;2.0;2.0;1.0;1.0;0.5;0.0;0.0;1.0;0.5;1.0;0.5;1.0;0.5;1.0;0.5;1.0;1.0;1.0;1.0;1.0;1.0;file;ide;diff;8f;recall;1.0
148;148_4cfd7fef412fb7e2bfb4e4cf6800400783e88901-FILE.arff;BR;1.0;1.0;1.0;0.0;0.0;0.0;0.0;1.0;1.0;1.0;1.0;0.0;0.0;1.0;1.0;1.0;1.0;1.0;1.0;1.0;1.0;file;ide;diff;8f;recall;1.0
148;148_4cfd7fef412fb7e2bfb4e4cf6800400783e88901-FILE.arff;LP;1.0;1.0;1.0;0.0;0.0;0.0;0.0;1.0;1.0;1.0;1.0;0.0;0.0;1.0;1.0;1.0;1.0;1.0;1.0;1.0;1.0;file;ide;diff;8f;recall;1.0
148;148_4cfd7fef412fb7e2bfb4e4cf6800400783e88901-FILE.arff;RAkELd;1.0;1.0;1.0;0.0;0.0;0.0;0.0;1.0;1.0;1.0;1.0;0.0;0.0;1.0;1.0;1.0;1.0;1.0;1.0;1.0;1.0;file;ide;diff;8f;recall;1.0
149;149_a3862fc69053415592fdfb43a903d56e568b89c3-FILE.arff;BR;1.0;1.0;1.0;1.0;1.0;0.0;0.0;0.0;0.0;0.0;0.0;1.0;1.0;0.0;0.0;0.0;0.0;0.0;0.0;0.0;0.0;file;ide;diff;8f;recall;0.0
149;149_a3862fc69053415592fdfb43a903d56e568b89c3-FILE.arff;LP;1.0;1.0;1.0;0.0;0.0;1.0;1.0;0.0;0.0;0.0;0.0;1.0;1.0;0.0;0.0;0.0;0.0;0.0;0.0;0.0;0.0;file;ide;diff;8f;recall;0.0
149;149_a3862fc69053415592fdfb43a903d56e568b89c3-FILE.arff;RAkELd;1.0;1.0;1.0;1.0;1.0;0.0;0.0;0.0;0.0;0.0;0.0;1.0;1.0;0.0;0.0;0.0;0.0;0.0;0.0;0.0;0.0;file;ide;diff;8f;recall;0.0
7;7_7a7c87aedb9974d4b1f84ca4ab80dba640d0e0d4-FILE.arff;BR;2.0;2.0;1.0;0.0;0.0;0.0;0.0;2.0;1.0;0.0;0.0;0.0;0.0;2.0;1.0;0.5;0.5;1.0;1.0;0.6666666666666666;0.6666666666666666;file;ide;diff;8f;fscore;0.6666666666666666
7;7_7a7c87aedb9974d4b1f84ca4ab80dba640d0e0d4-FILE.arff;LP;2.0;2.0;1.0;0.0;0.0;2.0;1.0;0.0;0.0;0.0;0.0;2.0;1.0;0.0;0.0;0.0;0.0;0.0;0.0;0.0;0.0;file;ide;diff;8f;fscore;0.0
7;7_7a7c87aedb9974d4b1f84ca4ab80dba640d0e0d4-FILE.arff;RAkELd;2.0;2.0;1.0;1.0;0.5;0.0;0.0;1.0;0.5;0.0;0.0;1.0;0.5;1.0;0.5;0.5;0.5;1.0;1.0;0.6666666666666666;0.6666666666666666;file;ide;diff;8f;fscore;0.6666666666666666
11;11_9bf8b2fda3eb5feee5a8fa644dd2a559fea95fc5-FILE.arff;BR;1.0;1.0;1.0;0.0;0.0;0.0;0.0;1.0;1.0;0.0;0.0;0.0;0.0;1.0;1.0;0.5;0.5;1.0;1.0;0.6666666666666666;0.6666666666666666;file;ide;diff;8f;fscore;0.6666666666666666
11;11_9bf8b2fda3eb5feee5a8fa644dd2a559fea95fc5-FILE.arff;LP;1.0;1.0;1.0;0.0;0.0;0.0;0.0;1.0;1.0;1.0;1.0;0.0;0.0;1.0;1.0;1.0;1.0;1.0;1.0;1.0;1.0;file;ide;diff;8f;fscore;1.0
11;11_9bf8b2fda3eb5feee5a8fa644dd2a559fea95fc5-FILE.arff;RAkELd;1.0;1.0;1.0;0.0;0.0;0.0;0.0;1.0;1.0;0.0;0.0;0.0;0.0;1.0;1.0;0.5;0.5;1.0;1.0;0.6666666666666666;0.6666666666666666;file;ide;diff;8f;fscore;0.6666666666666666
14;14_71e4840ffd0f918a662de8f6dfe57fc3e81a4313-FILE.arff;BR;1.0;1.0;1.0;0.0;0.0;0.0;0.0;1.0;1.0;0.0;0.0;0.0;0.0;1.0;1.0;0.5;0.5;1.0;1.0;0.6666666666666666;0.6666666666666666;file;ide;diff;8f;fscore;0.6666666666666666
14;14_71e4840ffd0f918a662de8f6dfe57fc3e81a4313-FILE.arff;LP;1.0;1.0;1.0;0.0;0.0;0.0;0.0;1.0;1.0;1.0;1.0;0.0;0.0;1.0;1.0;1.0;1.0;1.0;1.0;1.0;1.0;file;ide;diff;8f;fscore;1.0
14;14_71e4840ffd0f918a662de8f6dfe57fc3e81a4313-FILE.arff;RAkELd;1.0;1.0;1.0;0.0;0.0;0.0;0.0;1.0;1.0;0.0;0.0;0.0;0.0;1.0;1.0;0.5;0.5;1.0;1.0;0.6666666666666666;0.6666666666666666;file;ide;diff;8f;fscore;0.6666666666666666
17;17_da3e20a4618706b4fefe6668860120973f261174-FILE.arff;BR;2.0;2.0;1.0;0.0;0.0;0.0;0.0;2.0;1.0;0.0;0.0;0.0;0.0;2.0;1.0;0.5;0.5;1.0;1.0;0.6666666666666666;0.6666666666666666;file;ide;diff;8f;fscore;0.6666666666666666
17;17_da3e20a4618706b4fefe6668860120973f261174-FILE.arff;LP;2.0;2.0;1.0;0.0;0.0;0.0;0.0;2.0;1.0;2.0;1.0;0.0;0.0;2.0;1.0;1.0;1.0;1.0;1.0;1.0;1.0;file;ide;diff;8f;fscore;1.0
17;17_da3e20a4618706b4fefe6668860120973f261174-FILE.arff;RAkELd;2.0;2.0;1.0;1.0;0.5;0.0;0.0;1.0;0.5;0.0;0.0;1.0;0.5;1.0;0.5;0.5;0.5;1.0;1.0;0.6666666666666666;0.6666666666666666;file;ide;diff;8f;fscore;0.6666666666666666
18;18_f9744676f5fc2b1cd17e1d529e834a1aa25baedb-FILE.arff;BR;2.0;2.0;1.0;0.0;0.0;0.0;0.0;2.0;1.0;0.0;0.0;0.0;0.0;2.0;1.0;0.5;0.5;1.0;1.0;0.6666666666666666;0.6666666666666666;file;ide;diff;8f;fscore;0.6666666666666666
18;18_f9744676f5fc2b1cd17e1d529e834a1aa25baedb-FILE.arff;LP;2.0;2.0;1.0;0.0;0.0;0.0;0.0;2.0;1.0;2.0;1.0;0.0;0.0;2.0;1.0;1.0;1.0;1.0;1.0;1.0;1.0;file;ide;diff;8f;fscore;1.0
18;18_f9744676f5fc2b1cd17e1d529e834a1aa25baedb-FILE.arff;RAkELd;2.0;2.0;1.0;1.0;0.5;0.0;0.0;1.0;0.5;0.0;0.0;1.0;0.5;1.0;0.5;0.5;0.5;1.0;1.0;0.6666666666666666;0.6666666666666666;file;ide;diff;8f;fscore;0.6666666666666666
19;19_8801d730480d660370094d13c6490c8ccd763ca8-FILE.arff;BR;1.0;1.0;1.0;0.0;0.0;0.0;0.0;1.0;1.0;0.0;0.0;0.0;0.0;1.0;1.0;0.5;0.5;1.0;1.0;0.6666666666666666;0.6666666666666666;file;ide;diff;8f;fscore;0.6666666666666666
19;19_8801d730480d660370094d13c6490c8ccd763ca8-FILE.arff;LP;1.0;1.0;1.0;0.0;0.0;1.0;1.0;0.0;0.0;0.0;0.0;1.0;1.0;0.0;0.0;0.0;0.0;0.0;0.0;0.0;0.0;file;ide;diff;8f;fscore;0.0
19;19_8801d730480d660370094d13c6490c8ccd763ca8-FILE.arff;RAkELd;1.0;1.0;1.0;0.0;0.0;0.0;0.0;1.0;1.0;0.0;0.0;0.0;0.0;1.0;1.0;0.5;0.5;1.0;1.0;0.6666666666666666;0.6666666666666666;file;ide;diff;8f;fscore;0.6666666666666666
20;20_efa08edd831faabee1ca5dae56561504f1435e16-FILE.arff;BR;2.0;2.0;1.0;0.0;0.0;0.0;0.0;2.0;1.0;0.0;0.0;0.0;0.0;2.0;1.0;0.5;0.5;1.0;1.0;0.6666666666666666;0.6666666666666666;file;ide;diff;8f;fscore;0.6666666666666666
20;20_efa08edd831faabee1ca5dae56561504f1435e16-FILE.arff;LP;2.0;2.0;1.0;0.0;0.0;0.0;0.0;2.0;1.0;2.0;1.0;0.0;0.0;2.0;1.0;1.0;1.0;1.0;1.0;1.0;1.0;file;ide;diff;8f;fscore;1.0
20;20_efa08edd831faabee1ca5dae56561504f1435e16-FILE.arff;RAkELd;2.0;2.0;1.0;1.0;0.5;0.0;0.0;1.0;0.5;0.0;0.0;1.0;0.5;1.0;0.5;0.5;0.5;1.0;1.0;0.6666666666666666;0.6666666666666666;file;ide;diff;8f;fscore;0.6666666666666666
30;30_ab8d7e7e99dce24a5499641314192b64a62bd045-FILE.arff;BR;1.0;1.0;1.0;0.0;0.0;0.0;0.0;1.0;1.0;0.0;0.0;0.0;0.0;1.0;1.0;0.5;0.5;1.0;1.0;0.6666666666666666;0.6666666666666666;file;ide;diff;8f;fscore;0.6666666666666666
30;30_ab8d7e7e99dce24a5499641314192b64a62bd045-FILE.arff;LP;1.0;1.0;1.0;0.0;0.0;0.0;0.0;1.0;1.0;1.0;1.0;0.0;0.0;1.0;1.0;1.0;1.0;1.0;1.0;1.0;1.0;file;ide;diff;8f;fscore;1.0
30;30_ab8d7e7e99dce24a5499641314192b64a62bd045-FILE.arff;RAkELd;1.0;1.0;1.0;0.0;0.0;0.0;0.0;1.0;1.0;0.0;0.0;0.0;0.0;1.0;1.0;0.5;0.5;1.0;1.0;0.6666666666666666;0.6666666666666666;file;ide;diff;8f;fscore;0.6666666666666666
31;31_746ef129fab6c2ec90fa3356a637c38e7aa460a7-FILE.arff;BR;1.0;1.0;1.0;0.0;0.0;0.0;0.0;1.0;1.0;0.0;0.0;0.0;0.0;1.0;1.0;0.5;0.5;1.0;1.0;0.6666666666666666;0.6666666666666666;file;ide;diff;8f;fscore;0.6666666666666666
31;31_746ef129fab6c2ec90fa3356a637c38e7aa460a7-FILE.arff;LP;1.0;1.0;1.0;0.0;0.0;0.0;0.0;1.0;1.0;1.0;1.0;0.0;0.0;1.0;1.0;1.0;1.0;1.0;1.0;1.0;1.0;file;ide;diff;8f;fscore;1.0
31;31_746ef129fab6c2ec90fa3356a637c38e7aa460a7-FILE.arff;RAkELd;1.0;1.0;1.0;0.0;0.0;0.0;0.0;1.0;1.0;0.0;0.0;0.0;0.0;1.0;1.0;0.5;0.5;1.0;1.0;0.6666666666666666;0.6666666666666666;file;ide;diff;8f;fscore;0.6666666666666666
37;37_a6f39393b82fcb801d316dedd94a191091db6ad5-FILE.arff;BR;2.0;2.0;1.0;0.0;0.0;0.0;0.0;2.0;1.0;0.0;0.0;0.0;0.0;2.0;1.0;0.5;0.5;1.0;1.0;0.6666666666666666;0.6666666666666666;file;ide;diff;8f;fscore;0.6666666666666666
37;37_a6f39393b82fcb801d316dedd94a191091db6ad5-FILE.arff;LP;2.0;2.0;1.0;0.0;0.0;0.0;0.0;2.0;1.0;2.0;1.0;0.0;0.0;2.0;1.0;1.0;1.0;1.0;1.0;1.0;1.0;file;ide;diff;8f;fscore;1.0
37;37_a6f39393b82fcb801d316dedd94a191091db6ad5-FILE.arff;RAkELd;2.0;2.0;1.0;1.0;0.5;0.0;0.0;1.0;0.5;0.0;0.0;1.0;0.5;1.0;0.5;0.5;0.5;1.0;1.0;0.6666666666666666;0.6666666666666666;file;ide;diff;8f;fscore;0.6666666666666666
46;46_0b8dd9dc6033b1155378977f10d881b602c0425e-FILE.arff;BR;1.0;1.0;1.0;0.0;0.0;0.0;0.0;1.0;1.0;0.0;0.0;0.0;0.0;1.0;1.0;0.5;0.5;1.0;1.0;0.6666666666666666;0.6666666666666666;file;ide;diff;8f;fscore;0.6666666666666666
46;46_0b8dd9dc6033b1155378977f10d881b602c0425e-FILE.arff;LP;1.0;1.0;1.0;0.0;0.0;1.0;1.0;0.0;0.0;0.0;0.0;1.0;1.0;0.0;0.0;0.0;0.0;0.0;0.0;0.0;0.0;file;ide;diff;8f;fscore;0.0
46;46_0b8dd9dc6033b1155378977f10d881b602c0425e-FILE.arff;RAkELd;1.0;1.0;1.0;0.0;0.0;0.0;0.0;1.0;1.0;0.0;0.0;0.0;0.0;1.0;1.0;0.5;0.5;1.0;1.0;0.6666666666666666;0.6666666666666666;file;ide;diff;8f;fscore;0.6666666666666666
50;50_7d889067b2c2113bd011f1386a6b8c12e453f650-FILE.arff;BR;1.0;1.0;1.0;0.0;0.0;0.0;0.0;1.0;1.0;0.0;0.0;0.0;0.0;1.0;1.0;0.5;0.5;1.0;1.0;0.6666666666666666;0.6666666666666666;file;ide;diff;8f;fscore;0.6666666666666666
50;50_7d889067b2c2113bd011f1386a6b8c12e453f650-FILE.arff;LP;1.0;1.0;1.0;0.0;0.0;0.0;0.0;1.0;1.0;1.0;1.0;0.0;0.0;1.0;1.0;1.0;1.0;1.0;1.0;1.0;1.0;file;ide;diff;8f;fscore;1.0
50;50_7d889067b2c2113bd011f1386a6b8c12e453f650-FILE.arff;RAkELd;1.0;1.0;1.0;0.0;0.0;0.0;0.0;1.0;1.0;0.0;0.0;0.0;0.0;1.0;1.0;0.5;0.5;1.0;1.0;0.6666666666666666;0.6666666666666666;file;ide;diff;8f;fscore;0.6666666666666666
51;51_dbafc437af6c2f4219f7294b50b1be51a8d0c729-FILE.arff;BR;1.0;1.0;1.0;0.0;0.0;0.0;0.0;1.0;1.0;0.0;0.0;0.0;0.0;1.0;1.0;0.5;0.5;1.0;1.0;0.6666666666666666;0.6666666666666666;file;ide;diff;8f;fscore;0.6666666666666666
51;51_dbafc437af6c2f4219f7294b50b1be51a8d0c729-FILE.arff;LP;1.0;1.0;1.0;0.0;0.0;0.0;0.0;1.0;1.0;1.0;1.0;0.0;0.0;1.0;1.0;1.0;1.0;1.0;1.0;1.0;1.0;file;ide;diff;8f;fscore;1.0
51;51_dbafc437af6c2f4219f7294b50b1be51a8d0c729-FILE.arff;RAkELd;1.0;1.0;1.0;0.0;0.0;0.0;0.0;1.0;1.0;0.0;0.0;0.0;0.0;1.0;1.0;0.5;0.5;1.0;1.0;0.6666666666666666;0.6666666666666666;file;ide;diff;8f;fscore;0.6666666666666666
52;52_21339b2f9739c5d801601cfc2a2c997196389e69-FILE.arff;BR;1.0;1.0;1.0;0.0;0.0;0.0;0.0;1.0;1.0;0.0;0.0;0.0;0.0;1.0;1.0;0.5;0.5;1.0;1.0;0.6666666666666666;0.6666666666666666;file;ide;diff;8f;fscore;0.6666666666666666
52;52_21339b2f9739c5d801601cfc2a2c997196389e69-FILE.arff;LP;1.0;1.0;1.0;0.0;0.0;0.0;0.0;1.0;1.0;1.0;1.0;0.0;0.0;1.0;1.0;1.0;1.0;1.0;1.0;1.0;1.0;file;ide;diff;8f;fscore;1.0
52;52_21339b2f9739c5d801601cfc2a2c997196389e69-FILE.arff;RAkELd;1.0;1.0;1.0;0.0;0.0;0.0;0.0;1.0;1.0;0.0;0.0;0.0;0.0;1.0;1.0;0.5;0.5;1.0;1.0;0.6666666666666666;0.6666666666666666;file;ide;diff;8f;fscore;0.6666666666666666
53;53_3844b6bd98df06f8bcb8ca905eae8e4b83d29fd6-FILE.arff;BR;3.0;3.0;1.0;0.0;0.0;3.0;1.0;0.0;0.0;0.0;0.0;3.0;1.0;0.0;0.0;0.0;0.0;0.0;0.0;0.0;0.0;file;ide;diff;8f;fscore;0.0
53;53_3844b6bd98df06f8bcb8ca905eae8e4b83d29fd6-FILE.arff;LP;3.0;3.0;1.0;0.0;0.0;3.0;1.0;0.0;0.0;0.0;0.0;3.0;1.0;0.0;0.0;0.0;0.0;0.0;0.0;0.0;0.0;file;ide;diff;8f;fscore;0.0
53;53_3844b6bd98df06f8bcb8ca905eae8e4b83d29fd6-FILE.arff;RAkELd;3.0;3.0;1.0;2.0;0.6666666666666666;1.0;0.3333333333333333;0.0;0.0;0.0;0.0;3.0;1.0;0.0;0.0;0.0;0.0;0.0;0.0;0.0;0.0;file;ide;diff;8f;fscore;0.0
55;55_cbc0de4f9ad2930d2b879b642f72e59416f9e977-FILE.arff;BR;5.0;5.0;1.0;5.0;1.0;0.0;0.0;0.0;0.0;0.0;0.0;5.0;1.0;0.0;0.0;0.0;0.0;0.0;0.0;0.0;0.0;file;ide;diff;8f;fscore;0.0
55;55_cbc0de4f9ad2930d2b879b642f72e59416f9e977-FILE.arff;LP;5.0;5.0;1.0;0.0;0.0;3.0;0.6;2.0;0.4;2.0;0.4;3.0;0.6;2.0;0.4;0.4;1.0;0.4;1.0;0.4;1.0;file;ide;diff;8f;fscore;0.4
55;55_cbc0de4f9ad2930d2b879b642f72e59416f9e977-FILE.arff;RAkELd;5.0;5.0;1.0;2.0;0.4;2.0;0.4;1.0;0.2;1.0;0.2;4.0;0.8;1.0;0.2;0.3333333333333333;1.0;0.3333333333333333;1.0;0.3333333333333333;1.0;file;ide;diff;8f;fscore;0.3333333333333333
62;62_6fb26410e33b9aae4de58f33132efd09f4cd992c-FILE.arff;BR;1.0;1.0;1.0;1.0;1.0;0.0;0.0;0.0;0.0;0.0;0.0;1.0;1.0;0.0;0.0;0.0;0.0;0.0;0.0;0.0;0.0;file;ide;diff;8f;fscore;0.0
62;62_6fb26410e33b9aae4de58f33132efd09f4cd992c-FILE.arff;LP;1.0;1.0;1.0;0.0;0.0;1.0;1.0;0.0;0.0;0.0;0.0;1.0;1.0;0.0;0.0;0.0;0.0;0.0;0.0;0.0;0.0;file;ide;diff;8f;fscore;0.0
62;62_6fb26410e33b9aae4de58f33132efd09f4cd992c-FILE.arff;RAkELd;1.0;1.0;1.0;0.0;0.0;1.0;1.0;0.0;0.0;0.0;0.0;1.0;1.0;0.0;0.0;0.0;0.0;0.0;0.0;0.0;0.0;file;ide;diff;8f;fscore;0.0
64;64_b33605b07445d3258df8229a1e786dc5b4ab4a06-FILE.arff;BR;5.0;5.0;1.0;5.0;1.0;0.0;0.0;0.0;0.0;0.0;0.0;5.0;1.0;0.0;0.0;0.0;0.0;0.0;0.0;0.0;0.0;file;ide;diff;8f;fscore;0.0
64;64_b33605b07445d3258df8229a1e786dc5b4ab4a06-FILE.arff;LP;5.0;5.0;1.0;0.0;0.0;3.0;0.6;2.0;0.4;2.0;0.4;3.0;0.6;2.0;0.4;0.4;1.0;0.4;1.0;0.4;1.0;file;ide;diff;8f;fscore;0.4
64;64_b33605b07445d3258df8229a1e786dc5b4ab4a06-FILE.arff;RAkELd;5.0;5.0;1.0;2.0;0.4;2.0;0.4;1.0;0.2;1.0;0.2;4.0;0.8;1.0;0.2;0.3333333333333333;1.0;0.3333333333333333;1.0;0.3333333333333333;1.0;file;ide;diff;8f;fscore;0.3333333333333333
65;65_a40b2b29bb20a3c1ec25b73360d6712cdb97cd98-FILE.arff;BR;5.0;5.0;1.0;5.0;1.0;0.0;0.0;0.0;0.0;0.0;0.0;5.0;1.0;0.0;0.0;0.0;0.0;0.0;0.0;0.0;0.0;file;ide;diff;8f;fscore;0.0
65;65_a40b2b29bb20a3c1ec25b73360d6712cdb97cd98-FILE.arff;LP;5.0;5.0;1.0;0.0;0.0;2.0;0.4;3.0;0.6;3.0;0.6;2.0;0.4;3.0;0.6;0.6;1.0;0.6;1.0;0.6;1.0;file;ide;diff;8f;fscore;0.6
65;65_a40b2b29bb20a3c1ec25b73360d6712cdb97cd98-FILE.arff;RAkELd;5.0;5.0;1.0;2.0;0.4;2.0;0.4;1.0;0.2;1.0;0.2;4.0;0.8;1.0;0.2;0.3333333333333333;1.0;0.3333333333333333;1.0;0.3333333333333333;1.0;file;ide;diff;8f;fscore;0.3333333333333333
67;67_35a2e788ba2020b545bc456b3eeb002997bd445c-FILE.arff;BR;1.0;1.0;1.0;1.0;1.0;0.0;0.0;0.0;0.0;0.0;0.0;1.0;1.0;0.0;0.0;0.0;0.0;0.0;0.0;0.0;0.0;file;ide;diff;8f;fscore;0.0
67;67_35a2e788ba2020b545bc456b3eeb002997bd445c-FILE.arff;LP;1.0;1.0;1.0;0.0;0.0;1.0;1.0;0.0;0.0;0.0;0.0;1.0;1.0;0.0;0.0;0.0;0.0;0.0;0.0;0.0;0.0;file;ide;diff;8f;fscore;0.0
67;67_35a2e788ba2020b545bc456b3eeb002997bd445c-FILE.arff;RAkELd;1.0;1.0;1.0;0.0;0.0;1.0;1.0;0.0;0.0;0.0;0.0;1.0;1.0;0.0;0.0;0.0;0.0;0.0;0.0;0.0;0.0;file;ide;diff;8f;fscore;0.0
71;71_55fefc50a452222a65ad710429548b2b671fea98-FILE.arff;BR;1.0;1.0;1.0;1.0;1.0;0.0;0.0;0.0;0.0;0.0;0.0;1.0;1.0;0.0;0.0;0.0;0.0;0.0;0.0;0.0;0.0;file;ide;diff;8f;fscore;0.0
71;71_55fefc50a452222a65ad710429548b2b671fea98-FILE.arff;LP;1.0;1.0;1.0;0.0;0.0;0.0;0.0;1.0;1.0;1.0;1.0;0.0;0.0;1.0;1.0;1.0;1.0;1.0;1.0;1.0;1.0;file;ide;diff;8f;fscore;1.0
71;71_55fefc50a452222a65ad710429548b2b671fea98-FILE.arff;RAkELd;1.0;1.0;1.0;0.0;0.0;0.0;0.0;1.0;1.0;1.0;1.0;0.0;0.0;1.0;1.0;1.0;1.0;1.0;1.0;1.0;1.0;file;ide;diff;8f;fscore;1.0
75;75_13ec2a47ff332e9c1a1c642068d26a7fae43e5cb-FILE.arff;BR;2.0;2.0;1.0;2.0;1.0;0.0;0.0;0.0;0.0;0.0;0.0;2.0;1.0;0.0;0.0;0.0;0.0;0.0;0.0;0.0;0.0;file;ide;diff;8f;fscore;0.0
75;75_13ec2a47ff332e9c1a1c642068d26a7fae43e5cb-FILE.arff;LP;2.0;2.0;1.0;0.0;0.0;2.0;1.0;0.0;0.0;0.0;0.0;2.0;1.0;0.0;0.0;0.0;0.0;0.0;0.0;0.0;0.0;file;ide;diff;8f;fscore;0.0
75;75_13ec2a47ff332e9c1a1c642068d26a7fae43e5cb-FILE.arff;RAkELd;2.0;2.0;1.0;0.0;0.0;2.0;1.0;0.0;0.0;0.0;0.0;2.0;1.0;0.0;0.0;0.0;0.0;0.0;0.0;0.0;0.0;file;ide;diff;8f;fscore;0.0
76;76_3955fd03aad3b9ea6cc6e8fc5c6e421f9c90d79d-FILE.arff;BR;2.0;2.0;1.0;2.0;1.0;0.0;0.0;0.0;0.0;0.0;0.0;2.0;1.0;0.0;0.0;0.0;0.0;0.0;0.0;0.0;0.0;file;ide;diff;8f;fscore;0.0
76;76_3955fd03aad3b9ea6cc6e8fc5c6e421f9c90d79d-FILE.arff;LP;2.0;2.0;1.0;0.0;0.0;0.0;0.0;2.0;1.0;2.0;1.0;0.0;0.0;2.0;1.0;1.0;1.0;1.0;1.0;1.0;1.0;file;ide;diff;8f;fscore;1.0
76;76_3955fd03aad3b9ea6cc6e8fc5c6e421f9c90d79d-FILE.arff;RAkELd;2.0;2.0;1.0;0.0;0.0;1.0;0.5;1.0;0.5;1.0;0.5;1.0;0.5;1.0;0.5;0.5;1.0;0.5;1.0;0.5;1.0;file;ide;diff;8f;fscore;0.5
78;78_c5d04b9750c4053c726bd4950d1c78bedb75f8e7-FILE.arff;BR;1.0;1.0;1.0;1.0;1.0;0.0;0.0;0.0;0.0;0.0;0.0;1.0;1.0;0.0;0.0;0.0;0.0;0.0;0.0;0.0;0.0;file;ide;diff;8f;fscore;0.0
78;78_c5d04b9750c4053c726bd4950d1c78bedb75f8e7-FILE.arff;LP;1.0;1.0;1.0;0.0;0.0;1.0;1.0;0.0;0.0;0.0;0.0;1.0;1.0;0.0;0.0;0.0;0.0;0.0;0.0;0.0;0.0;file;ide;diff;8f;fscore;0.0
78;78_c5d04b9750c4053c726bd4950d1c78bedb75f8e7-FILE.arff;RAkELd;1.0;1.0;1.0;1.0;1.0;0.0;0.0;0.0;0.0;0.0;0.0;1.0;1.0;0.0;0.0;0.0;0.0;0.0;0.0;0.0;0.0;file;ide;diff;8f;fscore;0.0
79;79_04c38c3d1120e0d8b9741e41bd62cbdfa3109a65-FILE.arff;BR;1.0;1.0;1.0;1.0;1.0;0.0;0.0;0.0;0.0;0.0;0.0;1.0;1.0;0.0;0.0;0.0;0.0;0.0;0.0;0.0;0.0;file;ide;diff;8f;fscore;0.0
79;79_04c38c3d1120e0d8b9741e41bd62cbdfa3109a65-FILE.arff;LP;1.0;1.0;1.0;0.0;0.0;1.0;1.0;0.0;0.0;0.0;0.0;1.0;1.0;0.0;0.0;0.0;0.0;0.0;0.0;0.0;0.0;file;ide;diff;8f;fscore;0.0
79;79_04c38c3d1120e0d8b9741e41bd62cbdfa3109a65-FILE.arff;RAkELd;1.0;1.0;1.0;1.0;1.0;0.0;0.0;0.0;0.0;0.0;0.0;1.0;1.0;0.0;0.0;0.0;0.0;0.0;0.0;0.0;0.0;file;ide;diff;8f;fscore;0.0
80;80_3e1f7782b8b8f1d2b8ddabc9cbeeaa7d9c199e5f-FILE.arff;BR;1.0;1.0;1.0;1.0;1.0;0.0;0.0;0.0;0.0;0.0;0.0;1.0;1.0;0.0;0.0;0.0;0.0;0.0;0.0;0.0;0.0;file;ide;diff;8f;fscore;0.0
80;80_3e1f7782b8b8f1d2b8ddabc9cbeeaa7d9c199e5f-FILE.arff;LP;1.0;1.0;1.0;0.0;0.0;1.0;1.0;0.0;0.0;0.0;0.0;1.0;1.0;0.0;0.0;0.0;0.0;0.0;0.0;0.0;0.0;file;ide;diff;8f;fscore;0.0
80;80_3e1f7782b8b8f1d2b8ddabc9cbeeaa7d9c199e5f-FILE.arff;RAkELd;1.0;1.0;1.0;1.0;1.0;0.0;0.0;0.0;0.0;0.0;0.0;1.0;1.0;0.0;0.0;0.0;0.0;0.0;0.0;0.0;0.0;file;ide;diff;8f;fscore;0.0
95;95_45f1b327dadc5d5b562989a10b03eea5d185c64a-FILE.arff;BR;3.0;3.0;1.0;3.0;1.0;0.0;0.0;0.0;0.0;0.0;0.0;3.0;1.0;0.0;0.0;0.0;0.0;0.0;0.0;0.0;0.0;file;ide;diff;8f;fscore;0.0
95;95_45f1b327dadc5d5b562989a10b03eea5d185c64a-FILE.arff;LP;3.0;3.0;1.0;0.0;0.0;2.0;0.6666666666666666;1.0;0.3333333333333333;1.0;0.3333333333333333;2.0;0.6666666666666666;1.0;0.3333333333333333;0.3333333333333333;1.0;0.3333333333333333;1.0;0.3333333333333333;1.0;file;ide;diff;8f;fscore;0.3333333333333333
95;95_45f1b327dadc5d5b562989a10b03eea5d185c64a-FILE.arff;RAkELd;3.0;3.0;1.0;3.0;1.0;0.0;0.0;0.0;0.0;0.0;0.0;3.0;1.0;0.0;0.0;0.0;0.0;0.0;0.0;0.0;0.0;file;ide;diff;8f;fscore;0.0
97;97_f1eabe4741d7789e41c57775baf4277a158350c6-FILE.arff;BR;2.0;2.0;1.0;2.0;1.0;0.0;0.0;0.0;0.0;0.0;0.0;2.0;1.0;0.0;0.0;0.0;0.0;0.0;0.0;0.0;0.0;file;ide;diff;8f;fscore;0.0
97;97_f1eabe4741d7789e41c57775baf4277a158350c6-FILE.arff;LP;2.0;2.0;1.0;0.0;0.0;2.0;1.0;0.0;0.0;0.0;0.0;2.0;1.0;0.0;0.0;0.0;0.0;0.0;0.0;0.0;0.0;file;ide;diff;8f;fscore;0.0
97;97_f1eabe4741d7789e41c57775baf4277a158350c6-FILE.arff;RAkELd;2.0;2.0;1.0;2.0;1.0;0.0;0.0;0.0;0.0;0.0;0.0;2.0;1.0;0.0;0.0;0.0;0.0;0.0;0.0;0.0;0.0;file;ide;diff;8f;fscore;0.0
139;139_b893fc56df181c0bd90303135564c28b90f3fb4d-FILE.arff;BR;1.0;1.0;1.0;1.0;1.0;0.0;0.0;0.0;0.0;0.0;0.0;1.0;1.0;0.0;0.0;0.0;0.0;0.0;0.0;0.0;0.0;file;ide;diff;8f;fscore;0.0
139;139_b893fc56df181c0bd90303135564c28b90f3fb4d-FILE.arff;LP;1.0;1.0;1.0;0.0;0.0;1.0;1.0;0.0;0.0;0.0;0.0;1.0;1.0;0.0;0.0;0.0;0.0;0.0;0.0;0.0;0.0;file;ide;diff;8f;fscore;0.0
139;139_b893fc56df181c0bd90303135564c28b90f3fb4d-FILE.arff;RAkELd;1.0;1.0;1.0;1.0;1.0;0.0;0.0;0.0;0.0;0.0;0.0;1.0;1.0;0.0;0.0;0.0;0.0;0.0;0.0;0.0;0.0;file;ide;diff;8f;fscore;0.0
143;143_e23e91c882cbfb52f47f5617e621459350f3fe38-FILE.arff;BR;1.0;1.0;1.0;1.0;1.0;0.0;0.0;0.0;0.0;0.0;0.0;1.0;1.0;0.0;0.0;0.0;0.0;0.0;0.0;0.0;0.0;file;ide;diff;8f;fscore;0.0
143;143_e23e91c882cbfb52f47f5617e621459350f3fe38-FILE.arff;LP;1.0;1.0;1.0;0.0;0.0;0.0;0.0;1.0;1.0;1.0;1.0;0.0;0.0;1.0;1.0;1.0;1.0;1.0;1.0;1.0;1.0;file;ide;diff;8f;fscore;1.0
143;143_e23e91c882cbfb52f47f5617e621459350f3fe38-FILE.arff;RAkELd;1.0;1.0;1.0;1.0;1.0;0.0;0.0;0.0;0.0;0.0;0.0;1.0;1.0;0.0;0.0;0.0;0.0;0.0;0.0;0.0;0.0;file;ide;diff;8f;fscore;0.0
146;146_91177058a0f52c25b501205a628e1f1e68b868d6-FILE.arff;BR;2.0;2.0;1.0;1.0;0.5;0.0;0.0;1.0;0.5;1.0;0.5;1.0;0.5;1.0;0.5;1.0;1.0;1.0;1.0;1.0;1.0;file;ide;diff;8f;fscore;1.0
146;146_91177058a0f52c25b501205a628e1f1e68b868d6-FILE.arff;LP;2.0;2.0;1.0;0.0;0.0;0.0;0.0;2.0;1.0;2.0;1.0;0.0;0.0;2.0;1.0;1.0;1.0;1.0;1.0;1.0;1.0;file;ide;diff;8f;fscore;1.0
146;146_91177058a0f52c25b501205a628e1f1e68b868d6-FILE.arff;RAkELd;2.0;2.0;1.0;1.0;0.5;0.0;0.0;1.0;0.5;1.0;0.5;1.0;0.5;1.0;0.5;1.0;1.0;1.0;1.0;1.0;1.0;file;ide;diff;8f;fscore;1.0
147;147_01955f4f4df4579405a8bb1868f60af30e9a028b-FILE.arff;BR;2.0;2.0;1.0;1.0;0.5;0.0;0.0;1.0;0.5;1.0;0.5;1.0;0.5;1.0;0.5;1.0;1.0;1.0;1.0;1.0;1.0;file;ide;diff;8f;fscore;1.0
147;147_01955f4f4df4579405a8bb1868f60af30e9a028b-FILE.arff;LP;2.0;2.0;1.0;0.0;0.0;1.0;0.5;1.0;0.5;1.0;0.5;1.0;0.5;1.0;0.5;0.5;1.0;0.5;1.0;0.5;1.0;file;ide;diff;8f;fscore;0.5
147;147_01955f4f4df4579405a8bb1868f60af30e9a028b-FILE.arff;RAkELd;2.0;2.0;1.0;1.0;0.5;0.0;0.0;1.0;0.5;1.0;0.5;1.0;0.5;1.0;0.5;1.0;1.0;1.0;1.0;1.0;1.0;file;ide;diff;8f;fscore;1.0
148;148_4cfd7fef412fb7e2bfb4e4cf6800400783e88901-FILE.arff;BR;1.0;1.0;1.0;0.0;0.0;0.0;0.0;1.0;1.0;1.0;1.0;0.0;0.0;1.0;1.0;1.0;1.0;1.0;1.0;1.0;1.0;file;ide;diff;8f;fscore;1.0
148;148_4cfd7fef412fb7e2bfb4e4cf6800400783e88901-FILE.arff;LP;1.0;1.0;1.0;0.0;0.0;0.0;0.0;1.0;1.0;1.0;1.0;0.0;0.0;1.0;1.0;1.0;1.0;1.0;1.0;1.0;1.0;file;ide;diff;8f;fscore;1.0
148;148_4cfd7fef412fb7e2bfb4e4cf6800400783e88901-FILE.arff;RAkELd;1.0;1.0;1.0;0.0;0.0;0.0;0.0;1.0;1.0;1.0;1.0;0.0;0.0;1.0;1.0;1.0;1.0;1.0;1.0;1.0;1.0;file;ide;diff;8f;fscore;1.0
149;149_a3862fc69053415592fdfb43a903d56e568b89c3-FILE.arff;BR;1.0;1.0;1.0;1.0;1.0;0.0;0.0;0.0;0.0;0.0;0.0;1.0;1.0;0.0;0.0;0.0;0.0;0.0;0.0;0.0;0.0;file;ide;diff;8f;fscore;0.0
149;149_a3862fc69053415592fdfb43a903d56e568b89c3-FILE.arff;LP;1.0;1.0;1.0;0.0;0.0;1.0;1.0;0.0;0.0;0.0;0.0;1.0;1.0;0.0;0.0;0.0;0.0;0.0;0.0;0.0;0.0;file;ide;diff;8f;fscore;0.0
149;149_a3862fc69053415592fdfb43a903d56e568b89c3-FILE.arff;RAkELd;1.0;1.0;1.0;1.0;1.0;0.0;0.0;0.0;0.0;0.0;0.0;1.0;1.0;0.0;0.0;0.0;0.0;0.0;0.0;0.0;0.0;file;ide;diff;8f;fscore;0.0
