commit;DataSet;Classifier;TotalInstances;InstancesWithRankedLabels;PercentageOfInstancesWithRankedLabels;InstancesWithPrecisionNull;PercentageOfInstancesWithPrecisionNull;InstancesWithPrecisionZero;PercentageOfInstancesWithPrecisionZero;InstancesWithPrecisionNonZero;PercentageOfInstancesWithPrecisionNonZero;InstancesWithPrecisionOne;PercentageOfInstancesWithPrecisionOne;InstancesWithRecallZero;PercentageOfInstancesWithRecallZero;InstancesWithRecallOne;PercentageOfInstancesWithRecallOne;AveragePrecisionForAllNonNullPrecision;AveragePrecisionForNonZeroPrecision;AverageRecallForAllNonNullPrecision;AverageRecallForAllNonZeroPrecision;AverageFScoreForAllNonNullPrecision;AverageFScoreForAllNonZeroPrecision;Level;project;clusters;feature;measure;measurevalue
42;42_7f0ef3b0d3e038a71703226d72fed409baaf0e88-FILE.arff;BR;1.0;1.0;1.0;0.0;0.0;1.0;1.0;0.0;0.0;0.0;0.0;1.0;1.0;0.0;0.0;0.0;0.0;0.0;0.0;0.0;0.0;file;tools;diff;8f;precision;0.0
42;42_7f0ef3b0d3e038a71703226d72fed409baaf0e88-FILE.arff;LP;1.0;1.0;1.0;0.0;0.0;1.0;1.0;0.0;0.0;0.0;0.0;1.0;1.0;0.0;0.0;0.0;0.0;0.0;0.0;0.0;0.0;file;tools;diff;8f;precision;0.0
42;42_7f0ef3b0d3e038a71703226d72fed409baaf0e88-FILE.arff;RAkELd;1.0;1.0;1.0;0.0;0.0;1.0;1.0;0.0;0.0;0.0;0.0;1.0;1.0;0.0;0.0;0.0;0.0;0.0;0.0;0.0;0.0;file;tools;diff;8f;precision;0.0
46;46_d45c541fdbf7ce30d8c70adc75f0fe575b9fcf60-FILE.arff;BR;1.0;1.0;1.0;0.0;0.0;0.0;0.0;1.0;1.0;0.0;0.0;0.0;0.0;1.0;1.0;0.5;0.5;1.0;1.0;0.6666666666666666;0.6666666666666666;file;tools;diff;8f;precision;0.5
46;46_d45c541fdbf7ce30d8c70adc75f0fe575b9fcf60-FILE.arff;LP;1.0;1.0;1.0;0.0;0.0;1.0;1.0;0.0;0.0;0.0;0.0;1.0;1.0;0.0;0.0;0.0;0.0;0.0;0.0;0.0;0.0;file;tools;diff;8f;precision;0.0
46;46_d45c541fdbf7ce30d8c70adc75f0fe575b9fcf60-FILE.arff;RAkELd;1.0;1.0;1.0;0.0;0.0;1.0;1.0;0.0;0.0;0.0;0.0;1.0;1.0;0.0;0.0;0.0;0.0;0.0;0.0;0.0;0.0;file;tools;diff;8f;precision;0.0
48;48_cb0eb5e198c692b57ce60602a6c0d72f5e4a7b32-FILE.arff;BR;1.0;1.0;1.0;0.0;0.0;1.0;1.0;0.0;0.0;0.0;0.0;1.0;1.0;0.0;0.0;0.0;0.0;0.0;0.0;0.0;0.0;file;tools;diff;8f;precision;0.0
48;48_cb0eb5e198c692b57ce60602a6c0d72f5e4a7b32-FILE.arff;LP;1.0;1.0;1.0;0.0;0.0;1.0;1.0;0.0;0.0;0.0;0.0;1.0;1.0;0.0;0.0;0.0;0.0;0.0;0.0;0.0;0.0;file;tools;diff;8f;precision;0.0
48;48_cb0eb5e198c692b57ce60602a6c0d72f5e4a7b32-FILE.arff;RAkELd;1.0;1.0;1.0;0.0;0.0;1.0;1.0;0.0;0.0;0.0;0.0;1.0;1.0;0.0;0.0;0.0;0.0;0.0;0.0;0.0;0.0;file;tools;diff;8f;precision;0.0
49;49_4a7567832ae650ecdfdfa6cd1726274f4fd8431c-FILE.arff;BR;1.0;1.0;1.0;0.0;0.0;1.0;1.0;0.0;0.0;0.0;0.0;1.0;1.0;0.0;0.0;0.0;0.0;0.0;0.0;0.0;0.0;file;tools;diff;8f;precision;0.0
49;49_4a7567832ae650ecdfdfa6cd1726274f4fd8431c-FILE.arff;LP;1.0;1.0;1.0;0.0;0.0;1.0;1.0;0.0;0.0;0.0;0.0;1.0;1.0;0.0;0.0;0.0;0.0;0.0;0.0;0.0;0.0;file;tools;diff;8f;precision;0.0
49;49_4a7567832ae650ecdfdfa6cd1726274f4fd8431c-FILE.arff;RAkELd;1.0;1.0;1.0;0.0;0.0;1.0;1.0;0.0;0.0;0.0;0.0;1.0;1.0;0.0;0.0;0.0;0.0;0.0;0.0;0.0;0.0;file;tools;diff;8f;precision;0.0
50;50_02ee066b1e5d40034311d3358084a56dfa7026c4-FILE.arff;BR;1.0;1.0;1.0;1.0;1.0;0.0;0.0;0.0;0.0;0.0;0.0;1.0;1.0;0.0;0.0;0.0;0.0;0.0;0.0;0.0;0.0;file;tools;diff;8f;precision;0.0
50;50_02ee066b1e5d40034311d3358084a56dfa7026c4-FILE.arff;LP;1.0;1.0;1.0;0.0;0.0;0.0;0.0;1.0;1.0;1.0;1.0;0.0;0.0;1.0;1.0;1.0;1.0;1.0;1.0;1.0;1.0;file;tools;diff;8f;precision;1.0
50;50_02ee066b1e5d40034311d3358084a56dfa7026c4-FILE.arff;RAkELd;1.0;1.0;1.0;1.0;1.0;0.0;0.0;0.0;0.0;0.0;0.0;1.0;1.0;0.0;0.0;0.0;0.0;0.0;0.0;0.0;0.0;file;tools;diff;8f;precision;0.0
51;51_deeabf59c6fbfa761cffadfafc15339aa667db23-FILE.arff;BR;1.0;1.0;1.0;1.0;1.0;0.0;0.0;0.0;0.0;0.0;0.0;1.0;1.0;0.0;0.0;0.0;0.0;0.0;0.0;0.0;0.0;file;tools;diff;8f;precision;0.0
51;51_deeabf59c6fbfa761cffadfafc15339aa667db23-FILE.arff;LP;1.0;1.0;1.0;0.0;0.0;0.0;0.0;1.0;1.0;1.0;1.0;0.0;0.0;1.0;1.0;1.0;1.0;1.0;1.0;1.0;1.0;file;tools;diff;8f;precision;1.0
51;51_deeabf59c6fbfa761cffadfafc15339aa667db23-FILE.arff;RAkELd;1.0;1.0;1.0;1.0;1.0;0.0;0.0;0.0;0.0;0.0;0.0;1.0;1.0;0.0;0.0;0.0;0.0;0.0;0.0;0.0;0.0;file;tools;diff;8f;precision;0.0
52;52_304819fbc19deb73be718f79a991e4a803022b96-FILE.arff;BR;2.0;2.0;1.0;2.0;1.0;0.0;0.0;0.0;0.0;0.0;0.0;2.0;1.0;0.0;0.0;0.0;0.0;0.0;0.0;0.0;0.0;file;tools;diff;8f;precision;0.0
52;52_304819fbc19deb73be718f79a991e4a803022b96-FILE.arff;LP;2.0;2.0;1.0;0.0;0.0;1.0;0.5;1.0;0.5;1.0;0.5;1.0;0.5;1.0;0.5;0.5;1.0;0.5;1.0;0.5;1.0;file;tools;diff;8f;precision;0.5
52;52_304819fbc19deb73be718f79a991e4a803022b96-FILE.arff;RAkELd;2.0;2.0;1.0;1.0;0.5;0.0;0.0;1.0;0.5;1.0;0.5;1.0;0.5;1.0;0.5;1.0;1.0;1.0;1.0;1.0;1.0;file;tools;diff;8f;precision;1.0
58;58_7d391e7498c159790b9d12f34e813cc802fa45ac-FILE.arff;BR;1.0;1.0;1.0;1.0;1.0;0.0;0.0;0.0;0.0;0.0;0.0;1.0;1.0;0.0;0.0;0.0;0.0;0.0;0.0;0.0;0.0;file;tools;diff;8f;precision;0.0
58;58_7d391e7498c159790b9d12f34e813cc802fa45ac-FILE.arff;LP;1.0;1.0;1.0;0.0;0.0;1.0;1.0;0.0;0.0;0.0;0.0;1.0;1.0;0.0;0.0;0.0;0.0;0.0;0.0;0.0;0.0;file;tools;diff;8f;precision;0.0
58;58_7d391e7498c159790b9d12f34e813cc802fa45ac-FILE.arff;RAkELd;1.0;1.0;1.0;1.0;1.0;0.0;0.0;0.0;0.0;0.0;0.0;1.0;1.0;0.0;0.0;0.0;0.0;0.0;0.0;0.0;0.0;file;tools;diff;8f;precision;0.0
59;59_1bd0ec489d4e57b94b2cbfa0e4324fc4e634c061-FILE.arff;BR;1.0;1.0;1.0;1.0;1.0;0.0;0.0;0.0;0.0;0.0;0.0;1.0;1.0;0.0;0.0;0.0;0.0;0.0;0.0;0.0;0.0;file;tools;diff;8f;precision;0.0
59;59_1bd0ec489d4e57b94b2cbfa0e4324fc4e634c061-FILE.arff;LP;1.0;1.0;1.0;0.0;0.0;0.0;0.0;1.0;1.0;1.0;1.0;0.0;0.0;1.0;1.0;1.0;1.0;1.0;1.0;1.0;1.0;file;tools;diff;8f;precision;1.0
59;59_1bd0ec489d4e57b94b2cbfa0e4324fc4e634c061-FILE.arff;RAkELd;1.0;1.0;1.0;1.0;1.0;0.0;0.0;0.0;0.0;0.0;0.0;1.0;1.0;0.0;0.0;0.0;0.0;0.0;0.0;0.0;0.0;file;tools;diff;8f;precision;0.0
60;60_5c8921a353832c216a14b874ac02156ed185de9c-FILE.arff;BR;1.0;1.0;1.0;1.0;1.0;0.0;0.0;0.0;0.0;0.0;0.0;1.0;1.0;0.0;0.0;0.0;0.0;0.0;0.0;0.0;0.0;file;tools;diff;8f;precision;0.0
60;60_5c8921a353832c216a14b874ac02156ed185de9c-FILE.arff;LP;1.0;1.0;1.0;0.0;0.0;0.0;0.0;1.0;1.0;1.0;1.0;0.0;0.0;1.0;1.0;1.0;1.0;1.0;1.0;1.0;1.0;file;tools;diff;8f;precision;1.0
60;60_5c8921a353832c216a14b874ac02156ed185de9c-FILE.arff;RAkELd;1.0;1.0;1.0;1.0;1.0;0.0;0.0;0.0;0.0;0.0;0.0;1.0;1.0;0.0;0.0;0.0;0.0;0.0;0.0;0.0;0.0;file;tools;diff;8f;precision;0.0
62;62_47ca9f47c109e4e4abd6915ff51dad1f1bcad661-FILE.arff;BR;1.0;1.0;1.0;1.0;1.0;0.0;0.0;0.0;0.0;0.0;0.0;1.0;1.0;0.0;0.0;0.0;0.0;0.0;0.0;0.0;0.0;file;tools;diff;8f;precision;0.0
62;62_47ca9f47c109e4e4abd6915ff51dad1f1bcad661-FILE.arff;LP;1.0;1.0;1.0;0.0;0.0;0.0;0.0;1.0;1.0;1.0;1.0;0.0;0.0;1.0;1.0;1.0;1.0;1.0;1.0;1.0;1.0;file;tools;diff;8f;precision;1.0
62;62_47ca9f47c109e4e4abd6915ff51dad1f1bcad661-FILE.arff;RAkELd;1.0;1.0;1.0;1.0;1.0;0.0;0.0;0.0;0.0;0.0;0.0;1.0;1.0;0.0;0.0;0.0;0.0;0.0;0.0;0.0;0.0;file;tools;diff;8f;precision;0.0
63;63_a6d1611449509eb37a3e3ef494436f8e3d59536e-FILE.arff;BR;3.0;3.0;1.0;3.0;1.0;0.0;0.0;0.0;0.0;0.0;0.0;3.0;1.0;0.0;0.0;0.0;0.0;0.0;0.0;0.0;0.0;file;tools;diff;8f;precision;0.0
63;63_a6d1611449509eb37a3e3ef494436f8e3d59536e-FILE.arff;LP;3.0;3.0;1.0;0.0;0.0;3.0;1.0;0.0;0.0;0.0;0.0;3.0;1.0;0.0;0.0;0.0;0.0;0.0;0.0;0.0;0.0;file;tools;diff;8f;precision;0.0
63;63_a6d1611449509eb37a3e3ef494436f8e3d59536e-FILE.arff;RAkELd;3.0;3.0;1.0;3.0;1.0;0.0;0.0;0.0;0.0;0.0;0.0;3.0;1.0;0.0;0.0;0.0;0.0;0.0;0.0;0.0;0.0;file;tools;diff;8f;precision;0.0
64;64_36eaec6006148a2ff9ad33a37631add3612902e5-FILE.arff;BR;1.0;1.0;1.0;1.0;1.0;0.0;0.0;0.0;0.0;0.0;0.0;1.0;1.0;0.0;0.0;0.0;0.0;0.0;0.0;0.0;0.0;file;tools;diff;8f;precision;0.0
64;64_36eaec6006148a2ff9ad33a37631add3612902e5-FILE.arff;LP;1.0;1.0;1.0;0.0;0.0;1.0;1.0;0.0;0.0;0.0;0.0;1.0;1.0;0.0;0.0;0.0;0.0;0.0;0.0;0.0;0.0;file;tools;diff;8f;precision;0.0
64;64_36eaec6006148a2ff9ad33a37631add3612902e5-FILE.arff;RAkELd;1.0;1.0;1.0;1.0;1.0;0.0;0.0;0.0;0.0;0.0;0.0;1.0;1.0;0.0;0.0;0.0;0.0;0.0;0.0;0.0;0.0;file;tools;diff;8f;precision;0.0
65;65_661f9dfe7cdc909cf9e26a270f22cd925a9acf75-FILE.arff;BR;1.0;1.0;1.0;1.0;1.0;0.0;0.0;0.0;0.0;0.0;0.0;1.0;1.0;0.0;0.0;0.0;0.0;0.0;0.0;0.0;0.0;file;tools;diff;8f;precision;0.0
65;65_661f9dfe7cdc909cf9e26a270f22cd925a9acf75-FILE.arff;LP;1.0;1.0;1.0;0.0;0.0;1.0;1.0;0.0;0.0;0.0;0.0;1.0;1.0;0.0;0.0;0.0;0.0;0.0;0.0;0.0;0.0;file;tools;diff;8f;precision;0.0
65;65_661f9dfe7cdc909cf9e26a270f22cd925a9acf75-FILE.arff;RAkELd;1.0;1.0;1.0;0.0;0.0;1.0;1.0;0.0;0.0;0.0;0.0;1.0;1.0;0.0;0.0;0.0;0.0;0.0;0.0;0.0;0.0;file;tools;diff;8f;precision;0.0
70;70_0ad5e0462afc0de4d76e557707f4f6cb903a266b-FILE.arff;BR;4.0;4.0;1.0;4.0;1.0;0.0;0.0;0.0;0.0;0.0;0.0;4.0;1.0;0.0;0.0;0.0;0.0;0.0;0.0;0.0;0.0;file;tools;diff;8f;precision;0.0
70;70_0ad5e0462afc0de4d76e557707f4f6cb903a266b-FILE.arff;LP;4.0;4.0;1.0;0.0;0.0;4.0;1.0;0.0;0.0;0.0;0.0;4.0;1.0;0.0;0.0;0.0;0.0;0.0;0.0;0.0;0.0;file;tools;diff;8f;precision;0.0
70;70_0ad5e0462afc0de4d76e557707f4f6cb903a266b-FILE.arff;RAkELd;4.0;4.0;1.0;4.0;1.0;0.0;0.0;0.0;0.0;0.0;0.0;4.0;1.0;0.0;0.0;0.0;0.0;0.0;0.0;0.0;0.0;file;tools;diff;8f;precision;0.0
72;72_631bbd18567f5527aaa17bc8dcd7b7b772164ec9-FILE.arff;BR;1.0;1.0;1.0;1.0;1.0;0.0;0.0;0.0;0.0;0.0;0.0;1.0;1.0;0.0;0.0;0.0;0.0;0.0;0.0;0.0;0.0;file;tools;diff;8f;precision;0.0
72;72_631bbd18567f5527aaa17bc8dcd7b7b772164ec9-FILE.arff;LP;1.0;1.0;1.0;0.0;0.0;1.0;1.0;0.0;0.0;0.0;0.0;1.0;1.0;0.0;0.0;0.0;0.0;0.0;0.0;0.0;0.0;file;tools;diff;8f;precision;0.0
72;72_631bbd18567f5527aaa17bc8dcd7b7b772164ec9-FILE.arff;RAkELd;1.0;1.0;1.0;1.0;1.0;0.0;0.0;0.0;0.0;0.0;0.0;1.0;1.0;0.0;0.0;0.0;0.0;0.0;0.0;0.0;0.0;file;tools;diff;8f;precision;0.0
76;76_d74af5835ad4a15d696d0474c69d4d4494ee04f0-FILE.arff;BR;1.0;1.0;1.0;1.0;1.0;0.0;0.0;0.0;0.0;0.0;0.0;1.0;1.0;0.0;0.0;0.0;0.0;0.0;0.0;0.0;0.0;file;tools;diff;8f;precision;0.0
76;76_d74af5835ad4a15d696d0474c69d4d4494ee04f0-FILE.arff;LP;1.0;1.0;1.0;0.0;0.0;1.0;1.0;0.0;0.0;0.0;0.0;1.0;1.0;0.0;0.0;0.0;0.0;0.0;0.0;0.0;0.0;file;tools;diff;8f;precision;0.0
76;76_d74af5835ad4a15d696d0474c69d4d4494ee04f0-FILE.arff;RAkELd;1.0;1.0;1.0;1.0;1.0;0.0;0.0;0.0;0.0;0.0;0.0;1.0;1.0;0.0;0.0;0.0;0.0;0.0;0.0;0.0;0.0;file;tools;diff;8f;precision;0.0
77;77_60c1bfd9624a4b6dae8a0d9ce85481efb081a47b-FILE.arff;BR;1.0;1.0;1.0;1.0;1.0;0.0;0.0;0.0;0.0;0.0;0.0;1.0;1.0;0.0;0.0;0.0;0.0;0.0;0.0;0.0;0.0;file;tools;diff;8f;precision;0.0
77;77_60c1bfd9624a4b6dae8a0d9ce85481efb081a47b-FILE.arff;LP;1.0;1.0;1.0;0.0;0.0;1.0;1.0;0.0;0.0;0.0;0.0;1.0;1.0;0.0;0.0;0.0;0.0;0.0;0.0;0.0;0.0;file;tools;diff;8f;precision;0.0
77;77_60c1bfd9624a4b6dae8a0d9ce85481efb081a47b-FILE.arff;RAkELd;1.0;1.0;1.0;1.0;1.0;0.0;0.0;0.0;0.0;0.0;0.0;1.0;1.0;0.0;0.0;0.0;0.0;0.0;0.0;0.0;0.0;file;tools;diff;8f;precision;0.0
78;78_450cd632d16f39a7c43a465bb7c9b675daf8283e-FILE.arff;BR;1.0;1.0;1.0;1.0;1.0;0.0;0.0;0.0;0.0;0.0;0.0;1.0;1.0;0.0;0.0;0.0;0.0;0.0;0.0;0.0;0.0;file;tools;diff;8f;precision;0.0
78;78_450cd632d16f39a7c43a465bb7c9b675daf8283e-FILE.arff;LP;1.0;1.0;1.0;0.0;0.0;1.0;1.0;0.0;0.0;0.0;0.0;1.0;1.0;0.0;0.0;0.0;0.0;0.0;0.0;0.0;0.0;file;tools;diff;8f;precision;0.0
78;78_450cd632d16f39a7c43a465bb7c9b675daf8283e-FILE.arff;RAkELd;1.0;1.0;1.0;1.0;1.0;0.0;0.0;0.0;0.0;0.0;0.0;1.0;1.0;0.0;0.0;0.0;0.0;0.0;0.0;0.0;0.0;file;tools;diff;8f;precision;0.0
79;79_8ffc110699306666c1c2c0ce69bd3ba1ce05cd27-FILE.arff;BR;1.0;1.0;1.0;1.0;1.0;0.0;0.0;0.0;0.0;0.0;0.0;1.0;1.0;0.0;0.0;0.0;0.0;0.0;0.0;0.0;0.0;file;tools;diff;8f;precision;0.0
79;79_8ffc110699306666c1c2c0ce69bd3ba1ce05cd27-FILE.arff;LP;1.0;1.0;1.0;0.0;0.0;1.0;1.0;0.0;0.0;0.0;0.0;1.0;1.0;0.0;0.0;0.0;0.0;0.0;0.0;0.0;0.0;file;tools;diff;8f;precision;0.0
79;79_8ffc110699306666c1c2c0ce69bd3ba1ce05cd27-FILE.arff;RAkELd;1.0;1.0;1.0;1.0;1.0;0.0;0.0;0.0;0.0;0.0;0.0;1.0;1.0;0.0;0.0;0.0;0.0;0.0;0.0;0.0;0.0;file;tools;diff;8f;precision;0.0
80;80_97aebfcd8adccb4d3db1030e15c7c92c29982fab-FILE.arff;BR;1.0;1.0;1.0;1.0;1.0;0.0;0.0;0.0;0.0;0.0;0.0;1.0;1.0;0.0;0.0;0.0;0.0;0.0;0.0;0.0;0.0;file;tools;diff;8f;precision;0.0
80;80_97aebfcd8adccb4d3db1030e15c7c92c29982fab-FILE.arff;LP;1.0;1.0;1.0;0.0;0.0;1.0;1.0;0.0;0.0;0.0;0.0;1.0;1.0;0.0;0.0;0.0;0.0;0.0;0.0;0.0;0.0;file;tools;diff;8f;precision;0.0
80;80_97aebfcd8adccb4d3db1030e15c7c92c29982fab-FILE.arff;RAkELd;1.0;1.0;1.0;1.0;1.0;0.0;0.0;0.0;0.0;0.0;0.0;1.0;1.0;0.0;0.0;0.0;0.0;0.0;0.0;0.0;0.0;file;tools;diff;8f;precision;0.0
81;81_f94e24632aadae446484c6d8b51b120131f5afc1-FILE.arff;BR;1.0;1.0;1.0;1.0;1.0;0.0;0.0;0.0;0.0;0.0;0.0;1.0;1.0;0.0;0.0;0.0;0.0;0.0;0.0;0.0;0.0;file;tools;diff;8f;precision;0.0
81;81_f94e24632aadae446484c6d8b51b120131f5afc1-FILE.arff;LP;1.0;1.0;1.0;0.0;0.0;1.0;1.0;0.0;0.0;0.0;0.0;1.0;1.0;0.0;0.0;0.0;0.0;0.0;0.0;0.0;0.0;file;tools;diff;8f;precision;0.0
81;81_f94e24632aadae446484c6d8b51b120131f5afc1-FILE.arff;RAkELd;1.0;1.0;1.0;1.0;1.0;0.0;0.0;0.0;0.0;0.0;0.0;1.0;1.0;0.0;0.0;0.0;0.0;0.0;0.0;0.0;0.0;file;tools;diff;8f;precision;0.0
82;82_25c3438edc12719ad9c9df8975108dfc8de0792c-FILE.arff;BR;1.0;1.0;1.0;1.0;1.0;0.0;0.0;0.0;0.0;0.0;0.0;1.0;1.0;0.0;0.0;0.0;0.0;0.0;0.0;0.0;0.0;file;tools;diff;8f;precision;0.0
82;82_25c3438edc12719ad9c9df8975108dfc8de0792c-FILE.arff;LP;1.0;1.0;1.0;0.0;0.0;1.0;1.0;0.0;0.0;0.0;0.0;1.0;1.0;0.0;0.0;0.0;0.0;0.0;0.0;0.0;0.0;file;tools;diff;8f;precision;0.0
82;82_25c3438edc12719ad9c9df8975108dfc8de0792c-FILE.arff;RAkELd;1.0;1.0;1.0;1.0;1.0;0.0;0.0;0.0;0.0;0.0;0.0;1.0;1.0;0.0;0.0;0.0;0.0;0.0;0.0;0.0;0.0;file;tools;diff;8f;precision;0.0
85;85_ca6fd14c7739cd790411ef60bdd9bf755ecf7e9c-FILE.arff;BR;1.0;1.0;1.0;1.0;1.0;0.0;0.0;0.0;0.0;0.0;0.0;1.0;1.0;0.0;0.0;0.0;0.0;0.0;0.0;0.0;0.0;file;tools;diff;8f;precision;0.0
85;85_ca6fd14c7739cd790411ef60bdd9bf755ecf7e9c-FILE.arff;LP;1.0;1.0;1.0;0.0;0.0;1.0;1.0;0.0;0.0;0.0;0.0;1.0;1.0;0.0;0.0;0.0;0.0;0.0;0.0;0.0;0.0;file;tools;diff;8f;precision;0.0
85;85_ca6fd14c7739cd790411ef60bdd9bf755ecf7e9c-FILE.arff;RAkELd;1.0;1.0;1.0;0.0;0.0;0.0;0.0;1.0;1.0;1.0;1.0;0.0;0.0;1.0;1.0;1.0;1.0;1.0;1.0;1.0;1.0;file;tools;diff;8f;precision;1.0
88;88_bb6063cf6d3a6f5b9b0826162468778b9d3581d0-FILE.arff;BR;1.0;1.0;1.0;1.0;1.0;0.0;0.0;0.0;0.0;0.0;0.0;1.0;1.0;0.0;0.0;0.0;0.0;0.0;0.0;0.0;0.0;file;tools;diff;8f;precision;0.0
88;88_bb6063cf6d3a6f5b9b0826162468778b9d3581d0-FILE.arff;LP;1.0;1.0;1.0;0.0;0.0;1.0;1.0;0.0;0.0;0.0;0.0;1.0;1.0;0.0;0.0;0.0;0.0;0.0;0.0;0.0;0.0;file;tools;diff;8f;precision;0.0
88;88_bb6063cf6d3a6f5b9b0826162468778b9d3581d0-FILE.arff;RAkELd;1.0;1.0;1.0;0.0;0.0;0.0;0.0;1.0;1.0;1.0;1.0;0.0;0.0;1.0;1.0;1.0;1.0;1.0;1.0;1.0;1.0;file;tools;diff;8f;precision;1.0
91;91_93ba8082c01fac2e8a82b26d1f7020a4e4d45156-FILE.arff;BR;1.0;1.0;1.0;1.0;1.0;0.0;0.0;0.0;0.0;0.0;0.0;1.0;1.0;0.0;0.0;0.0;0.0;0.0;0.0;0.0;0.0;file;tools;diff;8f;precision;0.0
91;91_93ba8082c01fac2e8a82b26d1f7020a4e4d45156-FILE.arff;LP;1.0;1.0;1.0;0.0;0.0;0.0;0.0;1.0;1.0;1.0;1.0;0.0;0.0;1.0;1.0;1.0;1.0;1.0;1.0;1.0;1.0;file;tools;diff;8f;precision;1.0
91;91_93ba8082c01fac2e8a82b26d1f7020a4e4d45156-FILE.arff;RAkELd;1.0;1.0;1.0;0.0;0.0;0.0;0.0;1.0;1.0;1.0;1.0;0.0;0.0;1.0;1.0;1.0;1.0;1.0;1.0;1.0;1.0;file;tools;diff;8f;precision;1.0
93;93_51c56763d267cfd3d2016eff243959ace415df47-FILE.arff;BR;4.0;4.0;1.0;4.0;1.0;0.0;0.0;0.0;0.0;0.0;0.0;4.0;1.0;0.0;0.0;0.0;0.0;0.0;0.0;0.0;0.0;file;tools;diff;8f;precision;0.0
93;93_51c56763d267cfd3d2016eff243959ace415df47-FILE.arff;LP;4.0;4.0;1.0;0.0;0.0;4.0;1.0;0.0;0.0;0.0;0.0;4.0;1.0;0.0;0.0;0.0;0.0;0.0;0.0;0.0;0.0;file;tools;diff;8f;precision;0.0
93;93_51c56763d267cfd3d2016eff243959ace415df47-FILE.arff;RAkELd;4.0;4.0;1.0;0.0;0.0;4.0;1.0;0.0;0.0;0.0;0.0;4.0;1.0;0.0;0.0;0.0;0.0;0.0;0.0;0.0;0.0;file;tools;diff;8f;precision;0.0
97;97_2b57726f7934d9ee1ccb19bbb5abb2bf01d9153c-FILE.arff;BR;1.0;1.0;1.0;1.0;1.0;0.0;0.0;0.0;0.0;0.0;0.0;1.0;1.0;0.0;0.0;0.0;0.0;0.0;0.0;0.0;0.0;file;tools;diff;8f;precision;0.0
97;97_2b57726f7934d9ee1ccb19bbb5abb2bf01d9153c-FILE.arff;LP;1.0;1.0;1.0;0.0;0.0;1.0;1.0;0.0;0.0;0.0;0.0;1.0;1.0;0.0;0.0;0.0;0.0;0.0;0.0;0.0;0.0;file;tools;diff;8f;precision;0.0
97;97_2b57726f7934d9ee1ccb19bbb5abb2bf01d9153c-FILE.arff;RAkELd;1.0;1.0;1.0;1.0;1.0;0.0;0.0;0.0;0.0;0.0;0.0;1.0;1.0;0.0;0.0;0.0;0.0;0.0;0.0;0.0;0.0;file;tools;diff;8f;precision;0.0
99;99_f3af85706152f7ed475251b916fc57b1790c4e41-FILE.arff;BR;1.0;1.0;1.0;1.0;1.0;0.0;0.0;0.0;0.0;0.0;0.0;1.0;1.0;0.0;0.0;0.0;0.0;0.0;0.0;0.0;0.0;file;tools;diff;8f;precision;0.0
99;99_f3af85706152f7ed475251b916fc57b1790c4e41-FILE.arff;LP;1.0;1.0;1.0;0.0;0.0;1.0;1.0;0.0;0.0;0.0;0.0;1.0;1.0;0.0;0.0;0.0;0.0;0.0;0.0;0.0;0.0;file;tools;diff;8f;precision;0.0
99;99_f3af85706152f7ed475251b916fc57b1790c4e41-FILE.arff;RAkELd;1.0;1.0;1.0;1.0;1.0;0.0;0.0;0.0;0.0;0.0;0.0;1.0;1.0;0.0;0.0;0.0;0.0;0.0;0.0;0.0;0.0;file;tools;diff;8f;precision;0.0
103;103_26b530cf19618fc08603a25417524d4428a10a1b-FILE.arff;BR;1.0;1.0;1.0;1.0;1.0;0.0;0.0;0.0;0.0;0.0;0.0;1.0;1.0;0.0;0.0;0.0;0.0;0.0;0.0;0.0;0.0;file;tools;diff;8f;precision;0.0
103;103_26b530cf19618fc08603a25417524d4428a10a1b-FILE.arff;LP;1.0;1.0;1.0;0.0;0.0;1.0;1.0;0.0;0.0;0.0;0.0;1.0;1.0;0.0;0.0;0.0;0.0;0.0;0.0;0.0;0.0;file;tools;diff;8f;precision;0.0
103;103_26b530cf19618fc08603a25417524d4428a10a1b-FILE.arff;RAkELd;1.0;1.0;1.0;1.0;1.0;0.0;0.0;0.0;0.0;0.0;0.0;1.0;1.0;0.0;0.0;0.0;0.0;0.0;0.0;0.0;0.0;file;tools;diff;8f;precision;0.0
104;104_5d6b0dbf7f752c9dcb02506d2fb070e9c5f17f10-FILE.arff;BR;1.0;1.0;1.0;1.0;1.0;0.0;0.0;0.0;0.0;0.0;0.0;1.0;1.0;0.0;0.0;0.0;0.0;0.0;0.0;0.0;0.0;file;tools;diff;8f;precision;0.0
104;104_5d6b0dbf7f752c9dcb02506d2fb070e9c5f17f10-FILE.arff;LP;1.0;1.0;1.0;0.0;0.0;1.0;1.0;0.0;0.0;0.0;0.0;1.0;1.0;0.0;0.0;0.0;0.0;0.0;0.0;0.0;0.0;file;tools;diff;8f;precision;0.0
104;104_5d6b0dbf7f752c9dcb02506d2fb070e9c5f17f10-FILE.arff;RAkELd;1.0;1.0;1.0;1.0;1.0;0.0;0.0;0.0;0.0;0.0;0.0;1.0;1.0;0.0;0.0;0.0;0.0;0.0;0.0;0.0;0.0;file;tools;diff;8f;precision;0.0
105;105_cd79484caaf9c1fb956a22bcf9ac73e32b4470b6-FILE.arff;BR;3.0;3.0;1.0;3.0;1.0;0.0;0.0;0.0;0.0;0.0;0.0;3.0;1.0;0.0;0.0;0.0;0.0;0.0;0.0;0.0;0.0;file;tools;diff;8f;precision;0.0
105;105_cd79484caaf9c1fb956a22bcf9ac73e32b4470b6-FILE.arff;LP;3.0;3.0;1.0;0.0;0.0;3.0;1.0;0.0;0.0;0.0;0.0;3.0;1.0;0.0;0.0;0.0;0.0;0.0;0.0;0.0;0.0;file;tools;diff;8f;precision;0.0
105;105_cd79484caaf9c1fb956a22bcf9ac73e32b4470b6-FILE.arff;RAkELd;3.0;3.0;1.0;3.0;1.0;0.0;0.0;0.0;0.0;0.0;0.0;3.0;1.0;0.0;0.0;0.0;0.0;0.0;0.0;0.0;0.0;file;tools;diff;8f;precision;0.0
113;113_44854e5b60aa6690a1eec54dd04ea8217568445f-FILE.arff;BR;1.0;1.0;1.0;1.0;1.0;0.0;0.0;0.0;0.0;0.0;0.0;1.0;1.0;0.0;0.0;0.0;0.0;0.0;0.0;0.0;0.0;file;tools;diff;8f;precision;0.0
113;113_44854e5b60aa6690a1eec54dd04ea8217568445f-FILE.arff;LP;1.0;1.0;1.0;0.0;0.0;1.0;1.0;0.0;0.0;0.0;0.0;1.0;1.0;0.0;0.0;0.0;0.0;0.0;0.0;0.0;0.0;file;tools;diff;8f;precision;0.0
113;113_44854e5b60aa6690a1eec54dd04ea8217568445f-FILE.arff;RAkELd;1.0;1.0;1.0;1.0;1.0;0.0;0.0;0.0;0.0;0.0;0.0;1.0;1.0;0.0;0.0;0.0;0.0;0.0;0.0;0.0;0.0;file;tools;diff;8f;precision;0.0
114;114_a7f8bf60bc8c5b8370dfad5d695440be3ae08b91-FILE.arff;BR;3.0;3.0;1.0;3.0;1.0;0.0;0.0;0.0;0.0;0.0;0.0;3.0;1.0;0.0;0.0;0.0;0.0;0.0;0.0;0.0;0.0;file;tools;diff;8f;precision;0.0
114;114_a7f8bf60bc8c5b8370dfad5d695440be3ae08b91-FILE.arff;LP;3.0;3.0;1.0;0.0;0.0;3.0;1.0;0.0;0.0;0.0;0.0;3.0;1.0;0.0;0.0;0.0;0.0;0.0;0.0;0.0;0.0;file;tools;diff;8f;precision;0.0
114;114_a7f8bf60bc8c5b8370dfad5d695440be3ae08b91-FILE.arff;RAkELd;3.0;3.0;1.0;3.0;1.0;0.0;0.0;0.0;0.0;0.0;0.0;3.0;1.0;0.0;0.0;0.0;0.0;0.0;0.0;0.0;0.0;file;tools;diff;8f;precision;0.0
119;119_23bded8568a0eac403b2b4cb845569bf1fddbf8f-FILE.arff;BR;2.0;2.0;1.0;2.0;1.0;0.0;0.0;0.0;0.0;0.0;0.0;2.0;1.0;0.0;0.0;0.0;0.0;0.0;0.0;0.0;0.0;file;tools;diff;8f;precision;0.0
119;119_23bded8568a0eac403b2b4cb845569bf1fddbf8f-FILE.arff;LP;2.0;2.0;1.0;0.0;0.0;2.0;1.0;0.0;0.0;0.0;0.0;2.0;1.0;0.0;0.0;0.0;0.0;0.0;0.0;0.0;0.0;file;tools;diff;8f;precision;0.0
119;119_23bded8568a0eac403b2b4cb845569bf1fddbf8f-FILE.arff;RAkELd;2.0;2.0;1.0;2.0;1.0;0.0;0.0;0.0;0.0;0.0;0.0;2.0;1.0;0.0;0.0;0.0;0.0;0.0;0.0;0.0;0.0;file;tools;diff;8f;precision;0.0
122;122_71556e444e7f607c3c7a0a5b3b7936e0fc4a25d2-FILE.arff;BR;3.0;3.0;1.0;3.0;1.0;0.0;0.0;0.0;0.0;0.0;0.0;3.0;1.0;0.0;0.0;0.0;0.0;0.0;0.0;0.0;0.0;file;tools;diff;8f;precision;0.0
122;122_71556e444e7f607c3c7a0a5b3b7936e0fc4a25d2-FILE.arff;LP;3.0;3.0;1.0;0.0;0.0;3.0;1.0;0.0;0.0;0.0;0.0;3.0;1.0;0.0;0.0;0.0;0.0;0.0;0.0;0.0;0.0;file;tools;diff;8f;precision;0.0
122;122_71556e444e7f607c3c7a0a5b3b7936e0fc4a25d2-FILE.arff;RAkELd;3.0;3.0;1.0;3.0;1.0;0.0;0.0;0.0;0.0;0.0;0.0;3.0;1.0;0.0;0.0;0.0;0.0;0.0;0.0;0.0;0.0;file;tools;diff;8f;precision;0.0
126;126_ad9d1d1490d499b5e0aee1905cbd868f4d497d00-FILE.arff;BR;1.0;1.0;1.0;1.0;1.0;0.0;0.0;0.0;0.0;0.0;0.0;1.0;1.0;0.0;0.0;0.0;0.0;0.0;0.0;0.0;0.0;file;tools;diff;8f;precision;0.0
126;126_ad9d1d1490d499b5e0aee1905cbd868f4d497d00-FILE.arff;LP;1.0;1.0;1.0;0.0;0.0;1.0;1.0;0.0;0.0;0.0;0.0;1.0;1.0;0.0;0.0;0.0;0.0;0.0;0.0;0.0;0.0;file;tools;diff;8f;precision;0.0
126;126_ad9d1d1490d499b5e0aee1905cbd868f4d497d00-FILE.arff;RAkELd;1.0;1.0;1.0;1.0;1.0;0.0;0.0;0.0;0.0;0.0;0.0;1.0;1.0;0.0;0.0;0.0;0.0;0.0;0.0;0.0;0.0;file;tools;diff;8f;precision;0.0
130;130_45106ed76f9cdc9d1589b2802eb19ab54919c87d-FILE.arff;BR;1.0;1.0;1.0;1.0;1.0;0.0;0.0;0.0;0.0;0.0;0.0;1.0;1.0;0.0;0.0;0.0;0.0;0.0;0.0;0.0;0.0;file;tools;diff;8f;precision;0.0
130;130_45106ed76f9cdc9d1589b2802eb19ab54919c87d-FILE.arff;LP;1.0;1.0;1.0;0.0;0.0;1.0;1.0;0.0;0.0;0.0;0.0;1.0;1.0;0.0;0.0;0.0;0.0;0.0;0.0;0.0;0.0;file;tools;diff;8f;precision;0.0
130;130_45106ed76f9cdc9d1589b2802eb19ab54919c87d-FILE.arff;RAkELd;1.0;1.0;1.0;1.0;1.0;0.0;0.0;0.0;0.0;0.0;0.0;1.0;1.0;0.0;0.0;0.0;0.0;0.0;0.0;0.0;0.0;file;tools;diff;8f;precision;0.0
133;133_eed925f6fd6ba29f48c1d9430199eb3a133a1718-FILE.arff;BR;1.0;1.0;1.0;1.0;1.0;0.0;0.0;0.0;0.0;0.0;0.0;1.0;1.0;0.0;0.0;0.0;0.0;0.0;0.0;0.0;0.0;file;tools;diff;8f;precision;0.0
133;133_eed925f6fd6ba29f48c1d9430199eb3a133a1718-FILE.arff;LP;1.0;1.0;1.0;0.0;0.0;1.0;1.0;0.0;0.0;0.0;0.0;1.0;1.0;0.0;0.0;0.0;0.0;0.0;0.0;0.0;0.0;file;tools;diff;8f;precision;0.0
133;133_eed925f6fd6ba29f48c1d9430199eb3a133a1718-FILE.arff;RAkELd;1.0;1.0;1.0;1.0;1.0;0.0;0.0;0.0;0.0;0.0;0.0;1.0;1.0;0.0;0.0;0.0;0.0;0.0;0.0;0.0;0.0;file;tools;diff;8f;precision;0.0
134;134_d69383a369855daacd7a81d615db8173752a7eaa-FILE.arff;BR;1.0;1.0;1.0;1.0;1.0;0.0;0.0;0.0;0.0;0.0;0.0;1.0;1.0;0.0;0.0;0.0;0.0;0.0;0.0;0.0;0.0;file;tools;diff;8f;precision;0.0
134;134_d69383a369855daacd7a81d615db8173752a7eaa-FILE.arff;LP;1.0;1.0;1.0;0.0;0.0;1.0;1.0;0.0;0.0;0.0;0.0;1.0;1.0;0.0;0.0;0.0;0.0;0.0;0.0;0.0;0.0;file;tools;diff;8f;precision;0.0
134;134_d69383a369855daacd7a81d615db8173752a7eaa-FILE.arff;RAkELd;1.0;1.0;1.0;1.0;1.0;0.0;0.0;0.0;0.0;0.0;0.0;1.0;1.0;0.0;0.0;0.0;0.0;0.0;0.0;0.0;0.0;file;tools;diff;8f;precision;0.0
135;135_303f4a4a06a8abf5ed8aab57f9ede63f92adc2cd-FILE.arff;BR;1.0;1.0;1.0;1.0;1.0;0.0;0.0;0.0;0.0;0.0;0.0;1.0;1.0;0.0;0.0;0.0;0.0;0.0;0.0;0.0;0.0;file;tools;diff;8f;precision;0.0
135;135_303f4a4a06a8abf5ed8aab57f9ede63f92adc2cd-FILE.arff;LP;1.0;1.0;1.0;0.0;0.0;1.0;1.0;0.0;0.0;0.0;0.0;1.0;1.0;0.0;0.0;0.0;0.0;0.0;0.0;0.0;0.0;file;tools;diff;8f;precision;0.0
135;135_303f4a4a06a8abf5ed8aab57f9ede63f92adc2cd-FILE.arff;RAkELd;1.0;1.0;1.0;1.0;1.0;0.0;0.0;0.0;0.0;0.0;0.0;1.0;1.0;0.0;0.0;0.0;0.0;0.0;0.0;0.0;0.0;file;tools;diff;8f;precision;0.0
146;146_2474f804ebd37486ad8f83690c6cf189fa95053c-FILE.arff;BR;1.0;1.0;1.0;1.0;1.0;0.0;0.0;0.0;0.0;0.0;0.0;1.0;1.0;0.0;0.0;0.0;0.0;0.0;0.0;0.0;0.0;file;tools;diff;8f;precision;0.0
146;146_2474f804ebd37486ad8f83690c6cf189fa95053c-FILE.arff;LP;1.0;1.0;1.0;0.0;0.0;1.0;1.0;0.0;0.0;0.0;0.0;1.0;1.0;0.0;0.0;0.0;0.0;0.0;0.0;0.0;0.0;file;tools;diff;8f;precision;0.0
146;146_2474f804ebd37486ad8f83690c6cf189fa95053c-FILE.arff;RAkELd;1.0;1.0;1.0;1.0;1.0;0.0;0.0;0.0;0.0;0.0;0.0;1.0;1.0;0.0;0.0;0.0;0.0;0.0;0.0;0.0;0.0;file;tools;diff;8f;precision;0.0
42;42_7f0ef3b0d3e038a71703226d72fed409baaf0e88-FILE.arff;BR;1.0;1.0;1.0;0.0;0.0;1.0;1.0;0.0;0.0;0.0;0.0;1.0;1.0;0.0;0.0;0.0;0.0;0.0;0.0;0.0;0.0;file;tools;diff;8f;recall;0.0
42;42_7f0ef3b0d3e038a71703226d72fed409baaf0e88-FILE.arff;LP;1.0;1.0;1.0;0.0;0.0;1.0;1.0;0.0;0.0;0.0;0.0;1.0;1.0;0.0;0.0;0.0;0.0;0.0;0.0;0.0;0.0;file;tools;diff;8f;recall;0.0
42;42_7f0ef3b0d3e038a71703226d72fed409baaf0e88-FILE.arff;RAkELd;1.0;1.0;1.0;0.0;0.0;1.0;1.0;0.0;0.0;0.0;0.0;1.0;1.0;0.0;0.0;0.0;0.0;0.0;0.0;0.0;0.0;file;tools;diff;8f;recall;0.0
46;46_d45c541fdbf7ce30d8c70adc75f0fe575b9fcf60-FILE.arff;BR;1.0;1.0;1.0;0.0;0.0;0.0;0.0;1.0;1.0;0.0;0.0;0.0;0.0;1.0;1.0;0.5;0.5;1.0;1.0;0.6666666666666666;0.6666666666666666;file;tools;diff;8f;recall;1.0
46;46_d45c541fdbf7ce30d8c70adc75f0fe575b9fcf60-FILE.arff;LP;1.0;1.0;1.0;0.0;0.0;1.0;1.0;0.0;0.0;0.0;0.0;1.0;1.0;0.0;0.0;0.0;0.0;0.0;0.0;0.0;0.0;file;tools;diff;8f;recall;0.0
46;46_d45c541fdbf7ce30d8c70adc75f0fe575b9fcf60-FILE.arff;RAkELd;1.0;1.0;1.0;0.0;0.0;1.0;1.0;0.0;0.0;0.0;0.0;1.0;1.0;0.0;0.0;0.0;0.0;0.0;0.0;0.0;0.0;file;tools;diff;8f;recall;0.0
48;48_cb0eb5e198c692b57ce60602a6c0d72f5e4a7b32-FILE.arff;BR;1.0;1.0;1.0;0.0;0.0;1.0;1.0;0.0;0.0;0.0;0.0;1.0;1.0;0.0;0.0;0.0;0.0;0.0;0.0;0.0;0.0;file;tools;diff;8f;recall;0.0
48;48_cb0eb5e198c692b57ce60602a6c0d72f5e4a7b32-FILE.arff;LP;1.0;1.0;1.0;0.0;0.0;1.0;1.0;0.0;0.0;0.0;0.0;1.0;1.0;0.0;0.0;0.0;0.0;0.0;0.0;0.0;0.0;file;tools;diff;8f;recall;0.0
48;48_cb0eb5e198c692b57ce60602a6c0d72f5e4a7b32-FILE.arff;RAkELd;1.0;1.0;1.0;0.0;0.0;1.0;1.0;0.0;0.0;0.0;0.0;1.0;1.0;0.0;0.0;0.0;0.0;0.0;0.0;0.0;0.0;file;tools;diff;8f;recall;0.0
49;49_4a7567832ae650ecdfdfa6cd1726274f4fd8431c-FILE.arff;BR;1.0;1.0;1.0;0.0;0.0;1.0;1.0;0.0;0.0;0.0;0.0;1.0;1.0;0.0;0.0;0.0;0.0;0.0;0.0;0.0;0.0;file;tools;diff;8f;recall;0.0
49;49_4a7567832ae650ecdfdfa6cd1726274f4fd8431c-FILE.arff;LP;1.0;1.0;1.0;0.0;0.0;1.0;1.0;0.0;0.0;0.0;0.0;1.0;1.0;0.0;0.0;0.0;0.0;0.0;0.0;0.0;0.0;file;tools;diff;8f;recall;0.0
49;49_4a7567832ae650ecdfdfa6cd1726274f4fd8431c-FILE.arff;RAkELd;1.0;1.0;1.0;0.0;0.0;1.0;1.0;0.0;0.0;0.0;0.0;1.0;1.0;0.0;0.0;0.0;0.0;0.0;0.0;0.0;0.0;file;tools;diff;8f;recall;0.0
50;50_02ee066b1e5d40034311d3358084a56dfa7026c4-FILE.arff;BR;1.0;1.0;1.0;1.0;1.0;0.0;0.0;0.0;0.0;0.0;0.0;1.0;1.0;0.0;0.0;0.0;0.0;0.0;0.0;0.0;0.0;file;tools;diff;8f;recall;0.0
50;50_02ee066b1e5d40034311d3358084a56dfa7026c4-FILE.arff;LP;1.0;1.0;1.0;0.0;0.0;0.0;0.0;1.0;1.0;1.0;1.0;0.0;0.0;1.0;1.0;1.0;1.0;1.0;1.0;1.0;1.0;file;tools;diff;8f;recall;1.0
50;50_02ee066b1e5d40034311d3358084a56dfa7026c4-FILE.arff;RAkELd;1.0;1.0;1.0;1.0;1.0;0.0;0.0;0.0;0.0;0.0;0.0;1.0;1.0;0.0;0.0;0.0;0.0;0.0;0.0;0.0;0.0;file;tools;diff;8f;recall;0.0
51;51_deeabf59c6fbfa761cffadfafc15339aa667db23-FILE.arff;BR;1.0;1.0;1.0;1.0;1.0;0.0;0.0;0.0;0.0;0.0;0.0;1.0;1.0;0.0;0.0;0.0;0.0;0.0;0.0;0.0;0.0;file;tools;diff;8f;recall;0.0
51;51_deeabf59c6fbfa761cffadfafc15339aa667db23-FILE.arff;LP;1.0;1.0;1.0;0.0;0.0;0.0;0.0;1.0;1.0;1.0;1.0;0.0;0.0;1.0;1.0;1.0;1.0;1.0;1.0;1.0;1.0;file;tools;diff;8f;recall;1.0
51;51_deeabf59c6fbfa761cffadfafc15339aa667db23-FILE.arff;RAkELd;1.0;1.0;1.0;1.0;1.0;0.0;0.0;0.0;0.0;0.0;0.0;1.0;1.0;0.0;0.0;0.0;0.0;0.0;0.0;0.0;0.0;file;tools;diff;8f;recall;0.0
52;52_304819fbc19deb73be718f79a991e4a803022b96-FILE.arff;BR;2.0;2.0;1.0;2.0;1.0;0.0;0.0;0.0;0.0;0.0;0.0;2.0;1.0;0.0;0.0;0.0;0.0;0.0;0.0;0.0;0.0;file;tools;diff;8f;recall;0.0
52;52_304819fbc19deb73be718f79a991e4a803022b96-FILE.arff;LP;2.0;2.0;1.0;0.0;0.0;1.0;0.5;1.0;0.5;1.0;0.5;1.0;0.5;1.0;0.5;0.5;1.0;0.5;1.0;0.5;1.0;file;tools;diff;8f;recall;0.5
52;52_304819fbc19deb73be718f79a991e4a803022b96-FILE.arff;RAkELd;2.0;2.0;1.0;1.0;0.5;0.0;0.0;1.0;0.5;1.0;0.5;1.0;0.5;1.0;0.5;1.0;1.0;1.0;1.0;1.0;1.0;file;tools;diff;8f;recall;1.0
58;58_7d391e7498c159790b9d12f34e813cc802fa45ac-FILE.arff;BR;1.0;1.0;1.0;1.0;1.0;0.0;0.0;0.0;0.0;0.0;0.0;1.0;1.0;0.0;0.0;0.0;0.0;0.0;0.0;0.0;0.0;file;tools;diff;8f;recall;0.0
58;58_7d391e7498c159790b9d12f34e813cc802fa45ac-FILE.arff;LP;1.0;1.0;1.0;0.0;0.0;1.0;1.0;0.0;0.0;0.0;0.0;1.0;1.0;0.0;0.0;0.0;0.0;0.0;0.0;0.0;0.0;file;tools;diff;8f;recall;0.0
58;58_7d391e7498c159790b9d12f34e813cc802fa45ac-FILE.arff;RAkELd;1.0;1.0;1.0;1.0;1.0;0.0;0.0;0.0;0.0;0.0;0.0;1.0;1.0;0.0;0.0;0.0;0.0;0.0;0.0;0.0;0.0;file;tools;diff;8f;recall;0.0
59;59_1bd0ec489d4e57b94b2cbfa0e4324fc4e634c061-FILE.arff;BR;1.0;1.0;1.0;1.0;1.0;0.0;0.0;0.0;0.0;0.0;0.0;1.0;1.0;0.0;0.0;0.0;0.0;0.0;0.0;0.0;0.0;file;tools;diff;8f;recall;0.0
59;59_1bd0ec489d4e57b94b2cbfa0e4324fc4e634c061-FILE.arff;LP;1.0;1.0;1.0;0.0;0.0;0.0;0.0;1.0;1.0;1.0;1.0;0.0;0.0;1.0;1.0;1.0;1.0;1.0;1.0;1.0;1.0;file;tools;diff;8f;recall;1.0
59;59_1bd0ec489d4e57b94b2cbfa0e4324fc4e634c061-FILE.arff;RAkELd;1.0;1.0;1.0;1.0;1.0;0.0;0.0;0.0;0.0;0.0;0.0;1.0;1.0;0.0;0.0;0.0;0.0;0.0;0.0;0.0;0.0;file;tools;diff;8f;recall;0.0
60;60_5c8921a353832c216a14b874ac02156ed185de9c-FILE.arff;BR;1.0;1.0;1.0;1.0;1.0;0.0;0.0;0.0;0.0;0.0;0.0;1.0;1.0;0.0;0.0;0.0;0.0;0.0;0.0;0.0;0.0;file;tools;diff;8f;recall;0.0
60;60_5c8921a353832c216a14b874ac02156ed185de9c-FILE.arff;LP;1.0;1.0;1.0;0.0;0.0;0.0;0.0;1.0;1.0;1.0;1.0;0.0;0.0;1.0;1.0;1.0;1.0;1.0;1.0;1.0;1.0;file;tools;diff;8f;recall;1.0
60;60_5c8921a353832c216a14b874ac02156ed185de9c-FILE.arff;RAkELd;1.0;1.0;1.0;1.0;1.0;0.0;0.0;0.0;0.0;0.0;0.0;1.0;1.0;0.0;0.0;0.0;0.0;0.0;0.0;0.0;0.0;file;tools;diff;8f;recall;0.0
62;62_47ca9f47c109e4e4abd6915ff51dad1f1bcad661-FILE.arff;BR;1.0;1.0;1.0;1.0;1.0;0.0;0.0;0.0;0.0;0.0;0.0;1.0;1.0;0.0;0.0;0.0;0.0;0.0;0.0;0.0;0.0;file;tools;diff;8f;recall;0.0
62;62_47ca9f47c109e4e4abd6915ff51dad1f1bcad661-FILE.arff;LP;1.0;1.0;1.0;0.0;0.0;0.0;0.0;1.0;1.0;1.0;1.0;0.0;0.0;1.0;1.0;1.0;1.0;1.0;1.0;1.0;1.0;file;tools;diff;8f;recall;1.0
62;62_47ca9f47c109e4e4abd6915ff51dad1f1bcad661-FILE.arff;RAkELd;1.0;1.0;1.0;1.0;1.0;0.0;0.0;0.0;0.0;0.0;0.0;1.0;1.0;0.0;0.0;0.0;0.0;0.0;0.0;0.0;0.0;file;tools;diff;8f;recall;0.0
63;63_a6d1611449509eb37a3e3ef494436f8e3d59536e-FILE.arff;BR;3.0;3.0;1.0;3.0;1.0;0.0;0.0;0.0;0.0;0.0;0.0;3.0;1.0;0.0;0.0;0.0;0.0;0.0;0.0;0.0;0.0;file;tools;diff;8f;recall;0.0
63;63_a6d1611449509eb37a3e3ef494436f8e3d59536e-FILE.arff;LP;3.0;3.0;1.0;0.0;0.0;3.0;1.0;0.0;0.0;0.0;0.0;3.0;1.0;0.0;0.0;0.0;0.0;0.0;0.0;0.0;0.0;file;tools;diff;8f;recall;0.0
63;63_a6d1611449509eb37a3e3ef494436f8e3d59536e-FILE.arff;RAkELd;3.0;3.0;1.0;3.0;1.0;0.0;0.0;0.0;0.0;0.0;0.0;3.0;1.0;0.0;0.0;0.0;0.0;0.0;0.0;0.0;0.0;file;tools;diff;8f;recall;0.0
64;64_36eaec6006148a2ff9ad33a37631add3612902e5-FILE.arff;BR;1.0;1.0;1.0;1.0;1.0;0.0;0.0;0.0;0.0;0.0;0.0;1.0;1.0;0.0;0.0;0.0;0.0;0.0;0.0;0.0;0.0;file;tools;diff;8f;recall;0.0
64;64_36eaec6006148a2ff9ad33a37631add3612902e5-FILE.arff;LP;1.0;1.0;1.0;0.0;0.0;1.0;1.0;0.0;0.0;0.0;0.0;1.0;1.0;0.0;0.0;0.0;0.0;0.0;0.0;0.0;0.0;file;tools;diff;8f;recall;0.0
64;64_36eaec6006148a2ff9ad33a37631add3612902e5-FILE.arff;RAkELd;1.0;1.0;1.0;1.0;1.0;0.0;0.0;0.0;0.0;0.0;0.0;1.0;1.0;0.0;0.0;0.0;0.0;0.0;0.0;0.0;0.0;file;tools;diff;8f;recall;0.0
65;65_661f9dfe7cdc909cf9e26a270f22cd925a9acf75-FILE.arff;BR;1.0;1.0;1.0;1.0;1.0;0.0;0.0;0.0;0.0;0.0;0.0;1.0;1.0;0.0;0.0;0.0;0.0;0.0;0.0;0.0;0.0;file;tools;diff;8f;recall;0.0
65;65_661f9dfe7cdc909cf9e26a270f22cd925a9acf75-FILE.arff;LP;1.0;1.0;1.0;0.0;0.0;1.0;1.0;0.0;0.0;0.0;0.0;1.0;1.0;0.0;0.0;0.0;0.0;0.0;0.0;0.0;0.0;file;tools;diff;8f;recall;0.0
65;65_661f9dfe7cdc909cf9e26a270f22cd925a9acf75-FILE.arff;RAkELd;1.0;1.0;1.0;0.0;0.0;1.0;1.0;0.0;0.0;0.0;0.0;1.0;1.0;0.0;0.0;0.0;0.0;0.0;0.0;0.0;0.0;file;tools;diff;8f;recall;0.0
70;70_0ad5e0462afc0de4d76e557707f4f6cb903a266b-FILE.arff;BR;4.0;4.0;1.0;4.0;1.0;0.0;0.0;0.0;0.0;0.0;0.0;4.0;1.0;0.0;0.0;0.0;0.0;0.0;0.0;0.0;0.0;file;tools;diff;8f;recall;0.0
70;70_0ad5e0462afc0de4d76e557707f4f6cb903a266b-FILE.arff;LP;4.0;4.0;1.0;0.0;0.0;4.0;1.0;0.0;0.0;0.0;0.0;4.0;1.0;0.0;0.0;0.0;0.0;0.0;0.0;0.0;0.0;file;tools;diff;8f;recall;0.0
70;70_0ad5e0462afc0de4d76e557707f4f6cb903a266b-FILE.arff;RAkELd;4.0;4.0;1.0;4.0;1.0;0.0;0.0;0.0;0.0;0.0;0.0;4.0;1.0;0.0;0.0;0.0;0.0;0.0;0.0;0.0;0.0;file;tools;diff;8f;recall;0.0
72;72_631bbd18567f5527aaa17bc8dcd7b7b772164ec9-FILE.arff;BR;1.0;1.0;1.0;1.0;1.0;0.0;0.0;0.0;0.0;0.0;0.0;1.0;1.0;0.0;0.0;0.0;0.0;0.0;0.0;0.0;0.0;file;tools;diff;8f;recall;0.0
72;72_631bbd18567f5527aaa17bc8dcd7b7b772164ec9-FILE.arff;LP;1.0;1.0;1.0;0.0;0.0;1.0;1.0;0.0;0.0;0.0;0.0;1.0;1.0;0.0;0.0;0.0;0.0;0.0;0.0;0.0;0.0;file;tools;diff;8f;recall;0.0
72;72_631bbd18567f5527aaa17bc8dcd7b7b772164ec9-FILE.arff;RAkELd;1.0;1.0;1.0;1.0;1.0;0.0;0.0;0.0;0.0;0.0;0.0;1.0;1.0;0.0;0.0;0.0;0.0;0.0;0.0;0.0;0.0;file;tools;diff;8f;recall;0.0
76;76_d74af5835ad4a15d696d0474c69d4d4494ee04f0-FILE.arff;BR;1.0;1.0;1.0;1.0;1.0;0.0;0.0;0.0;0.0;0.0;0.0;1.0;1.0;0.0;0.0;0.0;0.0;0.0;0.0;0.0;0.0;file;tools;diff;8f;recall;0.0
76;76_d74af5835ad4a15d696d0474c69d4d4494ee04f0-FILE.arff;LP;1.0;1.0;1.0;0.0;0.0;1.0;1.0;0.0;0.0;0.0;0.0;1.0;1.0;0.0;0.0;0.0;0.0;0.0;0.0;0.0;0.0;file;tools;diff;8f;recall;0.0
76;76_d74af5835ad4a15d696d0474c69d4d4494ee04f0-FILE.arff;RAkELd;1.0;1.0;1.0;1.0;1.0;0.0;0.0;0.0;0.0;0.0;0.0;1.0;1.0;0.0;0.0;0.0;0.0;0.0;0.0;0.0;0.0;file;tools;diff;8f;recall;0.0
77;77_60c1bfd9624a4b6dae8a0d9ce85481efb081a47b-FILE.arff;BR;1.0;1.0;1.0;1.0;1.0;0.0;0.0;0.0;0.0;0.0;0.0;1.0;1.0;0.0;0.0;0.0;0.0;0.0;0.0;0.0;0.0;file;tools;diff;8f;recall;0.0
77;77_60c1bfd9624a4b6dae8a0d9ce85481efb081a47b-FILE.arff;LP;1.0;1.0;1.0;0.0;0.0;1.0;1.0;0.0;0.0;0.0;0.0;1.0;1.0;0.0;0.0;0.0;0.0;0.0;0.0;0.0;0.0;file;tools;diff;8f;recall;0.0
77;77_60c1bfd9624a4b6dae8a0d9ce85481efb081a47b-FILE.arff;RAkELd;1.0;1.0;1.0;1.0;1.0;0.0;0.0;0.0;0.0;0.0;0.0;1.0;1.0;0.0;0.0;0.0;0.0;0.0;0.0;0.0;0.0;file;tools;diff;8f;recall;0.0
78;78_450cd632d16f39a7c43a465bb7c9b675daf8283e-FILE.arff;BR;1.0;1.0;1.0;1.0;1.0;0.0;0.0;0.0;0.0;0.0;0.0;1.0;1.0;0.0;0.0;0.0;0.0;0.0;0.0;0.0;0.0;file;tools;diff;8f;recall;0.0
78;78_450cd632d16f39a7c43a465bb7c9b675daf8283e-FILE.arff;LP;1.0;1.0;1.0;0.0;0.0;1.0;1.0;0.0;0.0;0.0;0.0;1.0;1.0;0.0;0.0;0.0;0.0;0.0;0.0;0.0;0.0;file;tools;diff;8f;recall;0.0
78;78_450cd632d16f39a7c43a465bb7c9b675daf8283e-FILE.arff;RAkELd;1.0;1.0;1.0;1.0;1.0;0.0;0.0;0.0;0.0;0.0;0.0;1.0;1.0;0.0;0.0;0.0;0.0;0.0;0.0;0.0;0.0;file;tools;diff;8f;recall;0.0
79;79_8ffc110699306666c1c2c0ce69bd3ba1ce05cd27-FILE.arff;BR;1.0;1.0;1.0;1.0;1.0;0.0;0.0;0.0;0.0;0.0;0.0;1.0;1.0;0.0;0.0;0.0;0.0;0.0;0.0;0.0;0.0;file;tools;diff;8f;recall;0.0
79;79_8ffc110699306666c1c2c0ce69bd3ba1ce05cd27-FILE.arff;LP;1.0;1.0;1.0;0.0;0.0;1.0;1.0;0.0;0.0;0.0;0.0;1.0;1.0;0.0;0.0;0.0;0.0;0.0;0.0;0.0;0.0;file;tools;diff;8f;recall;0.0
79;79_8ffc110699306666c1c2c0ce69bd3ba1ce05cd27-FILE.arff;RAkELd;1.0;1.0;1.0;1.0;1.0;0.0;0.0;0.0;0.0;0.0;0.0;1.0;1.0;0.0;0.0;0.0;0.0;0.0;0.0;0.0;0.0;file;tools;diff;8f;recall;0.0
80;80_97aebfcd8adccb4d3db1030e15c7c92c29982fab-FILE.arff;BR;1.0;1.0;1.0;1.0;1.0;0.0;0.0;0.0;0.0;0.0;0.0;1.0;1.0;0.0;0.0;0.0;0.0;0.0;0.0;0.0;0.0;file;tools;diff;8f;recall;0.0
80;80_97aebfcd8adccb4d3db1030e15c7c92c29982fab-FILE.arff;LP;1.0;1.0;1.0;0.0;0.0;1.0;1.0;0.0;0.0;0.0;0.0;1.0;1.0;0.0;0.0;0.0;0.0;0.0;0.0;0.0;0.0;file;tools;diff;8f;recall;0.0
80;80_97aebfcd8adccb4d3db1030e15c7c92c29982fab-FILE.arff;RAkELd;1.0;1.0;1.0;1.0;1.0;0.0;0.0;0.0;0.0;0.0;0.0;1.0;1.0;0.0;0.0;0.0;0.0;0.0;0.0;0.0;0.0;file;tools;diff;8f;recall;0.0
81;81_f94e24632aadae446484c6d8b51b120131f5afc1-FILE.arff;BR;1.0;1.0;1.0;1.0;1.0;0.0;0.0;0.0;0.0;0.0;0.0;1.0;1.0;0.0;0.0;0.0;0.0;0.0;0.0;0.0;0.0;file;tools;diff;8f;recall;0.0
81;81_f94e24632aadae446484c6d8b51b120131f5afc1-FILE.arff;LP;1.0;1.0;1.0;0.0;0.0;1.0;1.0;0.0;0.0;0.0;0.0;1.0;1.0;0.0;0.0;0.0;0.0;0.0;0.0;0.0;0.0;file;tools;diff;8f;recall;0.0
81;81_f94e24632aadae446484c6d8b51b120131f5afc1-FILE.arff;RAkELd;1.0;1.0;1.0;1.0;1.0;0.0;0.0;0.0;0.0;0.0;0.0;1.0;1.0;0.0;0.0;0.0;0.0;0.0;0.0;0.0;0.0;file;tools;diff;8f;recall;0.0
82;82_25c3438edc12719ad9c9df8975108dfc8de0792c-FILE.arff;BR;1.0;1.0;1.0;1.0;1.0;0.0;0.0;0.0;0.0;0.0;0.0;1.0;1.0;0.0;0.0;0.0;0.0;0.0;0.0;0.0;0.0;file;tools;diff;8f;recall;0.0
82;82_25c3438edc12719ad9c9df8975108dfc8de0792c-FILE.arff;LP;1.0;1.0;1.0;0.0;0.0;1.0;1.0;0.0;0.0;0.0;0.0;1.0;1.0;0.0;0.0;0.0;0.0;0.0;0.0;0.0;0.0;file;tools;diff;8f;recall;0.0
82;82_25c3438edc12719ad9c9df8975108dfc8de0792c-FILE.arff;RAkELd;1.0;1.0;1.0;1.0;1.0;0.0;0.0;0.0;0.0;0.0;0.0;1.0;1.0;0.0;0.0;0.0;0.0;0.0;0.0;0.0;0.0;file;tools;diff;8f;recall;0.0
85;85_ca6fd14c7739cd790411ef60bdd9bf755ecf7e9c-FILE.arff;BR;1.0;1.0;1.0;1.0;1.0;0.0;0.0;0.0;0.0;0.0;0.0;1.0;1.0;0.0;0.0;0.0;0.0;0.0;0.0;0.0;0.0;file;tools;diff;8f;recall;0.0
85;85_ca6fd14c7739cd790411ef60bdd9bf755ecf7e9c-FILE.arff;LP;1.0;1.0;1.0;0.0;0.0;1.0;1.0;0.0;0.0;0.0;0.0;1.0;1.0;0.0;0.0;0.0;0.0;0.0;0.0;0.0;0.0;file;tools;diff;8f;recall;0.0
85;85_ca6fd14c7739cd790411ef60bdd9bf755ecf7e9c-FILE.arff;RAkELd;1.0;1.0;1.0;0.0;0.0;0.0;0.0;1.0;1.0;1.0;1.0;0.0;0.0;1.0;1.0;1.0;1.0;1.0;1.0;1.0;1.0;file;tools;diff;8f;recall;1.0
88;88_bb6063cf6d3a6f5b9b0826162468778b9d3581d0-FILE.arff;BR;1.0;1.0;1.0;1.0;1.0;0.0;0.0;0.0;0.0;0.0;0.0;1.0;1.0;0.0;0.0;0.0;0.0;0.0;0.0;0.0;0.0;file;tools;diff;8f;recall;0.0
88;88_bb6063cf6d3a6f5b9b0826162468778b9d3581d0-FILE.arff;LP;1.0;1.0;1.0;0.0;0.0;1.0;1.0;0.0;0.0;0.0;0.0;1.0;1.0;0.0;0.0;0.0;0.0;0.0;0.0;0.0;0.0;file;tools;diff;8f;recall;0.0
88;88_bb6063cf6d3a6f5b9b0826162468778b9d3581d0-FILE.arff;RAkELd;1.0;1.0;1.0;0.0;0.0;0.0;0.0;1.0;1.0;1.0;1.0;0.0;0.0;1.0;1.0;1.0;1.0;1.0;1.0;1.0;1.0;file;tools;diff;8f;recall;1.0
91;91_93ba8082c01fac2e8a82b26d1f7020a4e4d45156-FILE.arff;BR;1.0;1.0;1.0;1.0;1.0;0.0;0.0;0.0;0.0;0.0;0.0;1.0;1.0;0.0;0.0;0.0;0.0;0.0;0.0;0.0;0.0;file;tools;diff;8f;recall;0.0
91;91_93ba8082c01fac2e8a82b26d1f7020a4e4d45156-FILE.arff;LP;1.0;1.0;1.0;0.0;0.0;0.0;0.0;1.0;1.0;1.0;1.0;0.0;0.0;1.0;1.0;1.0;1.0;1.0;1.0;1.0;1.0;file;tools;diff;8f;recall;1.0
91;91_93ba8082c01fac2e8a82b26d1f7020a4e4d45156-FILE.arff;RAkELd;1.0;1.0;1.0;0.0;0.0;0.0;0.0;1.0;1.0;1.0;1.0;0.0;0.0;1.0;1.0;1.0;1.0;1.0;1.0;1.0;1.0;file;tools;diff;8f;recall;1.0
93;93_51c56763d267cfd3d2016eff243959ace415df47-FILE.arff;BR;4.0;4.0;1.0;4.0;1.0;0.0;0.0;0.0;0.0;0.0;0.0;4.0;1.0;0.0;0.0;0.0;0.0;0.0;0.0;0.0;0.0;file;tools;diff;8f;recall;0.0
93;93_51c56763d267cfd3d2016eff243959ace415df47-FILE.arff;LP;4.0;4.0;1.0;0.0;0.0;4.0;1.0;0.0;0.0;0.0;0.0;4.0;1.0;0.0;0.0;0.0;0.0;0.0;0.0;0.0;0.0;file;tools;diff;8f;recall;0.0
93;93_51c56763d267cfd3d2016eff243959ace415df47-FILE.arff;RAkELd;4.0;4.0;1.0;0.0;0.0;4.0;1.0;0.0;0.0;0.0;0.0;4.0;1.0;0.0;0.0;0.0;0.0;0.0;0.0;0.0;0.0;file;tools;diff;8f;recall;0.0
97;97_2b57726f7934d9ee1ccb19bbb5abb2bf01d9153c-FILE.arff;BR;1.0;1.0;1.0;1.0;1.0;0.0;0.0;0.0;0.0;0.0;0.0;1.0;1.0;0.0;0.0;0.0;0.0;0.0;0.0;0.0;0.0;file;tools;diff;8f;recall;0.0
97;97_2b57726f7934d9ee1ccb19bbb5abb2bf01d9153c-FILE.arff;LP;1.0;1.0;1.0;0.0;0.0;1.0;1.0;0.0;0.0;0.0;0.0;1.0;1.0;0.0;0.0;0.0;0.0;0.0;0.0;0.0;0.0;file;tools;diff;8f;recall;0.0
97;97_2b57726f7934d9ee1ccb19bbb5abb2bf01d9153c-FILE.arff;RAkELd;1.0;1.0;1.0;1.0;1.0;0.0;0.0;0.0;0.0;0.0;0.0;1.0;1.0;0.0;0.0;0.0;0.0;0.0;0.0;0.0;0.0;file;tools;diff;8f;recall;0.0
99;99_f3af85706152f7ed475251b916fc57b1790c4e41-FILE.arff;BR;1.0;1.0;1.0;1.0;1.0;0.0;0.0;0.0;0.0;0.0;0.0;1.0;1.0;0.0;0.0;0.0;0.0;0.0;0.0;0.0;0.0;file;tools;diff;8f;recall;0.0
99;99_f3af85706152f7ed475251b916fc57b1790c4e41-FILE.arff;LP;1.0;1.0;1.0;0.0;0.0;1.0;1.0;0.0;0.0;0.0;0.0;1.0;1.0;0.0;0.0;0.0;0.0;0.0;0.0;0.0;0.0;file;tools;diff;8f;recall;0.0
99;99_f3af85706152f7ed475251b916fc57b1790c4e41-FILE.arff;RAkELd;1.0;1.0;1.0;1.0;1.0;0.0;0.0;0.0;0.0;0.0;0.0;1.0;1.0;0.0;0.0;0.0;0.0;0.0;0.0;0.0;0.0;file;tools;diff;8f;recall;0.0
103;103_26b530cf19618fc08603a25417524d4428a10a1b-FILE.arff;BR;1.0;1.0;1.0;1.0;1.0;0.0;0.0;0.0;0.0;0.0;0.0;1.0;1.0;0.0;0.0;0.0;0.0;0.0;0.0;0.0;0.0;file;tools;diff;8f;recall;0.0
103;103_26b530cf19618fc08603a25417524d4428a10a1b-FILE.arff;LP;1.0;1.0;1.0;0.0;0.0;1.0;1.0;0.0;0.0;0.0;0.0;1.0;1.0;0.0;0.0;0.0;0.0;0.0;0.0;0.0;0.0;file;tools;diff;8f;recall;0.0
103;103_26b530cf19618fc08603a25417524d4428a10a1b-FILE.arff;RAkELd;1.0;1.0;1.0;1.0;1.0;0.0;0.0;0.0;0.0;0.0;0.0;1.0;1.0;0.0;0.0;0.0;0.0;0.0;0.0;0.0;0.0;file;tools;diff;8f;recall;0.0
104;104_5d6b0dbf7f752c9dcb02506d2fb070e9c5f17f10-FILE.arff;BR;1.0;1.0;1.0;1.0;1.0;0.0;0.0;0.0;0.0;0.0;0.0;1.0;1.0;0.0;0.0;0.0;0.0;0.0;0.0;0.0;0.0;file;tools;diff;8f;recall;0.0
104;104_5d6b0dbf7f752c9dcb02506d2fb070e9c5f17f10-FILE.arff;LP;1.0;1.0;1.0;0.0;0.0;1.0;1.0;0.0;0.0;0.0;0.0;1.0;1.0;0.0;0.0;0.0;0.0;0.0;0.0;0.0;0.0;file;tools;diff;8f;recall;0.0
104;104_5d6b0dbf7f752c9dcb02506d2fb070e9c5f17f10-FILE.arff;RAkELd;1.0;1.0;1.0;1.0;1.0;0.0;0.0;0.0;0.0;0.0;0.0;1.0;1.0;0.0;0.0;0.0;0.0;0.0;0.0;0.0;0.0;file;tools;diff;8f;recall;0.0
105;105_cd79484caaf9c1fb956a22bcf9ac73e32b4470b6-FILE.arff;BR;3.0;3.0;1.0;3.0;1.0;0.0;0.0;0.0;0.0;0.0;0.0;3.0;1.0;0.0;0.0;0.0;0.0;0.0;0.0;0.0;0.0;file;tools;diff;8f;recall;0.0
105;105_cd79484caaf9c1fb956a22bcf9ac73e32b4470b6-FILE.arff;LP;3.0;3.0;1.0;0.0;0.0;3.0;1.0;0.0;0.0;0.0;0.0;3.0;1.0;0.0;0.0;0.0;0.0;0.0;0.0;0.0;0.0;file;tools;diff;8f;recall;0.0
105;105_cd79484caaf9c1fb956a22bcf9ac73e32b4470b6-FILE.arff;RAkELd;3.0;3.0;1.0;3.0;1.0;0.0;0.0;0.0;0.0;0.0;0.0;3.0;1.0;0.0;0.0;0.0;0.0;0.0;0.0;0.0;0.0;file;tools;diff;8f;recall;0.0
113;113_44854e5b60aa6690a1eec54dd04ea8217568445f-FILE.arff;BR;1.0;1.0;1.0;1.0;1.0;0.0;0.0;0.0;0.0;0.0;0.0;1.0;1.0;0.0;0.0;0.0;0.0;0.0;0.0;0.0;0.0;file;tools;diff;8f;recall;0.0
113;113_44854e5b60aa6690a1eec54dd04ea8217568445f-FILE.arff;LP;1.0;1.0;1.0;0.0;0.0;1.0;1.0;0.0;0.0;0.0;0.0;1.0;1.0;0.0;0.0;0.0;0.0;0.0;0.0;0.0;0.0;file;tools;diff;8f;recall;0.0
113;113_44854e5b60aa6690a1eec54dd04ea8217568445f-FILE.arff;RAkELd;1.0;1.0;1.0;1.0;1.0;0.0;0.0;0.0;0.0;0.0;0.0;1.0;1.0;0.0;0.0;0.0;0.0;0.0;0.0;0.0;0.0;file;tools;diff;8f;recall;0.0
114;114_a7f8bf60bc8c5b8370dfad5d695440be3ae08b91-FILE.arff;BR;3.0;3.0;1.0;3.0;1.0;0.0;0.0;0.0;0.0;0.0;0.0;3.0;1.0;0.0;0.0;0.0;0.0;0.0;0.0;0.0;0.0;file;tools;diff;8f;recall;0.0
114;114_a7f8bf60bc8c5b8370dfad5d695440be3ae08b91-FILE.arff;LP;3.0;3.0;1.0;0.0;0.0;3.0;1.0;0.0;0.0;0.0;0.0;3.0;1.0;0.0;0.0;0.0;0.0;0.0;0.0;0.0;0.0;file;tools;diff;8f;recall;0.0
114;114_a7f8bf60bc8c5b8370dfad5d695440be3ae08b91-FILE.arff;RAkELd;3.0;3.0;1.0;3.0;1.0;0.0;0.0;0.0;0.0;0.0;0.0;3.0;1.0;0.0;0.0;0.0;0.0;0.0;0.0;0.0;0.0;file;tools;diff;8f;recall;0.0
119;119_23bded8568a0eac403b2b4cb845569bf1fddbf8f-FILE.arff;BR;2.0;2.0;1.0;2.0;1.0;0.0;0.0;0.0;0.0;0.0;0.0;2.0;1.0;0.0;0.0;0.0;0.0;0.0;0.0;0.0;0.0;file;tools;diff;8f;recall;0.0
119;119_23bded8568a0eac403b2b4cb845569bf1fddbf8f-FILE.arff;LP;2.0;2.0;1.0;0.0;0.0;2.0;1.0;0.0;0.0;0.0;0.0;2.0;1.0;0.0;0.0;0.0;0.0;0.0;0.0;0.0;0.0;file;tools;diff;8f;recall;0.0
119;119_23bded8568a0eac403b2b4cb845569bf1fddbf8f-FILE.arff;RAkELd;2.0;2.0;1.0;2.0;1.0;0.0;0.0;0.0;0.0;0.0;0.0;2.0;1.0;0.0;0.0;0.0;0.0;0.0;0.0;0.0;0.0;file;tools;diff;8f;recall;0.0
122;122_71556e444e7f607c3c7a0a5b3b7936e0fc4a25d2-FILE.arff;BR;3.0;3.0;1.0;3.0;1.0;0.0;0.0;0.0;0.0;0.0;0.0;3.0;1.0;0.0;0.0;0.0;0.0;0.0;0.0;0.0;0.0;file;tools;diff;8f;recall;0.0
122;122_71556e444e7f607c3c7a0a5b3b7936e0fc4a25d2-FILE.arff;LP;3.0;3.0;1.0;0.0;0.0;3.0;1.0;0.0;0.0;0.0;0.0;3.0;1.0;0.0;0.0;0.0;0.0;0.0;0.0;0.0;0.0;file;tools;diff;8f;recall;0.0
122;122_71556e444e7f607c3c7a0a5b3b7936e0fc4a25d2-FILE.arff;RAkELd;3.0;3.0;1.0;3.0;1.0;0.0;0.0;0.0;0.0;0.0;0.0;3.0;1.0;0.0;0.0;0.0;0.0;0.0;0.0;0.0;0.0;file;tools;diff;8f;recall;0.0
126;126_ad9d1d1490d499b5e0aee1905cbd868f4d497d00-FILE.arff;BR;1.0;1.0;1.0;1.0;1.0;0.0;0.0;0.0;0.0;0.0;0.0;1.0;1.0;0.0;0.0;0.0;0.0;0.0;0.0;0.0;0.0;file;tools;diff;8f;recall;0.0
126;126_ad9d1d1490d499b5e0aee1905cbd868f4d497d00-FILE.arff;LP;1.0;1.0;1.0;0.0;0.0;1.0;1.0;0.0;0.0;0.0;0.0;1.0;1.0;0.0;0.0;0.0;0.0;0.0;0.0;0.0;0.0;file;tools;diff;8f;recall;0.0
126;126_ad9d1d1490d499b5e0aee1905cbd868f4d497d00-FILE.arff;RAkELd;1.0;1.0;1.0;1.0;1.0;0.0;0.0;0.0;0.0;0.0;0.0;1.0;1.0;0.0;0.0;0.0;0.0;0.0;0.0;0.0;0.0;file;tools;diff;8f;recall;0.0
130;130_45106ed76f9cdc9d1589b2802eb19ab54919c87d-FILE.arff;BR;1.0;1.0;1.0;1.0;1.0;0.0;0.0;0.0;0.0;0.0;0.0;1.0;1.0;0.0;0.0;0.0;0.0;0.0;0.0;0.0;0.0;file;tools;diff;8f;recall;0.0
130;130_45106ed76f9cdc9d1589b2802eb19ab54919c87d-FILE.arff;LP;1.0;1.0;1.0;0.0;0.0;1.0;1.0;0.0;0.0;0.0;0.0;1.0;1.0;0.0;0.0;0.0;0.0;0.0;0.0;0.0;0.0;file;tools;diff;8f;recall;0.0
130;130_45106ed76f9cdc9d1589b2802eb19ab54919c87d-FILE.arff;RAkELd;1.0;1.0;1.0;1.0;1.0;0.0;0.0;0.0;0.0;0.0;0.0;1.0;1.0;0.0;0.0;0.0;0.0;0.0;0.0;0.0;0.0;file;tools;diff;8f;recall;0.0
133;133_eed925f6fd6ba29f48c1d9430199eb3a133a1718-FILE.arff;BR;1.0;1.0;1.0;1.0;1.0;0.0;0.0;0.0;0.0;0.0;0.0;1.0;1.0;0.0;0.0;0.0;0.0;0.0;0.0;0.0;0.0;file;tools;diff;8f;recall;0.0
133;133_eed925f6fd6ba29f48c1d9430199eb3a133a1718-FILE.arff;LP;1.0;1.0;1.0;0.0;0.0;1.0;1.0;0.0;0.0;0.0;0.0;1.0;1.0;0.0;0.0;0.0;0.0;0.0;0.0;0.0;0.0;file;tools;diff;8f;recall;0.0
133;133_eed925f6fd6ba29f48c1d9430199eb3a133a1718-FILE.arff;RAkELd;1.0;1.0;1.0;1.0;1.0;0.0;0.0;0.0;0.0;0.0;0.0;1.0;1.0;0.0;0.0;0.0;0.0;0.0;0.0;0.0;0.0;file;tools;diff;8f;recall;0.0
134;134_d69383a369855daacd7a81d615db8173752a7eaa-FILE.arff;BR;1.0;1.0;1.0;1.0;1.0;0.0;0.0;0.0;0.0;0.0;0.0;1.0;1.0;0.0;0.0;0.0;0.0;0.0;0.0;0.0;0.0;file;tools;diff;8f;recall;0.0
134;134_d69383a369855daacd7a81d615db8173752a7eaa-FILE.arff;LP;1.0;1.0;1.0;0.0;0.0;1.0;1.0;0.0;0.0;0.0;0.0;1.0;1.0;0.0;0.0;0.0;0.0;0.0;0.0;0.0;0.0;file;tools;diff;8f;recall;0.0
134;134_d69383a369855daacd7a81d615db8173752a7eaa-FILE.arff;RAkELd;1.0;1.0;1.0;1.0;1.0;0.0;0.0;0.0;0.0;0.0;0.0;1.0;1.0;0.0;0.0;0.0;0.0;0.0;0.0;0.0;0.0;file;tools;diff;8f;recall;0.0
135;135_303f4a4a06a8abf5ed8aab57f9ede63f92adc2cd-FILE.arff;BR;1.0;1.0;1.0;1.0;1.0;0.0;0.0;0.0;0.0;0.0;0.0;1.0;1.0;0.0;0.0;0.0;0.0;0.0;0.0;0.0;0.0;file;tools;diff;8f;recall;0.0
135;135_303f4a4a06a8abf5ed8aab57f9ede63f92adc2cd-FILE.arff;LP;1.0;1.0;1.0;0.0;0.0;1.0;1.0;0.0;0.0;0.0;0.0;1.0;1.0;0.0;0.0;0.0;0.0;0.0;0.0;0.0;0.0;file;tools;diff;8f;recall;0.0
135;135_303f4a4a06a8abf5ed8aab57f9ede63f92adc2cd-FILE.arff;RAkELd;1.0;1.0;1.0;1.0;1.0;0.0;0.0;0.0;0.0;0.0;0.0;1.0;1.0;0.0;0.0;0.0;0.0;0.0;0.0;0.0;0.0;file;tools;diff;8f;recall;0.0
146;146_2474f804ebd37486ad8f83690c6cf189fa95053c-FILE.arff;BR;1.0;1.0;1.0;1.0;1.0;0.0;0.0;0.0;0.0;0.0;0.0;1.0;1.0;0.0;0.0;0.0;0.0;0.0;0.0;0.0;0.0;file;tools;diff;8f;recall;0.0
146;146_2474f804ebd37486ad8f83690c6cf189fa95053c-FILE.arff;LP;1.0;1.0;1.0;0.0;0.0;1.0;1.0;0.0;0.0;0.0;0.0;1.0;1.0;0.0;0.0;0.0;0.0;0.0;0.0;0.0;0.0;file;tools;diff;8f;recall;0.0
146;146_2474f804ebd37486ad8f83690c6cf189fa95053c-FILE.arff;RAkELd;1.0;1.0;1.0;1.0;1.0;0.0;0.0;0.0;0.0;0.0;0.0;1.0;1.0;0.0;0.0;0.0;0.0;0.0;0.0;0.0;0.0;file;tools;diff;8f;recall;0.0
42;42_7f0ef3b0d3e038a71703226d72fed409baaf0e88-FILE.arff;BR;1.0;1.0;1.0;0.0;0.0;1.0;1.0;0.0;0.0;0.0;0.0;1.0;1.0;0.0;0.0;0.0;0.0;0.0;0.0;0.0;0.0;file;tools;diff;8f;fscore;0.0
42;42_7f0ef3b0d3e038a71703226d72fed409baaf0e88-FILE.arff;LP;1.0;1.0;1.0;0.0;0.0;1.0;1.0;0.0;0.0;0.0;0.0;1.0;1.0;0.0;0.0;0.0;0.0;0.0;0.0;0.0;0.0;file;tools;diff;8f;fscore;0.0
42;42_7f0ef3b0d3e038a71703226d72fed409baaf0e88-FILE.arff;RAkELd;1.0;1.0;1.0;0.0;0.0;1.0;1.0;0.0;0.0;0.0;0.0;1.0;1.0;0.0;0.0;0.0;0.0;0.0;0.0;0.0;0.0;file;tools;diff;8f;fscore;0.0
46;46_d45c541fdbf7ce30d8c70adc75f0fe575b9fcf60-FILE.arff;BR;1.0;1.0;1.0;0.0;0.0;0.0;0.0;1.0;1.0;0.0;0.0;0.0;0.0;1.0;1.0;0.5;0.5;1.0;1.0;0.6666666666666666;0.6666666666666666;file;tools;diff;8f;fscore;0.6666666666666666
46;46_d45c541fdbf7ce30d8c70adc75f0fe575b9fcf60-FILE.arff;LP;1.0;1.0;1.0;0.0;0.0;1.0;1.0;0.0;0.0;0.0;0.0;1.0;1.0;0.0;0.0;0.0;0.0;0.0;0.0;0.0;0.0;file;tools;diff;8f;fscore;0.0
46;46_d45c541fdbf7ce30d8c70adc75f0fe575b9fcf60-FILE.arff;RAkELd;1.0;1.0;1.0;0.0;0.0;1.0;1.0;0.0;0.0;0.0;0.0;1.0;1.0;0.0;0.0;0.0;0.0;0.0;0.0;0.0;0.0;file;tools;diff;8f;fscore;0.0
48;48_cb0eb5e198c692b57ce60602a6c0d72f5e4a7b32-FILE.arff;BR;1.0;1.0;1.0;0.0;0.0;1.0;1.0;0.0;0.0;0.0;0.0;1.0;1.0;0.0;0.0;0.0;0.0;0.0;0.0;0.0;0.0;file;tools;diff;8f;fscore;0.0
48;48_cb0eb5e198c692b57ce60602a6c0d72f5e4a7b32-FILE.arff;LP;1.0;1.0;1.0;0.0;0.0;1.0;1.0;0.0;0.0;0.0;0.0;1.0;1.0;0.0;0.0;0.0;0.0;0.0;0.0;0.0;0.0;file;tools;diff;8f;fscore;0.0
48;48_cb0eb5e198c692b57ce60602a6c0d72f5e4a7b32-FILE.arff;RAkELd;1.0;1.0;1.0;0.0;0.0;1.0;1.0;0.0;0.0;0.0;0.0;1.0;1.0;0.0;0.0;0.0;0.0;0.0;0.0;0.0;0.0;file;tools;diff;8f;fscore;0.0
49;49_4a7567832ae650ecdfdfa6cd1726274f4fd8431c-FILE.arff;BR;1.0;1.0;1.0;0.0;0.0;1.0;1.0;0.0;0.0;0.0;0.0;1.0;1.0;0.0;0.0;0.0;0.0;0.0;0.0;0.0;0.0;file;tools;diff;8f;fscore;0.0
49;49_4a7567832ae650ecdfdfa6cd1726274f4fd8431c-FILE.arff;LP;1.0;1.0;1.0;0.0;0.0;1.0;1.0;0.0;0.0;0.0;0.0;1.0;1.0;0.0;0.0;0.0;0.0;0.0;0.0;0.0;0.0;file;tools;diff;8f;fscore;0.0
49;49_4a7567832ae650ecdfdfa6cd1726274f4fd8431c-FILE.arff;RAkELd;1.0;1.0;1.0;0.0;0.0;1.0;1.0;0.0;0.0;0.0;0.0;1.0;1.0;0.0;0.0;0.0;0.0;0.0;0.0;0.0;0.0;file;tools;diff;8f;fscore;0.0
50;50_02ee066b1e5d40034311d3358084a56dfa7026c4-FILE.arff;BR;1.0;1.0;1.0;1.0;1.0;0.0;0.0;0.0;0.0;0.0;0.0;1.0;1.0;0.0;0.0;0.0;0.0;0.0;0.0;0.0;0.0;file;tools;diff;8f;fscore;0.0
50;50_02ee066b1e5d40034311d3358084a56dfa7026c4-FILE.arff;LP;1.0;1.0;1.0;0.0;0.0;0.0;0.0;1.0;1.0;1.0;1.0;0.0;0.0;1.0;1.0;1.0;1.0;1.0;1.0;1.0;1.0;file;tools;diff;8f;fscore;1.0
50;50_02ee066b1e5d40034311d3358084a56dfa7026c4-FILE.arff;RAkELd;1.0;1.0;1.0;1.0;1.0;0.0;0.0;0.0;0.0;0.0;0.0;1.0;1.0;0.0;0.0;0.0;0.0;0.0;0.0;0.0;0.0;file;tools;diff;8f;fscore;0.0
51;51_deeabf59c6fbfa761cffadfafc15339aa667db23-FILE.arff;BR;1.0;1.0;1.0;1.0;1.0;0.0;0.0;0.0;0.0;0.0;0.0;1.0;1.0;0.0;0.0;0.0;0.0;0.0;0.0;0.0;0.0;file;tools;diff;8f;fscore;0.0
51;51_deeabf59c6fbfa761cffadfafc15339aa667db23-FILE.arff;LP;1.0;1.0;1.0;0.0;0.0;0.0;0.0;1.0;1.0;1.0;1.0;0.0;0.0;1.0;1.0;1.0;1.0;1.0;1.0;1.0;1.0;file;tools;diff;8f;fscore;1.0
51;51_deeabf59c6fbfa761cffadfafc15339aa667db23-FILE.arff;RAkELd;1.0;1.0;1.0;1.0;1.0;0.0;0.0;0.0;0.0;0.0;0.0;1.0;1.0;0.0;0.0;0.0;0.0;0.0;0.0;0.0;0.0;file;tools;diff;8f;fscore;0.0
52;52_304819fbc19deb73be718f79a991e4a803022b96-FILE.arff;BR;2.0;2.0;1.0;2.0;1.0;0.0;0.0;0.0;0.0;0.0;0.0;2.0;1.0;0.0;0.0;0.0;0.0;0.0;0.0;0.0;0.0;file;tools;diff;8f;fscore;0.0
52;52_304819fbc19deb73be718f79a991e4a803022b96-FILE.arff;LP;2.0;2.0;1.0;0.0;0.0;1.0;0.5;1.0;0.5;1.0;0.5;1.0;0.5;1.0;0.5;0.5;1.0;0.5;1.0;0.5;1.0;file;tools;diff;8f;fscore;0.5
52;52_304819fbc19deb73be718f79a991e4a803022b96-FILE.arff;RAkELd;2.0;2.0;1.0;1.0;0.5;0.0;0.0;1.0;0.5;1.0;0.5;1.0;0.5;1.0;0.5;1.0;1.0;1.0;1.0;1.0;1.0;file;tools;diff;8f;fscore;1.0
58;58_7d391e7498c159790b9d12f34e813cc802fa45ac-FILE.arff;BR;1.0;1.0;1.0;1.0;1.0;0.0;0.0;0.0;0.0;0.0;0.0;1.0;1.0;0.0;0.0;0.0;0.0;0.0;0.0;0.0;0.0;file;tools;diff;8f;fscore;0.0
58;58_7d391e7498c159790b9d12f34e813cc802fa45ac-FILE.arff;LP;1.0;1.0;1.0;0.0;0.0;1.0;1.0;0.0;0.0;0.0;0.0;1.0;1.0;0.0;0.0;0.0;0.0;0.0;0.0;0.0;0.0;file;tools;diff;8f;fscore;0.0
58;58_7d391e7498c159790b9d12f34e813cc802fa45ac-FILE.arff;RAkELd;1.0;1.0;1.0;1.0;1.0;0.0;0.0;0.0;0.0;0.0;0.0;1.0;1.0;0.0;0.0;0.0;0.0;0.0;0.0;0.0;0.0;file;tools;diff;8f;fscore;0.0
59;59_1bd0ec489d4e57b94b2cbfa0e4324fc4e634c061-FILE.arff;BR;1.0;1.0;1.0;1.0;1.0;0.0;0.0;0.0;0.0;0.0;0.0;1.0;1.0;0.0;0.0;0.0;0.0;0.0;0.0;0.0;0.0;file;tools;diff;8f;fscore;0.0
59;59_1bd0ec489d4e57b94b2cbfa0e4324fc4e634c061-FILE.arff;LP;1.0;1.0;1.0;0.0;0.0;0.0;0.0;1.0;1.0;1.0;1.0;0.0;0.0;1.0;1.0;1.0;1.0;1.0;1.0;1.0;1.0;file;tools;diff;8f;fscore;1.0
59;59_1bd0ec489d4e57b94b2cbfa0e4324fc4e634c061-FILE.arff;RAkELd;1.0;1.0;1.0;1.0;1.0;0.0;0.0;0.0;0.0;0.0;0.0;1.0;1.0;0.0;0.0;0.0;0.0;0.0;0.0;0.0;0.0;file;tools;diff;8f;fscore;0.0
60;60_5c8921a353832c216a14b874ac02156ed185de9c-FILE.arff;BR;1.0;1.0;1.0;1.0;1.0;0.0;0.0;0.0;0.0;0.0;0.0;1.0;1.0;0.0;0.0;0.0;0.0;0.0;0.0;0.0;0.0;file;tools;diff;8f;fscore;0.0
60;60_5c8921a353832c216a14b874ac02156ed185de9c-FILE.arff;LP;1.0;1.0;1.0;0.0;0.0;0.0;0.0;1.0;1.0;1.0;1.0;0.0;0.0;1.0;1.0;1.0;1.0;1.0;1.0;1.0;1.0;file;tools;diff;8f;fscore;1.0
60;60_5c8921a353832c216a14b874ac02156ed185de9c-FILE.arff;RAkELd;1.0;1.0;1.0;1.0;1.0;0.0;0.0;0.0;0.0;0.0;0.0;1.0;1.0;0.0;0.0;0.0;0.0;0.0;0.0;0.0;0.0;file;tools;diff;8f;fscore;0.0
62;62_47ca9f47c109e4e4abd6915ff51dad1f1bcad661-FILE.arff;BR;1.0;1.0;1.0;1.0;1.0;0.0;0.0;0.0;0.0;0.0;0.0;1.0;1.0;0.0;0.0;0.0;0.0;0.0;0.0;0.0;0.0;file;tools;diff;8f;fscore;0.0
62;62_47ca9f47c109e4e4abd6915ff51dad1f1bcad661-FILE.arff;LP;1.0;1.0;1.0;0.0;0.0;0.0;0.0;1.0;1.0;1.0;1.0;0.0;0.0;1.0;1.0;1.0;1.0;1.0;1.0;1.0;1.0;file;tools;diff;8f;fscore;1.0
62;62_47ca9f47c109e4e4abd6915ff51dad1f1bcad661-FILE.arff;RAkELd;1.0;1.0;1.0;1.0;1.0;0.0;0.0;0.0;0.0;0.0;0.0;1.0;1.0;0.0;0.0;0.0;0.0;0.0;0.0;0.0;0.0;file;tools;diff;8f;fscore;0.0
63;63_a6d1611449509eb37a3e3ef494436f8e3d59536e-FILE.arff;BR;3.0;3.0;1.0;3.0;1.0;0.0;0.0;0.0;0.0;0.0;0.0;3.0;1.0;0.0;0.0;0.0;0.0;0.0;0.0;0.0;0.0;file;tools;diff;8f;fscore;0.0
63;63_a6d1611449509eb37a3e3ef494436f8e3d59536e-FILE.arff;LP;3.0;3.0;1.0;0.0;0.0;3.0;1.0;0.0;0.0;0.0;0.0;3.0;1.0;0.0;0.0;0.0;0.0;0.0;0.0;0.0;0.0;file;tools;diff;8f;fscore;0.0
63;63_a6d1611449509eb37a3e3ef494436f8e3d59536e-FILE.arff;RAkELd;3.0;3.0;1.0;3.0;1.0;0.0;0.0;0.0;0.0;0.0;0.0;3.0;1.0;0.0;0.0;0.0;0.0;0.0;0.0;0.0;0.0;file;tools;diff;8f;fscore;0.0
64;64_36eaec6006148a2ff9ad33a37631add3612902e5-FILE.arff;BR;1.0;1.0;1.0;1.0;1.0;0.0;0.0;0.0;0.0;0.0;0.0;1.0;1.0;0.0;0.0;0.0;0.0;0.0;0.0;0.0;0.0;file;tools;diff;8f;fscore;0.0
64;64_36eaec6006148a2ff9ad33a37631add3612902e5-FILE.arff;LP;1.0;1.0;1.0;0.0;0.0;1.0;1.0;0.0;0.0;0.0;0.0;1.0;1.0;0.0;0.0;0.0;0.0;0.0;0.0;0.0;0.0;file;tools;diff;8f;fscore;0.0
64;64_36eaec6006148a2ff9ad33a37631add3612902e5-FILE.arff;RAkELd;1.0;1.0;1.0;1.0;1.0;0.0;0.0;0.0;0.0;0.0;0.0;1.0;1.0;0.0;0.0;0.0;0.0;0.0;0.0;0.0;0.0;file;tools;diff;8f;fscore;0.0
65;65_661f9dfe7cdc909cf9e26a270f22cd925a9acf75-FILE.arff;BR;1.0;1.0;1.0;1.0;1.0;0.0;0.0;0.0;0.0;0.0;0.0;1.0;1.0;0.0;0.0;0.0;0.0;0.0;0.0;0.0;0.0;file;tools;diff;8f;fscore;0.0
65;65_661f9dfe7cdc909cf9e26a270f22cd925a9acf75-FILE.arff;LP;1.0;1.0;1.0;0.0;0.0;1.0;1.0;0.0;0.0;0.0;0.0;1.0;1.0;0.0;0.0;0.0;0.0;0.0;0.0;0.0;0.0;file;tools;diff;8f;fscore;0.0
65;65_661f9dfe7cdc909cf9e26a270f22cd925a9acf75-FILE.arff;RAkELd;1.0;1.0;1.0;0.0;0.0;1.0;1.0;0.0;0.0;0.0;0.0;1.0;1.0;0.0;0.0;0.0;0.0;0.0;0.0;0.0;0.0;file;tools;diff;8f;fscore;0.0
70;70_0ad5e0462afc0de4d76e557707f4f6cb903a266b-FILE.arff;BR;4.0;4.0;1.0;4.0;1.0;0.0;0.0;0.0;0.0;0.0;0.0;4.0;1.0;0.0;0.0;0.0;0.0;0.0;0.0;0.0;0.0;file;tools;diff;8f;fscore;0.0
70;70_0ad5e0462afc0de4d76e557707f4f6cb903a266b-FILE.arff;LP;4.0;4.0;1.0;0.0;0.0;4.0;1.0;0.0;0.0;0.0;0.0;4.0;1.0;0.0;0.0;0.0;0.0;0.0;0.0;0.0;0.0;file;tools;diff;8f;fscore;0.0
70;70_0ad5e0462afc0de4d76e557707f4f6cb903a266b-FILE.arff;RAkELd;4.0;4.0;1.0;4.0;1.0;0.0;0.0;0.0;0.0;0.0;0.0;4.0;1.0;0.0;0.0;0.0;0.0;0.0;0.0;0.0;0.0;file;tools;diff;8f;fscore;0.0
72;72_631bbd18567f5527aaa17bc8dcd7b7b772164ec9-FILE.arff;BR;1.0;1.0;1.0;1.0;1.0;0.0;0.0;0.0;0.0;0.0;0.0;1.0;1.0;0.0;0.0;0.0;0.0;0.0;0.0;0.0;0.0;file;tools;diff;8f;fscore;0.0
72;72_631bbd18567f5527aaa17bc8dcd7b7b772164ec9-FILE.arff;LP;1.0;1.0;1.0;0.0;0.0;1.0;1.0;0.0;0.0;0.0;0.0;1.0;1.0;0.0;0.0;0.0;0.0;0.0;0.0;0.0;0.0;file;tools;diff;8f;fscore;0.0
72;72_631bbd18567f5527aaa17bc8dcd7b7b772164ec9-FILE.arff;RAkELd;1.0;1.0;1.0;1.0;1.0;0.0;0.0;0.0;0.0;0.0;0.0;1.0;1.0;0.0;0.0;0.0;0.0;0.0;0.0;0.0;0.0;file;tools;diff;8f;fscore;0.0
76;76_d74af5835ad4a15d696d0474c69d4d4494ee04f0-FILE.arff;BR;1.0;1.0;1.0;1.0;1.0;0.0;0.0;0.0;0.0;0.0;0.0;1.0;1.0;0.0;0.0;0.0;0.0;0.0;0.0;0.0;0.0;file;tools;diff;8f;fscore;0.0
76;76_d74af5835ad4a15d696d0474c69d4d4494ee04f0-FILE.arff;LP;1.0;1.0;1.0;0.0;0.0;1.0;1.0;0.0;0.0;0.0;0.0;1.0;1.0;0.0;0.0;0.0;0.0;0.0;0.0;0.0;0.0;file;tools;diff;8f;fscore;0.0
76;76_d74af5835ad4a15d696d0474c69d4d4494ee04f0-FILE.arff;RAkELd;1.0;1.0;1.0;1.0;1.0;0.0;0.0;0.0;0.0;0.0;0.0;1.0;1.0;0.0;0.0;0.0;0.0;0.0;0.0;0.0;0.0;file;tools;diff;8f;fscore;0.0
77;77_60c1bfd9624a4b6dae8a0d9ce85481efb081a47b-FILE.arff;BR;1.0;1.0;1.0;1.0;1.0;0.0;0.0;0.0;0.0;0.0;0.0;1.0;1.0;0.0;0.0;0.0;0.0;0.0;0.0;0.0;0.0;file;tools;diff;8f;fscore;0.0
77;77_60c1bfd9624a4b6dae8a0d9ce85481efb081a47b-FILE.arff;LP;1.0;1.0;1.0;0.0;0.0;1.0;1.0;0.0;0.0;0.0;0.0;1.0;1.0;0.0;0.0;0.0;0.0;0.0;0.0;0.0;0.0;file;tools;diff;8f;fscore;0.0
77;77_60c1bfd9624a4b6dae8a0d9ce85481efb081a47b-FILE.arff;RAkELd;1.0;1.0;1.0;1.0;1.0;0.0;0.0;0.0;0.0;0.0;0.0;1.0;1.0;0.0;0.0;0.0;0.0;0.0;0.0;0.0;0.0;file;tools;diff;8f;fscore;0.0
78;78_450cd632d16f39a7c43a465bb7c9b675daf8283e-FILE.arff;BR;1.0;1.0;1.0;1.0;1.0;0.0;0.0;0.0;0.0;0.0;0.0;1.0;1.0;0.0;0.0;0.0;0.0;0.0;0.0;0.0;0.0;file;tools;diff;8f;fscore;0.0
78;78_450cd632d16f39a7c43a465bb7c9b675daf8283e-FILE.arff;LP;1.0;1.0;1.0;0.0;0.0;1.0;1.0;0.0;0.0;0.0;0.0;1.0;1.0;0.0;0.0;0.0;0.0;0.0;0.0;0.0;0.0;file;tools;diff;8f;fscore;0.0
78;78_450cd632d16f39a7c43a465bb7c9b675daf8283e-FILE.arff;RAkELd;1.0;1.0;1.0;1.0;1.0;0.0;0.0;0.0;0.0;0.0;0.0;1.0;1.0;0.0;0.0;0.0;0.0;0.0;0.0;0.0;0.0;file;tools;diff;8f;fscore;0.0
79;79_8ffc110699306666c1c2c0ce69bd3ba1ce05cd27-FILE.arff;BR;1.0;1.0;1.0;1.0;1.0;0.0;0.0;0.0;0.0;0.0;0.0;1.0;1.0;0.0;0.0;0.0;0.0;0.0;0.0;0.0;0.0;file;tools;diff;8f;fscore;0.0
79;79_8ffc110699306666c1c2c0ce69bd3ba1ce05cd27-FILE.arff;LP;1.0;1.0;1.0;0.0;0.0;1.0;1.0;0.0;0.0;0.0;0.0;1.0;1.0;0.0;0.0;0.0;0.0;0.0;0.0;0.0;0.0;file;tools;diff;8f;fscore;0.0
79;79_8ffc110699306666c1c2c0ce69bd3ba1ce05cd27-FILE.arff;RAkELd;1.0;1.0;1.0;1.0;1.0;0.0;0.0;0.0;0.0;0.0;0.0;1.0;1.0;0.0;0.0;0.0;0.0;0.0;0.0;0.0;0.0;file;tools;diff;8f;fscore;0.0
80;80_97aebfcd8adccb4d3db1030e15c7c92c29982fab-FILE.arff;BR;1.0;1.0;1.0;1.0;1.0;0.0;0.0;0.0;0.0;0.0;0.0;1.0;1.0;0.0;0.0;0.0;0.0;0.0;0.0;0.0;0.0;file;tools;diff;8f;fscore;0.0
80;80_97aebfcd8adccb4d3db1030e15c7c92c29982fab-FILE.arff;LP;1.0;1.0;1.0;0.0;0.0;1.0;1.0;0.0;0.0;0.0;0.0;1.0;1.0;0.0;0.0;0.0;0.0;0.0;0.0;0.0;0.0;file;tools;diff;8f;fscore;0.0
80;80_97aebfcd8adccb4d3db1030e15c7c92c29982fab-FILE.arff;RAkELd;1.0;1.0;1.0;1.0;1.0;0.0;0.0;0.0;0.0;0.0;0.0;1.0;1.0;0.0;0.0;0.0;0.0;0.0;0.0;0.0;0.0;file;tools;diff;8f;fscore;0.0
81;81_f94e24632aadae446484c6d8b51b120131f5afc1-FILE.arff;BR;1.0;1.0;1.0;1.0;1.0;0.0;0.0;0.0;0.0;0.0;0.0;1.0;1.0;0.0;0.0;0.0;0.0;0.0;0.0;0.0;0.0;file;tools;diff;8f;fscore;0.0
81;81_f94e24632aadae446484c6d8b51b120131f5afc1-FILE.arff;LP;1.0;1.0;1.0;0.0;0.0;1.0;1.0;0.0;0.0;0.0;0.0;1.0;1.0;0.0;0.0;0.0;0.0;0.0;0.0;0.0;0.0;file;tools;diff;8f;fscore;0.0
81;81_f94e24632aadae446484c6d8b51b120131f5afc1-FILE.arff;RAkELd;1.0;1.0;1.0;1.0;1.0;0.0;0.0;0.0;0.0;0.0;0.0;1.0;1.0;0.0;0.0;0.0;0.0;0.0;0.0;0.0;0.0;file;tools;diff;8f;fscore;0.0
82;82_25c3438edc12719ad9c9df8975108dfc8de0792c-FILE.arff;BR;1.0;1.0;1.0;1.0;1.0;0.0;0.0;0.0;0.0;0.0;0.0;1.0;1.0;0.0;0.0;0.0;0.0;0.0;0.0;0.0;0.0;file;tools;diff;8f;fscore;0.0
82;82_25c3438edc12719ad9c9df8975108dfc8de0792c-FILE.arff;LP;1.0;1.0;1.0;0.0;0.0;1.0;1.0;0.0;0.0;0.0;0.0;1.0;1.0;0.0;0.0;0.0;0.0;0.0;0.0;0.0;0.0;file;tools;diff;8f;fscore;0.0
82;82_25c3438edc12719ad9c9df8975108dfc8de0792c-FILE.arff;RAkELd;1.0;1.0;1.0;1.0;1.0;0.0;0.0;0.0;0.0;0.0;0.0;1.0;1.0;0.0;0.0;0.0;0.0;0.0;0.0;0.0;0.0;file;tools;diff;8f;fscore;0.0
85;85_ca6fd14c7739cd790411ef60bdd9bf755ecf7e9c-FILE.arff;BR;1.0;1.0;1.0;1.0;1.0;0.0;0.0;0.0;0.0;0.0;0.0;1.0;1.0;0.0;0.0;0.0;0.0;0.0;0.0;0.0;0.0;file;tools;diff;8f;fscore;0.0
85;85_ca6fd14c7739cd790411ef60bdd9bf755ecf7e9c-FILE.arff;LP;1.0;1.0;1.0;0.0;0.0;1.0;1.0;0.0;0.0;0.0;0.0;1.0;1.0;0.0;0.0;0.0;0.0;0.0;0.0;0.0;0.0;file;tools;diff;8f;fscore;0.0
85;85_ca6fd14c7739cd790411ef60bdd9bf755ecf7e9c-FILE.arff;RAkELd;1.0;1.0;1.0;0.0;0.0;0.0;0.0;1.0;1.0;1.0;1.0;0.0;0.0;1.0;1.0;1.0;1.0;1.0;1.0;1.0;1.0;file;tools;diff;8f;fscore;1.0
88;88_bb6063cf6d3a6f5b9b0826162468778b9d3581d0-FILE.arff;BR;1.0;1.0;1.0;1.0;1.0;0.0;0.0;0.0;0.0;0.0;0.0;1.0;1.0;0.0;0.0;0.0;0.0;0.0;0.0;0.0;0.0;file;tools;diff;8f;fscore;0.0
88;88_bb6063cf6d3a6f5b9b0826162468778b9d3581d0-FILE.arff;LP;1.0;1.0;1.0;0.0;0.0;1.0;1.0;0.0;0.0;0.0;0.0;1.0;1.0;0.0;0.0;0.0;0.0;0.0;0.0;0.0;0.0;file;tools;diff;8f;fscore;0.0
88;88_bb6063cf6d3a6f5b9b0826162468778b9d3581d0-FILE.arff;RAkELd;1.0;1.0;1.0;0.0;0.0;0.0;0.0;1.0;1.0;1.0;1.0;0.0;0.0;1.0;1.0;1.0;1.0;1.0;1.0;1.0;1.0;file;tools;diff;8f;fscore;1.0
91;91_93ba8082c01fac2e8a82b26d1f7020a4e4d45156-FILE.arff;BR;1.0;1.0;1.0;1.0;1.0;0.0;0.0;0.0;0.0;0.0;0.0;1.0;1.0;0.0;0.0;0.0;0.0;0.0;0.0;0.0;0.0;file;tools;diff;8f;fscore;0.0
91;91_93ba8082c01fac2e8a82b26d1f7020a4e4d45156-FILE.arff;LP;1.0;1.0;1.0;0.0;0.0;0.0;0.0;1.0;1.0;1.0;1.0;0.0;0.0;1.0;1.0;1.0;1.0;1.0;1.0;1.0;1.0;file;tools;diff;8f;fscore;1.0
91;91_93ba8082c01fac2e8a82b26d1f7020a4e4d45156-FILE.arff;RAkELd;1.0;1.0;1.0;0.0;0.0;0.0;0.0;1.0;1.0;1.0;1.0;0.0;0.0;1.0;1.0;1.0;1.0;1.0;1.0;1.0;1.0;file;tools;diff;8f;fscore;1.0
93;93_51c56763d267cfd3d2016eff243959ace415df47-FILE.arff;BR;4.0;4.0;1.0;4.0;1.0;0.0;0.0;0.0;0.0;0.0;0.0;4.0;1.0;0.0;0.0;0.0;0.0;0.0;0.0;0.0;0.0;file;tools;diff;8f;fscore;0.0
93;93_51c56763d267cfd3d2016eff243959ace415df47-FILE.arff;LP;4.0;4.0;1.0;0.0;0.0;4.0;1.0;0.0;0.0;0.0;0.0;4.0;1.0;0.0;0.0;0.0;0.0;0.0;0.0;0.0;0.0;file;tools;diff;8f;fscore;0.0
93;93_51c56763d267cfd3d2016eff243959ace415df47-FILE.arff;RAkELd;4.0;4.0;1.0;0.0;0.0;4.0;1.0;0.0;0.0;0.0;0.0;4.0;1.0;0.0;0.0;0.0;0.0;0.0;0.0;0.0;0.0;file;tools;diff;8f;fscore;0.0
97;97_2b57726f7934d9ee1ccb19bbb5abb2bf01d9153c-FILE.arff;BR;1.0;1.0;1.0;1.0;1.0;0.0;0.0;0.0;0.0;0.0;0.0;1.0;1.0;0.0;0.0;0.0;0.0;0.0;0.0;0.0;0.0;file;tools;diff;8f;fscore;0.0
97;97_2b57726f7934d9ee1ccb19bbb5abb2bf01d9153c-FILE.arff;LP;1.0;1.0;1.0;0.0;0.0;1.0;1.0;0.0;0.0;0.0;0.0;1.0;1.0;0.0;0.0;0.0;0.0;0.0;0.0;0.0;0.0;file;tools;diff;8f;fscore;0.0
97;97_2b57726f7934d9ee1ccb19bbb5abb2bf01d9153c-FILE.arff;RAkELd;1.0;1.0;1.0;1.0;1.0;0.0;0.0;0.0;0.0;0.0;0.0;1.0;1.0;0.0;0.0;0.0;0.0;0.0;0.0;0.0;0.0;file;tools;diff;8f;fscore;0.0
99;99_f3af85706152f7ed475251b916fc57b1790c4e41-FILE.arff;BR;1.0;1.0;1.0;1.0;1.0;0.0;0.0;0.0;0.0;0.0;0.0;1.0;1.0;0.0;0.0;0.0;0.0;0.0;0.0;0.0;0.0;file;tools;diff;8f;fscore;0.0
99;99_f3af85706152f7ed475251b916fc57b1790c4e41-FILE.arff;LP;1.0;1.0;1.0;0.0;0.0;1.0;1.0;0.0;0.0;0.0;0.0;1.0;1.0;0.0;0.0;0.0;0.0;0.0;0.0;0.0;0.0;file;tools;diff;8f;fscore;0.0
99;99_f3af85706152f7ed475251b916fc57b1790c4e41-FILE.arff;RAkELd;1.0;1.0;1.0;1.0;1.0;0.0;0.0;0.0;0.0;0.0;0.0;1.0;1.0;0.0;0.0;0.0;0.0;0.0;0.0;0.0;0.0;file;tools;diff;8f;fscore;0.0
103;103_26b530cf19618fc08603a25417524d4428a10a1b-FILE.arff;BR;1.0;1.0;1.0;1.0;1.0;0.0;0.0;0.0;0.0;0.0;0.0;1.0;1.0;0.0;0.0;0.0;0.0;0.0;0.0;0.0;0.0;file;tools;diff;8f;fscore;0.0
103;103_26b530cf19618fc08603a25417524d4428a10a1b-FILE.arff;LP;1.0;1.0;1.0;0.0;0.0;1.0;1.0;0.0;0.0;0.0;0.0;1.0;1.0;0.0;0.0;0.0;0.0;0.0;0.0;0.0;0.0;file;tools;diff;8f;fscore;0.0
103;103_26b530cf19618fc08603a25417524d4428a10a1b-FILE.arff;RAkELd;1.0;1.0;1.0;1.0;1.0;0.0;0.0;0.0;0.0;0.0;0.0;1.0;1.0;0.0;0.0;0.0;0.0;0.0;0.0;0.0;0.0;file;tools;diff;8f;fscore;0.0
104;104_5d6b0dbf7f752c9dcb02506d2fb070e9c5f17f10-FILE.arff;BR;1.0;1.0;1.0;1.0;1.0;0.0;0.0;0.0;0.0;0.0;0.0;1.0;1.0;0.0;0.0;0.0;0.0;0.0;0.0;0.0;0.0;file;tools;diff;8f;fscore;0.0
104;104_5d6b0dbf7f752c9dcb02506d2fb070e9c5f17f10-FILE.arff;LP;1.0;1.0;1.0;0.0;0.0;1.0;1.0;0.0;0.0;0.0;0.0;1.0;1.0;0.0;0.0;0.0;0.0;0.0;0.0;0.0;0.0;file;tools;diff;8f;fscore;0.0
104;104_5d6b0dbf7f752c9dcb02506d2fb070e9c5f17f10-FILE.arff;RAkELd;1.0;1.0;1.0;1.0;1.0;0.0;0.0;0.0;0.0;0.0;0.0;1.0;1.0;0.0;0.0;0.0;0.0;0.0;0.0;0.0;0.0;file;tools;diff;8f;fscore;0.0
105;105_cd79484caaf9c1fb956a22bcf9ac73e32b4470b6-FILE.arff;BR;3.0;3.0;1.0;3.0;1.0;0.0;0.0;0.0;0.0;0.0;0.0;3.0;1.0;0.0;0.0;0.0;0.0;0.0;0.0;0.0;0.0;file;tools;diff;8f;fscore;0.0
105;105_cd79484caaf9c1fb956a22bcf9ac73e32b4470b6-FILE.arff;LP;3.0;3.0;1.0;0.0;0.0;3.0;1.0;0.0;0.0;0.0;0.0;3.0;1.0;0.0;0.0;0.0;0.0;0.0;0.0;0.0;0.0;file;tools;diff;8f;fscore;0.0
105;105_cd79484caaf9c1fb956a22bcf9ac73e32b4470b6-FILE.arff;RAkELd;3.0;3.0;1.0;3.0;1.0;0.0;0.0;0.0;0.0;0.0;0.0;3.0;1.0;0.0;0.0;0.0;0.0;0.0;0.0;0.0;0.0;file;tools;diff;8f;fscore;0.0
113;113_44854e5b60aa6690a1eec54dd04ea8217568445f-FILE.arff;BR;1.0;1.0;1.0;1.0;1.0;0.0;0.0;0.0;0.0;0.0;0.0;1.0;1.0;0.0;0.0;0.0;0.0;0.0;0.0;0.0;0.0;file;tools;diff;8f;fscore;0.0
113;113_44854e5b60aa6690a1eec54dd04ea8217568445f-FILE.arff;LP;1.0;1.0;1.0;0.0;0.0;1.0;1.0;0.0;0.0;0.0;0.0;1.0;1.0;0.0;0.0;0.0;0.0;0.0;0.0;0.0;0.0;file;tools;diff;8f;fscore;0.0
113;113_44854e5b60aa6690a1eec54dd04ea8217568445f-FILE.arff;RAkELd;1.0;1.0;1.0;1.0;1.0;0.0;0.0;0.0;0.0;0.0;0.0;1.0;1.0;0.0;0.0;0.0;0.0;0.0;0.0;0.0;0.0;file;tools;diff;8f;fscore;0.0
114;114_a7f8bf60bc8c5b8370dfad5d695440be3ae08b91-FILE.arff;BR;3.0;3.0;1.0;3.0;1.0;0.0;0.0;0.0;0.0;0.0;0.0;3.0;1.0;0.0;0.0;0.0;0.0;0.0;0.0;0.0;0.0;file;tools;diff;8f;fscore;0.0
114;114_a7f8bf60bc8c5b8370dfad5d695440be3ae08b91-FILE.arff;LP;3.0;3.0;1.0;0.0;0.0;3.0;1.0;0.0;0.0;0.0;0.0;3.0;1.0;0.0;0.0;0.0;0.0;0.0;0.0;0.0;0.0;file;tools;diff;8f;fscore;0.0
114;114_a7f8bf60bc8c5b8370dfad5d695440be3ae08b91-FILE.arff;RAkELd;3.0;3.0;1.0;3.0;1.0;0.0;0.0;0.0;0.0;0.0;0.0;3.0;1.0;0.0;0.0;0.0;0.0;0.0;0.0;0.0;0.0;file;tools;diff;8f;fscore;0.0
119;119_23bded8568a0eac403b2b4cb845569bf1fddbf8f-FILE.arff;BR;2.0;2.0;1.0;2.0;1.0;0.0;0.0;0.0;0.0;0.0;0.0;2.0;1.0;0.0;0.0;0.0;0.0;0.0;0.0;0.0;0.0;file;tools;diff;8f;fscore;0.0
119;119_23bded8568a0eac403b2b4cb845569bf1fddbf8f-FILE.arff;LP;2.0;2.0;1.0;0.0;0.0;2.0;1.0;0.0;0.0;0.0;0.0;2.0;1.0;0.0;0.0;0.0;0.0;0.0;0.0;0.0;0.0;file;tools;diff;8f;fscore;0.0
119;119_23bded8568a0eac403b2b4cb845569bf1fddbf8f-FILE.arff;RAkELd;2.0;2.0;1.0;2.0;1.0;0.0;0.0;0.0;0.0;0.0;0.0;2.0;1.0;0.0;0.0;0.0;0.0;0.0;0.0;0.0;0.0;file;tools;diff;8f;fscore;0.0
122;122_71556e444e7f607c3c7a0a5b3b7936e0fc4a25d2-FILE.arff;BR;3.0;3.0;1.0;3.0;1.0;0.0;0.0;0.0;0.0;0.0;0.0;3.0;1.0;0.0;0.0;0.0;0.0;0.0;0.0;0.0;0.0;file;tools;diff;8f;fscore;0.0
122;122_71556e444e7f607c3c7a0a5b3b7936e0fc4a25d2-FILE.arff;LP;3.0;3.0;1.0;0.0;0.0;3.0;1.0;0.0;0.0;0.0;0.0;3.0;1.0;0.0;0.0;0.0;0.0;0.0;0.0;0.0;0.0;file;tools;diff;8f;fscore;0.0
122;122_71556e444e7f607c3c7a0a5b3b7936e0fc4a25d2-FILE.arff;RAkELd;3.0;3.0;1.0;3.0;1.0;0.0;0.0;0.0;0.0;0.0;0.0;3.0;1.0;0.0;0.0;0.0;0.0;0.0;0.0;0.0;0.0;file;tools;diff;8f;fscore;0.0
126;126_ad9d1d1490d499b5e0aee1905cbd868f4d497d00-FILE.arff;BR;1.0;1.0;1.0;1.0;1.0;0.0;0.0;0.0;0.0;0.0;0.0;1.0;1.0;0.0;0.0;0.0;0.0;0.0;0.0;0.0;0.0;file;tools;diff;8f;fscore;0.0
126;126_ad9d1d1490d499b5e0aee1905cbd868f4d497d00-FILE.arff;LP;1.0;1.0;1.0;0.0;0.0;1.0;1.0;0.0;0.0;0.0;0.0;1.0;1.0;0.0;0.0;0.0;0.0;0.0;0.0;0.0;0.0;file;tools;diff;8f;fscore;0.0
126;126_ad9d1d1490d499b5e0aee1905cbd868f4d497d00-FILE.arff;RAkELd;1.0;1.0;1.0;1.0;1.0;0.0;0.0;0.0;0.0;0.0;0.0;1.0;1.0;0.0;0.0;0.0;0.0;0.0;0.0;0.0;0.0;file;tools;diff;8f;fscore;0.0
130;130_45106ed76f9cdc9d1589b2802eb19ab54919c87d-FILE.arff;BR;1.0;1.0;1.0;1.0;1.0;0.0;0.0;0.0;0.0;0.0;0.0;1.0;1.0;0.0;0.0;0.0;0.0;0.0;0.0;0.0;0.0;file;tools;diff;8f;fscore;0.0
130;130_45106ed76f9cdc9d1589b2802eb19ab54919c87d-FILE.arff;LP;1.0;1.0;1.0;0.0;0.0;1.0;1.0;0.0;0.0;0.0;0.0;1.0;1.0;0.0;0.0;0.0;0.0;0.0;0.0;0.0;0.0;file;tools;diff;8f;fscore;0.0
130;130_45106ed76f9cdc9d1589b2802eb19ab54919c87d-FILE.arff;RAkELd;1.0;1.0;1.0;1.0;1.0;0.0;0.0;0.0;0.0;0.0;0.0;1.0;1.0;0.0;0.0;0.0;0.0;0.0;0.0;0.0;0.0;file;tools;diff;8f;fscore;0.0
133;133_eed925f6fd6ba29f48c1d9430199eb3a133a1718-FILE.arff;BR;1.0;1.0;1.0;1.0;1.0;0.0;0.0;0.0;0.0;0.0;0.0;1.0;1.0;0.0;0.0;0.0;0.0;0.0;0.0;0.0;0.0;file;tools;diff;8f;fscore;0.0
133;133_eed925f6fd6ba29f48c1d9430199eb3a133a1718-FILE.arff;LP;1.0;1.0;1.0;0.0;0.0;1.0;1.0;0.0;0.0;0.0;0.0;1.0;1.0;0.0;0.0;0.0;0.0;0.0;0.0;0.0;0.0;file;tools;diff;8f;fscore;0.0
133;133_eed925f6fd6ba29f48c1d9430199eb3a133a1718-FILE.arff;RAkELd;1.0;1.0;1.0;1.0;1.0;0.0;0.0;0.0;0.0;0.0;0.0;1.0;1.0;0.0;0.0;0.0;0.0;0.0;0.0;0.0;0.0;file;tools;diff;8f;fscore;0.0
134;134_d69383a369855daacd7a81d615db8173752a7eaa-FILE.arff;BR;1.0;1.0;1.0;1.0;1.0;0.0;0.0;0.0;0.0;0.0;0.0;1.0;1.0;0.0;0.0;0.0;0.0;0.0;0.0;0.0;0.0;file;tools;diff;8f;fscore;0.0
134;134_d69383a369855daacd7a81d615db8173752a7eaa-FILE.arff;LP;1.0;1.0;1.0;0.0;0.0;1.0;1.0;0.0;0.0;0.0;0.0;1.0;1.0;0.0;0.0;0.0;0.0;0.0;0.0;0.0;0.0;file;tools;diff;8f;fscore;0.0
134;134_d69383a369855daacd7a81d615db8173752a7eaa-FILE.arff;RAkELd;1.0;1.0;1.0;1.0;1.0;0.0;0.0;0.0;0.0;0.0;0.0;1.0;1.0;0.0;0.0;0.0;0.0;0.0;0.0;0.0;0.0;file;tools;diff;8f;fscore;0.0
135;135_303f4a4a06a8abf5ed8aab57f9ede63f92adc2cd-FILE.arff;BR;1.0;1.0;1.0;1.0;1.0;0.0;0.0;0.0;0.0;0.0;0.0;1.0;1.0;0.0;0.0;0.0;0.0;0.0;0.0;0.0;0.0;file;tools;diff;8f;fscore;0.0
135;135_303f4a4a06a8abf5ed8aab57f9ede63f92adc2cd-FILE.arff;LP;1.0;1.0;1.0;0.0;0.0;1.0;1.0;0.0;0.0;0.0;0.0;1.0;1.0;0.0;0.0;0.0;0.0;0.0;0.0;0.0;0.0;file;tools;diff;8f;fscore;0.0
135;135_303f4a4a06a8abf5ed8aab57f9ede63f92adc2cd-FILE.arff;RAkELd;1.0;1.0;1.0;1.0;1.0;0.0;0.0;0.0;0.0;0.0;0.0;1.0;1.0;0.0;0.0;0.0;0.0;0.0;0.0;0.0;0.0;file;tools;diff;8f;fscore;0.0
146;146_2474f804ebd37486ad8f83690c6cf189fa95053c-FILE.arff;BR;1.0;1.0;1.0;1.0;1.0;0.0;0.0;0.0;0.0;0.0;0.0;1.0;1.0;0.0;0.0;0.0;0.0;0.0;0.0;0.0;0.0;file;tools;diff;8f;fscore;0.0
146;146_2474f804ebd37486ad8f83690c6cf189fa95053c-FILE.arff;LP;1.0;1.0;1.0;0.0;0.0;1.0;1.0;0.0;0.0;0.0;0.0;1.0;1.0;0.0;0.0;0.0;0.0;0.0;0.0;0.0;0.0;file;tools;diff;8f;fscore;0.0
146;146_2474f804ebd37486ad8f83690c6cf189fa95053c-FILE.arff;RAkELd;1.0;1.0;1.0;1.0;1.0;0.0;0.0;0.0;0.0;0.0;0.0;1.0;1.0;0.0;0.0;0.0;0.0;0.0;0.0;0.0;0.0;file;tools;diff;8f;fscore;0.0
