commit;DataSet;Classifier;TotalInstances;InstancesWithRankedLabels;PercentageOfInstancesWithRankedLabels;InstancesWithPrecisionNull;PercentageOfInstancesWithPrecisionNull;InstancesWithPrecisionZero;PercentageOfInstancesWithPrecisionZero;InstancesWithPrecisionNonZero;PercentageOfInstancesWithPrecisionNonZero;InstancesWithPrecisionOne;PercentageOfInstancesWithPrecisionOne;InstancesWithRecallZero;PercentageOfInstancesWithRecallZero;InstancesWithRecallOne;PercentageOfInstancesWithRecallOne;AveragePrecisionForAllNonNullPrecision;AveragePrecisionForNonZeroPrecision;AverageRecallForAllNonNullPrecision;AverageRecallForAllNonZeroPrecision;AverageFScoreForAllNonNullPrecision;AverageFScoreForAllNonZeroPrecision;Level;project;clusters;feature;measure;measurevalue
10;10_6e6bbcad3d2c374d6b07749cecb5740b9c329e5f-LOC.arff;BR;3.0;3.0;1.0;0.0;0.0;0.0;0.0;3.0;1.0;3.0;1.0;0.0;0.0;3.0;1.0;1.0;1.0;1.0;1.0;1.0;1.0;loc;config;diff;4f;precision;1.0
10;10_6e6bbcad3d2c374d6b07749cecb5740b9c329e5f-LOC.arff;LP;3.0;3.0;1.0;0.0;0.0;0.0;0.0;3.0;1.0;3.0;1.0;0.0;0.0;3.0;1.0;1.0;1.0;1.0;1.0;1.0;1.0;loc;config;diff;4f;precision;1.0
10;10_6e6bbcad3d2c374d6b07749cecb5740b9c329e5f-LOC.arff;RAkELd;3.0;3.0;1.0;0.0;0.0;0.0;0.0;3.0;1.0;3.0;1.0;0.0;0.0;3.0;1.0;1.0;1.0;1.0;1.0;1.0;1.0;loc;config;diff;4f;precision;1.0
15;15_e9ec5b47c3d417981f4b46f861a85525c2de3e42-LOC.arff;BR;22.0;22.0;1.0;0.0;0.0;22.0;1.0;0.0;0.0;0.0;0.0;22.0;1.0;0.0;0.0;0.0;0.0;0.0;0.0;0.0;0.0;loc;config;diff;4f;precision;0.0
15;15_e9ec5b47c3d417981f4b46f861a85525c2de3e42-LOC.arff;LP;22.0;22.0;1.0;0.0;0.0;22.0;1.0;0.0;0.0;0.0;0.0;22.0;1.0;0.0;0.0;0.0;0.0;0.0;0.0;0.0;0.0;loc;config;diff;4f;precision;0.0
15;15_e9ec5b47c3d417981f4b46f861a85525c2de3e42-LOC.arff;RAkELd;22.0;22.0;1.0;0.0;0.0;22.0;1.0;0.0;0.0;0.0;0.0;22.0;1.0;0.0;0.0;0.0;0.0;0.0;0.0;0.0;0.0;loc;config;diff;4f;precision;0.0
19;19_82829deb0d4c81f35ab73c4c92a95a4713ca2da7-LOC.arff;BR;5.0;5.0;1.0;0.0;0.0;0.0;0.0;5.0;1.0;5.0;1.0;0.0;0.0;5.0;1.0;1.0;1.0;1.0;1.0;1.0;1.0;loc;config;diff;4f;precision;1.0
19;19_82829deb0d4c81f35ab73c4c92a95a4713ca2da7-LOC.arff;LP;5.0;5.0;1.0;0.0;0.0;0.0;0.0;5.0;1.0;5.0;1.0;0.0;0.0;5.0;1.0;1.0;1.0;1.0;1.0;1.0;1.0;loc;config;diff;4f;precision;1.0
19;19_82829deb0d4c81f35ab73c4c92a95a4713ca2da7-LOC.arff;RAkELd;5.0;5.0;1.0;0.0;0.0;0.0;0.0;5.0;1.0;5.0;1.0;0.0;0.0;5.0;1.0;1.0;1.0;1.0;1.0;1.0;1.0;loc;config;diff;4f;precision;1.0
20;20_a0390a1945d87e77960e3b49bfc5293bdf4cc7f1-LOC.arff;BR;7.0;7.0;1.0;0.0;0.0;4.0;0.5714285714285714;3.0;0.42857142857142855;2.0;0.2857142857142857;4.0;0.5714285714285714;0.0;0.0;0.35714285714285715;0.8333333333333334;0.21428571428571427;0.5;0.2619047619047619;0.611111111111111;loc;config;diff;4f;precision;0.35714285714285715
20;20_a0390a1945d87e77960e3b49bfc5293bdf4cc7f1-LOC.arff;LP;7.0;7.0;1.0;0.0;0.0;7.0;1.0;0.0;0.0;0.0;0.0;7.0;1.0;0.0;0.0;0.0;0.0;0.0;0.0;0.0;0.0;loc;config;diff;4f;precision;0.0
20;20_a0390a1945d87e77960e3b49bfc5293bdf4cc7f1-LOC.arff;RAkELd;7.0;7.0;1.0;0.0;0.0;4.0;0.5714285714285714;3.0;0.42857142857142855;2.0;0.2857142857142857;4.0;0.5714285714285714;0.0;0.0;0.35714285714285715;0.8333333333333334;0.21428571428571427;0.5;0.2619047619047619;0.611111111111111;loc;config;diff;4f;precision;0.35714285714285715
21;21_8ea5cba374125e90d9474b19e9f009f2c8c1e393-LOC.arff;BR;4.0;4.0;1.0;0.0;0.0;4.0;1.0;0.0;0.0;0.0;0.0;4.0;1.0;0.0;0.0;0.0;0.0;0.0;0.0;0.0;0.0;loc;config;diff;4f;precision;0.0
21;21_8ea5cba374125e90d9474b19e9f009f2c8c1e393-LOC.arff;LP;4.0;4.0;1.0;0.0;0.0;4.0;1.0;0.0;0.0;0.0;0.0;4.0;1.0;0.0;0.0;0.0;0.0;0.0;0.0;0.0;0.0;loc;config;diff;4f;precision;0.0
21;21_8ea5cba374125e90d9474b19e9f009f2c8c1e393-LOC.arff;RAkELd;4.0;4.0;1.0;0.0;0.0;4.0;1.0;0.0;0.0;0.0;0.0;4.0;1.0;0.0;0.0;0.0;0.0;0.0;0.0;0.0;0.0;loc;config;diff;4f;precision;0.0
23;23_c86910dc5497dadec1d525edb7e2c0b9de2ecce3-LOC.arff;BR;3.0;3.0;1.0;0.0;0.0;0.0;0.0;3.0;1.0;3.0;1.0;0.0;0.0;3.0;1.0;1.0;1.0;1.0;1.0;1.0;1.0;loc;config;diff;4f;precision;1.0
23;23_c86910dc5497dadec1d525edb7e2c0b9de2ecce3-LOC.arff;LP;3.0;3.0;1.0;0.0;0.0;0.0;0.0;3.0;1.0;3.0;1.0;0.0;0.0;3.0;1.0;1.0;1.0;1.0;1.0;1.0;1.0;loc;config;diff;4f;precision;1.0
23;23_c86910dc5497dadec1d525edb7e2c0b9de2ecce3-LOC.arff;RAkELd;3.0;3.0;1.0;0.0;0.0;0.0;0.0;3.0;1.0;3.0;1.0;0.0;0.0;3.0;1.0;1.0;1.0;1.0;1.0;1.0;1.0;loc;config;diff;4f;precision;1.0
29;29_2d4fee10f0a276a0319faefcef3008745b37a67f-LOC.arff;BR;14.0;14.0;1.0;0.0;0.0;5.0;0.35714285714285715;9.0;0.6428571428571429;9.0;0.6428571428571429;5.0;0.35714285714285715;9.0;0.6428571428571429;0.6428571428571429;1.0;0.6428571428571429;1.0;0.6428571428571429;1.0;loc;config;diff;4f;precision;0.6428571428571429
29;29_2d4fee10f0a276a0319faefcef3008745b37a67f-LOC.arff;LP;14.0;14.0;1.0;0.0;0.0;5.0;0.35714285714285715;9.0;0.6428571428571429;9.0;0.6428571428571429;5.0;0.35714285714285715;9.0;0.6428571428571429;0.6428571428571429;1.0;0.6428571428571429;1.0;0.6428571428571429;1.0;loc;config;diff;4f;precision;0.6428571428571429
29;29_2d4fee10f0a276a0319faefcef3008745b37a67f-LOC.arff;RAkELd;14.0;14.0;1.0;0.0;0.0;5.0;0.35714285714285715;9.0;0.6428571428571429;9.0;0.6428571428571429;5.0;0.35714285714285715;9.0;0.6428571428571429;0.6428571428571429;1.0;0.6428571428571429;1.0;0.6428571428571429;1.0;loc;config;diff;4f;precision;0.6428571428571429
34;34_eb4ef8bdb632b025fac0fcb559d6ea5ea5cd7fb9-LOC.arff;BR;12.0;12.0;1.0;0.0;0.0;0.0;0.0;12.0;1.0;12.0;1.0;0.0;0.0;12.0;1.0;1.0;1.0;1.0;1.0;1.0;1.0;loc;config;diff;4f;precision;1.0
34;34_eb4ef8bdb632b025fac0fcb559d6ea5ea5cd7fb9-LOC.arff;LP;12.0;12.0;1.0;0.0;0.0;0.0;0.0;12.0;1.0;12.0;1.0;0.0;0.0;12.0;1.0;1.0;1.0;1.0;1.0;1.0;1.0;loc;config;diff;4f;precision;1.0
34;34_eb4ef8bdb632b025fac0fcb559d6ea5ea5cd7fb9-LOC.arff;RAkELd;12.0;12.0;1.0;0.0;0.0;0.0;0.0;12.0;1.0;12.0;1.0;0.0;0.0;12.0;1.0;1.0;1.0;1.0;1.0;1.0;1.0;loc;config;diff;4f;precision;1.0
37;37_a3ff951e4ab64bda60f0bbd05c697257120e41bb-LOC.arff;BR;18.0;18.0;1.0;0.0;0.0;9.0;0.5;9.0;0.5;9.0;0.5;9.0;0.5;9.0;0.5;0.5;1.0;0.5;1.0;0.5;1.0;loc;config;diff;4f;precision;0.5
37;37_a3ff951e4ab64bda60f0bbd05c697257120e41bb-LOC.arff;LP;18.0;18.0;1.0;0.0;0.0;9.0;0.5;9.0;0.5;9.0;0.5;9.0;0.5;9.0;0.5;0.5;1.0;0.5;1.0;0.5;1.0;loc;config;diff;4f;precision;0.5
37;37_a3ff951e4ab64bda60f0bbd05c697257120e41bb-LOC.arff;RAkELd;18.0;18.0;1.0;0.0;0.0;9.0;0.5;9.0;0.5;9.0;0.5;9.0;0.5;9.0;0.5;0.5;1.0;0.5;1.0;0.5;1.0;loc;config;diff;4f;precision;0.5
38;38_a3a52fed8df123af995b39816c6a1eb531fd91a9-LOC.arff;BR;52.0;52.0;1.0;0.0;0.0;27.0;0.5192307692307693;25.0;0.4807692307692308;9.0;0.17307692307692307;27.0;0.5192307692307693;25.0;0.4807692307692308;0.3269230769230769;0.68;0.4807692307692308;1.0;0.37820512820512825;0.7866666666666667;loc;config;diff;4f;precision;0.3269230769230769
38;38_a3a52fed8df123af995b39816c6a1eb531fd91a9-LOC.arff;LP;52.0;52.0;1.0;0.0;0.0;43.0;0.8269230769230769;9.0;0.17307692307692307;9.0;0.17307692307692307;43.0;0.8269230769230769;9.0;0.17307692307692307;0.17307692307692307;1.0;0.17307692307692307;1.0;0.17307692307692307;1.0;loc;config;diff;4f;precision;0.17307692307692307
38;38_a3a52fed8df123af995b39816c6a1eb531fd91a9-LOC.arff;RAkELd;52.0;52.0;1.0;0.0;0.0;27.0;0.5192307692307693;25.0;0.4807692307692308;9.0;0.17307692307692307;27.0;0.5192307692307693;25.0;0.4807692307692308;0.3269230769230769;0.68;0.4807692307692308;1.0;0.37820512820512825;0.7866666666666667;loc;config;diff;4f;precision;0.3269230769230769
39;39_80d744b05f24a1c230afb4802aa6a70d6fc9259c-LOC.arff;BR;15.0;15.0;1.0;0.0;0.0;12.0;0.8;3.0;0.2;0.0;0.0;12.0;0.8;3.0;0.2;0.1;0.5;0.2;1.0;0.13333333333333333;0.6666666666666666;loc;config;diff;4f;precision;0.1
39;39_80d744b05f24a1c230afb4802aa6a70d6fc9259c-LOC.arff;LP;15.0;15.0;1.0;0.0;0.0;12.0;0.8;3.0;0.2;3.0;0.2;12.0;0.8;3.0;0.2;0.2;1.0;0.2;1.0;0.2;1.0;loc;config;diff;4f;precision;0.2
39;39_80d744b05f24a1c230afb4802aa6a70d6fc9259c-LOC.arff;RAkELd;15.0;15.0;1.0;0.0;0.0;12.0;0.8;3.0;0.2;0.0;0.0;12.0;0.8;3.0;0.2;0.1;0.5;0.2;1.0;0.13333333333333333;0.6666666666666666;loc;config;diff;4f;precision;0.1
40;40_61060284aaefc13a758eaa5d56ea15ef00940d50-LOC.arff;BR;13.0;13.0;1.0;0.0;0.0;0.0;0.0;13.0;1.0;13.0;1.0;0.0;0.0;13.0;1.0;1.0;1.0;1.0;1.0;1.0;1.0;loc;config;diff;4f;precision;1.0
40;40_61060284aaefc13a758eaa5d56ea15ef00940d50-LOC.arff;LP;13.0;13.0;1.0;0.0;0.0;0.0;0.0;13.0;1.0;13.0;1.0;0.0;0.0;13.0;1.0;1.0;1.0;1.0;1.0;1.0;1.0;loc;config;diff;4f;precision;1.0
40;40_61060284aaefc13a758eaa5d56ea15ef00940d50-LOC.arff;RAkELd;13.0;13.0;1.0;0.0;0.0;0.0;0.0;13.0;1.0;13.0;1.0;0.0;0.0;13.0;1.0;1.0;1.0;1.0;1.0;1.0;1.0;loc;config;diff;4f;precision;1.0
41;41_f27292734432228765446ca71db00314424fce48-LOC.arff;BR;29.0;29.0;1.0;0.0;0.0;12.0;0.41379310344827586;17.0;0.5862068965517241;17.0;0.5862068965517241;12.0;0.41379310344827586;17.0;0.5862068965517241;0.5862068965517241;1.0;0.5862068965517241;1.0;0.5862068965517241;1.0;loc;config;diff;4f;precision;0.5862068965517241
41;41_f27292734432228765446ca71db00314424fce48-LOC.arff;LP;29.0;29.0;1.0;0.0;0.0;12.0;0.41379310344827586;17.0;0.5862068965517241;17.0;0.5862068965517241;12.0;0.41379310344827586;17.0;0.5862068965517241;0.5862068965517241;1.0;0.5862068965517241;1.0;0.5862068965517241;1.0;loc;config;diff;4f;precision;0.5862068965517241
41;41_f27292734432228765446ca71db00314424fce48-LOC.arff;RAkELd;29.0;29.0;1.0;0.0;0.0;12.0;0.41379310344827586;17.0;0.5862068965517241;17.0;0.5862068965517241;12.0;0.41379310344827586;17.0;0.5862068965517241;0.5862068965517241;1.0;0.5862068965517241;1.0;0.5862068965517241;1.0;loc;config;diff;4f;precision;0.5862068965517241
42;42_369ff94e4d3a476e60c6105eb90d4bdd477f0b8b-LOC.arff;BR;35.0;35.0;1.0;0.0;0.0;5.0;0.14285714285714285;30.0;0.8571428571428571;27.0;0.7714285714285715;5.0;0.14285714285714285;30.0;0.8571428571428571;0.8142857142857143;0.95;0.8571428571428571;1.0;0.8285714285714286;0.9666666666666667;loc;config;diff;4f;precision;0.8142857142857143
42;42_369ff94e4d3a476e60c6105eb90d4bdd477f0b8b-LOC.arff;LP;35.0;35.0;1.0;0.0;0.0;5.0;0.14285714285714285;30.0;0.8571428571428571;30.0;0.8571428571428571;5.0;0.14285714285714285;30.0;0.8571428571428571;0.8571428571428571;1.0;0.8571428571428571;1.0;0.8571428571428571;1.0;loc;config;diff;4f;precision;0.8571428571428571
42;42_369ff94e4d3a476e60c6105eb90d4bdd477f0b8b-LOC.arff;RAkELd;35.0;35.0;1.0;0.0;0.0;5.0;0.14285714285714285;30.0;0.8571428571428571;27.0;0.7714285714285715;5.0;0.14285714285714285;30.0;0.8571428571428571;0.8142857142857143;0.95;0.8571428571428571;1.0;0.8285714285714286;0.9666666666666667;loc;config;diff;4f;precision;0.8142857142857143
43;43_b18c4172f5a973f38241f1f997a9df14635ab54f-LOC.arff;BR;37.0;37.0;1.0;12.0;0.32432432432432434;2.0;0.05405405405405406;23.0;0.6216216216216216;23.0;0.6216216216216216;14.0;0.3783783783783784;23.0;0.6216216216216216;0.92;1.0;0.92;1.0;0.92;1.0;loc;config;diff;4f;precision;0.92
43;43_b18c4172f5a973f38241f1f997a9df14635ab54f-LOC.arff;LP;37.0;37.0;1.0;0.0;0.0;16.0;0.43243243243243246;21.0;0.5675675675675675;16.0;0.43243243243243246;16.0;0.43243243243243246;21.0;0.5675675675675675;0.5;0.8809523809523809;0.5675675675675675;1.0;0.5225225225225225;0.9206349206349206;loc;config;diff;4f;precision;0.5
43;43_b18c4172f5a973f38241f1f997a9df14635ab54f-LOC.arff;RAkELd;37.0;37.0;1.0;12.0;0.32432432432432434;2.0;0.05405405405405406;23.0;0.6216216216216216;23.0;0.6216216216216216;14.0;0.3783783783783784;23.0;0.6216216216216216;0.92;1.0;0.92;1.0;0.92;1.0;loc;config;diff;4f;precision;0.92
46;46_59bcd268f5d06568e409bcbe8a5eb11002bb567d-LOC.arff;BR;16.0;16.0;1.0;0.0;0.0;1.0;0.0625;15.0;0.9375;0.0;0.0;1.0;0.0625;15.0;0.9375;0.46875;0.5;0.9375;1.0;0.625;0.6666666666666666;loc;config;diff;4f;precision;0.46875
46;46_59bcd268f5d06568e409bcbe8a5eb11002bb567d-LOC.arff;LP;16.0;16.0;1.0;0.0;0.0;1.0;0.0625;15.0;0.9375;15.0;0.9375;1.0;0.0625;15.0;0.9375;0.9375;1.0;0.9375;1.0;0.9375;1.0;loc;config;diff;4f;precision;0.9375
46;46_59bcd268f5d06568e409bcbe8a5eb11002bb567d-LOC.arff;RAkELd;16.0;16.0;1.0;0.0;0.0;1.0;0.0625;15.0;0.9375;0.0;0.0;1.0;0.0625;15.0;0.9375;0.46875;0.5;0.9375;1.0;0.625;0.6666666666666666;loc;config;diff;4f;precision;0.46875
52;52_9e22f13942eee52d3fe5091d9d33a050c455631d-LOC.arff;BR;39.0;39.0;1.0;0.0;0.0;33.0;0.8461538461538461;6.0;0.15384615384615385;6.0;0.15384615384615385;33.0;0.8461538461538461;0.0;0.0;0.15384615384615385;1.0;0.07264957264957266;0.47222222222222227;0.09829059829059829;0.6388888888888888;loc;config;diff;4f;precision;0.15384615384615385
52;52_9e22f13942eee52d3fe5091d9d33a050c455631d-LOC.arff;LP;39.0;39.0;1.0;0.0;0.0;33.0;0.8461538461538461;6.0;0.15384615384615385;6.0;0.15384615384615385;33.0;0.8461538461538461;0.0;0.0;0.15384615384615385;1.0;0.07264957264957266;0.47222222222222227;0.09829059829059829;0.6388888888888888;loc;config;diff;4f;precision;0.15384615384615385
52;52_9e22f13942eee52d3fe5091d9d33a050c455631d-LOC.arff;RAkELd;39.0;39.0;1.0;0.0;0.0;33.0;0.8461538461538461;6.0;0.15384615384615385;6.0;0.15384615384615385;33.0;0.8461538461538461;0.0;0.0;0.15384615384615385;1.0;0.07264957264957266;0.47222222222222227;0.09829059829059829;0.6388888888888888;loc;config;diff;4f;precision;0.15384615384615385
53;53_2ce2f01675438273384d8cc3377814fe7722d9a5-LOC.arff;BR;22.0;22.0;1.0;0.0;0.0;22.0;1.0;0.0;0.0;0.0;0.0;22.0;1.0;0.0;0.0;0.0;0.0;0.0;0.0;0.0;0.0;loc;config;diff;4f;precision;0.0
53;53_2ce2f01675438273384d8cc3377814fe7722d9a5-LOC.arff;LP;22.0;22.0;1.0;0.0;0.0;22.0;1.0;0.0;0.0;0.0;0.0;22.0;1.0;0.0;0.0;0.0;0.0;0.0;0.0;0.0;0.0;loc;config;diff;4f;precision;0.0
53;53_2ce2f01675438273384d8cc3377814fe7722d9a5-LOC.arff;RAkELd;22.0;22.0;1.0;0.0;0.0;22.0;1.0;0.0;0.0;0.0;0.0;22.0;1.0;0.0;0.0;0.0;0.0;0.0;0.0;0.0;0.0;loc;config;diff;4f;precision;0.0
55;55_4c654aaab13f778145cfdf2b88d15ee9a1392b91-LOC.arff;BR;1.0;1.0;1.0;0.0;0.0;0.0;0.0;1.0;1.0;1.0;1.0;0.0;0.0;1.0;1.0;1.0;1.0;1.0;1.0;1.0;1.0;loc;config;diff;4f;precision;1.0
55;55_4c654aaab13f778145cfdf2b88d15ee9a1392b91-LOC.arff;LP;1.0;1.0;1.0;0.0;0.0;0.0;0.0;1.0;1.0;1.0;1.0;0.0;0.0;1.0;1.0;1.0;1.0;1.0;1.0;1.0;1.0;loc;config;diff;4f;precision;1.0
55;55_4c654aaab13f778145cfdf2b88d15ee9a1392b91-LOC.arff;RAkELd;1.0;1.0;1.0;0.0;0.0;0.0;0.0;1.0;1.0;1.0;1.0;0.0;0.0;1.0;1.0;1.0;1.0;1.0;1.0;1.0;1.0;loc;config;diff;4f;precision;1.0
57;57_3364b99ef9f6c0d28d26219dd4803c87757c218a-LOC.arff;BR;4.0;4.0;1.0;0.0;0.0;0.0;0.0;4.0;1.0;4.0;1.0;0.0;0.0;4.0;1.0;1.0;1.0;1.0;1.0;1.0;1.0;loc;config;diff;4f;precision;1.0
57;57_3364b99ef9f6c0d28d26219dd4803c87757c218a-LOC.arff;LP;4.0;4.0;1.0;0.0;0.0;0.0;0.0;4.0;1.0;4.0;1.0;0.0;0.0;4.0;1.0;1.0;1.0;1.0;1.0;1.0;1.0;loc;config;diff;4f;precision;1.0
57;57_3364b99ef9f6c0d28d26219dd4803c87757c218a-LOC.arff;RAkELd;4.0;4.0;1.0;0.0;0.0;0.0;0.0;4.0;1.0;4.0;1.0;0.0;0.0;4.0;1.0;1.0;1.0;1.0;1.0;1.0;1.0;loc;config;diff;4f;precision;1.0
58;58_0940c6491e5adc00cf3ce40e27d499cf3482dffd-LOC.arff;BR;5.0;5.0;1.0;0.0;0.0;0.0;0.0;5.0;1.0;5.0;1.0;0.0;0.0;5.0;1.0;1.0;1.0;1.0;1.0;1.0;1.0;loc;config;diff;4f;precision;1.0
58;58_0940c6491e5adc00cf3ce40e27d499cf3482dffd-LOC.arff;LP;5.0;5.0;1.0;0.0;0.0;0.0;0.0;5.0;1.0;5.0;1.0;0.0;0.0;5.0;1.0;1.0;1.0;1.0;1.0;1.0;1.0;loc;config;diff;4f;precision;1.0
58;58_0940c6491e5adc00cf3ce40e27d499cf3482dffd-LOC.arff;RAkELd;5.0;5.0;1.0;0.0;0.0;0.0;0.0;5.0;1.0;5.0;1.0;0.0;0.0;5.0;1.0;1.0;1.0;1.0;1.0;1.0;1.0;loc;config;diff;4f;precision;1.0
59;59_7e4007bedf5b89c573da9e2044b82a99ef384d1a-LOC.arff;BR;6.0;6.0;1.0;0.0;0.0;6.0;1.0;0.0;0.0;0.0;0.0;6.0;1.0;0.0;0.0;0.0;0.0;0.0;0.0;0.0;0.0;loc;config;diff;4f;precision;0.0
59;59_7e4007bedf5b89c573da9e2044b82a99ef384d1a-LOC.arff;LP;6.0;6.0;1.0;0.0;0.0;6.0;1.0;0.0;0.0;0.0;0.0;6.0;1.0;0.0;0.0;0.0;0.0;0.0;0.0;0.0;0.0;loc;config;diff;4f;precision;0.0
59;59_7e4007bedf5b89c573da9e2044b82a99ef384d1a-LOC.arff;RAkELd;6.0;6.0;1.0;0.0;0.0;6.0;1.0;0.0;0.0;0.0;0.0;6.0;1.0;0.0;0.0;0.0;0.0;0.0;0.0;0.0;0.0;loc;config;diff;4f;precision;0.0
64;64_ff63b18f0f3ae41482487323c39defbd8601213c-LOC.arff;BR;259.0;259.0;1.0;0.0;0.0;106.0;0.4092664092664093;153.0;0.5907335907335908;153.0;0.5907335907335908;106.0;0.4092664092664093;53.0;0.20463320463320464;0.5907335907335908;1.0;0.380952380952381;0.644880174291939;0.4453024453024453;0.7538126361655774;loc;config;diff;4f;precision;0.5907335907335908
64;64_ff63b18f0f3ae41482487323c39defbd8601213c-LOC.arff;LP;259.0;259.0;1.0;0.0;0.0;151.0;0.583011583011583;108.0;0.416988416988417;46.0;0.1776061776061776;151.0;0.583011583011583;59.0;0.2277992277992278;0.2972972972972973;0.7129629629629629;0.32689832689832693;0.7839506172839507;0.29716859716859717;0.7126543209876544;loc;config;diff;4f;precision;0.2972972972972973
64;64_ff63b18f0f3ae41482487323c39defbd8601213c-LOC.arff;RAkELd;259.0;259.0;1.0;0.0;0.0;106.0;0.4092664092664093;153.0;0.5907335907335908;153.0;0.5907335907335908;106.0;0.4092664092664093;53.0;0.20463320463320464;0.5907335907335908;1.0;0.380952380952381;0.644880174291939;0.4453024453024453;0.7538126361655774;loc;config;diff;4f;precision;0.5907335907335908
77;77_1005b084492bd5b92e76dc2cb6d22f97494fdc4c-LOC.arff;BR;2.0;2.0;1.0;1.0;0.5;1.0;0.5;0.0;0.0;0.0;0.0;2.0;1.0;0.0;0.0;0.0;0.0;0.0;0.0;0.0;0.0;loc;config;diff;4f;precision;0.0
77;77_1005b084492bd5b92e76dc2cb6d22f97494fdc4c-LOC.arff;LP;2.0;2.0;1.0;0.0;0.0;2.0;1.0;0.0;0.0;0.0;0.0;2.0;1.0;0.0;0.0;0.0;0.0;0.0;0.0;0.0;0.0;loc;config;diff;4f;precision;0.0
77;77_1005b084492bd5b92e76dc2cb6d22f97494fdc4c-LOC.arff;RAkELd;2.0;2.0;1.0;1.0;0.5;1.0;0.5;0.0;0.0;0.0;0.0;2.0;1.0;0.0;0.0;0.0;0.0;0.0;0.0;0.0;0.0;loc;config;diff;4f;precision;0.0
80;80_260095a268721fcfab443af2b9118bb8bc6dae8e-LOC.arff;BR;10.0;10.0;1.0;0.0;0.0;1.0;0.1;9.0;0.9;9.0;0.9;1.0;0.1;5.0;0.5;0.9;1.0;0.7;0.7777777777777778;0.7666666666666666;0.8518518518518517;loc;config;diff;4f;precision;0.9
80;80_260095a268721fcfab443af2b9118bb8bc6dae8e-LOC.arff;LP;10.0;10.0;1.0;0.0;0.0;1.0;0.1;9.0;0.9;9.0;0.9;1.0;0.1;5.0;0.5;0.9;1.0;0.7;0.7777777777777778;0.7666666666666666;0.8518518518518517;loc;config;diff;4f;precision;0.9
80;80_260095a268721fcfab443af2b9118bb8bc6dae8e-LOC.arff;RAkELd;10.0;10.0;1.0;0.0;0.0;1.0;0.1;9.0;0.9;9.0;0.9;1.0;0.1;5.0;0.5;0.9;1.0;0.7;0.7777777777777778;0.7666666666666666;0.8518518518518517;loc;config;diff;4f;precision;0.9
88;88_405f496ace817ae66797ea23030b7345de965bfa-LOC.arff;BR;121.0;121.0;1.0;121.0;1.0;0.0;0.0;0.0;0.0;0.0;0.0;121.0;1.0;0.0;0.0;0.0;0.0;0.0;0.0;0.0;0.0;loc;config;diff;4f;precision;0.0
88;88_405f496ace817ae66797ea23030b7345de965bfa-LOC.arff;LP;121.0;121.0;1.0;0.0;0.0;97.0;0.8016528925619835;24.0;0.19834710743801653;24.0;0.19834710743801653;97.0;0.8016528925619835;24.0;0.19834710743801653;0.19834710743801653;1.0;0.19834710743801653;1.0;0.19834710743801653;1.0;loc;config;diff;4f;precision;0.19834710743801653
88;88_405f496ace817ae66797ea23030b7345de965bfa-LOC.arff;RAkELd;121.0;121.0;1.0;121.0;1.0;0.0;0.0;0.0;0.0;0.0;0.0;121.0;1.0;0.0;0.0;0.0;0.0;0.0;0.0;0.0;0.0;loc;config;diff;4f;precision;0.0
96;96_b51480e879404bfb3188c9976f2ed7500e4efa9e-LOC.arff;BR;35.0;35.0;1.0;0.0;0.0;12.0;0.34285714285714286;23.0;0.6571428571428571;23.0;0.6571428571428571;12.0;0.34285714285714286;23.0;0.6571428571428571;0.6571428571428571;1.0;0.6571428571428571;1.0;0.6571428571428571;1.0;loc;config;diff;4f;precision;0.6571428571428571
96;96_b51480e879404bfb3188c9976f2ed7500e4efa9e-LOC.arff;LP;35.0;35.0;1.0;0.0;0.0;12.0;0.34285714285714286;23.0;0.6571428571428571;23.0;0.6571428571428571;12.0;0.34285714285714286;23.0;0.6571428571428571;0.6571428571428571;1.0;0.6571428571428571;1.0;0.6571428571428571;1.0;loc;config;diff;4f;precision;0.6571428571428571
96;96_b51480e879404bfb3188c9976f2ed7500e4efa9e-LOC.arff;RAkELd;35.0;35.0;1.0;0.0;0.0;12.0;0.34285714285714286;23.0;0.6571428571428571;23.0;0.6571428571428571;12.0;0.34285714285714286;23.0;0.6571428571428571;0.6571428571428571;1.0;0.6571428571428571;1.0;0.6571428571428571;1.0;loc;config;diff;4f;precision;0.6571428571428571
108;108_772f5dd67bec6cf79de3823c52b2c3c80c0388d1-LOC.arff;BR;47.0;47.0;1.0;47.0;1.0;0.0;0.0;0.0;0.0;0.0;0.0;47.0;1.0;0.0;0.0;0.0;0.0;0.0;0.0;0.0;0.0;loc;config;diff;4f;precision;0.0
108;108_772f5dd67bec6cf79de3823c52b2c3c80c0388d1-LOC.arff;LP;47.0;47.0;1.0;0.0;0.0;47.0;1.0;0.0;0.0;0.0;0.0;47.0;1.0;0.0;0.0;0.0;0.0;0.0;0.0;0.0;0.0;loc;config;diff;4f;precision;0.0
108;108_772f5dd67bec6cf79de3823c52b2c3c80c0388d1-LOC.arff;RAkELd;47.0;47.0;1.0;0.0;0.0;47.0;1.0;0.0;0.0;0.0;0.0;47.0;1.0;0.0;0.0;0.0;0.0;0.0;0.0;0.0;0.0;loc;config;diff;4f;precision;0.0
111;111_e1718c3b040e83752562006902cec84018d16f12-LOC.arff;BR;117.0;117.0;1.0;15.0;0.1282051282051282;102.0;0.8717948717948718;0.0;0.0;0.0;0.0;117.0;1.0;0.0;0.0;0.0;0.0;0.0;0.0;0.0;0.0;loc;config;diff;4f;precision;0.0
111;111_e1718c3b040e83752562006902cec84018d16f12-LOC.arff;LP;117.0;117.0;1.0;0.0;0.0;117.0;1.0;0.0;0.0;0.0;0.0;117.0;1.0;0.0;0.0;0.0;0.0;0.0;0.0;0.0;0.0;loc;config;diff;4f;precision;0.0
111;111_e1718c3b040e83752562006902cec84018d16f12-LOC.arff;RAkELd;117.0;117.0;1.0;15.0;0.1282051282051282;102.0;0.8717948717948718;0.0;0.0;0.0;0.0;117.0;1.0;0.0;0.0;0.0;0.0;0.0;0.0;0.0;0.0;loc;config;diff;4f;precision;0.0
176;176_340dcc563d42fb33ca38f9a71d6aa401cfbde244-LOC.arff;BR;85.0;85.0;1.0;0.0;0.0;3.0;0.03529411764705882;82.0;0.9647058823529412;34.0;0.4;3.0;0.03529411764705882;20.0;0.23529411764705882;0.6823529411764706;0.7073170731707317;0.5735294117647058;0.5945121951219512;0.5952941176470589;0.6170731707317073;loc;config;diff;4f;precision;0.6823529411764706
176;176_340dcc563d42fb33ca38f9a71d6aa401cfbde244-LOC.arff;LP;85.0;85.0;1.0;0.0;0.0;55.0;0.6470588235294118;30.0;0.35294117647058826;20.0;0.23529411764705882;55.0;0.6470588235294118;14.0;0.16470588235294117;0.29411764705882354;0.8333333333333334;0.24901960784313726;0.7055555555555556;0.24745098039215685;0.701111111111111;loc;config;diff;4f;precision;0.29411764705882354
176;176_340dcc563d42fb33ca38f9a71d6aa401cfbde244-LOC.arff;RAkELd;85.0;85.0;1.0;0.0;0.0;3.0;0.03529411764705882;82.0;0.9647058823529412;27.0;0.3176470588235294;3.0;0.03529411764705882;20.0;0.23529411764705882;0.6411764705882353;0.6646341463414634;0.5735294117647058;0.5945121951219512;0.5823529411764706;0.6036585365853658;loc;config;diff;4f;precision;0.6411764705882353
10;10_6e6bbcad3d2c374d6b07749cecb5740b9c329e5f-LOC.arff;BR;3.0;3.0;1.0;0.0;0.0;0.0;0.0;3.0;1.0;3.0;1.0;0.0;0.0;3.0;1.0;1.0;1.0;1.0;1.0;1.0;1.0;loc;config;diff;4f;recall;1.0
10;10_6e6bbcad3d2c374d6b07749cecb5740b9c329e5f-LOC.arff;LP;3.0;3.0;1.0;0.0;0.0;0.0;0.0;3.0;1.0;3.0;1.0;0.0;0.0;3.0;1.0;1.0;1.0;1.0;1.0;1.0;1.0;loc;config;diff;4f;recall;1.0
10;10_6e6bbcad3d2c374d6b07749cecb5740b9c329e5f-LOC.arff;RAkELd;3.0;3.0;1.0;0.0;0.0;0.0;0.0;3.0;1.0;3.0;1.0;0.0;0.0;3.0;1.0;1.0;1.0;1.0;1.0;1.0;1.0;loc;config;diff;4f;recall;1.0
15;15_e9ec5b47c3d417981f4b46f861a85525c2de3e42-LOC.arff;BR;22.0;22.0;1.0;0.0;0.0;22.0;1.0;0.0;0.0;0.0;0.0;22.0;1.0;0.0;0.0;0.0;0.0;0.0;0.0;0.0;0.0;loc;config;diff;4f;recall;0.0
15;15_e9ec5b47c3d417981f4b46f861a85525c2de3e42-LOC.arff;LP;22.0;22.0;1.0;0.0;0.0;22.0;1.0;0.0;0.0;0.0;0.0;22.0;1.0;0.0;0.0;0.0;0.0;0.0;0.0;0.0;0.0;loc;config;diff;4f;recall;0.0
15;15_e9ec5b47c3d417981f4b46f861a85525c2de3e42-LOC.arff;RAkELd;22.0;22.0;1.0;0.0;0.0;22.0;1.0;0.0;0.0;0.0;0.0;22.0;1.0;0.0;0.0;0.0;0.0;0.0;0.0;0.0;0.0;loc;config;diff;4f;recall;0.0
19;19_82829deb0d4c81f35ab73c4c92a95a4713ca2da7-LOC.arff;BR;5.0;5.0;1.0;0.0;0.0;0.0;0.0;5.0;1.0;5.0;1.0;0.0;0.0;5.0;1.0;1.0;1.0;1.0;1.0;1.0;1.0;loc;config;diff;4f;recall;1.0
19;19_82829deb0d4c81f35ab73c4c92a95a4713ca2da7-LOC.arff;LP;5.0;5.0;1.0;0.0;0.0;0.0;0.0;5.0;1.0;5.0;1.0;0.0;0.0;5.0;1.0;1.0;1.0;1.0;1.0;1.0;1.0;loc;config;diff;4f;recall;1.0
19;19_82829deb0d4c81f35ab73c4c92a95a4713ca2da7-LOC.arff;RAkELd;5.0;5.0;1.0;0.0;0.0;0.0;0.0;5.0;1.0;5.0;1.0;0.0;0.0;5.0;1.0;1.0;1.0;1.0;1.0;1.0;1.0;loc;config;diff;4f;recall;1.0
20;20_a0390a1945d87e77960e3b49bfc5293bdf4cc7f1-LOC.arff;BR;7.0;7.0;1.0;0.0;0.0;4.0;0.5714285714285714;3.0;0.42857142857142855;2.0;0.2857142857142857;4.0;0.5714285714285714;0.0;0.0;0.35714285714285715;0.8333333333333334;0.21428571428571427;0.5;0.2619047619047619;0.611111111111111;loc;config;diff;4f;recall;0.21428571428571427
20;20_a0390a1945d87e77960e3b49bfc5293bdf4cc7f1-LOC.arff;LP;7.0;7.0;1.0;0.0;0.0;7.0;1.0;0.0;0.0;0.0;0.0;7.0;1.0;0.0;0.0;0.0;0.0;0.0;0.0;0.0;0.0;loc;config;diff;4f;recall;0.0
20;20_a0390a1945d87e77960e3b49bfc5293bdf4cc7f1-LOC.arff;RAkELd;7.0;7.0;1.0;0.0;0.0;4.0;0.5714285714285714;3.0;0.42857142857142855;2.0;0.2857142857142857;4.0;0.5714285714285714;0.0;0.0;0.35714285714285715;0.8333333333333334;0.21428571428571427;0.5;0.2619047619047619;0.611111111111111;loc;config;diff;4f;recall;0.21428571428571427
21;21_8ea5cba374125e90d9474b19e9f009f2c8c1e393-LOC.arff;BR;4.0;4.0;1.0;0.0;0.0;4.0;1.0;0.0;0.0;0.0;0.0;4.0;1.0;0.0;0.0;0.0;0.0;0.0;0.0;0.0;0.0;loc;config;diff;4f;recall;0.0
21;21_8ea5cba374125e90d9474b19e9f009f2c8c1e393-LOC.arff;LP;4.0;4.0;1.0;0.0;0.0;4.0;1.0;0.0;0.0;0.0;0.0;4.0;1.0;0.0;0.0;0.0;0.0;0.0;0.0;0.0;0.0;loc;config;diff;4f;recall;0.0
21;21_8ea5cba374125e90d9474b19e9f009f2c8c1e393-LOC.arff;RAkELd;4.0;4.0;1.0;0.0;0.0;4.0;1.0;0.0;0.0;0.0;0.0;4.0;1.0;0.0;0.0;0.0;0.0;0.0;0.0;0.0;0.0;loc;config;diff;4f;recall;0.0
23;23_c86910dc5497dadec1d525edb7e2c0b9de2ecce3-LOC.arff;BR;3.0;3.0;1.0;0.0;0.0;0.0;0.0;3.0;1.0;3.0;1.0;0.0;0.0;3.0;1.0;1.0;1.0;1.0;1.0;1.0;1.0;loc;config;diff;4f;recall;1.0
23;23_c86910dc5497dadec1d525edb7e2c0b9de2ecce3-LOC.arff;LP;3.0;3.0;1.0;0.0;0.0;0.0;0.0;3.0;1.0;3.0;1.0;0.0;0.0;3.0;1.0;1.0;1.0;1.0;1.0;1.0;1.0;loc;config;diff;4f;recall;1.0
23;23_c86910dc5497dadec1d525edb7e2c0b9de2ecce3-LOC.arff;RAkELd;3.0;3.0;1.0;0.0;0.0;0.0;0.0;3.0;1.0;3.0;1.0;0.0;0.0;3.0;1.0;1.0;1.0;1.0;1.0;1.0;1.0;loc;config;diff;4f;recall;1.0
29;29_2d4fee10f0a276a0319faefcef3008745b37a67f-LOC.arff;BR;14.0;14.0;1.0;0.0;0.0;5.0;0.35714285714285715;9.0;0.6428571428571429;9.0;0.6428571428571429;5.0;0.35714285714285715;9.0;0.6428571428571429;0.6428571428571429;1.0;0.6428571428571429;1.0;0.6428571428571429;1.0;loc;config;diff;4f;recall;0.6428571428571429
29;29_2d4fee10f0a276a0319faefcef3008745b37a67f-LOC.arff;LP;14.0;14.0;1.0;0.0;0.0;5.0;0.35714285714285715;9.0;0.6428571428571429;9.0;0.6428571428571429;5.0;0.35714285714285715;9.0;0.6428571428571429;0.6428571428571429;1.0;0.6428571428571429;1.0;0.6428571428571429;1.0;loc;config;diff;4f;recall;0.6428571428571429
29;29_2d4fee10f0a276a0319faefcef3008745b37a67f-LOC.arff;RAkELd;14.0;14.0;1.0;0.0;0.0;5.0;0.35714285714285715;9.0;0.6428571428571429;9.0;0.6428571428571429;5.0;0.35714285714285715;9.0;0.6428571428571429;0.6428571428571429;1.0;0.6428571428571429;1.0;0.6428571428571429;1.0;loc;config;diff;4f;recall;0.6428571428571429
34;34_eb4ef8bdb632b025fac0fcb559d6ea5ea5cd7fb9-LOC.arff;BR;12.0;12.0;1.0;0.0;0.0;0.0;0.0;12.0;1.0;12.0;1.0;0.0;0.0;12.0;1.0;1.0;1.0;1.0;1.0;1.0;1.0;loc;config;diff;4f;recall;1.0
34;34_eb4ef8bdb632b025fac0fcb559d6ea5ea5cd7fb9-LOC.arff;LP;12.0;12.0;1.0;0.0;0.0;0.0;0.0;12.0;1.0;12.0;1.0;0.0;0.0;12.0;1.0;1.0;1.0;1.0;1.0;1.0;1.0;loc;config;diff;4f;recall;1.0
34;34_eb4ef8bdb632b025fac0fcb559d6ea5ea5cd7fb9-LOC.arff;RAkELd;12.0;12.0;1.0;0.0;0.0;0.0;0.0;12.0;1.0;12.0;1.0;0.0;0.0;12.0;1.0;1.0;1.0;1.0;1.0;1.0;1.0;loc;config;diff;4f;recall;1.0
37;37_a3ff951e4ab64bda60f0bbd05c697257120e41bb-LOC.arff;BR;18.0;18.0;1.0;0.0;0.0;9.0;0.5;9.0;0.5;9.0;0.5;9.0;0.5;9.0;0.5;0.5;1.0;0.5;1.0;0.5;1.0;loc;config;diff;4f;recall;0.5
37;37_a3ff951e4ab64bda60f0bbd05c697257120e41bb-LOC.arff;LP;18.0;18.0;1.0;0.0;0.0;9.0;0.5;9.0;0.5;9.0;0.5;9.0;0.5;9.0;0.5;0.5;1.0;0.5;1.0;0.5;1.0;loc;config;diff;4f;recall;0.5
37;37_a3ff951e4ab64bda60f0bbd05c697257120e41bb-LOC.arff;RAkELd;18.0;18.0;1.0;0.0;0.0;9.0;0.5;9.0;0.5;9.0;0.5;9.0;0.5;9.0;0.5;0.5;1.0;0.5;1.0;0.5;1.0;loc;config;diff;4f;recall;0.5
38;38_a3a52fed8df123af995b39816c6a1eb531fd91a9-LOC.arff;BR;52.0;52.0;1.0;0.0;0.0;27.0;0.5192307692307693;25.0;0.4807692307692308;9.0;0.17307692307692307;27.0;0.5192307692307693;25.0;0.4807692307692308;0.3269230769230769;0.68;0.4807692307692308;1.0;0.37820512820512825;0.7866666666666667;loc;config;diff;4f;recall;0.4807692307692308
38;38_a3a52fed8df123af995b39816c6a1eb531fd91a9-LOC.arff;LP;52.0;52.0;1.0;0.0;0.0;43.0;0.8269230769230769;9.0;0.17307692307692307;9.0;0.17307692307692307;43.0;0.8269230769230769;9.0;0.17307692307692307;0.17307692307692307;1.0;0.17307692307692307;1.0;0.17307692307692307;1.0;loc;config;diff;4f;recall;0.17307692307692307
38;38_a3a52fed8df123af995b39816c6a1eb531fd91a9-LOC.arff;RAkELd;52.0;52.0;1.0;0.0;0.0;27.0;0.5192307692307693;25.0;0.4807692307692308;9.0;0.17307692307692307;27.0;0.5192307692307693;25.0;0.4807692307692308;0.3269230769230769;0.68;0.4807692307692308;1.0;0.37820512820512825;0.7866666666666667;loc;config;diff;4f;recall;0.4807692307692308
39;39_80d744b05f24a1c230afb4802aa6a70d6fc9259c-LOC.arff;BR;15.0;15.0;1.0;0.0;0.0;12.0;0.8;3.0;0.2;0.0;0.0;12.0;0.8;3.0;0.2;0.1;0.5;0.2;1.0;0.13333333333333333;0.6666666666666666;loc;config;diff;4f;recall;0.2
39;39_80d744b05f24a1c230afb4802aa6a70d6fc9259c-LOC.arff;LP;15.0;15.0;1.0;0.0;0.0;12.0;0.8;3.0;0.2;3.0;0.2;12.0;0.8;3.0;0.2;0.2;1.0;0.2;1.0;0.2;1.0;loc;config;diff;4f;recall;0.2
39;39_80d744b05f24a1c230afb4802aa6a70d6fc9259c-LOC.arff;RAkELd;15.0;15.0;1.0;0.0;0.0;12.0;0.8;3.0;0.2;0.0;0.0;12.0;0.8;3.0;0.2;0.1;0.5;0.2;1.0;0.13333333333333333;0.6666666666666666;loc;config;diff;4f;recall;0.2
40;40_61060284aaefc13a758eaa5d56ea15ef00940d50-LOC.arff;BR;13.0;13.0;1.0;0.0;0.0;0.0;0.0;13.0;1.0;13.0;1.0;0.0;0.0;13.0;1.0;1.0;1.0;1.0;1.0;1.0;1.0;loc;config;diff;4f;recall;1.0
40;40_61060284aaefc13a758eaa5d56ea15ef00940d50-LOC.arff;LP;13.0;13.0;1.0;0.0;0.0;0.0;0.0;13.0;1.0;13.0;1.0;0.0;0.0;13.0;1.0;1.0;1.0;1.0;1.0;1.0;1.0;loc;config;diff;4f;recall;1.0
40;40_61060284aaefc13a758eaa5d56ea15ef00940d50-LOC.arff;RAkELd;13.0;13.0;1.0;0.0;0.0;0.0;0.0;13.0;1.0;13.0;1.0;0.0;0.0;13.0;1.0;1.0;1.0;1.0;1.0;1.0;1.0;loc;config;diff;4f;recall;1.0
41;41_f27292734432228765446ca71db00314424fce48-LOC.arff;BR;29.0;29.0;1.0;0.0;0.0;12.0;0.41379310344827586;17.0;0.5862068965517241;17.0;0.5862068965517241;12.0;0.41379310344827586;17.0;0.5862068965517241;0.5862068965517241;1.0;0.5862068965517241;1.0;0.5862068965517241;1.0;loc;config;diff;4f;recall;0.5862068965517241
41;41_f27292734432228765446ca71db00314424fce48-LOC.arff;LP;29.0;29.0;1.0;0.0;0.0;12.0;0.41379310344827586;17.0;0.5862068965517241;17.0;0.5862068965517241;12.0;0.41379310344827586;17.0;0.5862068965517241;0.5862068965517241;1.0;0.5862068965517241;1.0;0.5862068965517241;1.0;loc;config;diff;4f;recall;0.5862068965517241
41;41_f27292734432228765446ca71db00314424fce48-LOC.arff;RAkELd;29.0;29.0;1.0;0.0;0.0;12.0;0.41379310344827586;17.0;0.5862068965517241;17.0;0.5862068965517241;12.0;0.41379310344827586;17.0;0.5862068965517241;0.5862068965517241;1.0;0.5862068965517241;1.0;0.5862068965517241;1.0;loc;config;diff;4f;recall;0.5862068965517241
42;42_369ff94e4d3a476e60c6105eb90d4bdd477f0b8b-LOC.arff;BR;35.0;35.0;1.0;0.0;0.0;5.0;0.14285714285714285;30.0;0.8571428571428571;27.0;0.7714285714285715;5.0;0.14285714285714285;30.0;0.8571428571428571;0.8142857142857143;0.95;0.8571428571428571;1.0;0.8285714285714286;0.9666666666666667;loc;config;diff;4f;recall;0.8571428571428571
42;42_369ff94e4d3a476e60c6105eb90d4bdd477f0b8b-LOC.arff;LP;35.0;35.0;1.0;0.0;0.0;5.0;0.14285714285714285;30.0;0.8571428571428571;30.0;0.8571428571428571;5.0;0.14285714285714285;30.0;0.8571428571428571;0.8571428571428571;1.0;0.8571428571428571;1.0;0.8571428571428571;1.0;loc;config;diff;4f;recall;0.8571428571428571
42;42_369ff94e4d3a476e60c6105eb90d4bdd477f0b8b-LOC.arff;RAkELd;35.0;35.0;1.0;0.0;0.0;5.0;0.14285714285714285;30.0;0.8571428571428571;27.0;0.7714285714285715;5.0;0.14285714285714285;30.0;0.8571428571428571;0.8142857142857143;0.95;0.8571428571428571;1.0;0.8285714285714286;0.9666666666666667;loc;config;diff;4f;recall;0.8571428571428571
43;43_b18c4172f5a973f38241f1f997a9df14635ab54f-LOC.arff;BR;37.0;37.0;1.0;12.0;0.32432432432432434;2.0;0.05405405405405406;23.0;0.6216216216216216;23.0;0.6216216216216216;14.0;0.3783783783783784;23.0;0.6216216216216216;0.92;1.0;0.92;1.0;0.92;1.0;loc;config;diff;4f;recall;0.92
43;43_b18c4172f5a973f38241f1f997a9df14635ab54f-LOC.arff;LP;37.0;37.0;1.0;0.0;0.0;16.0;0.43243243243243246;21.0;0.5675675675675675;16.0;0.43243243243243246;16.0;0.43243243243243246;21.0;0.5675675675675675;0.5;0.8809523809523809;0.5675675675675675;1.0;0.5225225225225225;0.9206349206349206;loc;config;diff;4f;recall;0.5675675675675675
43;43_b18c4172f5a973f38241f1f997a9df14635ab54f-LOC.arff;RAkELd;37.0;37.0;1.0;12.0;0.32432432432432434;2.0;0.05405405405405406;23.0;0.6216216216216216;23.0;0.6216216216216216;14.0;0.3783783783783784;23.0;0.6216216216216216;0.92;1.0;0.92;1.0;0.92;1.0;loc;config;diff;4f;recall;0.92
46;46_59bcd268f5d06568e409bcbe8a5eb11002bb567d-LOC.arff;BR;16.0;16.0;1.0;0.0;0.0;1.0;0.0625;15.0;0.9375;0.0;0.0;1.0;0.0625;15.0;0.9375;0.46875;0.5;0.9375;1.0;0.625;0.6666666666666666;loc;config;diff;4f;recall;0.9375
46;46_59bcd268f5d06568e409bcbe8a5eb11002bb567d-LOC.arff;LP;16.0;16.0;1.0;0.0;0.0;1.0;0.0625;15.0;0.9375;15.0;0.9375;1.0;0.0625;15.0;0.9375;0.9375;1.0;0.9375;1.0;0.9375;1.0;loc;config;diff;4f;recall;0.9375
46;46_59bcd268f5d06568e409bcbe8a5eb11002bb567d-LOC.arff;RAkELd;16.0;16.0;1.0;0.0;0.0;1.0;0.0625;15.0;0.9375;0.0;0.0;1.0;0.0625;15.0;0.9375;0.46875;0.5;0.9375;1.0;0.625;0.6666666666666666;loc;config;diff;4f;recall;0.9375
52;52_9e22f13942eee52d3fe5091d9d33a050c455631d-LOC.arff;BR;39.0;39.0;1.0;0.0;0.0;33.0;0.8461538461538461;6.0;0.15384615384615385;6.0;0.15384615384615385;33.0;0.8461538461538461;0.0;0.0;0.15384615384615385;1.0;0.07264957264957266;0.47222222222222227;0.09829059829059829;0.6388888888888888;loc;config;diff;4f;recall;0.07264957264957266
52;52_9e22f13942eee52d3fe5091d9d33a050c455631d-LOC.arff;LP;39.0;39.0;1.0;0.0;0.0;33.0;0.8461538461538461;6.0;0.15384615384615385;6.0;0.15384615384615385;33.0;0.8461538461538461;0.0;0.0;0.15384615384615385;1.0;0.07264957264957266;0.47222222222222227;0.09829059829059829;0.6388888888888888;loc;config;diff;4f;recall;0.07264957264957266
52;52_9e22f13942eee52d3fe5091d9d33a050c455631d-LOC.arff;RAkELd;39.0;39.0;1.0;0.0;0.0;33.0;0.8461538461538461;6.0;0.15384615384615385;6.0;0.15384615384615385;33.0;0.8461538461538461;0.0;0.0;0.15384615384615385;1.0;0.07264957264957266;0.47222222222222227;0.09829059829059829;0.6388888888888888;loc;config;diff;4f;recall;0.07264957264957266
53;53_2ce2f01675438273384d8cc3377814fe7722d9a5-LOC.arff;BR;22.0;22.0;1.0;0.0;0.0;22.0;1.0;0.0;0.0;0.0;0.0;22.0;1.0;0.0;0.0;0.0;0.0;0.0;0.0;0.0;0.0;loc;config;diff;4f;recall;0.0
53;53_2ce2f01675438273384d8cc3377814fe7722d9a5-LOC.arff;LP;22.0;22.0;1.0;0.0;0.0;22.0;1.0;0.0;0.0;0.0;0.0;22.0;1.0;0.0;0.0;0.0;0.0;0.0;0.0;0.0;0.0;loc;config;diff;4f;recall;0.0
53;53_2ce2f01675438273384d8cc3377814fe7722d9a5-LOC.arff;RAkELd;22.0;22.0;1.0;0.0;0.0;22.0;1.0;0.0;0.0;0.0;0.0;22.0;1.0;0.0;0.0;0.0;0.0;0.0;0.0;0.0;0.0;loc;config;diff;4f;recall;0.0
55;55_4c654aaab13f778145cfdf2b88d15ee9a1392b91-LOC.arff;BR;1.0;1.0;1.0;0.0;0.0;0.0;0.0;1.0;1.0;1.0;1.0;0.0;0.0;1.0;1.0;1.0;1.0;1.0;1.0;1.0;1.0;loc;config;diff;4f;recall;1.0
55;55_4c654aaab13f778145cfdf2b88d15ee9a1392b91-LOC.arff;LP;1.0;1.0;1.0;0.0;0.0;0.0;0.0;1.0;1.0;1.0;1.0;0.0;0.0;1.0;1.0;1.0;1.0;1.0;1.0;1.0;1.0;loc;config;diff;4f;recall;1.0
55;55_4c654aaab13f778145cfdf2b88d15ee9a1392b91-LOC.arff;RAkELd;1.0;1.0;1.0;0.0;0.0;0.0;0.0;1.0;1.0;1.0;1.0;0.0;0.0;1.0;1.0;1.0;1.0;1.0;1.0;1.0;1.0;loc;config;diff;4f;recall;1.0
57;57_3364b99ef9f6c0d28d26219dd4803c87757c218a-LOC.arff;BR;4.0;4.0;1.0;0.0;0.0;0.0;0.0;4.0;1.0;4.0;1.0;0.0;0.0;4.0;1.0;1.0;1.0;1.0;1.0;1.0;1.0;loc;config;diff;4f;recall;1.0
57;57_3364b99ef9f6c0d28d26219dd4803c87757c218a-LOC.arff;LP;4.0;4.0;1.0;0.0;0.0;0.0;0.0;4.0;1.0;4.0;1.0;0.0;0.0;4.0;1.0;1.0;1.0;1.0;1.0;1.0;1.0;loc;config;diff;4f;recall;1.0
57;57_3364b99ef9f6c0d28d26219dd4803c87757c218a-LOC.arff;RAkELd;4.0;4.0;1.0;0.0;0.0;0.0;0.0;4.0;1.0;4.0;1.0;0.0;0.0;4.0;1.0;1.0;1.0;1.0;1.0;1.0;1.0;loc;config;diff;4f;recall;1.0
58;58_0940c6491e5adc00cf3ce40e27d499cf3482dffd-LOC.arff;BR;5.0;5.0;1.0;0.0;0.0;0.0;0.0;5.0;1.0;5.0;1.0;0.0;0.0;5.0;1.0;1.0;1.0;1.0;1.0;1.0;1.0;loc;config;diff;4f;recall;1.0
58;58_0940c6491e5adc00cf3ce40e27d499cf3482dffd-LOC.arff;LP;5.0;5.0;1.0;0.0;0.0;0.0;0.0;5.0;1.0;5.0;1.0;0.0;0.0;5.0;1.0;1.0;1.0;1.0;1.0;1.0;1.0;loc;config;diff;4f;recall;1.0
58;58_0940c6491e5adc00cf3ce40e27d499cf3482dffd-LOC.arff;RAkELd;5.0;5.0;1.0;0.0;0.0;0.0;0.0;5.0;1.0;5.0;1.0;0.0;0.0;5.0;1.0;1.0;1.0;1.0;1.0;1.0;1.0;loc;config;diff;4f;recall;1.0
59;59_7e4007bedf5b89c573da9e2044b82a99ef384d1a-LOC.arff;BR;6.0;6.0;1.0;0.0;0.0;6.0;1.0;0.0;0.0;0.0;0.0;6.0;1.0;0.0;0.0;0.0;0.0;0.0;0.0;0.0;0.0;loc;config;diff;4f;recall;0.0
59;59_7e4007bedf5b89c573da9e2044b82a99ef384d1a-LOC.arff;LP;6.0;6.0;1.0;0.0;0.0;6.0;1.0;0.0;0.0;0.0;0.0;6.0;1.0;0.0;0.0;0.0;0.0;0.0;0.0;0.0;0.0;loc;config;diff;4f;recall;0.0
59;59_7e4007bedf5b89c573da9e2044b82a99ef384d1a-LOC.arff;RAkELd;6.0;6.0;1.0;0.0;0.0;6.0;1.0;0.0;0.0;0.0;0.0;6.0;1.0;0.0;0.0;0.0;0.0;0.0;0.0;0.0;0.0;loc;config;diff;4f;recall;0.0
64;64_ff63b18f0f3ae41482487323c39defbd8601213c-LOC.arff;BR;259.0;259.0;1.0;0.0;0.0;106.0;0.4092664092664093;153.0;0.5907335907335908;153.0;0.5907335907335908;106.0;0.4092664092664093;53.0;0.20463320463320464;0.5907335907335908;1.0;0.380952380952381;0.644880174291939;0.4453024453024453;0.7538126361655774;loc;config;diff;4f;recall;0.380952380952381
64;64_ff63b18f0f3ae41482487323c39defbd8601213c-LOC.arff;LP;259.0;259.0;1.0;0.0;0.0;151.0;0.583011583011583;108.0;0.416988416988417;46.0;0.1776061776061776;151.0;0.583011583011583;59.0;0.2277992277992278;0.2972972972972973;0.7129629629629629;0.32689832689832693;0.7839506172839507;0.29716859716859717;0.7126543209876544;loc;config;diff;4f;recall;0.32689832689832693
64;64_ff63b18f0f3ae41482487323c39defbd8601213c-LOC.arff;RAkELd;259.0;259.0;1.0;0.0;0.0;106.0;0.4092664092664093;153.0;0.5907335907335908;153.0;0.5907335907335908;106.0;0.4092664092664093;53.0;0.20463320463320464;0.5907335907335908;1.0;0.380952380952381;0.644880174291939;0.4453024453024453;0.7538126361655774;loc;config;diff;4f;recall;0.380952380952381
77;77_1005b084492bd5b92e76dc2cb6d22f97494fdc4c-LOC.arff;BR;2.0;2.0;1.0;1.0;0.5;1.0;0.5;0.0;0.0;0.0;0.0;2.0;1.0;0.0;0.0;0.0;0.0;0.0;0.0;0.0;0.0;loc;config;diff;4f;recall;0.0
77;77_1005b084492bd5b92e76dc2cb6d22f97494fdc4c-LOC.arff;LP;2.0;2.0;1.0;0.0;0.0;2.0;1.0;0.0;0.0;0.0;0.0;2.0;1.0;0.0;0.0;0.0;0.0;0.0;0.0;0.0;0.0;loc;config;diff;4f;recall;0.0
77;77_1005b084492bd5b92e76dc2cb6d22f97494fdc4c-LOC.arff;RAkELd;2.0;2.0;1.0;1.0;0.5;1.0;0.5;0.0;0.0;0.0;0.0;2.0;1.0;0.0;0.0;0.0;0.0;0.0;0.0;0.0;0.0;loc;config;diff;4f;recall;0.0
80;80_260095a268721fcfab443af2b9118bb8bc6dae8e-LOC.arff;BR;10.0;10.0;1.0;0.0;0.0;1.0;0.1;9.0;0.9;9.0;0.9;1.0;0.1;5.0;0.5;0.9;1.0;0.7;0.7777777777777778;0.7666666666666666;0.8518518518518517;loc;config;diff;4f;recall;0.7
80;80_260095a268721fcfab443af2b9118bb8bc6dae8e-LOC.arff;LP;10.0;10.0;1.0;0.0;0.0;1.0;0.1;9.0;0.9;9.0;0.9;1.0;0.1;5.0;0.5;0.9;1.0;0.7;0.7777777777777778;0.7666666666666666;0.8518518518518517;loc;config;diff;4f;recall;0.7
80;80_260095a268721fcfab443af2b9118bb8bc6dae8e-LOC.arff;RAkELd;10.0;10.0;1.0;0.0;0.0;1.0;0.1;9.0;0.9;9.0;0.9;1.0;0.1;5.0;0.5;0.9;1.0;0.7;0.7777777777777778;0.7666666666666666;0.8518518518518517;loc;config;diff;4f;recall;0.7
88;88_405f496ace817ae66797ea23030b7345de965bfa-LOC.arff;BR;121.0;121.0;1.0;121.0;1.0;0.0;0.0;0.0;0.0;0.0;0.0;121.0;1.0;0.0;0.0;0.0;0.0;0.0;0.0;0.0;0.0;loc;config;diff;4f;recall;0.0
88;88_405f496ace817ae66797ea23030b7345de965bfa-LOC.arff;LP;121.0;121.0;1.0;0.0;0.0;97.0;0.8016528925619835;24.0;0.19834710743801653;24.0;0.19834710743801653;97.0;0.8016528925619835;24.0;0.19834710743801653;0.19834710743801653;1.0;0.19834710743801653;1.0;0.19834710743801653;1.0;loc;config;diff;4f;recall;0.19834710743801653
88;88_405f496ace817ae66797ea23030b7345de965bfa-LOC.arff;RAkELd;121.0;121.0;1.0;121.0;1.0;0.0;0.0;0.0;0.0;0.0;0.0;121.0;1.0;0.0;0.0;0.0;0.0;0.0;0.0;0.0;0.0;loc;config;diff;4f;recall;0.0
96;96_b51480e879404bfb3188c9976f2ed7500e4efa9e-LOC.arff;BR;35.0;35.0;1.0;0.0;0.0;12.0;0.34285714285714286;23.0;0.6571428571428571;23.0;0.6571428571428571;12.0;0.34285714285714286;23.0;0.6571428571428571;0.6571428571428571;1.0;0.6571428571428571;1.0;0.6571428571428571;1.0;loc;config;diff;4f;recall;0.6571428571428571
96;96_b51480e879404bfb3188c9976f2ed7500e4efa9e-LOC.arff;LP;35.0;35.0;1.0;0.0;0.0;12.0;0.34285714285714286;23.0;0.6571428571428571;23.0;0.6571428571428571;12.0;0.34285714285714286;23.0;0.6571428571428571;0.6571428571428571;1.0;0.6571428571428571;1.0;0.6571428571428571;1.0;loc;config;diff;4f;recall;0.6571428571428571
96;96_b51480e879404bfb3188c9976f2ed7500e4efa9e-LOC.arff;RAkELd;35.0;35.0;1.0;0.0;0.0;12.0;0.34285714285714286;23.0;0.6571428571428571;23.0;0.6571428571428571;12.0;0.34285714285714286;23.0;0.6571428571428571;0.6571428571428571;1.0;0.6571428571428571;1.0;0.6571428571428571;1.0;loc;config;diff;4f;recall;0.6571428571428571
108;108_772f5dd67bec6cf79de3823c52b2c3c80c0388d1-LOC.arff;BR;47.0;47.0;1.0;47.0;1.0;0.0;0.0;0.0;0.0;0.0;0.0;47.0;1.0;0.0;0.0;0.0;0.0;0.0;0.0;0.0;0.0;loc;config;diff;4f;recall;0.0
108;108_772f5dd67bec6cf79de3823c52b2c3c80c0388d1-LOC.arff;LP;47.0;47.0;1.0;0.0;0.0;47.0;1.0;0.0;0.0;0.0;0.0;47.0;1.0;0.0;0.0;0.0;0.0;0.0;0.0;0.0;0.0;loc;config;diff;4f;recall;0.0
108;108_772f5dd67bec6cf79de3823c52b2c3c80c0388d1-LOC.arff;RAkELd;47.0;47.0;1.0;0.0;0.0;47.0;1.0;0.0;0.0;0.0;0.0;47.0;1.0;0.0;0.0;0.0;0.0;0.0;0.0;0.0;0.0;loc;config;diff;4f;recall;0.0
111;111_e1718c3b040e83752562006902cec84018d16f12-LOC.arff;BR;117.0;117.0;1.0;15.0;0.1282051282051282;102.0;0.8717948717948718;0.0;0.0;0.0;0.0;117.0;1.0;0.0;0.0;0.0;0.0;0.0;0.0;0.0;0.0;loc;config;diff;4f;recall;0.0
111;111_e1718c3b040e83752562006902cec84018d16f12-LOC.arff;LP;117.0;117.0;1.0;0.0;0.0;117.0;1.0;0.0;0.0;0.0;0.0;117.0;1.0;0.0;0.0;0.0;0.0;0.0;0.0;0.0;0.0;loc;config;diff;4f;recall;0.0
111;111_e1718c3b040e83752562006902cec84018d16f12-LOC.arff;RAkELd;117.0;117.0;1.0;15.0;0.1282051282051282;102.0;0.8717948717948718;0.0;0.0;0.0;0.0;117.0;1.0;0.0;0.0;0.0;0.0;0.0;0.0;0.0;0.0;loc;config;diff;4f;recall;0.0
176;176_340dcc563d42fb33ca38f9a71d6aa401cfbde244-LOC.arff;BR;85.0;85.0;1.0;0.0;0.0;3.0;0.03529411764705882;82.0;0.9647058823529412;34.0;0.4;3.0;0.03529411764705882;20.0;0.23529411764705882;0.6823529411764706;0.7073170731707317;0.5735294117647058;0.5945121951219512;0.5952941176470589;0.6170731707317073;loc;config;diff;4f;recall;0.5735294117647058
176;176_340dcc563d42fb33ca38f9a71d6aa401cfbde244-LOC.arff;LP;85.0;85.0;1.0;0.0;0.0;55.0;0.6470588235294118;30.0;0.35294117647058826;20.0;0.23529411764705882;55.0;0.6470588235294118;14.0;0.16470588235294117;0.29411764705882354;0.8333333333333334;0.24901960784313726;0.7055555555555556;0.24745098039215685;0.701111111111111;loc;config;diff;4f;recall;0.24901960784313726
176;176_340dcc563d42fb33ca38f9a71d6aa401cfbde244-LOC.arff;RAkELd;85.0;85.0;1.0;0.0;0.0;3.0;0.03529411764705882;82.0;0.9647058823529412;27.0;0.3176470588235294;3.0;0.03529411764705882;20.0;0.23529411764705882;0.6411764705882353;0.6646341463414634;0.5735294117647058;0.5945121951219512;0.5823529411764706;0.6036585365853658;loc;config;diff;4f;recall;0.5735294117647058
10;10_6e6bbcad3d2c374d6b07749cecb5740b9c329e5f-LOC.arff;BR;3.0;3.0;1.0;0.0;0.0;0.0;0.0;3.0;1.0;3.0;1.0;0.0;0.0;3.0;1.0;1.0;1.0;1.0;1.0;1.0;1.0;loc;config;diff;4f;fscore;1.0
10;10_6e6bbcad3d2c374d6b07749cecb5740b9c329e5f-LOC.arff;LP;3.0;3.0;1.0;0.0;0.0;0.0;0.0;3.0;1.0;3.0;1.0;0.0;0.0;3.0;1.0;1.0;1.0;1.0;1.0;1.0;1.0;loc;config;diff;4f;fscore;1.0
10;10_6e6bbcad3d2c374d6b07749cecb5740b9c329e5f-LOC.arff;RAkELd;3.0;3.0;1.0;0.0;0.0;0.0;0.0;3.0;1.0;3.0;1.0;0.0;0.0;3.0;1.0;1.0;1.0;1.0;1.0;1.0;1.0;loc;config;diff;4f;fscore;1.0
15;15_e9ec5b47c3d417981f4b46f861a85525c2de3e42-LOC.arff;BR;22.0;22.0;1.0;0.0;0.0;22.0;1.0;0.0;0.0;0.0;0.0;22.0;1.0;0.0;0.0;0.0;0.0;0.0;0.0;0.0;0.0;loc;config;diff;4f;fscore;0.0
15;15_e9ec5b47c3d417981f4b46f861a85525c2de3e42-LOC.arff;LP;22.0;22.0;1.0;0.0;0.0;22.0;1.0;0.0;0.0;0.0;0.0;22.0;1.0;0.0;0.0;0.0;0.0;0.0;0.0;0.0;0.0;loc;config;diff;4f;fscore;0.0
15;15_e9ec5b47c3d417981f4b46f861a85525c2de3e42-LOC.arff;RAkELd;22.0;22.0;1.0;0.0;0.0;22.0;1.0;0.0;0.0;0.0;0.0;22.0;1.0;0.0;0.0;0.0;0.0;0.0;0.0;0.0;0.0;loc;config;diff;4f;fscore;0.0
19;19_82829deb0d4c81f35ab73c4c92a95a4713ca2da7-LOC.arff;BR;5.0;5.0;1.0;0.0;0.0;0.0;0.0;5.0;1.0;5.0;1.0;0.0;0.0;5.0;1.0;1.0;1.0;1.0;1.0;1.0;1.0;loc;config;diff;4f;fscore;1.0
19;19_82829deb0d4c81f35ab73c4c92a95a4713ca2da7-LOC.arff;LP;5.0;5.0;1.0;0.0;0.0;0.0;0.0;5.0;1.0;5.0;1.0;0.0;0.0;5.0;1.0;1.0;1.0;1.0;1.0;1.0;1.0;loc;config;diff;4f;fscore;1.0
19;19_82829deb0d4c81f35ab73c4c92a95a4713ca2da7-LOC.arff;RAkELd;5.0;5.0;1.0;0.0;0.0;0.0;0.0;5.0;1.0;5.0;1.0;0.0;0.0;5.0;1.0;1.0;1.0;1.0;1.0;1.0;1.0;loc;config;diff;4f;fscore;1.0
20;20_a0390a1945d87e77960e3b49bfc5293bdf4cc7f1-LOC.arff;BR;7.0;7.0;1.0;0.0;0.0;4.0;0.5714285714285714;3.0;0.42857142857142855;2.0;0.2857142857142857;4.0;0.5714285714285714;0.0;0.0;0.35714285714285715;0.8333333333333334;0.21428571428571427;0.5;0.2619047619047619;0.611111111111111;loc;config;diff;4f;fscore;0.2619047619047619
20;20_a0390a1945d87e77960e3b49bfc5293bdf4cc7f1-LOC.arff;LP;7.0;7.0;1.0;0.0;0.0;7.0;1.0;0.0;0.0;0.0;0.0;7.0;1.0;0.0;0.0;0.0;0.0;0.0;0.0;0.0;0.0;loc;config;diff;4f;fscore;0.0
20;20_a0390a1945d87e77960e3b49bfc5293bdf4cc7f1-LOC.arff;RAkELd;7.0;7.0;1.0;0.0;0.0;4.0;0.5714285714285714;3.0;0.42857142857142855;2.0;0.2857142857142857;4.0;0.5714285714285714;0.0;0.0;0.35714285714285715;0.8333333333333334;0.21428571428571427;0.5;0.2619047619047619;0.611111111111111;loc;config;diff;4f;fscore;0.2619047619047619
21;21_8ea5cba374125e90d9474b19e9f009f2c8c1e393-LOC.arff;BR;4.0;4.0;1.0;0.0;0.0;4.0;1.0;0.0;0.0;0.0;0.0;4.0;1.0;0.0;0.0;0.0;0.0;0.0;0.0;0.0;0.0;loc;config;diff;4f;fscore;0.0
21;21_8ea5cba374125e90d9474b19e9f009f2c8c1e393-LOC.arff;LP;4.0;4.0;1.0;0.0;0.0;4.0;1.0;0.0;0.0;0.0;0.0;4.0;1.0;0.0;0.0;0.0;0.0;0.0;0.0;0.0;0.0;loc;config;diff;4f;fscore;0.0
21;21_8ea5cba374125e90d9474b19e9f009f2c8c1e393-LOC.arff;RAkELd;4.0;4.0;1.0;0.0;0.0;4.0;1.0;0.0;0.0;0.0;0.0;4.0;1.0;0.0;0.0;0.0;0.0;0.0;0.0;0.0;0.0;loc;config;diff;4f;fscore;0.0
23;23_c86910dc5497dadec1d525edb7e2c0b9de2ecce3-LOC.arff;BR;3.0;3.0;1.0;0.0;0.0;0.0;0.0;3.0;1.0;3.0;1.0;0.0;0.0;3.0;1.0;1.0;1.0;1.0;1.0;1.0;1.0;loc;config;diff;4f;fscore;1.0
23;23_c86910dc5497dadec1d525edb7e2c0b9de2ecce3-LOC.arff;LP;3.0;3.0;1.0;0.0;0.0;0.0;0.0;3.0;1.0;3.0;1.0;0.0;0.0;3.0;1.0;1.0;1.0;1.0;1.0;1.0;1.0;loc;config;diff;4f;fscore;1.0
23;23_c86910dc5497dadec1d525edb7e2c0b9de2ecce3-LOC.arff;RAkELd;3.0;3.0;1.0;0.0;0.0;0.0;0.0;3.0;1.0;3.0;1.0;0.0;0.0;3.0;1.0;1.0;1.0;1.0;1.0;1.0;1.0;loc;config;diff;4f;fscore;1.0
29;29_2d4fee10f0a276a0319faefcef3008745b37a67f-LOC.arff;BR;14.0;14.0;1.0;0.0;0.0;5.0;0.35714285714285715;9.0;0.6428571428571429;9.0;0.6428571428571429;5.0;0.35714285714285715;9.0;0.6428571428571429;0.6428571428571429;1.0;0.6428571428571429;1.0;0.6428571428571429;1.0;loc;config;diff;4f;fscore;0.6428571428571429
29;29_2d4fee10f0a276a0319faefcef3008745b37a67f-LOC.arff;LP;14.0;14.0;1.0;0.0;0.0;5.0;0.35714285714285715;9.0;0.6428571428571429;9.0;0.6428571428571429;5.0;0.35714285714285715;9.0;0.6428571428571429;0.6428571428571429;1.0;0.6428571428571429;1.0;0.6428571428571429;1.0;loc;config;diff;4f;fscore;0.6428571428571429
29;29_2d4fee10f0a276a0319faefcef3008745b37a67f-LOC.arff;RAkELd;14.0;14.0;1.0;0.0;0.0;5.0;0.35714285714285715;9.0;0.6428571428571429;9.0;0.6428571428571429;5.0;0.35714285714285715;9.0;0.6428571428571429;0.6428571428571429;1.0;0.6428571428571429;1.0;0.6428571428571429;1.0;loc;config;diff;4f;fscore;0.6428571428571429
34;34_eb4ef8bdb632b025fac0fcb559d6ea5ea5cd7fb9-LOC.arff;BR;12.0;12.0;1.0;0.0;0.0;0.0;0.0;12.0;1.0;12.0;1.0;0.0;0.0;12.0;1.0;1.0;1.0;1.0;1.0;1.0;1.0;loc;config;diff;4f;fscore;1.0
34;34_eb4ef8bdb632b025fac0fcb559d6ea5ea5cd7fb9-LOC.arff;LP;12.0;12.0;1.0;0.0;0.0;0.0;0.0;12.0;1.0;12.0;1.0;0.0;0.0;12.0;1.0;1.0;1.0;1.0;1.0;1.0;1.0;loc;config;diff;4f;fscore;1.0
34;34_eb4ef8bdb632b025fac0fcb559d6ea5ea5cd7fb9-LOC.arff;RAkELd;12.0;12.0;1.0;0.0;0.0;0.0;0.0;12.0;1.0;12.0;1.0;0.0;0.0;12.0;1.0;1.0;1.0;1.0;1.0;1.0;1.0;loc;config;diff;4f;fscore;1.0
37;37_a3ff951e4ab64bda60f0bbd05c697257120e41bb-LOC.arff;BR;18.0;18.0;1.0;0.0;0.0;9.0;0.5;9.0;0.5;9.0;0.5;9.0;0.5;9.0;0.5;0.5;1.0;0.5;1.0;0.5;1.0;loc;config;diff;4f;fscore;0.5
37;37_a3ff951e4ab64bda60f0bbd05c697257120e41bb-LOC.arff;LP;18.0;18.0;1.0;0.0;0.0;9.0;0.5;9.0;0.5;9.0;0.5;9.0;0.5;9.0;0.5;0.5;1.0;0.5;1.0;0.5;1.0;loc;config;diff;4f;fscore;0.5
37;37_a3ff951e4ab64bda60f0bbd05c697257120e41bb-LOC.arff;RAkELd;18.0;18.0;1.0;0.0;0.0;9.0;0.5;9.0;0.5;9.0;0.5;9.0;0.5;9.0;0.5;0.5;1.0;0.5;1.0;0.5;1.0;loc;config;diff;4f;fscore;0.5
38;38_a3a52fed8df123af995b39816c6a1eb531fd91a9-LOC.arff;BR;52.0;52.0;1.0;0.0;0.0;27.0;0.5192307692307693;25.0;0.4807692307692308;9.0;0.17307692307692307;27.0;0.5192307692307693;25.0;0.4807692307692308;0.3269230769230769;0.68;0.4807692307692308;1.0;0.37820512820512825;0.7866666666666667;loc;config;diff;4f;fscore;0.37820512820512825
38;38_a3a52fed8df123af995b39816c6a1eb531fd91a9-LOC.arff;LP;52.0;52.0;1.0;0.0;0.0;43.0;0.8269230769230769;9.0;0.17307692307692307;9.0;0.17307692307692307;43.0;0.8269230769230769;9.0;0.17307692307692307;0.17307692307692307;1.0;0.17307692307692307;1.0;0.17307692307692307;1.0;loc;config;diff;4f;fscore;0.17307692307692307
38;38_a3a52fed8df123af995b39816c6a1eb531fd91a9-LOC.arff;RAkELd;52.0;52.0;1.0;0.0;0.0;27.0;0.5192307692307693;25.0;0.4807692307692308;9.0;0.17307692307692307;27.0;0.5192307692307693;25.0;0.4807692307692308;0.3269230769230769;0.68;0.4807692307692308;1.0;0.37820512820512825;0.7866666666666667;loc;config;diff;4f;fscore;0.37820512820512825
39;39_80d744b05f24a1c230afb4802aa6a70d6fc9259c-LOC.arff;BR;15.0;15.0;1.0;0.0;0.0;12.0;0.8;3.0;0.2;0.0;0.0;12.0;0.8;3.0;0.2;0.1;0.5;0.2;1.0;0.13333333333333333;0.6666666666666666;loc;config;diff;4f;fscore;0.13333333333333333
39;39_80d744b05f24a1c230afb4802aa6a70d6fc9259c-LOC.arff;LP;15.0;15.0;1.0;0.0;0.0;12.0;0.8;3.0;0.2;3.0;0.2;12.0;0.8;3.0;0.2;0.2;1.0;0.2;1.0;0.2;1.0;loc;config;diff;4f;fscore;0.2
39;39_80d744b05f24a1c230afb4802aa6a70d6fc9259c-LOC.arff;RAkELd;15.0;15.0;1.0;0.0;0.0;12.0;0.8;3.0;0.2;0.0;0.0;12.0;0.8;3.0;0.2;0.1;0.5;0.2;1.0;0.13333333333333333;0.6666666666666666;loc;config;diff;4f;fscore;0.13333333333333333
40;40_61060284aaefc13a758eaa5d56ea15ef00940d50-LOC.arff;BR;13.0;13.0;1.0;0.0;0.0;0.0;0.0;13.0;1.0;13.0;1.0;0.0;0.0;13.0;1.0;1.0;1.0;1.0;1.0;1.0;1.0;loc;config;diff;4f;fscore;1.0
40;40_61060284aaefc13a758eaa5d56ea15ef00940d50-LOC.arff;LP;13.0;13.0;1.0;0.0;0.0;0.0;0.0;13.0;1.0;13.0;1.0;0.0;0.0;13.0;1.0;1.0;1.0;1.0;1.0;1.0;1.0;loc;config;diff;4f;fscore;1.0
40;40_61060284aaefc13a758eaa5d56ea15ef00940d50-LOC.arff;RAkELd;13.0;13.0;1.0;0.0;0.0;0.0;0.0;13.0;1.0;13.0;1.0;0.0;0.0;13.0;1.0;1.0;1.0;1.0;1.0;1.0;1.0;loc;config;diff;4f;fscore;1.0
41;41_f27292734432228765446ca71db00314424fce48-LOC.arff;BR;29.0;29.0;1.0;0.0;0.0;12.0;0.41379310344827586;17.0;0.5862068965517241;17.0;0.5862068965517241;12.0;0.41379310344827586;17.0;0.5862068965517241;0.5862068965517241;1.0;0.5862068965517241;1.0;0.5862068965517241;1.0;loc;config;diff;4f;fscore;0.5862068965517241
41;41_f27292734432228765446ca71db00314424fce48-LOC.arff;LP;29.0;29.0;1.0;0.0;0.0;12.0;0.41379310344827586;17.0;0.5862068965517241;17.0;0.5862068965517241;12.0;0.41379310344827586;17.0;0.5862068965517241;0.5862068965517241;1.0;0.5862068965517241;1.0;0.5862068965517241;1.0;loc;config;diff;4f;fscore;0.5862068965517241
41;41_f27292734432228765446ca71db00314424fce48-LOC.arff;RAkELd;29.0;29.0;1.0;0.0;0.0;12.0;0.41379310344827586;17.0;0.5862068965517241;17.0;0.5862068965517241;12.0;0.41379310344827586;17.0;0.5862068965517241;0.5862068965517241;1.0;0.5862068965517241;1.0;0.5862068965517241;1.0;loc;config;diff;4f;fscore;0.5862068965517241
42;42_369ff94e4d3a476e60c6105eb90d4bdd477f0b8b-LOC.arff;BR;35.0;35.0;1.0;0.0;0.0;5.0;0.14285714285714285;30.0;0.8571428571428571;27.0;0.7714285714285715;5.0;0.14285714285714285;30.0;0.8571428571428571;0.8142857142857143;0.95;0.8571428571428571;1.0;0.8285714285714286;0.9666666666666667;loc;config;diff;4f;fscore;0.8285714285714286
42;42_369ff94e4d3a476e60c6105eb90d4bdd477f0b8b-LOC.arff;LP;35.0;35.0;1.0;0.0;0.0;5.0;0.14285714285714285;30.0;0.8571428571428571;30.0;0.8571428571428571;5.0;0.14285714285714285;30.0;0.8571428571428571;0.8571428571428571;1.0;0.8571428571428571;1.0;0.8571428571428571;1.0;loc;config;diff;4f;fscore;0.8571428571428571
42;42_369ff94e4d3a476e60c6105eb90d4bdd477f0b8b-LOC.arff;RAkELd;35.0;35.0;1.0;0.0;0.0;5.0;0.14285714285714285;30.0;0.8571428571428571;27.0;0.7714285714285715;5.0;0.14285714285714285;30.0;0.8571428571428571;0.8142857142857143;0.95;0.8571428571428571;1.0;0.8285714285714286;0.9666666666666667;loc;config;diff;4f;fscore;0.8285714285714286
43;43_b18c4172f5a973f38241f1f997a9df14635ab54f-LOC.arff;BR;37.0;37.0;1.0;12.0;0.32432432432432434;2.0;0.05405405405405406;23.0;0.6216216216216216;23.0;0.6216216216216216;14.0;0.3783783783783784;23.0;0.6216216216216216;0.92;1.0;0.92;1.0;0.92;1.0;loc;config;diff;4f;fscore;0.92
43;43_b18c4172f5a973f38241f1f997a9df14635ab54f-LOC.arff;LP;37.0;37.0;1.0;0.0;0.0;16.0;0.43243243243243246;21.0;0.5675675675675675;16.0;0.43243243243243246;16.0;0.43243243243243246;21.0;0.5675675675675675;0.5;0.8809523809523809;0.5675675675675675;1.0;0.5225225225225225;0.9206349206349206;loc;config;diff;4f;fscore;0.5225225225225225
43;43_b18c4172f5a973f38241f1f997a9df14635ab54f-LOC.arff;RAkELd;37.0;37.0;1.0;12.0;0.32432432432432434;2.0;0.05405405405405406;23.0;0.6216216216216216;23.0;0.6216216216216216;14.0;0.3783783783783784;23.0;0.6216216216216216;0.92;1.0;0.92;1.0;0.92;1.0;loc;config;diff;4f;fscore;0.92
46;46_59bcd268f5d06568e409bcbe8a5eb11002bb567d-LOC.arff;BR;16.0;16.0;1.0;0.0;0.0;1.0;0.0625;15.0;0.9375;0.0;0.0;1.0;0.0625;15.0;0.9375;0.46875;0.5;0.9375;1.0;0.625;0.6666666666666666;loc;config;diff;4f;fscore;0.625
46;46_59bcd268f5d06568e409bcbe8a5eb11002bb567d-LOC.arff;LP;16.0;16.0;1.0;0.0;0.0;1.0;0.0625;15.0;0.9375;15.0;0.9375;1.0;0.0625;15.0;0.9375;0.9375;1.0;0.9375;1.0;0.9375;1.0;loc;config;diff;4f;fscore;0.9375
46;46_59bcd268f5d06568e409bcbe8a5eb11002bb567d-LOC.arff;RAkELd;16.0;16.0;1.0;0.0;0.0;1.0;0.0625;15.0;0.9375;0.0;0.0;1.0;0.0625;15.0;0.9375;0.46875;0.5;0.9375;1.0;0.625;0.6666666666666666;loc;config;diff;4f;fscore;0.625
52;52_9e22f13942eee52d3fe5091d9d33a050c455631d-LOC.arff;BR;39.0;39.0;1.0;0.0;0.0;33.0;0.8461538461538461;6.0;0.15384615384615385;6.0;0.15384615384615385;33.0;0.8461538461538461;0.0;0.0;0.15384615384615385;1.0;0.07264957264957266;0.47222222222222227;0.09829059829059829;0.6388888888888888;loc;config;diff;4f;fscore;0.09829059829059829
52;52_9e22f13942eee52d3fe5091d9d33a050c455631d-LOC.arff;LP;39.0;39.0;1.0;0.0;0.0;33.0;0.8461538461538461;6.0;0.15384615384615385;6.0;0.15384615384615385;33.0;0.8461538461538461;0.0;0.0;0.15384615384615385;1.0;0.07264957264957266;0.47222222222222227;0.09829059829059829;0.6388888888888888;loc;config;diff;4f;fscore;0.09829059829059829
52;52_9e22f13942eee52d3fe5091d9d33a050c455631d-LOC.arff;RAkELd;39.0;39.0;1.0;0.0;0.0;33.0;0.8461538461538461;6.0;0.15384615384615385;6.0;0.15384615384615385;33.0;0.8461538461538461;0.0;0.0;0.15384615384615385;1.0;0.07264957264957266;0.47222222222222227;0.09829059829059829;0.6388888888888888;loc;config;diff;4f;fscore;0.09829059829059829
53;53_2ce2f01675438273384d8cc3377814fe7722d9a5-LOC.arff;BR;22.0;22.0;1.0;0.0;0.0;22.0;1.0;0.0;0.0;0.0;0.0;22.0;1.0;0.0;0.0;0.0;0.0;0.0;0.0;0.0;0.0;loc;config;diff;4f;fscore;0.0
53;53_2ce2f01675438273384d8cc3377814fe7722d9a5-LOC.arff;LP;22.0;22.0;1.0;0.0;0.0;22.0;1.0;0.0;0.0;0.0;0.0;22.0;1.0;0.0;0.0;0.0;0.0;0.0;0.0;0.0;0.0;loc;config;diff;4f;fscore;0.0
53;53_2ce2f01675438273384d8cc3377814fe7722d9a5-LOC.arff;RAkELd;22.0;22.0;1.0;0.0;0.0;22.0;1.0;0.0;0.0;0.0;0.0;22.0;1.0;0.0;0.0;0.0;0.0;0.0;0.0;0.0;0.0;loc;config;diff;4f;fscore;0.0
55;55_4c654aaab13f778145cfdf2b88d15ee9a1392b91-LOC.arff;BR;1.0;1.0;1.0;0.0;0.0;0.0;0.0;1.0;1.0;1.0;1.0;0.0;0.0;1.0;1.0;1.0;1.0;1.0;1.0;1.0;1.0;loc;config;diff;4f;fscore;1.0
55;55_4c654aaab13f778145cfdf2b88d15ee9a1392b91-LOC.arff;LP;1.0;1.0;1.0;0.0;0.0;0.0;0.0;1.0;1.0;1.0;1.0;0.0;0.0;1.0;1.0;1.0;1.0;1.0;1.0;1.0;1.0;loc;config;diff;4f;fscore;1.0
55;55_4c654aaab13f778145cfdf2b88d15ee9a1392b91-LOC.arff;RAkELd;1.0;1.0;1.0;0.0;0.0;0.0;0.0;1.0;1.0;1.0;1.0;0.0;0.0;1.0;1.0;1.0;1.0;1.0;1.0;1.0;1.0;loc;config;diff;4f;fscore;1.0
57;57_3364b99ef9f6c0d28d26219dd4803c87757c218a-LOC.arff;BR;4.0;4.0;1.0;0.0;0.0;0.0;0.0;4.0;1.0;4.0;1.0;0.0;0.0;4.0;1.0;1.0;1.0;1.0;1.0;1.0;1.0;loc;config;diff;4f;fscore;1.0
57;57_3364b99ef9f6c0d28d26219dd4803c87757c218a-LOC.arff;LP;4.0;4.0;1.0;0.0;0.0;0.0;0.0;4.0;1.0;4.0;1.0;0.0;0.0;4.0;1.0;1.0;1.0;1.0;1.0;1.0;1.0;loc;config;diff;4f;fscore;1.0
57;57_3364b99ef9f6c0d28d26219dd4803c87757c218a-LOC.arff;RAkELd;4.0;4.0;1.0;0.0;0.0;0.0;0.0;4.0;1.0;4.0;1.0;0.0;0.0;4.0;1.0;1.0;1.0;1.0;1.0;1.0;1.0;loc;config;diff;4f;fscore;1.0
58;58_0940c6491e5adc00cf3ce40e27d499cf3482dffd-LOC.arff;BR;5.0;5.0;1.0;0.0;0.0;0.0;0.0;5.0;1.0;5.0;1.0;0.0;0.0;5.0;1.0;1.0;1.0;1.0;1.0;1.0;1.0;loc;config;diff;4f;fscore;1.0
58;58_0940c6491e5adc00cf3ce40e27d499cf3482dffd-LOC.arff;LP;5.0;5.0;1.0;0.0;0.0;0.0;0.0;5.0;1.0;5.0;1.0;0.0;0.0;5.0;1.0;1.0;1.0;1.0;1.0;1.0;1.0;loc;config;diff;4f;fscore;1.0
58;58_0940c6491e5adc00cf3ce40e27d499cf3482dffd-LOC.arff;RAkELd;5.0;5.0;1.0;0.0;0.0;0.0;0.0;5.0;1.0;5.0;1.0;0.0;0.0;5.0;1.0;1.0;1.0;1.0;1.0;1.0;1.0;loc;config;diff;4f;fscore;1.0
59;59_7e4007bedf5b89c573da9e2044b82a99ef384d1a-LOC.arff;BR;6.0;6.0;1.0;0.0;0.0;6.0;1.0;0.0;0.0;0.0;0.0;6.0;1.0;0.0;0.0;0.0;0.0;0.0;0.0;0.0;0.0;loc;config;diff;4f;fscore;0.0
59;59_7e4007bedf5b89c573da9e2044b82a99ef384d1a-LOC.arff;LP;6.0;6.0;1.0;0.0;0.0;6.0;1.0;0.0;0.0;0.0;0.0;6.0;1.0;0.0;0.0;0.0;0.0;0.0;0.0;0.0;0.0;loc;config;diff;4f;fscore;0.0
59;59_7e4007bedf5b89c573da9e2044b82a99ef384d1a-LOC.arff;RAkELd;6.0;6.0;1.0;0.0;0.0;6.0;1.0;0.0;0.0;0.0;0.0;6.0;1.0;0.0;0.0;0.0;0.0;0.0;0.0;0.0;0.0;loc;config;diff;4f;fscore;0.0
64;64_ff63b18f0f3ae41482487323c39defbd8601213c-LOC.arff;BR;259.0;259.0;1.0;0.0;0.0;106.0;0.4092664092664093;153.0;0.5907335907335908;153.0;0.5907335907335908;106.0;0.4092664092664093;53.0;0.20463320463320464;0.5907335907335908;1.0;0.380952380952381;0.644880174291939;0.4453024453024453;0.7538126361655774;loc;config;diff;4f;fscore;0.4453024453024453
64;64_ff63b18f0f3ae41482487323c39defbd8601213c-LOC.arff;LP;259.0;259.0;1.0;0.0;0.0;151.0;0.583011583011583;108.0;0.416988416988417;46.0;0.1776061776061776;151.0;0.583011583011583;59.0;0.2277992277992278;0.2972972972972973;0.7129629629629629;0.32689832689832693;0.7839506172839507;0.29716859716859717;0.7126543209876544;loc;config;diff;4f;fscore;0.29716859716859717
64;64_ff63b18f0f3ae41482487323c39defbd8601213c-LOC.arff;RAkELd;259.0;259.0;1.0;0.0;0.0;106.0;0.4092664092664093;153.0;0.5907335907335908;153.0;0.5907335907335908;106.0;0.4092664092664093;53.0;0.20463320463320464;0.5907335907335908;1.0;0.380952380952381;0.644880174291939;0.4453024453024453;0.7538126361655774;loc;config;diff;4f;fscore;0.4453024453024453
77;77_1005b084492bd5b92e76dc2cb6d22f97494fdc4c-LOC.arff;BR;2.0;2.0;1.0;1.0;0.5;1.0;0.5;0.0;0.0;0.0;0.0;2.0;1.0;0.0;0.0;0.0;0.0;0.0;0.0;0.0;0.0;loc;config;diff;4f;fscore;0.0
77;77_1005b084492bd5b92e76dc2cb6d22f97494fdc4c-LOC.arff;LP;2.0;2.0;1.0;0.0;0.0;2.0;1.0;0.0;0.0;0.0;0.0;2.0;1.0;0.0;0.0;0.0;0.0;0.0;0.0;0.0;0.0;loc;config;diff;4f;fscore;0.0
77;77_1005b084492bd5b92e76dc2cb6d22f97494fdc4c-LOC.arff;RAkELd;2.0;2.0;1.0;1.0;0.5;1.0;0.5;0.0;0.0;0.0;0.0;2.0;1.0;0.0;0.0;0.0;0.0;0.0;0.0;0.0;0.0;loc;config;diff;4f;fscore;0.0
80;80_260095a268721fcfab443af2b9118bb8bc6dae8e-LOC.arff;BR;10.0;10.0;1.0;0.0;0.0;1.0;0.1;9.0;0.9;9.0;0.9;1.0;0.1;5.0;0.5;0.9;1.0;0.7;0.7777777777777778;0.7666666666666666;0.8518518518518517;loc;config;diff;4f;fscore;0.7666666666666666
80;80_260095a268721fcfab443af2b9118bb8bc6dae8e-LOC.arff;LP;10.0;10.0;1.0;0.0;0.0;1.0;0.1;9.0;0.9;9.0;0.9;1.0;0.1;5.0;0.5;0.9;1.0;0.7;0.7777777777777778;0.7666666666666666;0.8518518518518517;loc;config;diff;4f;fscore;0.7666666666666666
80;80_260095a268721fcfab443af2b9118bb8bc6dae8e-LOC.arff;RAkELd;10.0;10.0;1.0;0.0;0.0;1.0;0.1;9.0;0.9;9.0;0.9;1.0;0.1;5.0;0.5;0.9;1.0;0.7;0.7777777777777778;0.7666666666666666;0.8518518518518517;loc;config;diff;4f;fscore;0.7666666666666666
88;88_405f496ace817ae66797ea23030b7345de965bfa-LOC.arff;BR;121.0;121.0;1.0;121.0;1.0;0.0;0.0;0.0;0.0;0.0;0.0;121.0;1.0;0.0;0.0;0.0;0.0;0.0;0.0;0.0;0.0;loc;config;diff;4f;fscore;0.0
88;88_405f496ace817ae66797ea23030b7345de965bfa-LOC.arff;LP;121.0;121.0;1.0;0.0;0.0;97.0;0.8016528925619835;24.0;0.19834710743801653;24.0;0.19834710743801653;97.0;0.8016528925619835;24.0;0.19834710743801653;0.19834710743801653;1.0;0.19834710743801653;1.0;0.19834710743801653;1.0;loc;config;diff;4f;fscore;0.19834710743801653
88;88_405f496ace817ae66797ea23030b7345de965bfa-LOC.arff;RAkELd;121.0;121.0;1.0;121.0;1.0;0.0;0.0;0.0;0.0;0.0;0.0;121.0;1.0;0.0;0.0;0.0;0.0;0.0;0.0;0.0;0.0;loc;config;diff;4f;fscore;0.0
96;96_b51480e879404bfb3188c9976f2ed7500e4efa9e-LOC.arff;BR;35.0;35.0;1.0;0.0;0.0;12.0;0.34285714285714286;23.0;0.6571428571428571;23.0;0.6571428571428571;12.0;0.34285714285714286;23.0;0.6571428571428571;0.6571428571428571;1.0;0.6571428571428571;1.0;0.6571428571428571;1.0;loc;config;diff;4f;fscore;0.6571428571428571
96;96_b51480e879404bfb3188c9976f2ed7500e4efa9e-LOC.arff;LP;35.0;35.0;1.0;0.0;0.0;12.0;0.34285714285714286;23.0;0.6571428571428571;23.0;0.6571428571428571;12.0;0.34285714285714286;23.0;0.6571428571428571;0.6571428571428571;1.0;0.6571428571428571;1.0;0.6571428571428571;1.0;loc;config;diff;4f;fscore;0.6571428571428571
96;96_b51480e879404bfb3188c9976f2ed7500e4efa9e-LOC.arff;RAkELd;35.0;35.0;1.0;0.0;0.0;12.0;0.34285714285714286;23.0;0.6571428571428571;23.0;0.6571428571428571;12.0;0.34285714285714286;23.0;0.6571428571428571;0.6571428571428571;1.0;0.6571428571428571;1.0;0.6571428571428571;1.0;loc;config;diff;4f;fscore;0.6571428571428571
108;108_772f5dd67bec6cf79de3823c52b2c3c80c0388d1-LOC.arff;BR;47.0;47.0;1.0;47.0;1.0;0.0;0.0;0.0;0.0;0.0;0.0;47.0;1.0;0.0;0.0;0.0;0.0;0.0;0.0;0.0;0.0;loc;config;diff;4f;fscore;0.0
108;108_772f5dd67bec6cf79de3823c52b2c3c80c0388d1-LOC.arff;LP;47.0;47.0;1.0;0.0;0.0;47.0;1.0;0.0;0.0;0.0;0.0;47.0;1.0;0.0;0.0;0.0;0.0;0.0;0.0;0.0;0.0;loc;config;diff;4f;fscore;0.0
108;108_772f5dd67bec6cf79de3823c52b2c3c80c0388d1-LOC.arff;RAkELd;47.0;47.0;1.0;0.0;0.0;47.0;1.0;0.0;0.0;0.0;0.0;47.0;1.0;0.0;0.0;0.0;0.0;0.0;0.0;0.0;0.0;loc;config;diff;4f;fscore;0.0
111;111_e1718c3b040e83752562006902cec84018d16f12-LOC.arff;BR;117.0;117.0;1.0;15.0;0.1282051282051282;102.0;0.8717948717948718;0.0;0.0;0.0;0.0;117.0;1.0;0.0;0.0;0.0;0.0;0.0;0.0;0.0;0.0;loc;config;diff;4f;fscore;0.0
111;111_e1718c3b040e83752562006902cec84018d16f12-LOC.arff;LP;117.0;117.0;1.0;0.0;0.0;117.0;1.0;0.0;0.0;0.0;0.0;117.0;1.0;0.0;0.0;0.0;0.0;0.0;0.0;0.0;0.0;loc;config;diff;4f;fscore;0.0
111;111_e1718c3b040e83752562006902cec84018d16f12-LOC.arff;RAkELd;117.0;117.0;1.0;15.0;0.1282051282051282;102.0;0.8717948717948718;0.0;0.0;0.0;0.0;117.0;1.0;0.0;0.0;0.0;0.0;0.0;0.0;0.0;0.0;loc;config;diff;4f;fscore;0.0
176;176_340dcc563d42fb33ca38f9a71d6aa401cfbde244-LOC.arff;BR;85.0;85.0;1.0;0.0;0.0;3.0;0.03529411764705882;82.0;0.9647058823529412;34.0;0.4;3.0;0.03529411764705882;20.0;0.23529411764705882;0.6823529411764706;0.7073170731707317;0.5735294117647058;0.5945121951219512;0.5952941176470589;0.6170731707317073;loc;config;diff;4f;fscore;0.5952941176470589
176;176_340dcc563d42fb33ca38f9a71d6aa401cfbde244-LOC.arff;LP;85.0;85.0;1.0;0.0;0.0;55.0;0.6470588235294118;30.0;0.35294117647058826;20.0;0.23529411764705882;55.0;0.6470588235294118;14.0;0.16470588235294117;0.29411764705882354;0.8333333333333334;0.24901960784313726;0.7055555555555556;0.24745098039215685;0.701111111111111;loc;config;diff;4f;fscore;0.24745098039215685
176;176_340dcc563d42fb33ca38f9a71d6aa401cfbde244-LOC.arff;RAkELd;85.0;85.0;1.0;0.0;0.0;3.0;0.03529411764705882;82.0;0.9647058823529412;27.0;0.3176470588235294;3.0;0.03529411764705882;20.0;0.23529411764705882;0.6411764705882353;0.6646341463414634;0.5735294117647058;0.5945121951219512;0.5823529411764706;0.6036585365853658;loc;config;diff;4f;fscore;0.5823529411764706
