commit;DataSet;Classifier;TotalInstances;InstancesWithRankedLabels;PercentageOfInstancesWithRankedLabels;InstancesWithPrecisionNull;PercentageOfInstancesWithPrecisionNull;InstancesWithPrecisionZero;PercentageOfInstancesWithPrecisionZero;InstancesWithPrecisionNonZero;PercentageOfInstancesWithPrecisionNonZero;InstancesWithPrecisionOne;PercentageOfInstancesWithPrecisionOne;InstancesWithRecallZero;PercentageOfInstancesWithRecallZero;InstancesWithRecallOne;PercentageOfInstancesWithRecallOne;AveragePrecisionForAllNonNullPrecision;AveragePrecisionForNonZeroPrecision;AverageRecallForAllNonNullPrecision;AverageRecallForAllNonZeroPrecision;AverageFScoreForAllNonNullPrecision;AverageFScoreForAllNonZeroPrecision;Level;project;clusters;feature
15;15_e9ec5b47c3d417981f4b46f861a85525c2de3e42-FRAGMENT.arff;BR;9.0;9.0;1.0;0.0;0.0;9.0;1.0;0.0;0.0;0.0;0.0;9.0;1.0;0.0;0.0;0.0;0.0;0.0;0.0;0.0;0.0;fragment;config;diff;11f
15;15_e9ec5b47c3d417981f4b46f861a85525c2de3e42-FRAGMENT.arff;LP;9.0;9.0;1.0;0.0;0.0;9.0;1.0;0.0;0.0;0.0;0.0;9.0;1.0;0.0;0.0;0.0;0.0;0.0;0.0;0.0;0.0;fragment;config;diff;11f
15;15_e9ec5b47c3d417981f4b46f861a85525c2de3e42-FRAGMENT.arff;RAkELd;9.0;9.0;1.0;0.0;0.0;9.0;1.0;0.0;0.0;0.0;0.0;9.0;1.0;0.0;0.0;0.0;0.0;0.0;0.0;0.0;0.0;fragment;config;diff;11f
19;19_82829deb0d4c81f35ab73c4c92a95a4713ca2da7-FRAGMENT.arff;BR;1.0;1.0;1.0;1.0;1.0;0.0;0.0;0.0;0.0;0.0;0.0;1.0;1.0;0.0;0.0;0.0;0.0;0.0;0.0;0.0;0.0;fragment;config;diff;11f
19;19_82829deb0d4c81f35ab73c4c92a95a4713ca2da7-FRAGMENT.arff;LP;1.0;1.0;1.0;0.0;0.0;1.0;1.0;0.0;0.0;0.0;0.0;1.0;1.0;0.0;0.0;0.0;0.0;0.0;0.0;0.0;0.0;fragment;config;diff;11f
19;19_82829deb0d4c81f35ab73c4c92a95a4713ca2da7-FRAGMENT.arff;RAkELd;1.0;1.0;1.0;1.0;1.0;0.0;0.0;0.0;0.0;0.0;0.0;1.0;1.0;0.0;0.0;0.0;0.0;0.0;0.0;0.0;0.0;fragment;config;diff;11f
20;20_a0390a1945d87e77960e3b49bfc5293bdf4cc7f1-FRAGMENT.arff;BR;2.0;2.0;1.0;0.0;0.0;2.0;1.0;0.0;0.0;0.0;0.0;2.0;1.0;0.0;0.0;0.0;0.0;0.0;0.0;0.0;0.0;fragment;config;diff;11f
20;20_a0390a1945d87e77960e3b49bfc5293bdf4cc7f1-FRAGMENT.arff;LP;2.0;2.0;1.0;0.0;0.0;2.0;1.0;0.0;0.0;0.0;0.0;2.0;1.0;0.0;0.0;0.0;0.0;0.0;0.0;0.0;0.0;fragment;config;diff;11f
20;20_a0390a1945d87e77960e3b49bfc5293bdf4cc7f1-FRAGMENT.arff;RAkELd;2.0;2.0;1.0;0.0;0.0;2.0;1.0;0.0;0.0;0.0;0.0;2.0;1.0;0.0;0.0;0.0;0.0;0.0;0.0;0.0;0.0;fragment;config;diff;11f
21;21_8ea5cba374125e90d9474b19e9f009f2c8c1e393-FRAGMENT.arff;BR;1.0;1.0;1.0;0.0;0.0;1.0;1.0;0.0;0.0;0.0;0.0;1.0;1.0;0.0;0.0;0.0;0.0;0.0;0.0;0.0;0.0;fragment;config;diff;11f
21;21_8ea5cba374125e90d9474b19e9f009f2c8c1e393-FRAGMENT.arff;LP;1.0;1.0;1.0;0.0;0.0;1.0;1.0;0.0;0.0;0.0;0.0;1.0;1.0;0.0;0.0;0.0;0.0;0.0;0.0;0.0;0.0;fragment;config;diff;11f
21;21_8ea5cba374125e90d9474b19e9f009f2c8c1e393-FRAGMENT.arff;RAkELd;1.0;1.0;1.0;0.0;0.0;1.0;1.0;0.0;0.0;0.0;0.0;1.0;1.0;0.0;0.0;0.0;0.0;0.0;0.0;0.0;0.0;fragment;config;diff;11f
23;23_c86910dc5497dadec1d525edb7e2c0b9de2ecce3-FRAGMENT.arff;BR;1.0;1.0;1.0;1.0;1.0;0.0;0.0;0.0;0.0;0.0;0.0;1.0;1.0;0.0;0.0;0.0;0.0;0.0;0.0;0.0;0.0;fragment;config;diff;11f
23;23_c86910dc5497dadec1d525edb7e2c0b9de2ecce3-FRAGMENT.arff;LP;1.0;1.0;1.0;0.0;0.0;1.0;1.0;0.0;0.0;0.0;0.0;1.0;1.0;0.0;0.0;0.0;0.0;0.0;0.0;0.0;0.0;fragment;config;diff;11f
23;23_c86910dc5497dadec1d525edb7e2c0b9de2ecce3-FRAGMENT.arff;RAkELd;1.0;1.0;1.0;1.0;1.0;0.0;0.0;0.0;0.0;0.0;0.0;1.0;1.0;0.0;0.0;0.0;0.0;0.0;0.0;0.0;0.0;fragment;config;diff;11f
29;29_2d4fee10f0a276a0319faefcef3008745b37a67f-FRAGMENT.arff;BR;1.0;1.0;1.0;1.0;1.0;0.0;0.0;0.0;0.0;0.0;0.0;1.0;1.0;0.0;0.0;0.0;0.0;0.0;0.0;0.0;0.0;fragment;config;diff;11f
29;29_2d4fee10f0a276a0319faefcef3008745b37a67f-FRAGMENT.arff;LP;1.0;1.0;1.0;0.0;0.0;1.0;1.0;0.0;0.0;0.0;0.0;1.0;1.0;0.0;0.0;0.0;0.0;0.0;0.0;0.0;0.0;fragment;config;diff;11f
29;29_2d4fee10f0a276a0319faefcef3008745b37a67f-FRAGMENT.arff;RAkELd;1.0;1.0;1.0;1.0;1.0;0.0;0.0;0.0;0.0;0.0;0.0;1.0;1.0;0.0;0.0;0.0;0.0;0.0;0.0;0.0;0.0;fragment;config;diff;11f
34;34_eb4ef8bdb632b025fac0fcb559d6ea5ea5cd7fb9-FRAGMENT.arff;BR;1.0;1.0;1.0;1.0;1.0;0.0;0.0;0.0;0.0;0.0;0.0;1.0;1.0;0.0;0.0;0.0;0.0;0.0;0.0;0.0;0.0;fragment;config;diff;11f
34;34_eb4ef8bdb632b025fac0fcb559d6ea5ea5cd7fb9-FRAGMENT.arff;LP;1.0;1.0;1.0;0.0;0.0;1.0;1.0;0.0;0.0;0.0;0.0;1.0;1.0;0.0;0.0;0.0;0.0;0.0;0.0;0.0;0.0;fragment;config;diff;11f
34;34_eb4ef8bdb632b025fac0fcb559d6ea5ea5cd7fb9-FRAGMENT.arff;RAkELd;1.0;1.0;1.0;1.0;1.0;0.0;0.0;0.0;0.0;0.0;0.0;1.0;1.0;0.0;0.0;0.0;0.0;0.0;0.0;0.0;0.0;fragment;config;diff;11f
37;37_a3ff951e4ab64bda60f0bbd05c697257120e41bb-FRAGMENT.arff;BR;2.0;2.0;1.0;1.0;0.5;1.0;0.5;0.0;0.0;0.0;0.0;2.0;1.0;0.0;0.0;0.0;0.0;0.0;0.0;0.0;0.0;fragment;config;diff;11f
37;37_a3ff951e4ab64bda60f0bbd05c697257120e41bb-FRAGMENT.arff;LP;2.0;2.0;1.0;0.0;0.0;2.0;1.0;0.0;0.0;0.0;0.0;2.0;1.0;0.0;0.0;0.0;0.0;0.0;0.0;0.0;0.0;fragment;config;diff;11f
37;37_a3ff951e4ab64bda60f0bbd05c697257120e41bb-FRAGMENT.arff;RAkELd;2.0;2.0;1.0;2.0;1.0;0.0;0.0;0.0;0.0;0.0;0.0;2.0;1.0;0.0;0.0;0.0;0.0;0.0;0.0;0.0;0.0;fragment;config;diff;11f
38;38_a3a52fed8df123af995b39816c6a1eb531fd91a9-FRAGMENT.arff;BR;5.0;5.0;1.0;4.0;0.8;1.0;0.2;0.0;0.0;0.0;0.0;5.0;1.0;0.0;0.0;0.0;0.0;0.0;0.0;0.0;0.0;fragment;config;diff;11f
38;38_a3a52fed8df123af995b39816c6a1eb531fd91a9-FRAGMENT.arff;LP;5.0;5.0;1.0;0.0;0.0;5.0;1.0;0.0;0.0;0.0;0.0;5.0;1.0;0.0;0.0;0.0;0.0;0.0;0.0;0.0;0.0;fragment;config;diff;11f
38;38_a3a52fed8df123af995b39816c6a1eb531fd91a9-FRAGMENT.arff;RAkELd;5.0;5.0;1.0;4.0;0.8;1.0;0.2;0.0;0.0;0.0;0.0;5.0;1.0;0.0;0.0;0.0;0.0;0.0;0.0;0.0;0.0;fragment;config;diff;11f
39;39_80d744b05f24a1c230afb4802aa6a70d6fc9259c-FRAGMENT.arff;BR;2.0;2.0;1.0;2.0;1.0;0.0;0.0;0.0;0.0;0.0;0.0;2.0;1.0;0.0;0.0;0.0;0.0;0.0;0.0;0.0;0.0;fragment;config;diff;11f
39;39_80d744b05f24a1c230afb4802aa6a70d6fc9259c-FRAGMENT.arff;LP;2.0;2.0;1.0;0.0;0.0;2.0;1.0;0.0;0.0;0.0;0.0;2.0;1.0;0.0;0.0;0.0;0.0;0.0;0.0;0.0;0.0;fragment;config;diff;11f
39;39_80d744b05f24a1c230afb4802aa6a70d6fc9259c-FRAGMENT.arff;RAkELd;2.0;2.0;1.0;2.0;1.0;0.0;0.0;0.0;0.0;0.0;0.0;2.0;1.0;0.0;0.0;0.0;0.0;0.0;0.0;0.0;0.0;fragment;config;diff;11f
40;40_61060284aaefc13a758eaa5d56ea15ef00940d50-FRAGMENT.arff;BR;1.0;1.0;1.0;0.0;0.0;1.0;1.0;0.0;0.0;0.0;0.0;1.0;1.0;0.0;0.0;0.0;0.0;0.0;0.0;0.0;0.0;fragment;config;diff;11f
40;40_61060284aaefc13a758eaa5d56ea15ef00940d50-FRAGMENT.arff;LP;1.0;1.0;1.0;0.0;0.0;1.0;1.0;0.0;0.0;0.0;0.0;1.0;1.0;0.0;0.0;0.0;0.0;0.0;0.0;0.0;0.0;fragment;config;diff;11f
40;40_61060284aaefc13a758eaa5d56ea15ef00940d50-FRAGMENT.arff;RAkELd;1.0;1.0;1.0;0.0;0.0;1.0;1.0;0.0;0.0;0.0;0.0;1.0;1.0;0.0;0.0;0.0;0.0;0.0;0.0;0.0;0.0;fragment;config;diff;11f
41;41_f27292734432228765446ca71db00314424fce48-FRAGMENT.arff;BR;4.0;4.0;1.0;0.0;0.0;4.0;1.0;0.0;0.0;0.0;0.0;4.0;1.0;0.0;0.0;0.0;0.0;0.0;0.0;0.0;0.0;fragment;config;diff;11f
41;41_f27292734432228765446ca71db00314424fce48-FRAGMENT.arff;LP;4.0;4.0;1.0;0.0;0.0;4.0;1.0;0.0;0.0;0.0;0.0;4.0;1.0;0.0;0.0;0.0;0.0;0.0;0.0;0.0;0.0;fragment;config;diff;11f
41;41_f27292734432228765446ca71db00314424fce48-FRAGMENT.arff;RAkELd;4.0;4.0;1.0;0.0;0.0;4.0;1.0;0.0;0.0;0.0;0.0;4.0;1.0;0.0;0.0;0.0;0.0;0.0;0.0;0.0;0.0;fragment;config;diff;11f
42;42_369ff94e4d3a476e60c6105eb90d4bdd477f0b8b-FRAGMENT.arff;BR;3.0;3.0;1.0;0.0;0.0;3.0;1.0;0.0;0.0;0.0;0.0;3.0;1.0;0.0;0.0;0.0;0.0;0.0;0.0;0.0;0.0;fragment;config;diff;11f
42;42_369ff94e4d3a476e60c6105eb90d4bdd477f0b8b-FRAGMENT.arff;LP;3.0;3.0;1.0;0.0;0.0;3.0;1.0;0.0;0.0;0.0;0.0;3.0;1.0;0.0;0.0;0.0;0.0;0.0;0.0;0.0;0.0;fragment;config;diff;11f
42;42_369ff94e4d3a476e60c6105eb90d4bdd477f0b8b-FRAGMENT.arff;RAkELd;3.0;3.0;1.0;0.0;0.0;3.0;1.0;0.0;0.0;0.0;0.0;3.0;1.0;0.0;0.0;0.0;0.0;0.0;0.0;0.0;0.0;fragment;config;diff;11f
43;43_b18c4172f5a973f38241f1f997a9df14635ab54f-FRAGMENT.arff;BR;7.0;7.0;1.0;2.0;0.2857142857142857;5.0;0.7142857142857143;0.0;0.0;0.0;0.0;7.0;1.0;0.0;0.0;0.0;0.0;0.0;0.0;0.0;0.0;fragment;config;diff;11f
43;43_b18c4172f5a973f38241f1f997a9df14635ab54f-FRAGMENT.arff;LP;7.0;7.0;1.0;0.0;0.0;7.0;1.0;0.0;0.0;0.0;0.0;7.0;1.0;0.0;0.0;0.0;0.0;0.0;0.0;0.0;0.0;fragment;config;diff;11f
43;43_b18c4172f5a973f38241f1f997a9df14635ab54f-FRAGMENT.arff;RAkELd;7.0;7.0;1.0;3.0;0.42857142857142855;4.0;0.5714285714285714;0.0;0.0;0.0;0.0;7.0;1.0;0.0;0.0;0.0;0.0;0.0;0.0;0.0;0.0;fragment;config;diff;11f
46;46_59bcd268f5d06568e409bcbe8a5eb11002bb567d-FRAGMENT.arff;BR;3.0;3.0;1.0;0.0;0.0;3.0;1.0;0.0;0.0;0.0;0.0;3.0;1.0;0.0;0.0;0.0;0.0;0.0;0.0;0.0;0.0;fragment;config;diff;11f
46;46_59bcd268f5d06568e409bcbe8a5eb11002bb567d-FRAGMENT.arff;LP;3.0;3.0;1.0;0.0;0.0;3.0;1.0;0.0;0.0;0.0;0.0;3.0;1.0;0.0;0.0;0.0;0.0;0.0;0.0;0.0;0.0;fragment;config;diff;11f
46;46_59bcd268f5d06568e409bcbe8a5eb11002bb567d-FRAGMENT.arff;RAkELd;3.0;3.0;1.0;0.0;0.0;3.0;1.0;0.0;0.0;0.0;0.0;3.0;1.0;0.0;0.0;0.0;0.0;0.0;0.0;0.0;0.0;fragment;config;diff;11f
52;52_9e22f13942eee52d3fe5091d9d33a050c455631d-FRAGMENT.arff;BR;4.0;4.0;1.0;0.0;0.0;4.0;1.0;0.0;0.0;0.0;0.0;4.0;1.0;0.0;0.0;0.0;0.0;0.0;0.0;0.0;0.0;fragment;config;diff;11f
52;52_9e22f13942eee52d3fe5091d9d33a050c455631d-FRAGMENT.arff;LP;4.0;4.0;1.0;0.0;0.0;4.0;1.0;0.0;0.0;0.0;0.0;4.0;1.0;0.0;0.0;0.0;0.0;0.0;0.0;0.0;0.0;fragment;config;diff;11f
52;52_9e22f13942eee52d3fe5091d9d33a050c455631d-FRAGMENT.arff;RAkELd;4.0;4.0;1.0;0.0;0.0;4.0;1.0;0.0;0.0;0.0;0.0;4.0;1.0;0.0;0.0;0.0;0.0;0.0;0.0;0.0;0.0;fragment;config;diff;11f
55;55_4c654aaab13f778145cfdf2b88d15ee9a1392b91-FRAGMENT.arff;BR;1.0;1.0;1.0;0.0;0.0;1.0;1.0;0.0;0.0;0.0;0.0;1.0;1.0;0.0;0.0;0.0;0.0;0.0;0.0;0.0;0.0;fragment;config;diff;11f
55;55_4c654aaab13f778145cfdf2b88d15ee9a1392b91-FRAGMENT.arff;LP;1.0;1.0;1.0;0.0;0.0;1.0;1.0;0.0;0.0;0.0;0.0;1.0;1.0;0.0;0.0;0.0;0.0;0.0;0.0;0.0;0.0;fragment;config;diff;11f
55;55_4c654aaab13f778145cfdf2b88d15ee9a1392b91-FRAGMENT.arff;RAkELd;1.0;1.0;1.0;0.0;0.0;1.0;1.0;0.0;0.0;0.0;0.0;1.0;1.0;0.0;0.0;0.0;0.0;0.0;0.0;0.0;0.0;fragment;config;diff;11f
57;57_3364b99ef9f6c0d28d26219dd4803c87757c218a-FRAGMENT.arff;BR;1.0;1.0;1.0;0.0;0.0;1.0;1.0;0.0;0.0;0.0;0.0;1.0;1.0;0.0;0.0;0.0;0.0;0.0;0.0;0.0;0.0;fragment;config;diff;11f
57;57_3364b99ef9f6c0d28d26219dd4803c87757c218a-FRAGMENT.arff;LP;1.0;1.0;1.0;0.0;0.0;1.0;1.0;0.0;0.0;0.0;0.0;1.0;1.0;0.0;0.0;0.0;0.0;0.0;0.0;0.0;0.0;fragment;config;diff;11f
57;57_3364b99ef9f6c0d28d26219dd4803c87757c218a-FRAGMENT.arff;RAkELd;1.0;1.0;1.0;0.0;0.0;1.0;1.0;0.0;0.0;0.0;0.0;1.0;1.0;0.0;0.0;0.0;0.0;0.0;0.0;0.0;0.0;fragment;config;diff;11f
58;58_0940c6491e5adc00cf3ce40e27d499cf3482dffd-FRAGMENT.arff;BR;2.0;2.0;1.0;0.0;0.0;2.0;1.0;0.0;0.0;0.0;0.0;2.0;1.0;0.0;0.0;0.0;0.0;0.0;0.0;0.0;0.0;fragment;config;diff;11f
58;58_0940c6491e5adc00cf3ce40e27d499cf3482dffd-FRAGMENT.arff;LP;2.0;2.0;1.0;0.0;0.0;2.0;1.0;0.0;0.0;0.0;0.0;2.0;1.0;0.0;0.0;0.0;0.0;0.0;0.0;0.0;0.0;fragment;config;diff;11f
58;58_0940c6491e5adc00cf3ce40e27d499cf3482dffd-FRAGMENT.arff;RAkELd;2.0;2.0;1.0;0.0;0.0;2.0;1.0;0.0;0.0;0.0;0.0;2.0;1.0;0.0;0.0;0.0;0.0;0.0;0.0;0.0;0.0;fragment;config;diff;11f
64;64_ff63b18f0f3ae41482487323c39defbd8601213c-FRAGMENT.arff;BR;29.0;29.0;1.0;0.0;0.0;29.0;1.0;0.0;0.0;0.0;0.0;29.0;1.0;0.0;0.0;0.0;0.0;0.0;0.0;0.0;0.0;fragment;config;diff;11f
64;64_ff63b18f0f3ae41482487323c39defbd8601213c-FRAGMENT.arff;LP;29.0;29.0;1.0;0.0;0.0;29.0;1.0;0.0;0.0;0.0;0.0;29.0;1.0;0.0;0.0;0.0;0.0;0.0;0.0;0.0;0.0;fragment;config;diff;11f
64;64_ff63b18f0f3ae41482487323c39defbd8601213c-FRAGMENT.arff;RAkELd;29.0;29.0;1.0;0.0;0.0;29.0;1.0;0.0;0.0;0.0;0.0;29.0;1.0;0.0;0.0;0.0;0.0;0.0;0.0;0.0;0.0;fragment;config;diff;11f
80;80_260095a268721fcfab443af2b9118bb8bc6dae8e-FRAGMENT.arff;BR;3.0;3.0;1.0;0.0;0.0;3.0;1.0;0.0;0.0;0.0;0.0;3.0;1.0;0.0;0.0;0.0;0.0;0.0;0.0;0.0;0.0;fragment;config;diff;11f
80;80_260095a268721fcfab443af2b9118bb8bc6dae8e-FRAGMENT.arff;LP;3.0;3.0;1.0;0.0;0.0;3.0;1.0;0.0;0.0;0.0;0.0;3.0;1.0;0.0;0.0;0.0;0.0;0.0;0.0;0.0;0.0;fragment;config;diff;11f
80;80_260095a268721fcfab443af2b9118bb8bc6dae8e-FRAGMENT.arff;RAkELd;3.0;3.0;1.0;0.0;0.0;3.0;1.0;0.0;0.0;0.0;0.0;3.0;1.0;0.0;0.0;0.0;0.0;0.0;0.0;0.0;0.0;fragment;config;diff;11f
88;88_405f496ace817ae66797ea23030b7345de965bfa-FRAGMENT.arff;BR;4.0;4.0;1.0;0.0;0.0;4.0;1.0;0.0;0.0;0.0;0.0;4.0;1.0;0.0;0.0;0.0;0.0;0.0;0.0;0.0;0.0;fragment;config;diff;11f
88;88_405f496ace817ae66797ea23030b7345de965bfa-FRAGMENT.arff;LP;4.0;4.0;1.0;0.0;0.0;4.0;1.0;0.0;0.0;0.0;0.0;4.0;1.0;0.0;0.0;0.0;0.0;0.0;0.0;0.0;0.0;fragment;config;diff;11f
88;88_405f496ace817ae66797ea23030b7345de965bfa-FRAGMENT.arff;RAkELd;4.0;4.0;1.0;0.0;0.0;4.0;1.0;0.0;0.0;0.0;0.0;4.0;1.0;0.0;0.0;0.0;0.0;0.0;0.0;0.0;0.0;fragment;config;diff;11f
108;108_772f5dd67bec6cf79de3823c52b2c3c80c0388d1-FRAGMENT.arff;BR;1.0;1.0;1.0;0.0;0.0;1.0;1.0;0.0;0.0;0.0;0.0;1.0;1.0;0.0;0.0;0.0;0.0;0.0;0.0;0.0;0.0;fragment;config;diff;11f
108;108_772f5dd67bec6cf79de3823c52b2c3c80c0388d1-FRAGMENT.arff;LP;1.0;1.0;1.0;0.0;0.0;1.0;1.0;0.0;0.0;0.0;0.0;1.0;1.0;0.0;0.0;0.0;0.0;0.0;0.0;0.0;0.0;fragment;config;diff;11f
108;108_772f5dd67bec6cf79de3823c52b2c3c80c0388d1-FRAGMENT.arff;RAkELd;1.0;1.0;1.0;0.0;0.0;1.0;1.0;0.0;0.0;0.0;0.0;1.0;1.0;0.0;0.0;0.0;0.0;0.0;0.0;0.0;0.0;fragment;config;diff;11f
176;176_340dcc563d42fb33ca38f9a71d6aa401cfbde244-FRAGMENT.arff;BR;6.0;6.0;1.0;1.0;0.16666666666666666;5.0;0.8333333333333334;0.0;0.0;0.0;0.0;6.0;1.0;0.0;0.0;0.0;0.0;0.0;0.0;0.0;0.0;fragment;config;diff;11f
176;176_340dcc563d42fb33ca38f9a71d6aa401cfbde244-FRAGMENT.arff;LP;6.0;6.0;1.0;0.0;0.0;6.0;1.0;0.0;0.0;0.0;0.0;6.0;1.0;0.0;0.0;0.0;0.0;0.0;0.0;0.0;0.0;fragment;config;diff;11f
176;176_340dcc563d42fb33ca38f9a71d6aa401cfbde244-FRAGMENT.arff;RAkELd;6.0;6.0;1.0;1.0;0.16666666666666666;5.0;0.8333333333333334;0.0;0.0;0.0;0.0;6.0;1.0;0.0;0.0;0.0;0.0;0.0;0.0;0.0;0.0;fragment;config;diff;11f
15;15_e9ec5b47c3d417981f4b46f861a85525c2de3e42-FRAGMENT.arff;BR;9.0;9.0;1.0;0.0;0.0;9.0;1.0;0.0;0.0;0.0;0.0;9.0;1.0;0.0;0.0;0.0;0.0;0.0;0.0;0.0;0.0;fragment;config;diff;4f
15;15_e9ec5b47c3d417981f4b46f861a85525c2de3e42-FRAGMENT.arff;LP;9.0;9.0;1.0;0.0;0.0;9.0;1.0;0.0;0.0;0.0;0.0;9.0;1.0;0.0;0.0;0.0;0.0;0.0;0.0;0.0;0.0;fragment;config;diff;4f
15;15_e9ec5b47c3d417981f4b46f861a85525c2de3e42-FRAGMENT.arff;RAkELd;9.0;9.0;1.0;0.0;0.0;9.0;1.0;0.0;0.0;0.0;0.0;9.0;1.0;0.0;0.0;0.0;0.0;0.0;0.0;0.0;0.0;fragment;config;diff;4f
19;19_82829deb0d4c81f35ab73c4c92a95a4713ca2da7-FRAGMENT.arff;BR;1.0;1.0;1.0;1.0;1.0;0.0;0.0;0.0;0.0;0.0;0.0;1.0;1.0;0.0;0.0;0.0;0.0;0.0;0.0;0.0;0.0;fragment;config;diff;4f
19;19_82829deb0d4c81f35ab73c4c92a95a4713ca2da7-FRAGMENT.arff;LP;1.0;1.0;1.0;0.0;0.0;1.0;1.0;0.0;0.0;0.0;0.0;1.0;1.0;0.0;0.0;0.0;0.0;0.0;0.0;0.0;0.0;fragment;config;diff;4f
19;19_82829deb0d4c81f35ab73c4c92a95a4713ca2da7-FRAGMENT.arff;RAkELd;1.0;1.0;1.0;1.0;1.0;0.0;0.0;0.0;0.0;0.0;0.0;1.0;1.0;0.0;0.0;0.0;0.0;0.0;0.0;0.0;0.0;fragment;config;diff;4f
20;20_a0390a1945d87e77960e3b49bfc5293bdf4cc7f1-FRAGMENT.arff;BR;2.0;2.0;1.0;0.0;0.0;2.0;1.0;0.0;0.0;0.0;0.0;2.0;1.0;0.0;0.0;0.0;0.0;0.0;0.0;0.0;0.0;fragment;config;diff;4f
20;20_a0390a1945d87e77960e3b49bfc5293bdf4cc7f1-FRAGMENT.arff;LP;2.0;2.0;1.0;0.0;0.0;2.0;1.0;0.0;0.0;0.0;0.0;2.0;1.0;0.0;0.0;0.0;0.0;0.0;0.0;0.0;0.0;fragment;config;diff;4f
20;20_a0390a1945d87e77960e3b49bfc5293bdf4cc7f1-FRAGMENT.arff;RAkELd;2.0;2.0;1.0;0.0;0.0;2.0;1.0;0.0;0.0;0.0;0.0;2.0;1.0;0.0;0.0;0.0;0.0;0.0;0.0;0.0;0.0;fragment;config;diff;4f
21;21_8ea5cba374125e90d9474b19e9f009f2c8c1e393-FRAGMENT.arff;BR;1.0;1.0;1.0;0.0;0.0;1.0;1.0;0.0;0.0;0.0;0.0;1.0;1.0;0.0;0.0;0.0;0.0;0.0;0.0;0.0;0.0;fragment;config;diff;4f
21;21_8ea5cba374125e90d9474b19e9f009f2c8c1e393-FRAGMENT.arff;LP;1.0;1.0;1.0;0.0;0.0;1.0;1.0;0.0;0.0;0.0;0.0;1.0;1.0;0.0;0.0;0.0;0.0;0.0;0.0;0.0;0.0;fragment;config;diff;4f
21;21_8ea5cba374125e90d9474b19e9f009f2c8c1e393-FRAGMENT.arff;RAkELd;1.0;1.0;1.0;0.0;0.0;1.0;1.0;0.0;0.0;0.0;0.0;1.0;1.0;0.0;0.0;0.0;0.0;0.0;0.0;0.0;0.0;fragment;config;diff;4f
23;23_c86910dc5497dadec1d525edb7e2c0b9de2ecce3-FRAGMENT.arff;BR;1.0;1.0;1.0;1.0;1.0;0.0;0.0;0.0;0.0;0.0;0.0;1.0;1.0;0.0;0.0;0.0;0.0;0.0;0.0;0.0;0.0;fragment;config;diff;4f
23;23_c86910dc5497dadec1d525edb7e2c0b9de2ecce3-FRAGMENT.arff;LP;1.0;1.0;1.0;0.0;0.0;1.0;1.0;0.0;0.0;0.0;0.0;1.0;1.0;0.0;0.0;0.0;0.0;0.0;0.0;0.0;0.0;fragment;config;diff;4f
23;23_c86910dc5497dadec1d525edb7e2c0b9de2ecce3-FRAGMENT.arff;RAkELd;1.0;1.0;1.0;1.0;1.0;0.0;0.0;0.0;0.0;0.0;0.0;1.0;1.0;0.0;0.0;0.0;0.0;0.0;0.0;0.0;0.0;fragment;config;diff;4f
29;29_2d4fee10f0a276a0319faefcef3008745b37a67f-FRAGMENT.arff;BR;1.0;1.0;1.0;1.0;1.0;0.0;0.0;0.0;0.0;0.0;0.0;1.0;1.0;0.0;0.0;0.0;0.0;0.0;0.0;0.0;0.0;fragment;config;diff;4f
29;29_2d4fee10f0a276a0319faefcef3008745b37a67f-FRAGMENT.arff;LP;1.0;1.0;1.0;0.0;0.0;1.0;1.0;0.0;0.0;0.0;0.0;1.0;1.0;0.0;0.0;0.0;0.0;0.0;0.0;0.0;0.0;fragment;config;diff;4f
29;29_2d4fee10f0a276a0319faefcef3008745b37a67f-FRAGMENT.arff;RAkELd;1.0;1.0;1.0;1.0;1.0;0.0;0.0;0.0;0.0;0.0;0.0;1.0;1.0;0.0;0.0;0.0;0.0;0.0;0.0;0.0;0.0;fragment;config;diff;4f
34;34_eb4ef8bdb632b025fac0fcb559d6ea5ea5cd7fb9-FRAGMENT.arff;BR;1.0;1.0;1.0;1.0;1.0;0.0;0.0;0.0;0.0;0.0;0.0;1.0;1.0;0.0;0.0;0.0;0.0;0.0;0.0;0.0;0.0;fragment;config;diff;4f
34;34_eb4ef8bdb632b025fac0fcb559d6ea5ea5cd7fb9-FRAGMENT.arff;LP;1.0;1.0;1.0;0.0;0.0;1.0;1.0;0.0;0.0;0.0;0.0;1.0;1.0;0.0;0.0;0.0;0.0;0.0;0.0;0.0;0.0;fragment;config;diff;4f
34;34_eb4ef8bdb632b025fac0fcb559d6ea5ea5cd7fb9-FRAGMENT.arff;RAkELd;1.0;1.0;1.0;1.0;1.0;0.0;0.0;0.0;0.0;0.0;0.0;1.0;1.0;0.0;0.0;0.0;0.0;0.0;0.0;0.0;0.0;fragment;config;diff;4f
37;37_a3ff951e4ab64bda60f0bbd05c697257120e41bb-FRAGMENT.arff;BR;2.0;2.0;1.0;0.0;0.0;2.0;1.0;0.0;0.0;0.0;0.0;2.0;1.0;0.0;0.0;0.0;0.0;0.0;0.0;0.0;0.0;fragment;config;diff;4f
37;37_a3ff951e4ab64bda60f0bbd05c697257120e41bb-FRAGMENT.arff;LP;2.0;2.0;1.0;0.0;0.0;2.0;1.0;0.0;0.0;0.0;0.0;2.0;1.0;0.0;0.0;0.0;0.0;0.0;0.0;0.0;0.0;fragment;config;diff;4f
37;37_a3ff951e4ab64bda60f0bbd05c697257120e41bb-FRAGMENT.arff;RAkELd;2.0;2.0;1.0;2.0;1.0;0.0;0.0;0.0;0.0;0.0;0.0;2.0;1.0;0.0;0.0;0.0;0.0;0.0;0.0;0.0;0.0;fragment;config;diff;4f
38;38_a3a52fed8df123af995b39816c6a1eb531fd91a9-FRAGMENT.arff;BR;5.0;5.0;1.0;4.0;0.8;1.0;0.2;0.0;0.0;0.0;0.0;5.0;1.0;0.0;0.0;0.0;0.0;0.0;0.0;0.0;0.0;fragment;config;diff;4f
38;38_a3a52fed8df123af995b39816c6a1eb531fd91a9-FRAGMENT.arff;LP;5.0;5.0;1.0;0.0;0.0;5.0;1.0;0.0;0.0;0.0;0.0;5.0;1.0;0.0;0.0;0.0;0.0;0.0;0.0;0.0;0.0;fragment;config;diff;4f
38;38_a3a52fed8df123af995b39816c6a1eb531fd91a9-FRAGMENT.arff;RAkELd;5.0;5.0;1.0;5.0;1.0;0.0;0.0;0.0;0.0;0.0;0.0;5.0;1.0;0.0;0.0;0.0;0.0;0.0;0.0;0.0;0.0;fragment;config;diff;4f
39;39_80d744b05f24a1c230afb4802aa6a70d6fc9259c-FRAGMENT.arff;BR;2.0;2.0;1.0;2.0;1.0;0.0;0.0;0.0;0.0;0.0;0.0;2.0;1.0;0.0;0.0;0.0;0.0;0.0;0.0;0.0;0.0;fragment;config;diff;4f
39;39_80d744b05f24a1c230afb4802aa6a70d6fc9259c-FRAGMENT.arff;LP;2.0;2.0;1.0;0.0;0.0;2.0;1.0;0.0;0.0;0.0;0.0;2.0;1.0;0.0;0.0;0.0;0.0;0.0;0.0;0.0;0.0;fragment;config;diff;4f
39;39_80d744b05f24a1c230afb4802aa6a70d6fc9259c-FRAGMENT.arff;RAkELd;2.0;2.0;1.0;2.0;1.0;0.0;0.0;0.0;0.0;0.0;0.0;2.0;1.0;0.0;0.0;0.0;0.0;0.0;0.0;0.0;0.0;fragment;config;diff;4f
40;40_61060284aaefc13a758eaa5d56ea15ef00940d50-FRAGMENT.arff;BR;1.0;1.0;1.0;0.0;0.0;1.0;1.0;0.0;0.0;0.0;0.0;1.0;1.0;0.0;0.0;0.0;0.0;0.0;0.0;0.0;0.0;fragment;config;diff;4f
40;40_61060284aaefc13a758eaa5d56ea15ef00940d50-FRAGMENT.arff;LP;1.0;1.0;1.0;0.0;0.0;1.0;1.0;0.0;0.0;0.0;0.0;1.0;1.0;0.0;0.0;0.0;0.0;0.0;0.0;0.0;0.0;fragment;config;diff;4f
40;40_61060284aaefc13a758eaa5d56ea15ef00940d50-FRAGMENT.arff;RAkELd;1.0;1.0;1.0;0.0;0.0;1.0;1.0;0.0;0.0;0.0;0.0;1.0;1.0;0.0;0.0;0.0;0.0;0.0;0.0;0.0;0.0;fragment;config;diff;4f
41;41_f27292734432228765446ca71db00314424fce48-FRAGMENT.arff;BR;4.0;4.0;1.0;0.0;0.0;4.0;1.0;0.0;0.0;0.0;0.0;4.0;1.0;0.0;0.0;0.0;0.0;0.0;0.0;0.0;0.0;fragment;config;diff;4f
41;41_f27292734432228765446ca71db00314424fce48-FRAGMENT.arff;LP;4.0;4.0;1.0;0.0;0.0;4.0;1.0;0.0;0.0;0.0;0.0;4.0;1.0;0.0;0.0;0.0;0.0;0.0;0.0;0.0;0.0;fragment;config;diff;4f
41;41_f27292734432228765446ca71db00314424fce48-FRAGMENT.arff;RAkELd;4.0;4.0;1.0;0.0;0.0;4.0;1.0;0.0;0.0;0.0;0.0;4.0;1.0;0.0;0.0;0.0;0.0;0.0;0.0;0.0;0.0;fragment;config;diff;4f
42;42_369ff94e4d3a476e60c6105eb90d4bdd477f0b8b-FRAGMENT.arff;BR;3.0;3.0;1.0;2.0;0.6666666666666666;1.0;0.3333333333333333;0.0;0.0;0.0;0.0;3.0;1.0;0.0;0.0;0.0;0.0;0.0;0.0;0.0;0.0;fragment;config;diff;4f
42;42_369ff94e4d3a476e60c6105eb90d4bdd477f0b8b-FRAGMENT.arff;LP;3.0;3.0;1.0;0.0;0.0;3.0;1.0;0.0;0.0;0.0;0.0;3.0;1.0;0.0;0.0;0.0;0.0;0.0;0.0;0.0;0.0;fragment;config;diff;4f
42;42_369ff94e4d3a476e60c6105eb90d4bdd477f0b8b-FRAGMENT.arff;RAkELd;3.0;3.0;1.0;2.0;0.6666666666666666;1.0;0.3333333333333333;0.0;0.0;0.0;0.0;3.0;1.0;0.0;0.0;0.0;0.0;0.0;0.0;0.0;0.0;fragment;config;diff;4f
43;43_b18c4172f5a973f38241f1f997a9df14635ab54f-FRAGMENT.arff;BR;7.0;7.0;1.0;4.0;0.5714285714285714;3.0;0.42857142857142855;0.0;0.0;0.0;0.0;7.0;1.0;0.0;0.0;0.0;0.0;0.0;0.0;0.0;0.0;fragment;config;diff;4f
43;43_b18c4172f5a973f38241f1f997a9df14635ab54f-FRAGMENT.arff;LP;7.0;7.0;1.0;0.0;0.0;7.0;1.0;0.0;0.0;0.0;0.0;7.0;1.0;0.0;0.0;0.0;0.0;0.0;0.0;0.0;0.0;fragment;config;diff;4f
43;43_b18c4172f5a973f38241f1f997a9df14635ab54f-FRAGMENT.arff;RAkELd;7.0;7.0;1.0;4.0;0.5714285714285714;3.0;0.42857142857142855;0.0;0.0;0.0;0.0;7.0;1.0;0.0;0.0;0.0;0.0;0.0;0.0;0.0;0.0;fragment;config;diff;4f
46;46_59bcd268f5d06568e409bcbe8a5eb11002bb567d-FRAGMENT.arff;BR;3.0;3.0;1.0;0.0;0.0;3.0;1.0;0.0;0.0;0.0;0.0;3.0;1.0;0.0;0.0;0.0;0.0;0.0;0.0;0.0;0.0;fragment;config;diff;4f
46;46_59bcd268f5d06568e409bcbe8a5eb11002bb567d-FRAGMENT.arff;LP;3.0;3.0;1.0;0.0;0.0;3.0;1.0;0.0;0.0;0.0;0.0;3.0;1.0;0.0;0.0;0.0;0.0;0.0;0.0;0.0;0.0;fragment;config;diff;4f
46;46_59bcd268f5d06568e409bcbe8a5eb11002bb567d-FRAGMENT.arff;RAkELd;3.0;3.0;1.0;0.0;0.0;3.0;1.0;0.0;0.0;0.0;0.0;3.0;1.0;0.0;0.0;0.0;0.0;0.0;0.0;0.0;0.0;fragment;config;diff;4f
52;52_9e22f13942eee52d3fe5091d9d33a050c455631d-FRAGMENT.arff;BR;4.0;4.0;1.0;0.0;0.0;4.0;1.0;0.0;0.0;0.0;0.0;4.0;1.0;0.0;0.0;0.0;0.0;0.0;0.0;0.0;0.0;fragment;config;diff;4f
52;52_9e22f13942eee52d3fe5091d9d33a050c455631d-FRAGMENT.arff;LP;4.0;4.0;1.0;0.0;0.0;4.0;1.0;0.0;0.0;0.0;0.0;4.0;1.0;0.0;0.0;0.0;0.0;0.0;0.0;0.0;0.0;fragment;config;diff;4f
52;52_9e22f13942eee52d3fe5091d9d33a050c455631d-FRAGMENT.arff;RAkELd;4.0;4.0;1.0;0.0;0.0;4.0;1.0;0.0;0.0;0.0;0.0;4.0;1.0;0.0;0.0;0.0;0.0;0.0;0.0;0.0;0.0;fragment;config;diff;4f
55;55_4c654aaab13f778145cfdf2b88d15ee9a1392b91-FRAGMENT.arff;BR;1.0;1.0;1.0;0.0;0.0;1.0;1.0;0.0;0.0;0.0;0.0;1.0;1.0;0.0;0.0;0.0;0.0;0.0;0.0;0.0;0.0;fragment;config;diff;4f
55;55_4c654aaab13f778145cfdf2b88d15ee9a1392b91-FRAGMENT.arff;LP;1.0;1.0;1.0;0.0;0.0;1.0;1.0;0.0;0.0;0.0;0.0;1.0;1.0;0.0;0.0;0.0;0.0;0.0;0.0;0.0;0.0;fragment;config;diff;4f
55;55_4c654aaab13f778145cfdf2b88d15ee9a1392b91-FRAGMENT.arff;RAkELd;1.0;1.0;1.0;0.0;0.0;1.0;1.0;0.0;0.0;0.0;0.0;1.0;1.0;0.0;0.0;0.0;0.0;0.0;0.0;0.0;0.0;fragment;config;diff;4f
57;57_3364b99ef9f6c0d28d26219dd4803c87757c218a-FRAGMENT.arff;BR;1.0;1.0;1.0;0.0;0.0;1.0;1.0;0.0;0.0;0.0;0.0;1.0;1.0;0.0;0.0;0.0;0.0;0.0;0.0;0.0;0.0;fragment;config;diff;4f
57;57_3364b99ef9f6c0d28d26219dd4803c87757c218a-FRAGMENT.arff;LP;1.0;1.0;1.0;0.0;0.0;1.0;1.0;0.0;0.0;0.0;0.0;1.0;1.0;0.0;0.0;0.0;0.0;0.0;0.0;0.0;0.0;fragment;config;diff;4f
57;57_3364b99ef9f6c0d28d26219dd4803c87757c218a-FRAGMENT.arff;RAkELd;1.0;1.0;1.0;0.0;0.0;1.0;1.0;0.0;0.0;0.0;0.0;1.0;1.0;0.0;0.0;0.0;0.0;0.0;0.0;0.0;0.0;fragment;config;diff;4f
58;58_0940c6491e5adc00cf3ce40e27d499cf3482dffd-FRAGMENT.arff;BR;2.0;2.0;1.0;0.0;0.0;2.0;1.0;0.0;0.0;0.0;0.0;2.0;1.0;0.0;0.0;0.0;0.0;0.0;0.0;0.0;0.0;fragment;config;diff;4f
58;58_0940c6491e5adc00cf3ce40e27d499cf3482dffd-FRAGMENT.arff;LP;2.0;2.0;1.0;0.0;0.0;2.0;1.0;0.0;0.0;0.0;0.0;2.0;1.0;0.0;0.0;0.0;0.0;0.0;0.0;0.0;0.0;fragment;config;diff;4f
58;58_0940c6491e5adc00cf3ce40e27d499cf3482dffd-FRAGMENT.arff;RAkELd;2.0;2.0;1.0;0.0;0.0;2.0;1.0;0.0;0.0;0.0;0.0;2.0;1.0;0.0;0.0;0.0;0.0;0.0;0.0;0.0;0.0;fragment;config;diff;4f
64;64_ff63b18f0f3ae41482487323c39defbd8601213c-FRAGMENT.arff;BR;29.0;29.0;1.0;0.0;0.0;29.0;1.0;0.0;0.0;0.0;0.0;29.0;1.0;0.0;0.0;0.0;0.0;0.0;0.0;0.0;0.0;fragment;config;diff;4f
64;64_ff63b18f0f3ae41482487323c39defbd8601213c-FRAGMENT.arff;LP;29.0;29.0;1.0;0.0;0.0;29.0;1.0;0.0;0.0;0.0;0.0;29.0;1.0;0.0;0.0;0.0;0.0;0.0;0.0;0.0;0.0;fragment;config;diff;4f
64;64_ff63b18f0f3ae41482487323c39defbd8601213c-FRAGMENT.arff;RAkELd;29.0;29.0;1.0;0.0;0.0;29.0;1.0;0.0;0.0;0.0;0.0;29.0;1.0;0.0;0.0;0.0;0.0;0.0;0.0;0.0;0.0;fragment;config;diff;4f
80;80_260095a268721fcfab443af2b9118bb8bc6dae8e-FRAGMENT.arff;BR;3.0;3.0;1.0;0.0;0.0;3.0;1.0;0.0;0.0;0.0;0.0;3.0;1.0;0.0;0.0;0.0;0.0;0.0;0.0;0.0;0.0;fragment;config;diff;4f
80;80_260095a268721fcfab443af2b9118bb8bc6dae8e-FRAGMENT.arff;LP;3.0;3.0;1.0;0.0;0.0;3.0;1.0;0.0;0.0;0.0;0.0;3.0;1.0;0.0;0.0;0.0;0.0;0.0;0.0;0.0;0.0;fragment;config;diff;4f
80;80_260095a268721fcfab443af2b9118bb8bc6dae8e-FRAGMENT.arff;RAkELd;3.0;3.0;1.0;0.0;0.0;3.0;1.0;0.0;0.0;0.0;0.0;3.0;1.0;0.0;0.0;0.0;0.0;0.0;0.0;0.0;0.0;fragment;config;diff;4f
88;88_405f496ace817ae66797ea23030b7345de965bfa-FRAGMENT.arff;BR;4.0;4.0;1.0;0.0;0.0;4.0;1.0;0.0;0.0;0.0;0.0;4.0;1.0;0.0;0.0;0.0;0.0;0.0;0.0;0.0;0.0;fragment;config;diff;4f
88;88_405f496ace817ae66797ea23030b7345de965bfa-FRAGMENT.arff;LP;4.0;4.0;1.0;0.0;0.0;4.0;1.0;0.0;0.0;0.0;0.0;4.0;1.0;0.0;0.0;0.0;0.0;0.0;0.0;0.0;0.0;fragment;config;diff;4f
88;88_405f496ace817ae66797ea23030b7345de965bfa-FRAGMENT.arff;RAkELd;4.0;4.0;1.0;0.0;0.0;4.0;1.0;0.0;0.0;0.0;0.0;4.0;1.0;0.0;0.0;0.0;0.0;0.0;0.0;0.0;0.0;fragment;config;diff;4f
108;108_772f5dd67bec6cf79de3823c52b2c3c80c0388d1-FRAGMENT.arff;BR;1.0;1.0;1.0;0.0;0.0;1.0;1.0;0.0;0.0;0.0;0.0;1.0;1.0;0.0;0.0;0.0;0.0;0.0;0.0;0.0;0.0;fragment;config;diff;4f
108;108_772f5dd67bec6cf79de3823c52b2c3c80c0388d1-FRAGMENT.arff;LP;1.0;1.0;1.0;0.0;0.0;1.0;1.0;0.0;0.0;0.0;0.0;1.0;1.0;0.0;0.0;0.0;0.0;0.0;0.0;0.0;0.0;fragment;config;diff;4f
108;108_772f5dd67bec6cf79de3823c52b2c3c80c0388d1-FRAGMENT.arff;RAkELd;1.0;1.0;1.0;0.0;0.0;1.0;1.0;0.0;0.0;0.0;0.0;1.0;1.0;0.0;0.0;0.0;0.0;0.0;0.0;0.0;0.0;fragment;config;diff;4f
176;176_340dcc563d42fb33ca38f9a71d6aa401cfbde244-FRAGMENT.arff;BR;6.0;6.0;1.0;6.0;1.0;0.0;0.0;0.0;0.0;0.0;0.0;6.0;1.0;0.0;0.0;0.0;0.0;0.0;0.0;0.0;0.0;fragment;config;diff;4f
176;176_340dcc563d42fb33ca38f9a71d6aa401cfbde244-FRAGMENT.arff;LP;6.0;6.0;1.0;0.0;0.0;6.0;1.0;0.0;0.0;0.0;0.0;6.0;1.0;0.0;0.0;0.0;0.0;0.0;0.0;0.0;0.0;fragment;config;diff;4f
176;176_340dcc563d42fb33ca38f9a71d6aa401cfbde244-FRAGMENT.arff;RAkELd;6.0;6.0;1.0;6.0;1.0;0.0;0.0;0.0;0.0;0.0;0.0;6.0;1.0;0.0;0.0;0.0;0.0;0.0;0.0;0.0;0.0;fragment;config;diff;4f
15;15_e9ec5b47c3d417981f4b46f861a85525c2de3e42-FRAGMENT.arff;BR;9.0;9.0;1.0;0.0;0.0;9.0;1.0;0.0;0.0;0.0;0.0;9.0;1.0;0.0;0.0;0.0;0.0;0.0;0.0;0.0;0.0;fragment;config;diff;6f
15;15_e9ec5b47c3d417981f4b46f861a85525c2de3e42-FRAGMENT.arff;LP;9.0;9.0;1.0;0.0;0.0;9.0;1.0;0.0;0.0;0.0;0.0;9.0;1.0;0.0;0.0;0.0;0.0;0.0;0.0;0.0;0.0;fragment;config;diff;6f
15;15_e9ec5b47c3d417981f4b46f861a85525c2de3e42-FRAGMENT.arff;RAkELd;9.0;9.0;1.0;0.0;0.0;9.0;1.0;0.0;0.0;0.0;0.0;9.0;1.0;0.0;0.0;0.0;0.0;0.0;0.0;0.0;0.0;fragment;config;diff;6f
19;19_82829deb0d4c81f35ab73c4c92a95a4713ca2da7-FRAGMENT.arff;BR;1.0;1.0;1.0;1.0;1.0;0.0;0.0;0.0;0.0;0.0;0.0;1.0;1.0;0.0;0.0;0.0;0.0;0.0;0.0;0.0;0.0;fragment;config;diff;6f
19;19_82829deb0d4c81f35ab73c4c92a95a4713ca2da7-FRAGMENT.arff;LP;1.0;1.0;1.0;0.0;0.0;1.0;1.0;0.0;0.0;0.0;0.0;1.0;1.0;0.0;0.0;0.0;0.0;0.0;0.0;0.0;0.0;fragment;config;diff;6f
19;19_82829deb0d4c81f35ab73c4c92a95a4713ca2da7-FRAGMENT.arff;RAkELd;1.0;1.0;1.0;1.0;1.0;0.0;0.0;0.0;0.0;0.0;0.0;1.0;1.0;0.0;0.0;0.0;0.0;0.0;0.0;0.0;0.0;fragment;config;diff;6f
20;20_a0390a1945d87e77960e3b49bfc5293bdf4cc7f1-FRAGMENT.arff;BR;2.0;2.0;1.0;0.0;0.0;2.0;1.0;0.0;0.0;0.0;0.0;2.0;1.0;0.0;0.0;0.0;0.0;0.0;0.0;0.0;0.0;fragment;config;diff;6f
20;20_a0390a1945d87e77960e3b49bfc5293bdf4cc7f1-FRAGMENT.arff;LP;2.0;2.0;1.0;0.0;0.0;2.0;1.0;0.0;0.0;0.0;0.0;2.0;1.0;0.0;0.0;0.0;0.0;0.0;0.0;0.0;0.0;fragment;config;diff;6f
20;20_a0390a1945d87e77960e3b49bfc5293bdf4cc7f1-FRAGMENT.arff;RAkELd;2.0;2.0;1.0;0.0;0.0;2.0;1.0;0.0;0.0;0.0;0.0;2.0;1.0;0.0;0.0;0.0;0.0;0.0;0.0;0.0;0.0;fragment;config;diff;6f
21;21_8ea5cba374125e90d9474b19e9f009f2c8c1e393-FRAGMENT.arff;BR;1.0;1.0;1.0;0.0;0.0;1.0;1.0;0.0;0.0;0.0;0.0;1.0;1.0;0.0;0.0;0.0;0.0;0.0;0.0;0.0;0.0;fragment;config;diff;6f
21;21_8ea5cba374125e90d9474b19e9f009f2c8c1e393-FRAGMENT.arff;LP;1.0;1.0;1.0;0.0;0.0;1.0;1.0;0.0;0.0;0.0;0.0;1.0;1.0;0.0;0.0;0.0;0.0;0.0;0.0;0.0;0.0;fragment;config;diff;6f
21;21_8ea5cba374125e90d9474b19e9f009f2c8c1e393-FRAGMENT.arff;RAkELd;1.0;1.0;1.0;0.0;0.0;1.0;1.0;0.0;0.0;0.0;0.0;1.0;1.0;0.0;0.0;0.0;0.0;0.0;0.0;0.0;0.0;fragment;config;diff;6f
23;23_c86910dc5497dadec1d525edb7e2c0b9de2ecce3-FRAGMENT.arff;BR;1.0;1.0;1.0;1.0;1.0;0.0;0.0;0.0;0.0;0.0;0.0;1.0;1.0;0.0;0.0;0.0;0.0;0.0;0.0;0.0;0.0;fragment;config;diff;6f
23;23_c86910dc5497dadec1d525edb7e2c0b9de2ecce3-FRAGMENT.arff;LP;1.0;1.0;1.0;0.0;0.0;1.0;1.0;0.0;0.0;0.0;0.0;1.0;1.0;0.0;0.0;0.0;0.0;0.0;0.0;0.0;0.0;fragment;config;diff;6f
23;23_c86910dc5497dadec1d525edb7e2c0b9de2ecce3-FRAGMENT.arff;RAkELd;1.0;1.0;1.0;1.0;1.0;0.0;0.0;0.0;0.0;0.0;0.0;1.0;1.0;0.0;0.0;0.0;0.0;0.0;0.0;0.0;0.0;fragment;config;diff;6f
29;29_2d4fee10f0a276a0319faefcef3008745b37a67f-FRAGMENT.arff;BR;1.0;1.0;1.0;1.0;1.0;0.0;0.0;0.0;0.0;0.0;0.0;1.0;1.0;0.0;0.0;0.0;0.0;0.0;0.0;0.0;0.0;fragment;config;diff;6f
29;29_2d4fee10f0a276a0319faefcef3008745b37a67f-FRAGMENT.arff;LP;1.0;1.0;1.0;0.0;0.0;1.0;1.0;0.0;0.0;0.0;0.0;1.0;1.0;0.0;0.0;0.0;0.0;0.0;0.0;0.0;0.0;fragment;config;diff;6f
29;29_2d4fee10f0a276a0319faefcef3008745b37a67f-FRAGMENT.arff;RAkELd;1.0;1.0;1.0;1.0;1.0;0.0;0.0;0.0;0.0;0.0;0.0;1.0;1.0;0.0;0.0;0.0;0.0;0.0;0.0;0.0;0.0;fragment;config;diff;6f
34;34_eb4ef8bdb632b025fac0fcb559d6ea5ea5cd7fb9-FRAGMENT.arff;BR;1.0;1.0;1.0;1.0;1.0;0.0;0.0;0.0;0.0;0.0;0.0;1.0;1.0;0.0;0.0;0.0;0.0;0.0;0.0;0.0;0.0;fragment;config;diff;6f
34;34_eb4ef8bdb632b025fac0fcb559d6ea5ea5cd7fb9-FRAGMENT.arff;LP;1.0;1.0;1.0;0.0;0.0;1.0;1.0;0.0;0.0;0.0;0.0;1.0;1.0;0.0;0.0;0.0;0.0;0.0;0.0;0.0;0.0;fragment;config;diff;6f
34;34_eb4ef8bdb632b025fac0fcb559d6ea5ea5cd7fb9-FRAGMENT.arff;RAkELd;1.0;1.0;1.0;1.0;1.0;0.0;0.0;0.0;0.0;0.0;0.0;1.0;1.0;0.0;0.0;0.0;0.0;0.0;0.0;0.0;0.0;fragment;config;diff;6f
37;37_a3ff951e4ab64bda60f0bbd05c697257120e41bb-FRAGMENT.arff;BR;2.0;2.0;1.0;1.0;0.5;1.0;0.5;0.0;0.0;0.0;0.0;2.0;1.0;0.0;0.0;0.0;0.0;0.0;0.0;0.0;0.0;fragment;config;diff;6f
37;37_a3ff951e4ab64bda60f0bbd05c697257120e41bb-FRAGMENT.arff;LP;2.0;2.0;1.0;0.0;0.0;2.0;1.0;0.0;0.0;0.0;0.0;2.0;1.0;0.0;0.0;0.0;0.0;0.0;0.0;0.0;0.0;fragment;config;diff;6f
37;37_a3ff951e4ab64bda60f0bbd05c697257120e41bb-FRAGMENT.arff;RAkELd;2.0;2.0;1.0;2.0;1.0;0.0;0.0;0.0;0.0;0.0;0.0;2.0;1.0;0.0;0.0;0.0;0.0;0.0;0.0;0.0;0.0;fragment;config;diff;6f
38;38_a3a52fed8df123af995b39816c6a1eb531fd91a9-FRAGMENT.arff;BR;5.0;5.0;1.0;4.0;0.8;1.0;0.2;0.0;0.0;0.0;0.0;5.0;1.0;0.0;0.0;0.0;0.0;0.0;0.0;0.0;0.0;fragment;config;diff;6f
38;38_a3a52fed8df123af995b39816c6a1eb531fd91a9-FRAGMENT.arff;LP;5.0;5.0;1.0;0.0;0.0;5.0;1.0;0.0;0.0;0.0;0.0;5.0;1.0;0.0;0.0;0.0;0.0;0.0;0.0;0.0;0.0;fragment;config;diff;6f
38;38_a3a52fed8df123af995b39816c6a1eb531fd91a9-FRAGMENT.arff;RAkELd;5.0;5.0;1.0;4.0;0.8;1.0;0.2;0.0;0.0;0.0;0.0;5.0;1.0;0.0;0.0;0.0;0.0;0.0;0.0;0.0;0.0;fragment;config;diff;6f
39;39_80d744b05f24a1c230afb4802aa6a70d6fc9259c-FRAGMENT.arff;BR;2.0;2.0;1.0;2.0;1.0;0.0;0.0;0.0;0.0;0.0;0.0;2.0;1.0;0.0;0.0;0.0;0.0;0.0;0.0;0.0;0.0;fragment;config;diff;6f
39;39_80d744b05f24a1c230afb4802aa6a70d6fc9259c-FRAGMENT.arff;LP;2.0;2.0;1.0;0.0;0.0;2.0;1.0;0.0;0.0;0.0;0.0;2.0;1.0;0.0;0.0;0.0;0.0;0.0;0.0;0.0;0.0;fragment;config;diff;6f
39;39_80d744b05f24a1c230afb4802aa6a70d6fc9259c-FRAGMENT.arff;RAkELd;2.0;2.0;1.0;2.0;1.0;0.0;0.0;0.0;0.0;0.0;0.0;2.0;1.0;0.0;0.0;0.0;0.0;0.0;0.0;0.0;0.0;fragment;config;diff;6f
40;40_61060284aaefc13a758eaa5d56ea15ef00940d50-FRAGMENT.arff;BR;1.0;1.0;1.0;0.0;0.0;1.0;1.0;0.0;0.0;0.0;0.0;1.0;1.0;0.0;0.0;0.0;0.0;0.0;0.0;0.0;0.0;fragment;config;diff;6f
40;40_61060284aaefc13a758eaa5d56ea15ef00940d50-FRAGMENT.arff;LP;1.0;1.0;1.0;0.0;0.0;1.0;1.0;0.0;0.0;0.0;0.0;1.0;1.0;0.0;0.0;0.0;0.0;0.0;0.0;0.0;0.0;fragment;config;diff;6f
40;40_61060284aaefc13a758eaa5d56ea15ef00940d50-FRAGMENT.arff;RAkELd;1.0;1.0;1.0;0.0;0.0;1.0;1.0;0.0;0.0;0.0;0.0;1.0;1.0;0.0;0.0;0.0;0.0;0.0;0.0;0.0;0.0;fragment;config;diff;6f
41;41_f27292734432228765446ca71db00314424fce48-FRAGMENT.arff;BR;4.0;4.0;1.0;0.0;0.0;4.0;1.0;0.0;0.0;0.0;0.0;4.0;1.0;0.0;0.0;0.0;0.0;0.0;0.0;0.0;0.0;fragment;config;diff;6f
41;41_f27292734432228765446ca71db00314424fce48-FRAGMENT.arff;LP;4.0;4.0;1.0;0.0;0.0;4.0;1.0;0.0;0.0;0.0;0.0;4.0;1.0;0.0;0.0;0.0;0.0;0.0;0.0;0.0;0.0;fragment;config;diff;6f
41;41_f27292734432228765446ca71db00314424fce48-FRAGMENT.arff;RAkELd;4.0;4.0;1.0;0.0;0.0;4.0;1.0;0.0;0.0;0.0;0.0;4.0;1.0;0.0;0.0;0.0;0.0;0.0;0.0;0.0;0.0;fragment;config;diff;6f
42;42_369ff94e4d3a476e60c6105eb90d4bdd477f0b8b-FRAGMENT.arff;BR;3.0;3.0;1.0;0.0;0.0;3.0;1.0;0.0;0.0;0.0;0.0;3.0;1.0;0.0;0.0;0.0;0.0;0.0;0.0;0.0;0.0;fragment;config;diff;6f
42;42_369ff94e4d3a476e60c6105eb90d4bdd477f0b8b-FRAGMENT.arff;LP;3.0;3.0;1.0;0.0;0.0;3.0;1.0;0.0;0.0;0.0;0.0;3.0;1.0;0.0;0.0;0.0;0.0;0.0;0.0;0.0;0.0;fragment;config;diff;6f
42;42_369ff94e4d3a476e60c6105eb90d4bdd477f0b8b-FRAGMENT.arff;RAkELd;3.0;3.0;1.0;0.0;0.0;3.0;1.0;0.0;0.0;0.0;0.0;3.0;1.0;0.0;0.0;0.0;0.0;0.0;0.0;0.0;0.0;fragment;config;diff;6f
43;43_b18c4172f5a973f38241f1f997a9df14635ab54f-FRAGMENT.arff;BR;7.0;7.0;1.0;2.0;0.2857142857142857;5.0;0.7142857142857143;0.0;0.0;0.0;0.0;7.0;1.0;0.0;0.0;0.0;0.0;0.0;0.0;0.0;0.0;fragment;config;diff;6f
43;43_b18c4172f5a973f38241f1f997a9df14635ab54f-FRAGMENT.arff;LP;7.0;7.0;1.0;0.0;0.0;7.0;1.0;0.0;0.0;0.0;0.0;7.0;1.0;0.0;0.0;0.0;0.0;0.0;0.0;0.0;0.0;fragment;config;diff;6f
43;43_b18c4172f5a973f38241f1f997a9df14635ab54f-FRAGMENT.arff;RAkELd;7.0;7.0;1.0;2.0;0.2857142857142857;5.0;0.7142857142857143;0.0;0.0;0.0;0.0;7.0;1.0;0.0;0.0;0.0;0.0;0.0;0.0;0.0;0.0;fragment;config;diff;6f
46;46_59bcd268f5d06568e409bcbe8a5eb11002bb567d-FRAGMENT.arff;BR;3.0;3.0;1.0;0.0;0.0;3.0;1.0;0.0;0.0;0.0;0.0;3.0;1.0;0.0;0.0;0.0;0.0;0.0;0.0;0.0;0.0;fragment;config;diff;6f
46;46_59bcd268f5d06568e409bcbe8a5eb11002bb567d-FRAGMENT.arff;LP;3.0;3.0;1.0;0.0;0.0;3.0;1.0;0.0;0.0;0.0;0.0;3.0;1.0;0.0;0.0;0.0;0.0;0.0;0.0;0.0;0.0;fragment;config;diff;6f
46;46_59bcd268f5d06568e409bcbe8a5eb11002bb567d-FRAGMENT.arff;RAkELd;3.0;3.0;1.0;0.0;0.0;3.0;1.0;0.0;0.0;0.0;0.0;3.0;1.0;0.0;0.0;0.0;0.0;0.0;0.0;0.0;0.0;fragment;config;diff;6f
52;52_9e22f13942eee52d3fe5091d9d33a050c455631d-FRAGMENT.arff;BR;4.0;4.0;1.0;0.0;0.0;4.0;1.0;0.0;0.0;0.0;0.0;4.0;1.0;0.0;0.0;0.0;0.0;0.0;0.0;0.0;0.0;fragment;config;diff;6f
52;52_9e22f13942eee52d3fe5091d9d33a050c455631d-FRAGMENT.arff;LP;4.0;4.0;1.0;0.0;0.0;4.0;1.0;0.0;0.0;0.0;0.0;4.0;1.0;0.0;0.0;0.0;0.0;0.0;0.0;0.0;0.0;fragment;config;diff;6f
52;52_9e22f13942eee52d3fe5091d9d33a050c455631d-FRAGMENT.arff;RAkELd;4.0;4.0;1.0;0.0;0.0;4.0;1.0;0.0;0.0;0.0;0.0;4.0;1.0;0.0;0.0;0.0;0.0;0.0;0.0;0.0;0.0;fragment;config;diff;6f
55;55_4c654aaab13f778145cfdf2b88d15ee9a1392b91-FRAGMENT.arff;BR;1.0;1.0;1.0;0.0;0.0;1.0;1.0;0.0;0.0;0.0;0.0;1.0;1.0;0.0;0.0;0.0;0.0;0.0;0.0;0.0;0.0;fragment;config;diff;6f
55;55_4c654aaab13f778145cfdf2b88d15ee9a1392b91-FRAGMENT.arff;LP;1.0;1.0;1.0;0.0;0.0;1.0;1.0;0.0;0.0;0.0;0.0;1.0;1.0;0.0;0.0;0.0;0.0;0.0;0.0;0.0;0.0;fragment;config;diff;6f
55;55_4c654aaab13f778145cfdf2b88d15ee9a1392b91-FRAGMENT.arff;RAkELd;1.0;1.0;1.0;0.0;0.0;1.0;1.0;0.0;0.0;0.0;0.0;1.0;1.0;0.0;0.0;0.0;0.0;0.0;0.0;0.0;0.0;fragment;config;diff;6f
57;57_3364b99ef9f6c0d28d26219dd4803c87757c218a-FRAGMENT.arff;BR;1.0;1.0;1.0;0.0;0.0;1.0;1.0;0.0;0.0;0.0;0.0;1.0;1.0;0.0;0.0;0.0;0.0;0.0;0.0;0.0;0.0;fragment;config;diff;6f
57;57_3364b99ef9f6c0d28d26219dd4803c87757c218a-FRAGMENT.arff;LP;1.0;1.0;1.0;0.0;0.0;1.0;1.0;0.0;0.0;0.0;0.0;1.0;1.0;0.0;0.0;0.0;0.0;0.0;0.0;0.0;0.0;fragment;config;diff;6f
57;57_3364b99ef9f6c0d28d26219dd4803c87757c218a-FRAGMENT.arff;RAkELd;1.0;1.0;1.0;0.0;0.0;1.0;1.0;0.0;0.0;0.0;0.0;1.0;1.0;0.0;0.0;0.0;0.0;0.0;0.0;0.0;0.0;fragment;config;diff;6f
58;58_0940c6491e5adc00cf3ce40e27d499cf3482dffd-FRAGMENT.arff;BR;2.0;2.0;1.0;0.0;0.0;2.0;1.0;0.0;0.0;0.0;0.0;2.0;1.0;0.0;0.0;0.0;0.0;0.0;0.0;0.0;0.0;fragment;config;diff;6f
58;58_0940c6491e5adc00cf3ce40e27d499cf3482dffd-FRAGMENT.arff;LP;2.0;2.0;1.0;0.0;0.0;2.0;1.0;0.0;0.0;0.0;0.0;2.0;1.0;0.0;0.0;0.0;0.0;0.0;0.0;0.0;0.0;fragment;config;diff;6f
58;58_0940c6491e5adc00cf3ce40e27d499cf3482dffd-FRAGMENT.arff;RAkELd;2.0;2.0;1.0;0.0;0.0;2.0;1.0;0.0;0.0;0.0;0.0;2.0;1.0;0.0;0.0;0.0;0.0;0.0;0.0;0.0;0.0;fragment;config;diff;6f
64;64_ff63b18f0f3ae41482487323c39defbd8601213c-FRAGMENT.arff;BR;29.0;29.0;1.0;0.0;0.0;29.0;1.0;0.0;0.0;0.0;0.0;29.0;1.0;0.0;0.0;0.0;0.0;0.0;0.0;0.0;0.0;fragment;config;diff;6f
64;64_ff63b18f0f3ae41482487323c39defbd8601213c-FRAGMENT.arff;LP;29.0;29.0;1.0;0.0;0.0;29.0;1.0;0.0;0.0;0.0;0.0;29.0;1.0;0.0;0.0;0.0;0.0;0.0;0.0;0.0;0.0;fragment;config;diff;6f
64;64_ff63b18f0f3ae41482487323c39defbd8601213c-FRAGMENT.arff;RAkELd;29.0;29.0;1.0;0.0;0.0;29.0;1.0;0.0;0.0;0.0;0.0;29.0;1.0;0.0;0.0;0.0;0.0;0.0;0.0;0.0;0.0;fragment;config;diff;6f
80;80_260095a268721fcfab443af2b9118bb8bc6dae8e-FRAGMENT.arff;BR;3.0;3.0;1.0;0.0;0.0;3.0;1.0;0.0;0.0;0.0;0.0;3.0;1.0;0.0;0.0;0.0;0.0;0.0;0.0;0.0;0.0;fragment;config;diff;6f
80;80_260095a268721fcfab443af2b9118bb8bc6dae8e-FRAGMENT.arff;LP;3.0;3.0;1.0;0.0;0.0;3.0;1.0;0.0;0.0;0.0;0.0;3.0;1.0;0.0;0.0;0.0;0.0;0.0;0.0;0.0;0.0;fragment;config;diff;6f
80;80_260095a268721fcfab443af2b9118bb8bc6dae8e-FRAGMENT.arff;RAkELd;3.0;3.0;1.0;0.0;0.0;3.0;1.0;0.0;0.0;0.0;0.0;3.0;1.0;0.0;0.0;0.0;0.0;0.0;0.0;0.0;0.0;fragment;config;diff;6f
88;88_405f496ace817ae66797ea23030b7345de965bfa-FRAGMENT.arff;BR;4.0;4.0;1.0;0.0;0.0;4.0;1.0;0.0;0.0;0.0;0.0;4.0;1.0;0.0;0.0;0.0;0.0;0.0;0.0;0.0;0.0;fragment;config;diff;6f
88;88_405f496ace817ae66797ea23030b7345de965bfa-FRAGMENT.arff;LP;4.0;4.0;1.0;0.0;0.0;4.0;1.0;0.0;0.0;0.0;0.0;4.0;1.0;0.0;0.0;0.0;0.0;0.0;0.0;0.0;0.0;fragment;config;diff;6f
88;88_405f496ace817ae66797ea23030b7345de965bfa-FRAGMENT.arff;RAkELd;4.0;4.0;1.0;0.0;0.0;4.0;1.0;0.0;0.0;0.0;0.0;4.0;1.0;0.0;0.0;0.0;0.0;0.0;0.0;0.0;0.0;fragment;config;diff;6f
108;108_772f5dd67bec6cf79de3823c52b2c3c80c0388d1-FRAGMENT.arff;BR;1.0;1.0;1.0;0.0;0.0;1.0;1.0;0.0;0.0;0.0;0.0;1.0;1.0;0.0;0.0;0.0;0.0;0.0;0.0;0.0;0.0;fragment;config;diff;6f
108;108_772f5dd67bec6cf79de3823c52b2c3c80c0388d1-FRAGMENT.arff;LP;1.0;1.0;1.0;0.0;0.0;1.0;1.0;0.0;0.0;0.0;0.0;1.0;1.0;0.0;0.0;0.0;0.0;0.0;0.0;0.0;0.0;fragment;config;diff;6f
108;108_772f5dd67bec6cf79de3823c52b2c3c80c0388d1-FRAGMENT.arff;RAkELd;1.0;1.0;1.0;0.0;0.0;1.0;1.0;0.0;0.0;0.0;0.0;1.0;1.0;0.0;0.0;0.0;0.0;0.0;0.0;0.0;0.0;fragment;config;diff;6f
176;176_340dcc563d42fb33ca38f9a71d6aa401cfbde244-FRAGMENT.arff;BR;6.0;6.0;1.0;3.0;0.5;3.0;0.5;0.0;0.0;0.0;0.0;6.0;1.0;0.0;0.0;0.0;0.0;0.0;0.0;0.0;0.0;fragment;config;diff;6f
176;176_340dcc563d42fb33ca38f9a71d6aa401cfbde244-FRAGMENT.arff;LP;6.0;6.0;1.0;0.0;0.0;6.0;1.0;0.0;0.0;0.0;0.0;6.0;1.0;0.0;0.0;0.0;0.0;0.0;0.0;0.0;0.0;fragment;config;diff;6f
176;176_340dcc563d42fb33ca38f9a71d6aa401cfbde244-FRAGMENT.arff;RAkELd;6.0;6.0;1.0;3.0;0.5;3.0;0.5;0.0;0.0;0.0;0.0;6.0;1.0;0.0;0.0;0.0;0.0;0.0;0.0;0.0;0.0;fragment;config;diff;6f
15;15_e9ec5b47c3d417981f4b46f861a85525c2de3e42-FRAGMENT.arff;BR;9.0;9.0;1.0;0.0;0.0;9.0;1.0;0.0;0.0;0.0;0.0;9.0;1.0;0.0;0.0;0.0;0.0;0.0;0.0;0.0;0.0;fragment;config;diff;8f
15;15_e9ec5b47c3d417981f4b46f861a85525c2de3e42-FRAGMENT.arff;LP;9.0;9.0;1.0;0.0;0.0;9.0;1.0;0.0;0.0;0.0;0.0;9.0;1.0;0.0;0.0;0.0;0.0;0.0;0.0;0.0;0.0;fragment;config;diff;8f
15;15_e9ec5b47c3d417981f4b46f861a85525c2de3e42-FRAGMENT.arff;RAkELd;9.0;9.0;1.0;0.0;0.0;9.0;1.0;0.0;0.0;0.0;0.0;9.0;1.0;0.0;0.0;0.0;0.0;0.0;0.0;0.0;0.0;fragment;config;diff;8f
19;19_82829deb0d4c81f35ab73c4c92a95a4713ca2da7-FRAGMENT.arff;BR;1.0;1.0;1.0;1.0;1.0;0.0;0.0;0.0;0.0;0.0;0.0;1.0;1.0;0.0;0.0;0.0;0.0;0.0;0.0;0.0;0.0;fragment;config;diff;8f
19;19_82829deb0d4c81f35ab73c4c92a95a4713ca2da7-FRAGMENT.arff;LP;1.0;1.0;1.0;0.0;0.0;1.0;1.0;0.0;0.0;0.0;0.0;1.0;1.0;0.0;0.0;0.0;0.0;0.0;0.0;0.0;0.0;fragment;config;diff;8f
19;19_82829deb0d4c81f35ab73c4c92a95a4713ca2da7-FRAGMENT.arff;RAkELd;1.0;1.0;1.0;1.0;1.0;0.0;0.0;0.0;0.0;0.0;0.0;1.0;1.0;0.0;0.0;0.0;0.0;0.0;0.0;0.0;0.0;fragment;config;diff;8f
20;20_a0390a1945d87e77960e3b49bfc5293bdf4cc7f1-FRAGMENT.arff;BR;2.0;2.0;1.0;0.0;0.0;2.0;1.0;0.0;0.0;0.0;0.0;2.0;1.0;0.0;0.0;0.0;0.0;0.0;0.0;0.0;0.0;fragment;config;diff;8f
20;20_a0390a1945d87e77960e3b49bfc5293bdf4cc7f1-FRAGMENT.arff;LP;2.0;2.0;1.0;0.0;0.0;2.0;1.0;0.0;0.0;0.0;0.0;2.0;1.0;0.0;0.0;0.0;0.0;0.0;0.0;0.0;0.0;fragment;config;diff;8f
20;20_a0390a1945d87e77960e3b49bfc5293bdf4cc7f1-FRAGMENT.arff;RAkELd;2.0;2.0;1.0;0.0;0.0;2.0;1.0;0.0;0.0;0.0;0.0;2.0;1.0;0.0;0.0;0.0;0.0;0.0;0.0;0.0;0.0;fragment;config;diff;8f
21;21_8ea5cba374125e90d9474b19e9f009f2c8c1e393-FRAGMENT.arff;BR;1.0;1.0;1.0;0.0;0.0;1.0;1.0;0.0;0.0;0.0;0.0;1.0;1.0;0.0;0.0;0.0;0.0;0.0;0.0;0.0;0.0;fragment;config;diff;8f
21;21_8ea5cba374125e90d9474b19e9f009f2c8c1e393-FRAGMENT.arff;LP;1.0;1.0;1.0;0.0;0.0;1.0;1.0;0.0;0.0;0.0;0.0;1.0;1.0;0.0;0.0;0.0;0.0;0.0;0.0;0.0;0.0;fragment;config;diff;8f
21;21_8ea5cba374125e90d9474b19e9f009f2c8c1e393-FRAGMENT.arff;RAkELd;1.0;1.0;1.0;0.0;0.0;1.0;1.0;0.0;0.0;0.0;0.0;1.0;1.0;0.0;0.0;0.0;0.0;0.0;0.0;0.0;0.0;fragment;config;diff;8f
23;23_c86910dc5497dadec1d525edb7e2c0b9de2ecce3-FRAGMENT.arff;BR;1.0;1.0;1.0;1.0;1.0;0.0;0.0;0.0;0.0;0.0;0.0;1.0;1.0;0.0;0.0;0.0;0.0;0.0;0.0;0.0;0.0;fragment;config;diff;8f
23;23_c86910dc5497dadec1d525edb7e2c0b9de2ecce3-FRAGMENT.arff;LP;1.0;1.0;1.0;0.0;0.0;1.0;1.0;0.0;0.0;0.0;0.0;1.0;1.0;0.0;0.0;0.0;0.0;0.0;0.0;0.0;0.0;fragment;config;diff;8f
23;23_c86910dc5497dadec1d525edb7e2c0b9de2ecce3-FRAGMENT.arff;RAkELd;1.0;1.0;1.0;1.0;1.0;0.0;0.0;0.0;0.0;0.0;0.0;1.0;1.0;0.0;0.0;0.0;0.0;0.0;0.0;0.0;0.0;fragment;config;diff;8f
29;29_2d4fee10f0a276a0319faefcef3008745b37a67f-FRAGMENT.arff;BR;1.0;1.0;1.0;1.0;1.0;0.0;0.0;0.0;0.0;0.0;0.0;1.0;1.0;0.0;0.0;0.0;0.0;0.0;0.0;0.0;0.0;fragment;config;diff;8f
29;29_2d4fee10f0a276a0319faefcef3008745b37a67f-FRAGMENT.arff;LP;1.0;1.0;1.0;0.0;0.0;1.0;1.0;0.0;0.0;0.0;0.0;1.0;1.0;0.0;0.0;0.0;0.0;0.0;0.0;0.0;0.0;fragment;config;diff;8f
29;29_2d4fee10f0a276a0319faefcef3008745b37a67f-FRAGMENT.arff;RAkELd;1.0;1.0;1.0;1.0;1.0;0.0;0.0;0.0;0.0;0.0;0.0;1.0;1.0;0.0;0.0;0.0;0.0;0.0;0.0;0.0;0.0;fragment;config;diff;8f
34;34_eb4ef8bdb632b025fac0fcb559d6ea5ea5cd7fb9-FRAGMENT.arff;BR;1.0;1.0;1.0;1.0;1.0;0.0;0.0;0.0;0.0;0.0;0.0;1.0;1.0;0.0;0.0;0.0;0.0;0.0;0.0;0.0;0.0;fragment;config;diff;8f
34;34_eb4ef8bdb632b025fac0fcb559d6ea5ea5cd7fb9-FRAGMENT.arff;LP;1.0;1.0;1.0;0.0;0.0;1.0;1.0;0.0;0.0;0.0;0.0;1.0;1.0;0.0;0.0;0.0;0.0;0.0;0.0;0.0;0.0;fragment;config;diff;8f
34;34_eb4ef8bdb632b025fac0fcb559d6ea5ea5cd7fb9-FRAGMENT.arff;RAkELd;1.0;1.0;1.0;1.0;1.0;0.0;0.0;0.0;0.0;0.0;0.0;1.0;1.0;0.0;0.0;0.0;0.0;0.0;0.0;0.0;0.0;fragment;config;diff;8f
37;37_a3ff951e4ab64bda60f0bbd05c697257120e41bb-FRAGMENT.arff;BR;2.0;2.0;1.0;1.0;0.5;1.0;0.5;0.0;0.0;0.0;0.0;2.0;1.0;0.0;0.0;0.0;0.0;0.0;0.0;0.0;0.0;fragment;config;diff;8f
37;37_a3ff951e4ab64bda60f0bbd05c697257120e41bb-FRAGMENT.arff;LP;2.0;2.0;1.0;0.0;0.0;2.0;1.0;0.0;0.0;0.0;0.0;2.0;1.0;0.0;0.0;0.0;0.0;0.0;0.0;0.0;0.0;fragment;config;diff;8f
37;37_a3ff951e4ab64bda60f0bbd05c697257120e41bb-FRAGMENT.arff;RAkELd;2.0;2.0;1.0;2.0;1.0;0.0;0.0;0.0;0.0;0.0;0.0;2.0;1.0;0.0;0.0;0.0;0.0;0.0;0.0;0.0;0.0;fragment;config;diff;8f
38;38_a3a52fed8df123af995b39816c6a1eb531fd91a9-FRAGMENT.arff;BR;5.0;5.0;1.0;4.0;0.8;1.0;0.2;0.0;0.0;0.0;0.0;5.0;1.0;0.0;0.0;0.0;0.0;0.0;0.0;0.0;0.0;fragment;config;diff;8f
38;38_a3a52fed8df123af995b39816c6a1eb531fd91a9-FRAGMENT.arff;LP;5.0;5.0;1.0;0.0;0.0;5.0;1.0;0.0;0.0;0.0;0.0;5.0;1.0;0.0;0.0;0.0;0.0;0.0;0.0;0.0;0.0;fragment;config;diff;8f
38;38_a3a52fed8df123af995b39816c6a1eb531fd91a9-FRAGMENT.arff;RAkELd;5.0;5.0;1.0;4.0;0.8;1.0;0.2;0.0;0.0;0.0;0.0;5.0;1.0;0.0;0.0;0.0;0.0;0.0;0.0;0.0;0.0;fragment;config;diff;8f
39;39_80d744b05f24a1c230afb4802aa6a70d6fc9259c-FRAGMENT.arff;BR;2.0;2.0;1.0;2.0;1.0;0.0;0.0;0.0;0.0;0.0;0.0;2.0;1.0;0.0;0.0;0.0;0.0;0.0;0.0;0.0;0.0;fragment;config;diff;8f
39;39_80d744b05f24a1c230afb4802aa6a70d6fc9259c-FRAGMENT.arff;LP;2.0;2.0;1.0;0.0;0.0;2.0;1.0;0.0;0.0;0.0;0.0;2.0;1.0;0.0;0.0;0.0;0.0;0.0;0.0;0.0;0.0;fragment;config;diff;8f
39;39_80d744b05f24a1c230afb4802aa6a70d6fc9259c-FRAGMENT.arff;RAkELd;2.0;2.0;1.0;2.0;1.0;0.0;0.0;0.0;0.0;0.0;0.0;2.0;1.0;0.0;0.0;0.0;0.0;0.0;0.0;0.0;0.0;fragment;config;diff;8f
40;40_61060284aaefc13a758eaa5d56ea15ef00940d50-FRAGMENT.arff;BR;1.0;1.0;1.0;0.0;0.0;1.0;1.0;0.0;0.0;0.0;0.0;1.0;1.0;0.0;0.0;0.0;0.0;0.0;0.0;0.0;0.0;fragment;config;diff;8f
40;40_61060284aaefc13a758eaa5d56ea15ef00940d50-FRAGMENT.arff;LP;1.0;1.0;1.0;0.0;0.0;1.0;1.0;0.0;0.0;0.0;0.0;1.0;1.0;0.0;0.0;0.0;0.0;0.0;0.0;0.0;0.0;fragment;config;diff;8f
40;40_61060284aaefc13a758eaa5d56ea15ef00940d50-FRAGMENT.arff;RAkELd;1.0;1.0;1.0;0.0;0.0;1.0;1.0;0.0;0.0;0.0;0.0;1.0;1.0;0.0;0.0;0.0;0.0;0.0;0.0;0.0;0.0;fragment;config;diff;8f
41;41_f27292734432228765446ca71db00314424fce48-FRAGMENT.arff;BR;4.0;4.0;1.0;0.0;0.0;4.0;1.0;0.0;0.0;0.0;0.0;4.0;1.0;0.0;0.0;0.0;0.0;0.0;0.0;0.0;0.0;fragment;config;diff;8f
41;41_f27292734432228765446ca71db00314424fce48-FRAGMENT.arff;LP;4.0;4.0;1.0;0.0;0.0;4.0;1.0;0.0;0.0;0.0;0.0;4.0;1.0;0.0;0.0;0.0;0.0;0.0;0.0;0.0;0.0;fragment;config;diff;8f
41;41_f27292734432228765446ca71db00314424fce48-FRAGMENT.arff;RAkELd;4.0;4.0;1.0;0.0;0.0;4.0;1.0;0.0;0.0;0.0;0.0;4.0;1.0;0.0;0.0;0.0;0.0;0.0;0.0;0.0;0.0;fragment;config;diff;8f
42;42_369ff94e4d3a476e60c6105eb90d4bdd477f0b8b-FRAGMENT.arff;BR;3.0;3.0;1.0;0.0;0.0;3.0;1.0;0.0;0.0;0.0;0.0;3.0;1.0;0.0;0.0;0.0;0.0;0.0;0.0;0.0;0.0;fragment;config;diff;8f
42;42_369ff94e4d3a476e60c6105eb90d4bdd477f0b8b-FRAGMENT.arff;LP;3.0;3.0;1.0;0.0;0.0;3.0;1.0;0.0;0.0;0.0;0.0;3.0;1.0;0.0;0.0;0.0;0.0;0.0;0.0;0.0;0.0;fragment;config;diff;8f
42;42_369ff94e4d3a476e60c6105eb90d4bdd477f0b8b-FRAGMENT.arff;RAkELd;3.0;3.0;1.0;0.0;0.0;3.0;1.0;0.0;0.0;0.0;0.0;3.0;1.0;0.0;0.0;0.0;0.0;0.0;0.0;0.0;0.0;fragment;config;diff;8f
43;43_b18c4172f5a973f38241f1f997a9df14635ab54f-FRAGMENT.arff;BR;7.0;7.0;1.0;2.0;0.2857142857142857;5.0;0.7142857142857143;0.0;0.0;0.0;0.0;7.0;1.0;0.0;0.0;0.0;0.0;0.0;0.0;0.0;0.0;fragment;config;diff;8f
43;43_b18c4172f5a973f38241f1f997a9df14635ab54f-FRAGMENT.arff;LP;7.0;7.0;1.0;0.0;0.0;7.0;1.0;0.0;0.0;0.0;0.0;7.0;1.0;0.0;0.0;0.0;0.0;0.0;0.0;0.0;0.0;fragment;config;diff;8f
43;43_b18c4172f5a973f38241f1f997a9df14635ab54f-FRAGMENT.arff;RAkELd;7.0;7.0;1.0;2.0;0.2857142857142857;5.0;0.7142857142857143;0.0;0.0;0.0;0.0;7.0;1.0;0.0;0.0;0.0;0.0;0.0;0.0;0.0;0.0;fragment;config;diff;8f
46;46_59bcd268f5d06568e409bcbe8a5eb11002bb567d-FRAGMENT.arff;BR;3.0;3.0;1.0;0.0;0.0;3.0;1.0;0.0;0.0;0.0;0.0;3.0;1.0;0.0;0.0;0.0;0.0;0.0;0.0;0.0;0.0;fragment;config;diff;8f
46;46_59bcd268f5d06568e409bcbe8a5eb11002bb567d-FRAGMENT.arff;LP;3.0;3.0;1.0;0.0;0.0;3.0;1.0;0.0;0.0;0.0;0.0;3.0;1.0;0.0;0.0;0.0;0.0;0.0;0.0;0.0;0.0;fragment;config;diff;8f
46;46_59bcd268f5d06568e409bcbe8a5eb11002bb567d-FRAGMENT.arff;RAkELd;3.0;3.0;1.0;0.0;0.0;3.0;1.0;0.0;0.0;0.0;0.0;3.0;1.0;0.0;0.0;0.0;0.0;0.0;0.0;0.0;0.0;fragment;config;diff;8f
52;52_9e22f13942eee52d3fe5091d9d33a050c455631d-FRAGMENT.arff;BR;4.0;4.0;1.0;0.0;0.0;4.0;1.0;0.0;0.0;0.0;0.0;4.0;1.0;0.0;0.0;0.0;0.0;0.0;0.0;0.0;0.0;fragment;config;diff;8f
52;52_9e22f13942eee52d3fe5091d9d33a050c455631d-FRAGMENT.arff;LP;4.0;4.0;1.0;0.0;0.0;4.0;1.0;0.0;0.0;0.0;0.0;4.0;1.0;0.0;0.0;0.0;0.0;0.0;0.0;0.0;0.0;fragment;config;diff;8f
52;52_9e22f13942eee52d3fe5091d9d33a050c455631d-FRAGMENT.arff;RAkELd;4.0;4.0;1.0;0.0;0.0;4.0;1.0;0.0;0.0;0.0;0.0;4.0;1.0;0.0;0.0;0.0;0.0;0.0;0.0;0.0;0.0;fragment;config;diff;8f
55;55_4c654aaab13f778145cfdf2b88d15ee9a1392b91-FRAGMENT.arff;BR;1.0;1.0;1.0;0.0;0.0;1.0;1.0;0.0;0.0;0.0;0.0;1.0;1.0;0.0;0.0;0.0;0.0;0.0;0.0;0.0;0.0;fragment;config;diff;8f
55;55_4c654aaab13f778145cfdf2b88d15ee9a1392b91-FRAGMENT.arff;LP;1.0;1.0;1.0;0.0;0.0;1.0;1.0;0.0;0.0;0.0;0.0;1.0;1.0;0.0;0.0;0.0;0.0;0.0;0.0;0.0;0.0;fragment;config;diff;8f
55;55_4c654aaab13f778145cfdf2b88d15ee9a1392b91-FRAGMENT.arff;RAkELd;1.0;1.0;1.0;0.0;0.0;1.0;1.0;0.0;0.0;0.0;0.0;1.0;1.0;0.0;0.0;0.0;0.0;0.0;0.0;0.0;0.0;fragment;config;diff;8f
57;57_3364b99ef9f6c0d28d26219dd4803c87757c218a-FRAGMENT.arff;BR;1.0;1.0;1.0;0.0;0.0;1.0;1.0;0.0;0.0;0.0;0.0;1.0;1.0;0.0;0.0;0.0;0.0;0.0;0.0;0.0;0.0;fragment;config;diff;8f
57;57_3364b99ef9f6c0d28d26219dd4803c87757c218a-FRAGMENT.arff;LP;1.0;1.0;1.0;0.0;0.0;1.0;1.0;0.0;0.0;0.0;0.0;1.0;1.0;0.0;0.0;0.0;0.0;0.0;0.0;0.0;0.0;fragment;config;diff;8f
57;57_3364b99ef9f6c0d28d26219dd4803c87757c218a-FRAGMENT.arff;RAkELd;1.0;1.0;1.0;0.0;0.0;1.0;1.0;0.0;0.0;0.0;0.0;1.0;1.0;0.0;0.0;0.0;0.0;0.0;0.0;0.0;0.0;fragment;config;diff;8f
58;58_0940c6491e5adc00cf3ce40e27d499cf3482dffd-FRAGMENT.arff;BR;2.0;2.0;1.0;0.0;0.0;2.0;1.0;0.0;0.0;0.0;0.0;2.0;1.0;0.0;0.0;0.0;0.0;0.0;0.0;0.0;0.0;fragment;config;diff;8f
58;58_0940c6491e5adc00cf3ce40e27d499cf3482dffd-FRAGMENT.arff;LP;2.0;2.0;1.0;0.0;0.0;2.0;1.0;0.0;0.0;0.0;0.0;2.0;1.0;0.0;0.0;0.0;0.0;0.0;0.0;0.0;0.0;fragment;config;diff;8f
58;58_0940c6491e5adc00cf3ce40e27d499cf3482dffd-FRAGMENT.arff;RAkELd;2.0;2.0;1.0;0.0;0.0;2.0;1.0;0.0;0.0;0.0;0.0;2.0;1.0;0.0;0.0;0.0;0.0;0.0;0.0;0.0;0.0;fragment;config;diff;8f
64;64_ff63b18f0f3ae41482487323c39defbd8601213c-FRAGMENT.arff;BR;29.0;29.0;1.0;0.0;0.0;29.0;1.0;0.0;0.0;0.0;0.0;29.0;1.0;0.0;0.0;0.0;0.0;0.0;0.0;0.0;0.0;fragment;config;diff;8f
64;64_ff63b18f0f3ae41482487323c39defbd8601213c-FRAGMENT.arff;LP;29.0;29.0;1.0;0.0;0.0;29.0;1.0;0.0;0.0;0.0;0.0;29.0;1.0;0.0;0.0;0.0;0.0;0.0;0.0;0.0;0.0;fragment;config;diff;8f
64;64_ff63b18f0f3ae41482487323c39defbd8601213c-FRAGMENT.arff;RAkELd;29.0;29.0;1.0;0.0;0.0;29.0;1.0;0.0;0.0;0.0;0.0;29.0;1.0;0.0;0.0;0.0;0.0;0.0;0.0;0.0;0.0;fragment;config;diff;8f
80;80_260095a268721fcfab443af2b9118bb8bc6dae8e-FRAGMENT.arff;BR;3.0;3.0;1.0;0.0;0.0;3.0;1.0;0.0;0.0;0.0;0.0;3.0;1.0;0.0;0.0;0.0;0.0;0.0;0.0;0.0;0.0;fragment;config;diff;8f
80;80_260095a268721fcfab443af2b9118bb8bc6dae8e-FRAGMENT.arff;LP;3.0;3.0;1.0;0.0;0.0;3.0;1.0;0.0;0.0;0.0;0.0;3.0;1.0;0.0;0.0;0.0;0.0;0.0;0.0;0.0;0.0;fragment;config;diff;8f
80;80_260095a268721fcfab443af2b9118bb8bc6dae8e-FRAGMENT.arff;RAkELd;3.0;3.0;1.0;0.0;0.0;3.0;1.0;0.0;0.0;0.0;0.0;3.0;1.0;0.0;0.0;0.0;0.0;0.0;0.0;0.0;0.0;fragment;config;diff;8f
88;88_405f496ace817ae66797ea23030b7345de965bfa-FRAGMENT.arff;BR;4.0;4.0;1.0;0.0;0.0;4.0;1.0;0.0;0.0;0.0;0.0;4.0;1.0;0.0;0.0;0.0;0.0;0.0;0.0;0.0;0.0;fragment;config;diff;8f
88;88_405f496ace817ae66797ea23030b7345de965bfa-FRAGMENT.arff;LP;4.0;4.0;1.0;0.0;0.0;4.0;1.0;0.0;0.0;0.0;0.0;4.0;1.0;0.0;0.0;0.0;0.0;0.0;0.0;0.0;0.0;fragment;config;diff;8f
88;88_405f496ace817ae66797ea23030b7345de965bfa-FRAGMENT.arff;RAkELd;4.0;4.0;1.0;0.0;0.0;4.0;1.0;0.0;0.0;0.0;0.0;4.0;1.0;0.0;0.0;0.0;0.0;0.0;0.0;0.0;0.0;fragment;config;diff;8f
108;108_772f5dd67bec6cf79de3823c52b2c3c80c0388d1-FRAGMENT.arff;BR;1.0;1.0;1.0;0.0;0.0;1.0;1.0;0.0;0.0;0.0;0.0;1.0;1.0;0.0;0.0;0.0;0.0;0.0;0.0;0.0;0.0;fragment;config;diff;8f
108;108_772f5dd67bec6cf79de3823c52b2c3c80c0388d1-FRAGMENT.arff;LP;1.0;1.0;1.0;0.0;0.0;1.0;1.0;0.0;0.0;0.0;0.0;1.0;1.0;0.0;0.0;0.0;0.0;0.0;0.0;0.0;0.0;fragment;config;diff;8f
108;108_772f5dd67bec6cf79de3823c52b2c3c80c0388d1-FRAGMENT.arff;RAkELd;1.0;1.0;1.0;0.0;0.0;1.0;1.0;0.0;0.0;0.0;0.0;1.0;1.0;0.0;0.0;0.0;0.0;0.0;0.0;0.0;0.0;fragment;config;diff;8f
176;176_340dcc563d42fb33ca38f9a71d6aa401cfbde244-FRAGMENT.arff;BR;6.0;6.0;1.0;3.0;0.5;3.0;0.5;0.0;0.0;0.0;0.0;6.0;1.0;0.0;0.0;0.0;0.0;0.0;0.0;0.0;0.0;fragment;config;diff;8f
176;176_340dcc563d42fb33ca38f9a71d6aa401cfbde244-FRAGMENT.arff;LP;6.0;6.0;1.0;0.0;0.0;6.0;1.0;0.0;0.0;0.0;0.0;6.0;1.0;0.0;0.0;0.0;0.0;0.0;0.0;0.0;0.0;fragment;config;diff;8f
176;176_340dcc563d42fb33ca38f9a71d6aa401cfbde244-FRAGMENT.arff;RAkELd;6.0;6.0;1.0;3.0;0.5;3.0;0.5;0.0;0.0;0.0;0.0;6.0;1.0;0.0;0.0;0.0;0.0;0.0;0.0;0.0;0.0;fragment;config;diff;8f
