commit;DataSet;Classifier;TotalInstances;InstancesWithRankedLabels;PercentageOfInstancesWithRankedLabels;InstancesWithPrecisionNull;PercentageOfInstancesWithPrecisionNull;InstancesWithPrecisionZero;PercentageOfInstancesWithPrecisionZero;InstancesWithPrecisionNonZero;PercentageOfInstancesWithPrecisionNonZero;InstancesWithPrecisionOne;PercentageOfInstancesWithPrecisionOne;InstancesWithRecallZero;PercentageOfInstancesWithRecallZero;InstancesWithRecallOne;PercentageOfInstancesWithRecallOne;AveragePrecisionForAllNonNullPrecision;AveragePrecisionForNonZeroPrecision;AverageRecallForAllNonNullPrecision;AverageRecallForAllNonZeroPrecision;AverageFScoreForAllNonNullPrecision;AverageFScoreForAllNonZeroPrecision;Level;project;clusters;feature;measure;measurevalue
12;12_0b1423c303c6d7eef7d9f8f04666dd1a1a529bb7-FRAGMENT.arff;BR;18.0;18.0;1.0;0.0;0.0;18.0;1.0;0.0;0.0;0.0;0.0;18.0;1.0;0.0;0.0;0.0;0.0;0.0;0.0;0.0;0.0;fragment;marlin;diff;11f;precision;0.0
12;12_0b1423c303c6d7eef7d9f8f04666dd1a1a529bb7-FRAGMENT.arff;LP;18.0;18.0;1.0;0.0;0.0;18.0;1.0;0.0;0.0;0.0;0.0;18.0;1.0;0.0;0.0;0.0;0.0;0.0;0.0;0.0;0.0;fragment;marlin;diff;11f;precision;0.0
12;12_0b1423c303c6d7eef7d9f8f04666dd1a1a529bb7-FRAGMENT.arff;RAkELd;18.0;18.0;1.0;0.0;0.0;18.0;1.0;0.0;0.0;0.0;0.0;18.0;1.0;0.0;0.0;0.0;0.0;0.0;0.0;0.0;0.0;fragment;marlin;diff;11f;precision;0.0
13;13_094afe7c1065d5663628b389f27687a5f465abb8-FRAGMENT.arff;BR;6.0;6.0;1.0;2.0;0.3333333333333333;4.0;0.6666666666666666;0.0;0.0;0.0;0.0;6.0;1.0;0.0;0.0;0.0;0.0;0.0;0.0;0.0;0.0;fragment;marlin;diff;11f;precision;0.0
13;13_094afe7c1065d5663628b389f27687a5f465abb8-FRAGMENT.arff;LP;6.0;6.0;1.0;0.0;0.0;6.0;1.0;0.0;0.0;0.0;0.0;6.0;1.0;0.0;0.0;0.0;0.0;0.0;0.0;0.0;0.0;fragment;marlin;diff;11f;precision;0.0
13;13_094afe7c1065d5663628b389f27687a5f465abb8-FRAGMENT.arff;RAkELd;6.0;6.0;1.0;6.0;1.0;0.0;0.0;0.0;0.0;0.0;0.0;6.0;1.0;0.0;0.0;0.0;0.0;0.0;0.0;0.0;0.0;fragment;marlin;diff;11f;precision;0.0
17;17_d15f01e1b45119838900da53128c619ebe93895d-FRAGMENT.arff;BR;38.0;38.0;1.0;0.0;0.0;38.0;1.0;0.0;0.0;0.0;0.0;38.0;1.0;0.0;0.0;0.0;0.0;0.0;0.0;0.0;0.0;fragment;marlin;diff;11f;precision;0.0
17;17_d15f01e1b45119838900da53128c619ebe93895d-FRAGMENT.arff;LP;38.0;38.0;1.0;0.0;0.0;38.0;1.0;0.0;0.0;0.0;0.0;38.0;1.0;0.0;0.0;0.0;0.0;0.0;0.0;0.0;0.0;fragment;marlin;diff;11f;precision;0.0
17;17_d15f01e1b45119838900da53128c619ebe93895d-FRAGMENT.arff;RAkELd;38.0;38.0;1.0;0.0;0.0;38.0;1.0;0.0;0.0;0.0;0.0;38.0;1.0;0.0;0.0;0.0;0.0;0.0;0.0;0.0;0.0;fragment;marlin;diff;11f;precision;0.0
18;18_00674af3a82e6b6b517a12ae3e77803df4f4892d-FRAGMENT.arff;BR;109.0;109.0;1.0;43.0;0.3944954128440367;66.0;0.6055045871559633;0.0;0.0;0.0;0.0;109.0;1.0;0.0;0.0;0.0;0.0;0.0;0.0;0.0;0.0;fragment;marlin;diff;11f;precision;0.0
18;18_00674af3a82e6b6b517a12ae3e77803df4f4892d-FRAGMENT.arff;LP;109.0;109.0;1.0;0.0;0.0;109.0;1.0;0.0;0.0;0.0;0.0;109.0;1.0;0.0;0.0;0.0;0.0;0.0;0.0;0.0;0.0;fragment;marlin;diff;11f;precision;0.0
18;18_00674af3a82e6b6b517a12ae3e77803df4f4892d-FRAGMENT.arff;RAkELd;109.0;109.0;1.0;43.0;0.3944954128440367;66.0;0.6055045871559633;0.0;0.0;0.0;0.0;109.0;1.0;0.0;0.0;0.0;0.0;0.0;0.0;0.0;0.0;fragment;marlin;diff;11f;precision;0.0
19;19_40e80816235739064fcc7fd74228c9c225387caf-FRAGMENT.arff;BR;6.0;6.0;1.0;0.0;0.0;6.0;1.0;0.0;0.0;0.0;0.0;6.0;1.0;0.0;0.0;0.0;0.0;0.0;0.0;0.0;0.0;fragment;marlin;diff;11f;precision;0.0
19;19_40e80816235739064fcc7fd74228c9c225387caf-FRAGMENT.arff;LP;6.0;6.0;1.0;0.0;0.0;6.0;1.0;0.0;0.0;0.0;0.0;6.0;1.0;0.0;0.0;0.0;0.0;0.0;0.0;0.0;0.0;fragment;marlin;diff;11f;precision;0.0
19;19_40e80816235739064fcc7fd74228c9c225387caf-FRAGMENT.arff;RAkELd;6.0;6.0;1.0;0.0;0.0;6.0;1.0;0.0;0.0;0.0;0.0;6.0;1.0;0.0;0.0;0.0;0.0;0.0;0.0;0.0;0.0;fragment;marlin;diff;11f;precision;0.0
20;20_8bcdb9f5f062fe68d90e31752453e1d662b3f0e2-FRAGMENT.arff;BR;6.0;6.0;1.0;3.0;0.5;3.0;0.5;0.0;0.0;0.0;0.0;6.0;1.0;0.0;0.0;0.0;0.0;0.0;0.0;0.0;0.0;fragment;marlin;diff;11f;precision;0.0
20;20_8bcdb9f5f062fe68d90e31752453e1d662b3f0e2-FRAGMENT.arff;LP;6.0;6.0;1.0;0.0;0.0;6.0;1.0;0.0;0.0;0.0;0.0;6.0;1.0;0.0;0.0;0.0;0.0;0.0;0.0;0.0;0.0;fragment;marlin;diff;11f;precision;0.0
20;20_8bcdb9f5f062fe68d90e31752453e1d662b3f0e2-FRAGMENT.arff;RAkELd;6.0;6.0;1.0;3.0;0.5;3.0;0.5;0.0;0.0;0.0;0.0;6.0;1.0;0.0;0.0;0.0;0.0;0.0;0.0;0.0;0.0;fragment;marlin;diff;11f;precision;0.0
22;22_ea86a5e10f7b8c0b2e0e0bf97a1fc95dbac4ae89-FRAGMENT.arff;BR;20.0;20.0;1.0;8.0;0.4;12.0;0.6;0.0;0.0;0.0;0.0;20.0;1.0;0.0;0.0;0.0;0.0;0.0;0.0;0.0;0.0;fragment;marlin;diff;11f;precision;0.0
22;22_ea86a5e10f7b8c0b2e0e0bf97a1fc95dbac4ae89-FRAGMENT.arff;LP;20.0;20.0;1.0;0.0;0.0;20.0;1.0;0.0;0.0;0.0;0.0;20.0;1.0;0.0;0.0;0.0;0.0;0.0;0.0;0.0;0.0;fragment;marlin;diff;11f;precision;0.0
22;22_ea86a5e10f7b8c0b2e0e0bf97a1fc95dbac4ae89-FRAGMENT.arff;RAkELd;20.0;20.0;1.0;8.0;0.4;12.0;0.6;0.0;0.0;0.0;0.0;20.0;1.0;0.0;0.0;0.0;0.0;0.0;0.0;0.0;0.0;fragment;marlin;diff;11f;precision;0.0
23;23_04d3b5537f7c23adf7ea362a8492d21114aa6a2e-FRAGMENT.arff;BR;45.0;45.0;1.0;11.0;0.24444444444444444;34.0;0.7555555555555555;0.0;0.0;0.0;0.0;45.0;1.0;0.0;0.0;0.0;0.0;0.0;0.0;0.0;0.0;fragment;marlin;diff;11f;precision;0.0
23;23_04d3b5537f7c23adf7ea362a8492d21114aa6a2e-FRAGMENT.arff;LP;45.0;45.0;1.0;0.0;0.0;45.0;1.0;0.0;0.0;0.0;0.0;45.0;1.0;0.0;0.0;0.0;0.0;0.0;0.0;0.0;0.0;fragment;marlin;diff;11f;precision;0.0
23;23_04d3b5537f7c23adf7ea362a8492d21114aa6a2e-FRAGMENT.arff;RAkELd;45.0;45.0;1.0;18.0;0.4;27.0;0.6;0.0;0.0;0.0;0.0;45.0;1.0;0.0;0.0;0.0;0.0;0.0;0.0;0.0;0.0;fragment;marlin;diff;11f;precision;0.0
24;24_2e8e8878e55f1455155e43590afbaa1ed21e8e3f-FRAGMENT.arff;BR;49.0;49.0;1.0;8.0;0.16326530612244897;41.0;0.8367346938775511;0.0;0.0;0.0;0.0;49.0;1.0;0.0;0.0;0.0;0.0;0.0;0.0;0.0;0.0;fragment;marlin;diff;11f;precision;0.0
24;24_2e8e8878e55f1455155e43590afbaa1ed21e8e3f-FRAGMENT.arff;LP;49.0;49.0;1.0;0.0;0.0;49.0;1.0;0.0;0.0;0.0;0.0;49.0;1.0;0.0;0.0;0.0;0.0;0.0;0.0;0.0;0.0;fragment;marlin;diff;11f;precision;0.0
24;24_2e8e8878e55f1455155e43590afbaa1ed21e8e3f-FRAGMENT.arff;RAkELd;49.0;49.0;1.0;8.0;0.16326530612244897;41.0;0.8367346938775511;0.0;0.0;0.0;0.0;49.0;1.0;0.0;0.0;0.0;0.0;0.0;0.0;0.0;0.0;fragment;marlin;diff;11f;precision;0.0
27;27_e8092898b1c4db328a2f5d247fe06603f586f924-FRAGMENT.arff;BR;4.0;4.0;1.0;0.0;0.0;4.0;1.0;0.0;0.0;0.0;0.0;4.0;1.0;0.0;0.0;0.0;0.0;0.0;0.0;0.0;0.0;fragment;marlin;diff;11f;precision;0.0
27;27_e8092898b1c4db328a2f5d247fe06603f586f924-FRAGMENT.arff;LP;4.0;4.0;1.0;0.0;0.0;4.0;1.0;0.0;0.0;0.0;0.0;4.0;1.0;0.0;0.0;0.0;0.0;0.0;0.0;0.0;0.0;fragment;marlin;diff;11f;precision;0.0
27;27_e8092898b1c4db328a2f5d247fe06603f586f924-FRAGMENT.arff;RAkELd;4.0;4.0;1.0;0.0;0.0;4.0;1.0;0.0;0.0;0.0;0.0;4.0;1.0;0.0;0.0;0.0;0.0;0.0;0.0;0.0;0.0;fragment;marlin;diff;11f;precision;0.0
29;29_1740a83e11c678c8621e6497350db13cd3d2426e-FRAGMENT.arff;BR;1.0;1.0;1.0;0.0;0.0;1.0;1.0;0.0;0.0;0.0;0.0;1.0;1.0;0.0;0.0;0.0;0.0;0.0;0.0;0.0;0.0;fragment;marlin;diff;11f;precision;0.0
29;29_1740a83e11c678c8621e6497350db13cd3d2426e-FRAGMENT.arff;LP;1.0;1.0;1.0;0.0;0.0;1.0;1.0;0.0;0.0;0.0;0.0;1.0;1.0;0.0;0.0;0.0;0.0;0.0;0.0;0.0;0.0;fragment;marlin;diff;11f;precision;0.0
29;29_1740a83e11c678c8621e6497350db13cd3d2426e-FRAGMENT.arff;RAkELd;1.0;1.0;1.0;0.0;0.0;1.0;1.0;0.0;0.0;0.0;0.0;1.0;1.0;0.0;0.0;0.0;0.0;0.0;0.0;0.0;0.0;fragment;marlin;diff;11f;precision;0.0
30;30_900e0c9bf23f7df6a2057af4b2c1f166e55e9163-FRAGMENT.arff;BR;54.0;54.0;1.0;35.0;0.6481481481481481;19.0;0.35185185185185186;0.0;0.0;0.0;0.0;54.0;1.0;0.0;0.0;0.0;0.0;0.0;0.0;0.0;0.0;fragment;marlin;diff;11f;precision;0.0
30;30_900e0c9bf23f7df6a2057af4b2c1f166e55e9163-FRAGMENT.arff;LP;54.0;54.0;1.0;0.0;0.0;54.0;1.0;0.0;0.0;0.0;0.0;54.0;1.0;0.0;0.0;0.0;0.0;0.0;0.0;0.0;0.0;fragment;marlin;diff;11f;precision;0.0
30;30_900e0c9bf23f7df6a2057af4b2c1f166e55e9163-FRAGMENT.arff;RAkELd;54.0;54.0;1.0;20.0;0.37037037037037035;34.0;0.6296296296296297;0.0;0.0;0.0;0.0;54.0;1.0;0.0;0.0;0.0;0.0;0.0;0.0;0.0;0.0;fragment;marlin;diff;11f;precision;0.0
33;33_87aaf0f70a22686d2107efa01cfa19bba542c386-FRAGMENT.arff;BR;11.0;11.0;1.0;10.0;0.9090909090909091;1.0;0.09090909090909091;0.0;0.0;0.0;0.0;11.0;1.0;0.0;0.0;0.0;0.0;0.0;0.0;0.0;0.0;fragment;marlin;diff;11f;precision;0.0
33;33_87aaf0f70a22686d2107efa01cfa19bba542c386-FRAGMENT.arff;LP;11.0;11.0;1.0;0.0;0.0;11.0;1.0;0.0;0.0;0.0;0.0;11.0;1.0;0.0;0.0;0.0;0.0;0.0;0.0;0.0;0.0;fragment;marlin;diff;11f;precision;0.0
33;33_87aaf0f70a22686d2107efa01cfa19bba542c386-FRAGMENT.arff;RAkELd;11.0;11.0;1.0;10.0;0.9090909090909091;1.0;0.09090909090909091;0.0;0.0;0.0;0.0;11.0;1.0;0.0;0.0;0.0;0.0;0.0;0.0;0.0;0.0;fragment;marlin;diff;11f;precision;0.0
35;35_5cf349a24a610d7223c5bc88193c07c713818028-FRAGMENT.arff;BR;12.0;12.0;1.0;0.0;0.0;12.0;1.0;0.0;0.0;0.0;0.0;12.0;1.0;0.0;0.0;0.0;0.0;0.0;0.0;0.0;0.0;fragment;marlin;diff;11f;precision;0.0
35;35_5cf349a24a610d7223c5bc88193c07c713818028-FRAGMENT.arff;LP;12.0;12.0;1.0;0.0;0.0;12.0;1.0;0.0;0.0;0.0;0.0;12.0;1.0;0.0;0.0;0.0;0.0;0.0;0.0;0.0;0.0;fragment;marlin;diff;11f;precision;0.0
35;35_5cf349a24a610d7223c5bc88193c07c713818028-FRAGMENT.arff;RAkELd;12.0;12.0;1.0;1.0;0.08333333333333333;11.0;0.9166666666666666;0.0;0.0;0.0;0.0;12.0;1.0;0.0;0.0;0.0;0.0;0.0;0.0;0.0;0.0;fragment;marlin;diff;11f;precision;0.0
45;45_72ace55e6ae964a5984a13e09492d1d92295f098-FRAGMENT.arff;BR;3.0;3.0;1.0;0.0;0.0;3.0;1.0;0.0;0.0;0.0;0.0;3.0;1.0;0.0;0.0;0.0;0.0;0.0;0.0;0.0;0.0;fragment;marlin;diff;11f;precision;0.0
45;45_72ace55e6ae964a5984a13e09492d1d92295f098-FRAGMENT.arff;LP;3.0;3.0;1.0;0.0;0.0;3.0;1.0;0.0;0.0;0.0;0.0;3.0;1.0;0.0;0.0;0.0;0.0;0.0;0.0;0.0;0.0;fragment;marlin;diff;11f;precision;0.0
45;45_72ace55e6ae964a5984a13e09492d1d92295f098-FRAGMENT.arff;RAkELd;3.0;3.0;1.0;1.0;0.3333333333333333;2.0;0.6666666666666666;0.0;0.0;0.0;0.0;3.0;1.0;0.0;0.0;0.0;0.0;0.0;0.0;0.0;0.0;fragment;marlin;diff;11f;precision;0.0
46;46_7b70caab7c4bdc45490d83730b62c5c2ea31e98e-FRAGMENT.arff;BR;22.0;22.0;1.0;16.0;0.7272727272727273;6.0;0.2727272727272727;0.0;0.0;0.0;0.0;22.0;1.0;0.0;0.0;0.0;0.0;0.0;0.0;0.0;0.0;fragment;marlin;diff;11f;precision;0.0
46;46_7b70caab7c4bdc45490d83730b62c5c2ea31e98e-FRAGMENT.arff;LP;22.0;22.0;1.0;0.0;0.0;22.0;1.0;0.0;0.0;0.0;0.0;22.0;1.0;0.0;0.0;0.0;0.0;0.0;0.0;0.0;0.0;fragment;marlin;diff;11f;precision;0.0
46;46_7b70caab7c4bdc45490d83730b62c5c2ea31e98e-FRAGMENT.arff;RAkELd;22.0;22.0;1.0;21.0;0.9545454545454546;1.0;0.045454545454545456;0.0;0.0;0.0;0.0;22.0;1.0;0.0;0.0;0.0;0.0;0.0;0.0;0.0;0.0;fragment;marlin;diff;11f;precision;0.0
47;47_ab154d55927776add58c878f7de94e82b07bee1c-FRAGMENT.arff;BR;53.0;53.0;1.0;22.0;0.41509433962264153;31.0;0.5849056603773585;0.0;0.0;0.0;0.0;53.0;1.0;0.0;0.0;0.0;0.0;0.0;0.0;0.0;0.0;fragment;marlin;diff;11f;precision;0.0
47;47_ab154d55927776add58c878f7de94e82b07bee1c-FRAGMENT.arff;LP;53.0;53.0;1.0;0.0;0.0;53.0;1.0;0.0;0.0;0.0;0.0;53.0;1.0;0.0;0.0;0.0;0.0;0.0;0.0;0.0;0.0;fragment;marlin;diff;11f;precision;0.0
47;47_ab154d55927776add58c878f7de94e82b07bee1c-FRAGMENT.arff;RAkELd;53.0;53.0;1.0;33.0;0.6226415094339622;20.0;0.37735849056603776;0.0;0.0;0.0;0.0;53.0;1.0;0.0;0.0;0.0;0.0;0.0;0.0;0.0;0.0;fragment;marlin;diff;11f;precision;0.0
49;49_ba8a53a40fa0adaa947b536639bab998cc872feb-FRAGMENT.arff;BR;1.0;1.0;1.0;0.0;0.0;1.0;1.0;0.0;0.0;0.0;0.0;1.0;1.0;0.0;0.0;0.0;0.0;0.0;0.0;0.0;0.0;fragment;marlin;diff;11f;precision;0.0
49;49_ba8a53a40fa0adaa947b536639bab998cc872feb-FRAGMENT.arff;LP;1.0;1.0;1.0;0.0;0.0;1.0;1.0;0.0;0.0;0.0;0.0;1.0;1.0;0.0;0.0;0.0;0.0;0.0;0.0;0.0;0.0;fragment;marlin;diff;11f;precision;0.0
49;49_ba8a53a40fa0adaa947b536639bab998cc872feb-FRAGMENT.arff;RAkELd;1.0;1.0;1.0;0.0;0.0;1.0;1.0;0.0;0.0;0.0;0.0;1.0;1.0;0.0;0.0;0.0;0.0;0.0;0.0;0.0;0.0;fragment;marlin;diff;11f;precision;0.0
52;52_ff592b056ad492632a810e6c77a7d063b6ce05e3-FRAGMENT.arff;BR;1.0;1.0;1.0;0.0;0.0;1.0;1.0;0.0;0.0;0.0;0.0;1.0;1.0;0.0;0.0;0.0;0.0;0.0;0.0;0.0;0.0;fragment;marlin;diff;11f;precision;0.0
52;52_ff592b056ad492632a810e6c77a7d063b6ce05e3-FRAGMENT.arff;LP;1.0;1.0;1.0;0.0;0.0;1.0;1.0;0.0;0.0;0.0;0.0;1.0;1.0;0.0;0.0;0.0;0.0;0.0;0.0;0.0;0.0;fragment;marlin;diff;11f;precision;0.0
52;52_ff592b056ad492632a810e6c77a7d063b6ce05e3-FRAGMENT.arff;RAkELd;1.0;1.0;1.0;0.0;0.0;1.0;1.0;0.0;0.0;0.0;0.0;1.0;1.0;0.0;0.0;0.0;0.0;0.0;0.0;0.0;0.0;fragment;marlin;diff;11f;precision;0.0
56;56_02b9eceead9903beb9e1cf7d48f05fc2de8a8e8a-FRAGMENT.arff;BR;37.0;37.0;1.0;12.0;0.32432432432432434;25.0;0.6756756756756757;0.0;0.0;0.0;0.0;37.0;1.0;0.0;0.0;0.0;0.0;0.0;0.0;0.0;0.0;fragment;marlin;diff;11f;precision;0.0
56;56_02b9eceead9903beb9e1cf7d48f05fc2de8a8e8a-FRAGMENT.arff;LP;37.0;37.0;1.0;0.0;0.0;37.0;1.0;0.0;0.0;0.0;0.0;37.0;1.0;0.0;0.0;0.0;0.0;0.0;0.0;0.0;0.0;fragment;marlin;diff;11f;precision;0.0
56;56_02b9eceead9903beb9e1cf7d48f05fc2de8a8e8a-FRAGMENT.arff;RAkELd;37.0;37.0;1.0;14.0;0.3783783783783784;23.0;0.6216216216216216;0.0;0.0;0.0;0.0;37.0;1.0;0.0;0.0;0.0;0.0;0.0;0.0;0.0;0.0;fragment;marlin;diff;11f;precision;0.0
57;57_a9c7da06e398101517acc5b7a07e8dcb544df294-FRAGMENT.arff;BR;27.0;27.0;1.0;4.0;0.14814814814814814;23.0;0.8518518518518519;0.0;0.0;0.0;0.0;27.0;1.0;0.0;0.0;0.0;0.0;0.0;0.0;0.0;0.0;fragment;marlin;diff;11f;precision;0.0
57;57_a9c7da06e398101517acc5b7a07e8dcb544df294-FRAGMENT.arff;LP;27.0;27.0;1.0;0.0;0.0;27.0;1.0;0.0;0.0;0.0;0.0;27.0;1.0;0.0;0.0;0.0;0.0;0.0;0.0;0.0;0.0;fragment;marlin;diff;11f;precision;0.0
57;57_a9c7da06e398101517acc5b7a07e8dcb544df294-FRAGMENT.arff;RAkELd;27.0;27.0;1.0;4.0;0.14814814814814814;23.0;0.8518518518518519;0.0;0.0;0.0;0.0;27.0;1.0;0.0;0.0;0.0;0.0;0.0;0.0;0.0;0.0;fragment;marlin;diff;11f;precision;0.0
58;58_65934eee9c6ae792c708bc1cea9996c8a5df67f5-FRAGMENT.arff;BR;85.0;85.0;1.0;52.0;0.611764705882353;33.0;0.38823529411764707;0.0;0.0;0.0;0.0;85.0;1.0;0.0;0.0;0.0;0.0;0.0;0.0;0.0;0.0;fragment;marlin;diff;11f;precision;0.0
58;58_65934eee9c6ae792c708bc1cea9996c8a5df67f5-FRAGMENT.arff;LP;85.0;85.0;1.0;0.0;0.0;85.0;1.0;0.0;0.0;0.0;0.0;85.0;1.0;0.0;0.0;0.0;0.0;0.0;0.0;0.0;0.0;fragment;marlin;diff;11f;precision;0.0
58;58_65934eee9c6ae792c708bc1cea9996c8a5df67f5-FRAGMENT.arff;RAkELd;85.0;85.0;1.0;63.0;0.7411764705882353;22.0;0.25882352941176473;0.0;0.0;0.0;0.0;85.0;1.0;0.0;0.0;0.0;0.0;0.0;0.0;0.0;0.0;fragment;marlin;diff;11f;precision;0.0
62;62_2643ae93d69b4171acb18bf9994b12076b4f2496-FRAGMENT.arff;BR;1.0;1.0;1.0;0.0;0.0;1.0;1.0;0.0;0.0;0.0;0.0;1.0;1.0;0.0;0.0;0.0;0.0;0.0;0.0;0.0;0.0;fragment;marlin;diff;11f;precision;0.0
62;62_2643ae93d69b4171acb18bf9994b12076b4f2496-FRAGMENT.arff;LP;1.0;1.0;1.0;0.0;0.0;1.0;1.0;0.0;0.0;0.0;0.0;1.0;1.0;0.0;0.0;0.0;0.0;0.0;0.0;0.0;0.0;fragment;marlin;diff;11f;precision;0.0
62;62_2643ae93d69b4171acb18bf9994b12076b4f2496-FRAGMENT.arff;RAkELd;1.0;1.0;1.0;0.0;0.0;1.0;1.0;0.0;0.0;0.0;0.0;1.0;1.0;0.0;0.0;0.0;0.0;0.0;0.0;0.0;0.0;fragment;marlin;diff;11f;precision;0.0
63;63_331e82dcd3d7eaf9f76dbec8759f2f730335fea3-FRAGMENT.arff;BR;23.0;23.0;1.0;5.0;0.21739130434782608;18.0;0.782608695652174;0.0;0.0;0.0;0.0;23.0;1.0;0.0;0.0;0.0;0.0;0.0;0.0;0.0;0.0;fragment;marlin;diff;11f;precision;0.0
63;63_331e82dcd3d7eaf9f76dbec8759f2f730335fea3-FRAGMENT.arff;LP;23.0;23.0;1.0;0.0;0.0;23.0;1.0;0.0;0.0;0.0;0.0;23.0;1.0;0.0;0.0;0.0;0.0;0.0;0.0;0.0;0.0;fragment;marlin;diff;11f;precision;0.0
63;63_331e82dcd3d7eaf9f76dbec8759f2f730335fea3-FRAGMENT.arff;RAkELd;23.0;23.0;1.0;5.0;0.21739130434782608;18.0;0.782608695652174;0.0;0.0;0.0;0.0;23.0;1.0;0.0;0.0;0.0;0.0;0.0;0.0;0.0;0.0;fragment;marlin;diff;11f;precision;0.0
64;64_95126c09c0ffbea8f15ba74105f403d8c36683cf-FRAGMENT.arff;BR;31.0;31.0;1.0;9.0;0.2903225806451613;22.0;0.7096774193548387;0.0;0.0;0.0;0.0;31.0;1.0;0.0;0.0;0.0;0.0;0.0;0.0;0.0;0.0;fragment;marlin;diff;11f;precision;0.0
64;64_95126c09c0ffbea8f15ba74105f403d8c36683cf-FRAGMENT.arff;LP;31.0;31.0;1.0;0.0;0.0;31.0;1.0;0.0;0.0;0.0;0.0;31.0;1.0;0.0;0.0;0.0;0.0;0.0;0.0;0.0;0.0;fragment;marlin;diff;11f;precision;0.0
64;64_95126c09c0ffbea8f15ba74105f403d8c36683cf-FRAGMENT.arff;RAkELd;31.0;31.0;1.0;7.0;0.22580645161290322;24.0;0.7741935483870968;0.0;0.0;0.0;0.0;31.0;1.0;0.0;0.0;0.0;0.0;0.0;0.0;0.0;0.0;fragment;marlin;diff;11f;precision;0.0
65;65_5fd41ae872d51961a7f3e60ba9b6a7cba85d61f7-FRAGMENT.arff;BR;28.0;28.0;1.0;7.0;0.25;21.0;0.75;0.0;0.0;0.0;0.0;28.0;1.0;0.0;0.0;0.0;0.0;0.0;0.0;0.0;0.0;fragment;marlin;diff;11f;precision;0.0
65;65_5fd41ae872d51961a7f3e60ba9b6a7cba85d61f7-FRAGMENT.arff;LP;28.0;28.0;1.0;0.0;0.0;28.0;1.0;0.0;0.0;0.0;0.0;28.0;1.0;0.0;0.0;0.0;0.0;0.0;0.0;0.0;0.0;fragment;marlin;diff;11f;precision;0.0
65;65_5fd41ae872d51961a7f3e60ba9b6a7cba85d61f7-FRAGMENT.arff;RAkELd;28.0;28.0;1.0;7.0;0.25;21.0;0.75;0.0;0.0;0.0;0.0;28.0;1.0;0.0;0.0;0.0;0.0;0.0;0.0;0.0;0.0;fragment;marlin;diff;11f;precision;0.0
70;70_edb5ea7efa555b59f17655e20e93d9e93499d5d8-FRAGMENT.arff;BR;44.0;44.0;1.0;2.0;0.045454545454545456;42.0;0.9545454545454546;0.0;0.0;0.0;0.0;44.0;1.0;0.0;0.0;0.0;0.0;0.0;0.0;0.0;0.0;fragment;marlin;diff;11f;precision;0.0
70;70_edb5ea7efa555b59f17655e20e93d9e93499d5d8-FRAGMENT.arff;LP;44.0;44.0;1.0;0.0;0.0;44.0;1.0;0.0;0.0;0.0;0.0;44.0;1.0;0.0;0.0;0.0;0.0;0.0;0.0;0.0;0.0;fragment;marlin;diff;11f;precision;0.0
70;70_edb5ea7efa555b59f17655e20e93d9e93499d5d8-FRAGMENT.arff;RAkELd;44.0;44.0;1.0;3.0;0.06818181818181818;41.0;0.9318181818181818;0.0;0.0;0.0;0.0;44.0;1.0;0.0;0.0;0.0;0.0;0.0;0.0;0.0;0.0;fragment;marlin;diff;11f;precision;0.0
72;72_e63e224a33011f2aa302ee435acc066af8a87ddb-FRAGMENT.arff;BR;27.0;27.0;1.0;4.0;0.14814814814814814;23.0;0.8518518518518519;0.0;0.0;0.0;0.0;27.0;1.0;0.0;0.0;0.0;0.0;0.0;0.0;0.0;0.0;fragment;marlin;diff;11f;precision;0.0
72;72_e63e224a33011f2aa302ee435acc066af8a87ddb-FRAGMENT.arff;LP;27.0;27.0;1.0;0.0;0.0;27.0;1.0;0.0;0.0;0.0;0.0;27.0;1.0;0.0;0.0;0.0;0.0;0.0;0.0;0.0;0.0;fragment;marlin;diff;11f;precision;0.0
72;72_e63e224a33011f2aa302ee435acc066af8a87ddb-FRAGMENT.arff;RAkELd;27.0;27.0;1.0;3.0;0.1111111111111111;24.0;0.8888888888888888;0.0;0.0;0.0;0.0;27.0;1.0;0.0;0.0;0.0;0.0;0.0;0.0;0.0;0.0;fragment;marlin;diff;11f;precision;0.0
73;73_b15902d3b5131d1ddfc4d52ce99a54827ece5d53-FRAGMENT.arff;BR;44.0;44.0;1.0;1.0;0.022727272727272728;43.0;0.9772727272727273;0.0;0.0;0.0;0.0;44.0;1.0;0.0;0.0;0.0;0.0;0.0;0.0;0.0;0.0;fragment;marlin;diff;11f;precision;0.0
73;73_b15902d3b5131d1ddfc4d52ce99a54827ece5d53-FRAGMENT.arff;LP;44.0;44.0;1.0;0.0;0.0;44.0;1.0;0.0;0.0;0.0;0.0;44.0;1.0;0.0;0.0;0.0;0.0;0.0;0.0;0.0;0.0;fragment;marlin;diff;11f;precision;0.0
73;73_b15902d3b5131d1ddfc4d52ce99a54827ece5d53-FRAGMENT.arff;RAkELd;44.0;44.0;1.0;1.0;0.022727272727272728;43.0;0.9772727272727273;0.0;0.0;0.0;0.0;44.0;1.0;0.0;0.0;0.0;0.0;0.0;0.0;0.0;0.0;fragment;marlin;diff;11f;precision;0.0
75;75_ff69e0a772c71226be7d6000c5096c0a850e3a62-FRAGMENT.arff;BR;2.0;2.0;1.0;1.0;0.5;1.0;0.5;0.0;0.0;0.0;0.0;2.0;1.0;0.0;0.0;0.0;0.0;0.0;0.0;0.0;0.0;fragment;marlin;diff;11f;precision;0.0
75;75_ff69e0a772c71226be7d6000c5096c0a850e3a62-FRAGMENT.arff;LP;2.0;2.0;1.0;0.0;0.0;2.0;1.0;0.0;0.0;0.0;0.0;2.0;1.0;0.0;0.0;0.0;0.0;0.0;0.0;0.0;0.0;fragment;marlin;diff;11f;precision;0.0
75;75_ff69e0a772c71226be7d6000c5096c0a850e3a62-FRAGMENT.arff;RAkELd;2.0;2.0;1.0;0.0;0.0;2.0;1.0;0.0;0.0;0.0;0.0;2.0;1.0;0.0;0.0;0.0;0.0;0.0;0.0;0.0;0.0;fragment;marlin;diff;11f;precision;0.0
82;82_8a08b8e07e0bd84c1778eca7f3f32fafff5c3af5-FRAGMENT.arff;BR;25.0;25.0;1.0;3.0;0.12;22.0;0.88;0.0;0.0;0.0;0.0;25.0;1.0;0.0;0.0;0.0;0.0;0.0;0.0;0.0;0.0;fragment;marlin;diff;11f;precision;0.0
82;82_8a08b8e07e0bd84c1778eca7f3f32fafff5c3af5-FRAGMENT.arff;LP;25.0;25.0;1.0;0.0;0.0;25.0;1.0;0.0;0.0;0.0;0.0;25.0;1.0;0.0;0.0;0.0;0.0;0.0;0.0;0.0;0.0;fragment;marlin;diff;11f;precision;0.0
82;82_8a08b8e07e0bd84c1778eca7f3f32fafff5c3af5-FRAGMENT.arff;RAkELd;25.0;25.0;1.0;3.0;0.12;22.0;0.88;0.0;0.0;0.0;0.0;25.0;1.0;0.0;0.0;0.0;0.0;0.0;0.0;0.0;0.0;fragment;marlin;diff;11f;precision;0.0
84;84_537b5c155dd0e35080528bcaba088d0d177aa2bd-FRAGMENT.arff;BR;5.0;5.0;1.0;3.0;0.6;2.0;0.4;0.0;0.0;0.0;0.0;5.0;1.0;0.0;0.0;0.0;0.0;0.0;0.0;0.0;0.0;fragment;marlin;diff;11f;precision;0.0
84;84_537b5c155dd0e35080528bcaba088d0d177aa2bd-FRAGMENT.arff;LP;5.0;5.0;1.0;0.0;0.0;5.0;1.0;0.0;0.0;0.0;0.0;5.0;1.0;0.0;0.0;0.0;0.0;0.0;0.0;0.0;0.0;fragment;marlin;diff;11f;precision;0.0
84;84_537b5c155dd0e35080528bcaba088d0d177aa2bd-FRAGMENT.arff;RAkELd;5.0;5.0;1.0;4.0;0.8;1.0;0.2;0.0;0.0;0.0;0.0;5.0;1.0;0.0;0.0;0.0;0.0;0.0;0.0;0.0;0.0;fragment;marlin;diff;11f;precision;0.0
89;89_7a2d1f5aeb85225a7d71e8b95982e36c5fb17722-FRAGMENT.arff;BR;2.0;2.0;1.0;2.0;1.0;0.0;0.0;0.0;0.0;0.0;0.0;2.0;1.0;0.0;0.0;0.0;0.0;0.0;0.0;0.0;0.0;fragment;marlin;diff;11f;precision;0.0
89;89_7a2d1f5aeb85225a7d71e8b95982e36c5fb17722-FRAGMENT.arff;LP;2.0;2.0;1.0;0.0;0.0;2.0;1.0;0.0;0.0;0.0;0.0;2.0;1.0;0.0;0.0;0.0;0.0;0.0;0.0;0.0;0.0;fragment;marlin;diff;11f;precision;0.0
89;89_7a2d1f5aeb85225a7d71e8b95982e36c5fb17722-FRAGMENT.arff;RAkELd;2.0;2.0;1.0;0.0;0.0;2.0;1.0;0.0;0.0;0.0;0.0;2.0;1.0;0.0;0.0;0.0;0.0;0.0;0.0;0.0;0.0;fragment;marlin;diff;11f;precision;0.0
90;90_5ad1d19384ba3ea8a1e6c33babc63de1d28acf31-FRAGMENT.arff;BR;46.0;46.0;1.0;8.0;0.17391304347826086;38.0;0.8260869565217391;0.0;0.0;0.0;0.0;46.0;1.0;0.0;0.0;0.0;0.0;0.0;0.0;0.0;0.0;fragment;marlin;diff;11f;precision;0.0
90;90_5ad1d19384ba3ea8a1e6c33babc63de1d28acf31-FRAGMENT.arff;LP;46.0;46.0;1.0;0.0;0.0;46.0;1.0;0.0;0.0;0.0;0.0;46.0;1.0;0.0;0.0;0.0;0.0;0.0;0.0;0.0;0.0;fragment;marlin;diff;11f;precision;0.0
90;90_5ad1d19384ba3ea8a1e6c33babc63de1d28acf31-FRAGMENT.arff;RAkELd;46.0;46.0;1.0;10.0;0.21739130434782608;36.0;0.782608695652174;0.0;0.0;0.0;0.0;46.0;1.0;0.0;0.0;0.0;0.0;0.0;0.0;0.0;0.0;fragment;marlin;diff;11f;precision;0.0
94;94_915ef2d4a136df67f468917c725d032919e189d4-FRAGMENT.arff;BR;46.0;46.0;1.0;5.0;0.10869565217391304;41.0;0.8913043478260869;0.0;0.0;0.0;0.0;46.0;1.0;0.0;0.0;0.0;0.0;0.0;0.0;0.0;0.0;fragment;marlin;diff;11f;precision;0.0
94;94_915ef2d4a136df67f468917c725d032919e189d4-FRAGMENT.arff;LP;46.0;46.0;1.0;0.0;0.0;46.0;1.0;0.0;0.0;0.0;0.0;46.0;1.0;0.0;0.0;0.0;0.0;0.0;0.0;0.0;0.0;fragment;marlin;diff;11f;precision;0.0
94;94_915ef2d4a136df67f468917c725d032919e189d4-FRAGMENT.arff;RAkELd;46.0;46.0;1.0;7.0;0.15217391304347827;39.0;0.8478260869565217;0.0;0.0;0.0;0.0;46.0;1.0;0.0;0.0;0.0;0.0;0.0;0.0;0.0;0.0;fragment;marlin;diff;11f;precision;0.0
100;100_6dba34ab0ed5b5f89b70ebe71086200606319bd8-FRAGMENT.arff;BR;65.0;65.0;1.0;44.0;0.676923076923077;21.0;0.3230769230769231;0.0;0.0;0.0;0.0;65.0;1.0;0.0;0.0;0.0;0.0;0.0;0.0;0.0;0.0;fragment;marlin;diff;11f;precision;0.0
100;100_6dba34ab0ed5b5f89b70ebe71086200606319bd8-FRAGMENT.arff;LP;65.0;65.0;1.0;0.0;0.0;65.0;1.0;0.0;0.0;0.0;0.0;65.0;1.0;0.0;0.0;0.0;0.0;0.0;0.0;0.0;0.0;fragment;marlin;diff;11f;precision;0.0
100;100_6dba34ab0ed5b5f89b70ebe71086200606319bd8-FRAGMENT.arff;RAkELd;65.0;65.0;1.0;26.0;0.4;39.0;0.6;0.0;0.0;0.0;0.0;65.0;1.0;0.0;0.0;0.0;0.0;0.0;0.0;0.0;0.0;fragment;marlin;diff;11f;precision;0.0
105;105_cd2268f10a88de393a565c887c8891c7f7979a97-FRAGMENT.arff;BR;4.0;4.0;1.0;4.0;1.0;0.0;0.0;0.0;0.0;0.0;0.0;4.0;1.0;0.0;0.0;0.0;0.0;0.0;0.0;0.0;0.0;fragment;marlin;diff;11f;precision;0.0
105;105_cd2268f10a88de393a565c887c8891c7f7979a97-FRAGMENT.arff;LP;4.0;4.0;1.0;0.0;0.0;4.0;1.0;0.0;0.0;0.0;0.0;4.0;1.0;0.0;0.0;0.0;0.0;0.0;0.0;0.0;0.0;fragment;marlin;diff;11f;precision;0.0
105;105_cd2268f10a88de393a565c887c8891c7f7979a97-FRAGMENT.arff;RAkELd;4.0;4.0;1.0;4.0;1.0;0.0;0.0;0.0;0.0;0.0;0.0;4.0;1.0;0.0;0.0;0.0;0.0;0.0;0.0;0.0;0.0;fragment;marlin;diff;11f;precision;0.0
106;106_b21d5193f25e3e388ddc3787aba7f0086a1abad7-FRAGMENT.arff;BR;62.0;62.0;1.0;39.0;0.6290322580645161;23.0;0.3709677419354839;0.0;0.0;0.0;0.0;62.0;1.0;0.0;0.0;0.0;0.0;0.0;0.0;0.0;0.0;fragment;marlin;diff;11f;precision;0.0
106;106_b21d5193f25e3e388ddc3787aba7f0086a1abad7-FRAGMENT.arff;LP;62.0;62.0;1.0;0.0;0.0;62.0;1.0;0.0;0.0;0.0;0.0;62.0;1.0;0.0;0.0;0.0;0.0;0.0;0.0;0.0;0.0;fragment;marlin;diff;11f;precision;0.0
106;106_b21d5193f25e3e388ddc3787aba7f0086a1abad7-FRAGMENT.arff;RAkELd;62.0;62.0;1.0;26.0;0.41935483870967744;36.0;0.5806451612903226;0.0;0.0;0.0;0.0;62.0;1.0;0.0;0.0;0.0;0.0;0.0;0.0;0.0;0.0;fragment;marlin;diff;11f;precision;0.0
107;107_eeb4f029dbaa8f12350f631441303832fc14fc9e-FRAGMENT.arff;BR;4.0;4.0;1.0;2.0;0.5;2.0;0.5;0.0;0.0;0.0;0.0;4.0;1.0;0.0;0.0;0.0;0.0;0.0;0.0;0.0;0.0;fragment;marlin;diff;11f;precision;0.0
107;107_eeb4f029dbaa8f12350f631441303832fc14fc9e-FRAGMENT.arff;LP;4.0;4.0;1.0;0.0;0.0;4.0;1.0;0.0;0.0;0.0;0.0;4.0;1.0;0.0;0.0;0.0;0.0;0.0;0.0;0.0;0.0;fragment;marlin;diff;11f;precision;0.0
107;107_eeb4f029dbaa8f12350f631441303832fc14fc9e-FRAGMENT.arff;RAkELd;4.0;4.0;1.0;4.0;1.0;0.0;0.0;0.0;0.0;0.0;0.0;4.0;1.0;0.0;0.0;0.0;0.0;0.0;0.0;0.0;0.0;fragment;marlin;diff;11f;precision;0.0
109;109_379ea642e181ee072a80d361dfb043e7f3318103-FRAGMENT.arff;BR;3.0;3.0;1.0;3.0;1.0;0.0;0.0;0.0;0.0;0.0;0.0;3.0;1.0;0.0;0.0;0.0;0.0;0.0;0.0;0.0;0.0;fragment;marlin;diff;11f;precision;0.0
109;109_379ea642e181ee072a80d361dfb043e7f3318103-FRAGMENT.arff;LP;3.0;3.0;1.0;0.0;0.0;3.0;1.0;0.0;0.0;0.0;0.0;3.0;1.0;0.0;0.0;0.0;0.0;0.0;0.0;0.0;0.0;fragment;marlin;diff;11f;precision;0.0
109;109_379ea642e181ee072a80d361dfb043e7f3318103-FRAGMENT.arff;RAkELd;3.0;3.0;1.0;3.0;1.0;0.0;0.0;0.0;0.0;0.0;0.0;3.0;1.0;0.0;0.0;0.0;0.0;0.0;0.0;0.0;0.0;fragment;marlin;diff;11f;precision;0.0
110;110_924bab1a031101634ba350cd8daf1c5a2e08430a-FRAGMENT.arff;BR;4.0;4.0;1.0;0.0;0.0;4.0;1.0;0.0;0.0;0.0;0.0;4.0;1.0;0.0;0.0;0.0;0.0;0.0;0.0;0.0;0.0;fragment;marlin;diff;11f;precision;0.0
110;110_924bab1a031101634ba350cd8daf1c5a2e08430a-FRAGMENT.arff;LP;4.0;4.0;1.0;0.0;0.0;4.0;1.0;0.0;0.0;0.0;0.0;4.0;1.0;0.0;0.0;0.0;0.0;0.0;0.0;0.0;0.0;fragment;marlin;diff;11f;precision;0.0
110;110_924bab1a031101634ba350cd8daf1c5a2e08430a-FRAGMENT.arff;RAkELd;4.0;4.0;1.0;4.0;1.0;0.0;0.0;0.0;0.0;0.0;0.0;4.0;1.0;0.0;0.0;0.0;0.0;0.0;0.0;0.0;0.0;fragment;marlin;diff;11f;precision;0.0
116;116_0e0e4945d8ad060aa50552a0b27369c18442c2d0-FRAGMENT.arff;BR;5.0;5.0;1.0;3.0;0.6;2.0;0.4;0.0;0.0;0.0;0.0;5.0;1.0;0.0;0.0;0.0;0.0;0.0;0.0;0.0;0.0;fragment;marlin;diff;11f;precision;0.0
116;116_0e0e4945d8ad060aa50552a0b27369c18442c2d0-FRAGMENT.arff;LP;5.0;5.0;1.0;0.0;0.0;5.0;1.0;0.0;0.0;0.0;0.0;5.0;1.0;0.0;0.0;0.0;0.0;0.0;0.0;0.0;0.0;fragment;marlin;diff;11f;precision;0.0
116;116_0e0e4945d8ad060aa50552a0b27369c18442c2d0-FRAGMENT.arff;RAkELd;5.0;5.0;1.0;5.0;1.0;0.0;0.0;0.0;0.0;0.0;0.0;5.0;1.0;0.0;0.0;0.0;0.0;0.0;0.0;0.0;0.0;fragment;marlin;diff;11f;precision;0.0
121;121_27654bfe697ee08a83f4f39567357827ef77fd1f-FRAGMENT.arff;BR;1.0;1.0;1.0;0.0;0.0;1.0;1.0;0.0;0.0;0.0;0.0;1.0;1.0;0.0;0.0;0.0;0.0;0.0;0.0;0.0;0.0;fragment;marlin;diff;11f;precision;0.0
121;121_27654bfe697ee08a83f4f39567357827ef77fd1f-FRAGMENT.arff;LP;1.0;1.0;1.0;0.0;0.0;1.0;1.0;0.0;0.0;0.0;0.0;1.0;1.0;0.0;0.0;0.0;0.0;0.0;0.0;0.0;0.0;fragment;marlin;diff;11f;precision;0.0
121;121_27654bfe697ee08a83f4f39567357827ef77fd1f-FRAGMENT.arff;RAkELd;1.0;1.0;1.0;0.0;0.0;1.0;1.0;0.0;0.0;0.0;0.0;1.0;1.0;0.0;0.0;0.0;0.0;0.0;0.0;0.0;0.0;fragment;marlin;diff;11f;precision;0.0
125;125_a6823a84e18f7738cafe309c21b55a110ea51d6d-FRAGMENT.arff;BR;6.0;6.0;1.0;6.0;1.0;0.0;0.0;0.0;0.0;0.0;0.0;6.0;1.0;0.0;0.0;0.0;0.0;0.0;0.0;0.0;0.0;fragment;marlin;diff;11f;precision;0.0
125;125_a6823a84e18f7738cafe309c21b55a110ea51d6d-FRAGMENT.arff;LP;6.0;6.0;1.0;0.0;0.0;6.0;1.0;0.0;0.0;0.0;0.0;6.0;1.0;0.0;0.0;0.0;0.0;0.0;0.0;0.0;0.0;fragment;marlin;diff;11f;precision;0.0
125;125_a6823a84e18f7738cafe309c21b55a110ea51d6d-FRAGMENT.arff;RAkELd;6.0;6.0;1.0;0.0;0.0;6.0;1.0;0.0;0.0;0.0;0.0;6.0;1.0;0.0;0.0;0.0;0.0;0.0;0.0;0.0;0.0;fragment;marlin;diff;11f;precision;0.0
127;127_191f36b4933be2686a51dd62dbe532ee90f38ab5-FRAGMENT.arff;BR;22.0;22.0;1.0;14.0;0.6363636363636364;8.0;0.36363636363636365;0.0;0.0;0.0;0.0;22.0;1.0;0.0;0.0;0.0;0.0;0.0;0.0;0.0;0.0;fragment;marlin;diff;11f;precision;0.0
127;127_191f36b4933be2686a51dd62dbe532ee90f38ab5-FRAGMENT.arff;LP;22.0;22.0;1.0;0.0;0.0;22.0;1.0;0.0;0.0;0.0;0.0;22.0;1.0;0.0;0.0;0.0;0.0;0.0;0.0;0.0;0.0;fragment;marlin;diff;11f;precision;0.0
127;127_191f36b4933be2686a51dd62dbe532ee90f38ab5-FRAGMENT.arff;RAkELd;22.0;22.0;1.0;14.0;0.6363636363636364;8.0;0.36363636363636365;0.0;0.0;0.0;0.0;22.0;1.0;0.0;0.0;0.0;0.0;0.0;0.0;0.0;0.0;fragment;marlin;diff;11f;precision;0.0
129;129_4d6a5c29df87270b13c6ec7b5adb58c1aa29e3a8-FRAGMENT.arff;BR;22.0;22.0;1.0;18.0;0.8181818181818182;4.0;0.18181818181818182;0.0;0.0;0.0;0.0;22.0;1.0;0.0;0.0;0.0;0.0;0.0;0.0;0.0;0.0;fragment;marlin;diff;11f;precision;0.0
129;129_4d6a5c29df87270b13c6ec7b5adb58c1aa29e3a8-FRAGMENT.arff;LP;22.0;22.0;1.0;0.0;0.0;22.0;1.0;0.0;0.0;0.0;0.0;22.0;1.0;0.0;0.0;0.0;0.0;0.0;0.0;0.0;0.0;fragment;marlin;diff;11f;precision;0.0
129;129_4d6a5c29df87270b13c6ec7b5adb58c1aa29e3a8-FRAGMENT.arff;RAkELd;22.0;22.0;1.0;18.0;0.8181818181818182;4.0;0.18181818181818182;0.0;0.0;0.0;0.0;22.0;1.0;0.0;0.0;0.0;0.0;0.0;0.0;0.0;0.0;fragment;marlin;diff;11f;precision;0.0
12;12_0b1423c303c6d7eef7d9f8f04666dd1a1a529bb7-FRAGMENT.arff;BR;18.0;18.0;1.0;0.0;0.0;18.0;1.0;0.0;0.0;0.0;0.0;18.0;1.0;0.0;0.0;0.0;0.0;0.0;0.0;0.0;0.0;fragment;marlin;diff;11f;recall;0.0
12;12_0b1423c303c6d7eef7d9f8f04666dd1a1a529bb7-FRAGMENT.arff;LP;18.0;18.0;1.0;0.0;0.0;18.0;1.0;0.0;0.0;0.0;0.0;18.0;1.0;0.0;0.0;0.0;0.0;0.0;0.0;0.0;0.0;fragment;marlin;diff;11f;recall;0.0
12;12_0b1423c303c6d7eef7d9f8f04666dd1a1a529bb7-FRAGMENT.arff;RAkELd;18.0;18.0;1.0;0.0;0.0;18.0;1.0;0.0;0.0;0.0;0.0;18.0;1.0;0.0;0.0;0.0;0.0;0.0;0.0;0.0;0.0;fragment;marlin;diff;11f;recall;0.0
13;13_094afe7c1065d5663628b389f27687a5f465abb8-FRAGMENT.arff;BR;6.0;6.0;1.0;2.0;0.3333333333333333;4.0;0.6666666666666666;0.0;0.0;0.0;0.0;6.0;1.0;0.0;0.0;0.0;0.0;0.0;0.0;0.0;0.0;fragment;marlin;diff;11f;recall;0.0
13;13_094afe7c1065d5663628b389f27687a5f465abb8-FRAGMENT.arff;LP;6.0;6.0;1.0;0.0;0.0;6.0;1.0;0.0;0.0;0.0;0.0;6.0;1.0;0.0;0.0;0.0;0.0;0.0;0.0;0.0;0.0;fragment;marlin;diff;11f;recall;0.0
13;13_094afe7c1065d5663628b389f27687a5f465abb8-FRAGMENT.arff;RAkELd;6.0;6.0;1.0;6.0;1.0;0.0;0.0;0.0;0.0;0.0;0.0;6.0;1.0;0.0;0.0;0.0;0.0;0.0;0.0;0.0;0.0;fragment;marlin;diff;11f;recall;0.0
17;17_d15f01e1b45119838900da53128c619ebe93895d-FRAGMENT.arff;BR;38.0;38.0;1.0;0.0;0.0;38.0;1.0;0.0;0.0;0.0;0.0;38.0;1.0;0.0;0.0;0.0;0.0;0.0;0.0;0.0;0.0;fragment;marlin;diff;11f;recall;0.0
17;17_d15f01e1b45119838900da53128c619ebe93895d-FRAGMENT.arff;LP;38.0;38.0;1.0;0.0;0.0;38.0;1.0;0.0;0.0;0.0;0.0;38.0;1.0;0.0;0.0;0.0;0.0;0.0;0.0;0.0;0.0;fragment;marlin;diff;11f;recall;0.0
17;17_d15f01e1b45119838900da53128c619ebe93895d-FRAGMENT.arff;RAkELd;38.0;38.0;1.0;0.0;0.0;38.0;1.0;0.0;0.0;0.0;0.0;38.0;1.0;0.0;0.0;0.0;0.0;0.0;0.0;0.0;0.0;fragment;marlin;diff;11f;recall;0.0
18;18_00674af3a82e6b6b517a12ae3e77803df4f4892d-FRAGMENT.arff;BR;109.0;109.0;1.0;43.0;0.3944954128440367;66.0;0.6055045871559633;0.0;0.0;0.0;0.0;109.0;1.0;0.0;0.0;0.0;0.0;0.0;0.0;0.0;0.0;fragment;marlin;diff;11f;recall;0.0
18;18_00674af3a82e6b6b517a12ae3e77803df4f4892d-FRAGMENT.arff;LP;109.0;109.0;1.0;0.0;0.0;109.0;1.0;0.0;0.0;0.0;0.0;109.0;1.0;0.0;0.0;0.0;0.0;0.0;0.0;0.0;0.0;fragment;marlin;diff;11f;recall;0.0
18;18_00674af3a82e6b6b517a12ae3e77803df4f4892d-FRAGMENT.arff;RAkELd;109.0;109.0;1.0;43.0;0.3944954128440367;66.0;0.6055045871559633;0.0;0.0;0.0;0.0;109.0;1.0;0.0;0.0;0.0;0.0;0.0;0.0;0.0;0.0;fragment;marlin;diff;11f;recall;0.0
19;19_40e80816235739064fcc7fd74228c9c225387caf-FRAGMENT.arff;BR;6.0;6.0;1.0;0.0;0.0;6.0;1.0;0.0;0.0;0.0;0.0;6.0;1.0;0.0;0.0;0.0;0.0;0.0;0.0;0.0;0.0;fragment;marlin;diff;11f;recall;0.0
19;19_40e80816235739064fcc7fd74228c9c225387caf-FRAGMENT.arff;LP;6.0;6.0;1.0;0.0;0.0;6.0;1.0;0.0;0.0;0.0;0.0;6.0;1.0;0.0;0.0;0.0;0.0;0.0;0.0;0.0;0.0;fragment;marlin;diff;11f;recall;0.0
19;19_40e80816235739064fcc7fd74228c9c225387caf-FRAGMENT.arff;RAkELd;6.0;6.0;1.0;0.0;0.0;6.0;1.0;0.0;0.0;0.0;0.0;6.0;1.0;0.0;0.0;0.0;0.0;0.0;0.0;0.0;0.0;fragment;marlin;diff;11f;recall;0.0
20;20_8bcdb9f5f062fe68d90e31752453e1d662b3f0e2-FRAGMENT.arff;BR;6.0;6.0;1.0;3.0;0.5;3.0;0.5;0.0;0.0;0.0;0.0;6.0;1.0;0.0;0.0;0.0;0.0;0.0;0.0;0.0;0.0;fragment;marlin;diff;11f;recall;0.0
20;20_8bcdb9f5f062fe68d90e31752453e1d662b3f0e2-FRAGMENT.arff;LP;6.0;6.0;1.0;0.0;0.0;6.0;1.0;0.0;0.0;0.0;0.0;6.0;1.0;0.0;0.0;0.0;0.0;0.0;0.0;0.0;0.0;fragment;marlin;diff;11f;recall;0.0
20;20_8bcdb9f5f062fe68d90e31752453e1d662b3f0e2-FRAGMENT.arff;RAkELd;6.0;6.0;1.0;3.0;0.5;3.0;0.5;0.0;0.0;0.0;0.0;6.0;1.0;0.0;0.0;0.0;0.0;0.0;0.0;0.0;0.0;fragment;marlin;diff;11f;recall;0.0
22;22_ea86a5e10f7b8c0b2e0e0bf97a1fc95dbac4ae89-FRAGMENT.arff;BR;20.0;20.0;1.0;8.0;0.4;12.0;0.6;0.0;0.0;0.0;0.0;20.0;1.0;0.0;0.0;0.0;0.0;0.0;0.0;0.0;0.0;fragment;marlin;diff;11f;recall;0.0
22;22_ea86a5e10f7b8c0b2e0e0bf97a1fc95dbac4ae89-FRAGMENT.arff;LP;20.0;20.0;1.0;0.0;0.0;20.0;1.0;0.0;0.0;0.0;0.0;20.0;1.0;0.0;0.0;0.0;0.0;0.0;0.0;0.0;0.0;fragment;marlin;diff;11f;recall;0.0
22;22_ea86a5e10f7b8c0b2e0e0bf97a1fc95dbac4ae89-FRAGMENT.arff;RAkELd;20.0;20.0;1.0;8.0;0.4;12.0;0.6;0.0;0.0;0.0;0.0;20.0;1.0;0.0;0.0;0.0;0.0;0.0;0.0;0.0;0.0;fragment;marlin;diff;11f;recall;0.0
23;23_04d3b5537f7c23adf7ea362a8492d21114aa6a2e-FRAGMENT.arff;BR;45.0;45.0;1.0;11.0;0.24444444444444444;34.0;0.7555555555555555;0.0;0.0;0.0;0.0;45.0;1.0;0.0;0.0;0.0;0.0;0.0;0.0;0.0;0.0;fragment;marlin;diff;11f;recall;0.0
23;23_04d3b5537f7c23adf7ea362a8492d21114aa6a2e-FRAGMENT.arff;LP;45.0;45.0;1.0;0.0;0.0;45.0;1.0;0.0;0.0;0.0;0.0;45.0;1.0;0.0;0.0;0.0;0.0;0.0;0.0;0.0;0.0;fragment;marlin;diff;11f;recall;0.0
23;23_04d3b5537f7c23adf7ea362a8492d21114aa6a2e-FRAGMENT.arff;RAkELd;45.0;45.0;1.0;18.0;0.4;27.0;0.6;0.0;0.0;0.0;0.0;45.0;1.0;0.0;0.0;0.0;0.0;0.0;0.0;0.0;0.0;fragment;marlin;diff;11f;recall;0.0
24;24_2e8e8878e55f1455155e43590afbaa1ed21e8e3f-FRAGMENT.arff;BR;49.0;49.0;1.0;8.0;0.16326530612244897;41.0;0.8367346938775511;0.0;0.0;0.0;0.0;49.0;1.0;0.0;0.0;0.0;0.0;0.0;0.0;0.0;0.0;fragment;marlin;diff;11f;recall;0.0
24;24_2e8e8878e55f1455155e43590afbaa1ed21e8e3f-FRAGMENT.arff;LP;49.0;49.0;1.0;0.0;0.0;49.0;1.0;0.0;0.0;0.0;0.0;49.0;1.0;0.0;0.0;0.0;0.0;0.0;0.0;0.0;0.0;fragment;marlin;diff;11f;recall;0.0
24;24_2e8e8878e55f1455155e43590afbaa1ed21e8e3f-FRAGMENT.arff;RAkELd;49.0;49.0;1.0;8.0;0.16326530612244897;41.0;0.8367346938775511;0.0;0.0;0.0;0.0;49.0;1.0;0.0;0.0;0.0;0.0;0.0;0.0;0.0;0.0;fragment;marlin;diff;11f;recall;0.0
27;27_e8092898b1c4db328a2f5d247fe06603f586f924-FRAGMENT.arff;BR;4.0;4.0;1.0;0.0;0.0;4.0;1.0;0.0;0.0;0.0;0.0;4.0;1.0;0.0;0.0;0.0;0.0;0.0;0.0;0.0;0.0;fragment;marlin;diff;11f;recall;0.0
27;27_e8092898b1c4db328a2f5d247fe06603f586f924-FRAGMENT.arff;LP;4.0;4.0;1.0;0.0;0.0;4.0;1.0;0.0;0.0;0.0;0.0;4.0;1.0;0.0;0.0;0.0;0.0;0.0;0.0;0.0;0.0;fragment;marlin;diff;11f;recall;0.0
27;27_e8092898b1c4db328a2f5d247fe06603f586f924-FRAGMENT.arff;RAkELd;4.0;4.0;1.0;0.0;0.0;4.0;1.0;0.0;0.0;0.0;0.0;4.0;1.0;0.0;0.0;0.0;0.0;0.0;0.0;0.0;0.0;fragment;marlin;diff;11f;recall;0.0
29;29_1740a83e11c678c8621e6497350db13cd3d2426e-FRAGMENT.arff;BR;1.0;1.0;1.0;0.0;0.0;1.0;1.0;0.0;0.0;0.0;0.0;1.0;1.0;0.0;0.0;0.0;0.0;0.0;0.0;0.0;0.0;fragment;marlin;diff;11f;recall;0.0
29;29_1740a83e11c678c8621e6497350db13cd3d2426e-FRAGMENT.arff;LP;1.0;1.0;1.0;0.0;0.0;1.0;1.0;0.0;0.0;0.0;0.0;1.0;1.0;0.0;0.0;0.0;0.0;0.0;0.0;0.0;0.0;fragment;marlin;diff;11f;recall;0.0
29;29_1740a83e11c678c8621e6497350db13cd3d2426e-FRAGMENT.arff;RAkELd;1.0;1.0;1.0;0.0;0.0;1.0;1.0;0.0;0.0;0.0;0.0;1.0;1.0;0.0;0.0;0.0;0.0;0.0;0.0;0.0;0.0;fragment;marlin;diff;11f;recall;0.0
30;30_900e0c9bf23f7df6a2057af4b2c1f166e55e9163-FRAGMENT.arff;BR;54.0;54.0;1.0;35.0;0.6481481481481481;19.0;0.35185185185185186;0.0;0.0;0.0;0.0;54.0;1.0;0.0;0.0;0.0;0.0;0.0;0.0;0.0;0.0;fragment;marlin;diff;11f;recall;0.0
30;30_900e0c9bf23f7df6a2057af4b2c1f166e55e9163-FRAGMENT.arff;LP;54.0;54.0;1.0;0.0;0.0;54.0;1.0;0.0;0.0;0.0;0.0;54.0;1.0;0.0;0.0;0.0;0.0;0.0;0.0;0.0;0.0;fragment;marlin;diff;11f;recall;0.0
30;30_900e0c9bf23f7df6a2057af4b2c1f166e55e9163-FRAGMENT.arff;RAkELd;54.0;54.0;1.0;20.0;0.37037037037037035;34.0;0.6296296296296297;0.0;0.0;0.0;0.0;54.0;1.0;0.0;0.0;0.0;0.0;0.0;0.0;0.0;0.0;fragment;marlin;diff;11f;recall;0.0
33;33_87aaf0f70a22686d2107efa01cfa19bba542c386-FRAGMENT.arff;BR;11.0;11.0;1.0;10.0;0.9090909090909091;1.0;0.09090909090909091;0.0;0.0;0.0;0.0;11.0;1.0;0.0;0.0;0.0;0.0;0.0;0.0;0.0;0.0;fragment;marlin;diff;11f;recall;0.0
33;33_87aaf0f70a22686d2107efa01cfa19bba542c386-FRAGMENT.arff;LP;11.0;11.0;1.0;0.0;0.0;11.0;1.0;0.0;0.0;0.0;0.0;11.0;1.0;0.0;0.0;0.0;0.0;0.0;0.0;0.0;0.0;fragment;marlin;diff;11f;recall;0.0
33;33_87aaf0f70a22686d2107efa01cfa19bba542c386-FRAGMENT.arff;RAkELd;11.0;11.0;1.0;10.0;0.9090909090909091;1.0;0.09090909090909091;0.0;0.0;0.0;0.0;11.0;1.0;0.0;0.0;0.0;0.0;0.0;0.0;0.0;0.0;fragment;marlin;diff;11f;recall;0.0
35;35_5cf349a24a610d7223c5bc88193c07c713818028-FRAGMENT.arff;BR;12.0;12.0;1.0;0.0;0.0;12.0;1.0;0.0;0.0;0.0;0.0;12.0;1.0;0.0;0.0;0.0;0.0;0.0;0.0;0.0;0.0;fragment;marlin;diff;11f;recall;0.0
35;35_5cf349a24a610d7223c5bc88193c07c713818028-FRAGMENT.arff;LP;12.0;12.0;1.0;0.0;0.0;12.0;1.0;0.0;0.0;0.0;0.0;12.0;1.0;0.0;0.0;0.0;0.0;0.0;0.0;0.0;0.0;fragment;marlin;diff;11f;recall;0.0
35;35_5cf349a24a610d7223c5bc88193c07c713818028-FRAGMENT.arff;RAkELd;12.0;12.0;1.0;1.0;0.08333333333333333;11.0;0.9166666666666666;0.0;0.0;0.0;0.0;12.0;1.0;0.0;0.0;0.0;0.0;0.0;0.0;0.0;0.0;fragment;marlin;diff;11f;recall;0.0
45;45_72ace55e6ae964a5984a13e09492d1d92295f098-FRAGMENT.arff;BR;3.0;3.0;1.0;0.0;0.0;3.0;1.0;0.0;0.0;0.0;0.0;3.0;1.0;0.0;0.0;0.0;0.0;0.0;0.0;0.0;0.0;fragment;marlin;diff;11f;recall;0.0
45;45_72ace55e6ae964a5984a13e09492d1d92295f098-FRAGMENT.arff;LP;3.0;3.0;1.0;0.0;0.0;3.0;1.0;0.0;0.0;0.0;0.0;3.0;1.0;0.0;0.0;0.0;0.0;0.0;0.0;0.0;0.0;fragment;marlin;diff;11f;recall;0.0
45;45_72ace55e6ae964a5984a13e09492d1d92295f098-FRAGMENT.arff;RAkELd;3.0;3.0;1.0;1.0;0.3333333333333333;2.0;0.6666666666666666;0.0;0.0;0.0;0.0;3.0;1.0;0.0;0.0;0.0;0.0;0.0;0.0;0.0;0.0;fragment;marlin;diff;11f;recall;0.0
46;46_7b70caab7c4bdc45490d83730b62c5c2ea31e98e-FRAGMENT.arff;BR;22.0;22.0;1.0;16.0;0.7272727272727273;6.0;0.2727272727272727;0.0;0.0;0.0;0.0;22.0;1.0;0.0;0.0;0.0;0.0;0.0;0.0;0.0;0.0;fragment;marlin;diff;11f;recall;0.0
46;46_7b70caab7c4bdc45490d83730b62c5c2ea31e98e-FRAGMENT.arff;LP;22.0;22.0;1.0;0.0;0.0;22.0;1.0;0.0;0.0;0.0;0.0;22.0;1.0;0.0;0.0;0.0;0.0;0.0;0.0;0.0;0.0;fragment;marlin;diff;11f;recall;0.0
46;46_7b70caab7c4bdc45490d83730b62c5c2ea31e98e-FRAGMENT.arff;RAkELd;22.0;22.0;1.0;21.0;0.9545454545454546;1.0;0.045454545454545456;0.0;0.0;0.0;0.0;22.0;1.0;0.0;0.0;0.0;0.0;0.0;0.0;0.0;0.0;fragment;marlin;diff;11f;recall;0.0
47;47_ab154d55927776add58c878f7de94e82b07bee1c-FRAGMENT.arff;BR;53.0;53.0;1.0;22.0;0.41509433962264153;31.0;0.5849056603773585;0.0;0.0;0.0;0.0;53.0;1.0;0.0;0.0;0.0;0.0;0.0;0.0;0.0;0.0;fragment;marlin;diff;11f;recall;0.0
47;47_ab154d55927776add58c878f7de94e82b07bee1c-FRAGMENT.arff;LP;53.0;53.0;1.0;0.0;0.0;53.0;1.0;0.0;0.0;0.0;0.0;53.0;1.0;0.0;0.0;0.0;0.0;0.0;0.0;0.0;0.0;fragment;marlin;diff;11f;recall;0.0
47;47_ab154d55927776add58c878f7de94e82b07bee1c-FRAGMENT.arff;RAkELd;53.0;53.0;1.0;33.0;0.6226415094339622;20.0;0.37735849056603776;0.0;0.0;0.0;0.0;53.0;1.0;0.0;0.0;0.0;0.0;0.0;0.0;0.0;0.0;fragment;marlin;diff;11f;recall;0.0
49;49_ba8a53a40fa0adaa947b536639bab998cc872feb-FRAGMENT.arff;BR;1.0;1.0;1.0;0.0;0.0;1.0;1.0;0.0;0.0;0.0;0.0;1.0;1.0;0.0;0.0;0.0;0.0;0.0;0.0;0.0;0.0;fragment;marlin;diff;11f;recall;0.0
49;49_ba8a53a40fa0adaa947b536639bab998cc872feb-FRAGMENT.arff;LP;1.0;1.0;1.0;0.0;0.0;1.0;1.0;0.0;0.0;0.0;0.0;1.0;1.0;0.0;0.0;0.0;0.0;0.0;0.0;0.0;0.0;fragment;marlin;diff;11f;recall;0.0
49;49_ba8a53a40fa0adaa947b536639bab998cc872feb-FRAGMENT.arff;RAkELd;1.0;1.0;1.0;0.0;0.0;1.0;1.0;0.0;0.0;0.0;0.0;1.0;1.0;0.0;0.0;0.0;0.0;0.0;0.0;0.0;0.0;fragment;marlin;diff;11f;recall;0.0
52;52_ff592b056ad492632a810e6c77a7d063b6ce05e3-FRAGMENT.arff;BR;1.0;1.0;1.0;0.0;0.0;1.0;1.0;0.0;0.0;0.0;0.0;1.0;1.0;0.0;0.0;0.0;0.0;0.0;0.0;0.0;0.0;fragment;marlin;diff;11f;recall;0.0
52;52_ff592b056ad492632a810e6c77a7d063b6ce05e3-FRAGMENT.arff;LP;1.0;1.0;1.0;0.0;0.0;1.0;1.0;0.0;0.0;0.0;0.0;1.0;1.0;0.0;0.0;0.0;0.0;0.0;0.0;0.0;0.0;fragment;marlin;diff;11f;recall;0.0
52;52_ff592b056ad492632a810e6c77a7d063b6ce05e3-FRAGMENT.arff;RAkELd;1.0;1.0;1.0;0.0;0.0;1.0;1.0;0.0;0.0;0.0;0.0;1.0;1.0;0.0;0.0;0.0;0.0;0.0;0.0;0.0;0.0;fragment;marlin;diff;11f;recall;0.0
56;56_02b9eceead9903beb9e1cf7d48f05fc2de8a8e8a-FRAGMENT.arff;BR;37.0;37.0;1.0;12.0;0.32432432432432434;25.0;0.6756756756756757;0.0;0.0;0.0;0.0;37.0;1.0;0.0;0.0;0.0;0.0;0.0;0.0;0.0;0.0;fragment;marlin;diff;11f;recall;0.0
56;56_02b9eceead9903beb9e1cf7d48f05fc2de8a8e8a-FRAGMENT.arff;LP;37.0;37.0;1.0;0.0;0.0;37.0;1.0;0.0;0.0;0.0;0.0;37.0;1.0;0.0;0.0;0.0;0.0;0.0;0.0;0.0;0.0;fragment;marlin;diff;11f;recall;0.0
56;56_02b9eceead9903beb9e1cf7d48f05fc2de8a8e8a-FRAGMENT.arff;RAkELd;37.0;37.0;1.0;14.0;0.3783783783783784;23.0;0.6216216216216216;0.0;0.0;0.0;0.0;37.0;1.0;0.0;0.0;0.0;0.0;0.0;0.0;0.0;0.0;fragment;marlin;diff;11f;recall;0.0
57;57_a9c7da06e398101517acc5b7a07e8dcb544df294-FRAGMENT.arff;BR;27.0;27.0;1.0;4.0;0.14814814814814814;23.0;0.8518518518518519;0.0;0.0;0.0;0.0;27.0;1.0;0.0;0.0;0.0;0.0;0.0;0.0;0.0;0.0;fragment;marlin;diff;11f;recall;0.0
57;57_a9c7da06e398101517acc5b7a07e8dcb544df294-FRAGMENT.arff;LP;27.0;27.0;1.0;0.0;0.0;27.0;1.0;0.0;0.0;0.0;0.0;27.0;1.0;0.0;0.0;0.0;0.0;0.0;0.0;0.0;0.0;fragment;marlin;diff;11f;recall;0.0
57;57_a9c7da06e398101517acc5b7a07e8dcb544df294-FRAGMENT.arff;RAkELd;27.0;27.0;1.0;4.0;0.14814814814814814;23.0;0.8518518518518519;0.0;0.0;0.0;0.0;27.0;1.0;0.0;0.0;0.0;0.0;0.0;0.0;0.0;0.0;fragment;marlin;diff;11f;recall;0.0
58;58_65934eee9c6ae792c708bc1cea9996c8a5df67f5-FRAGMENT.arff;BR;85.0;85.0;1.0;52.0;0.611764705882353;33.0;0.38823529411764707;0.0;0.0;0.0;0.0;85.0;1.0;0.0;0.0;0.0;0.0;0.0;0.0;0.0;0.0;fragment;marlin;diff;11f;recall;0.0
58;58_65934eee9c6ae792c708bc1cea9996c8a5df67f5-FRAGMENT.arff;LP;85.0;85.0;1.0;0.0;0.0;85.0;1.0;0.0;0.0;0.0;0.0;85.0;1.0;0.0;0.0;0.0;0.0;0.0;0.0;0.0;0.0;fragment;marlin;diff;11f;recall;0.0
58;58_65934eee9c6ae792c708bc1cea9996c8a5df67f5-FRAGMENT.arff;RAkELd;85.0;85.0;1.0;63.0;0.7411764705882353;22.0;0.25882352941176473;0.0;0.0;0.0;0.0;85.0;1.0;0.0;0.0;0.0;0.0;0.0;0.0;0.0;0.0;fragment;marlin;diff;11f;recall;0.0
62;62_2643ae93d69b4171acb18bf9994b12076b4f2496-FRAGMENT.arff;BR;1.0;1.0;1.0;0.0;0.0;1.0;1.0;0.0;0.0;0.0;0.0;1.0;1.0;0.0;0.0;0.0;0.0;0.0;0.0;0.0;0.0;fragment;marlin;diff;11f;recall;0.0
62;62_2643ae93d69b4171acb18bf9994b12076b4f2496-FRAGMENT.arff;LP;1.0;1.0;1.0;0.0;0.0;1.0;1.0;0.0;0.0;0.0;0.0;1.0;1.0;0.0;0.0;0.0;0.0;0.0;0.0;0.0;0.0;fragment;marlin;diff;11f;recall;0.0
62;62_2643ae93d69b4171acb18bf9994b12076b4f2496-FRAGMENT.arff;RAkELd;1.0;1.0;1.0;0.0;0.0;1.0;1.0;0.0;0.0;0.0;0.0;1.0;1.0;0.0;0.0;0.0;0.0;0.0;0.0;0.0;0.0;fragment;marlin;diff;11f;recall;0.0
63;63_331e82dcd3d7eaf9f76dbec8759f2f730335fea3-FRAGMENT.arff;BR;23.0;23.0;1.0;5.0;0.21739130434782608;18.0;0.782608695652174;0.0;0.0;0.0;0.0;23.0;1.0;0.0;0.0;0.0;0.0;0.0;0.0;0.0;0.0;fragment;marlin;diff;11f;recall;0.0
63;63_331e82dcd3d7eaf9f76dbec8759f2f730335fea3-FRAGMENT.arff;LP;23.0;23.0;1.0;0.0;0.0;23.0;1.0;0.0;0.0;0.0;0.0;23.0;1.0;0.0;0.0;0.0;0.0;0.0;0.0;0.0;0.0;fragment;marlin;diff;11f;recall;0.0
63;63_331e82dcd3d7eaf9f76dbec8759f2f730335fea3-FRAGMENT.arff;RAkELd;23.0;23.0;1.0;5.0;0.21739130434782608;18.0;0.782608695652174;0.0;0.0;0.0;0.0;23.0;1.0;0.0;0.0;0.0;0.0;0.0;0.0;0.0;0.0;fragment;marlin;diff;11f;recall;0.0
64;64_95126c09c0ffbea8f15ba74105f403d8c36683cf-FRAGMENT.arff;BR;31.0;31.0;1.0;9.0;0.2903225806451613;22.0;0.7096774193548387;0.0;0.0;0.0;0.0;31.0;1.0;0.0;0.0;0.0;0.0;0.0;0.0;0.0;0.0;fragment;marlin;diff;11f;recall;0.0
64;64_95126c09c0ffbea8f15ba74105f403d8c36683cf-FRAGMENT.arff;LP;31.0;31.0;1.0;0.0;0.0;31.0;1.0;0.0;0.0;0.0;0.0;31.0;1.0;0.0;0.0;0.0;0.0;0.0;0.0;0.0;0.0;fragment;marlin;diff;11f;recall;0.0
64;64_95126c09c0ffbea8f15ba74105f403d8c36683cf-FRAGMENT.arff;RAkELd;31.0;31.0;1.0;7.0;0.22580645161290322;24.0;0.7741935483870968;0.0;0.0;0.0;0.0;31.0;1.0;0.0;0.0;0.0;0.0;0.0;0.0;0.0;0.0;fragment;marlin;diff;11f;recall;0.0
65;65_5fd41ae872d51961a7f3e60ba9b6a7cba85d61f7-FRAGMENT.arff;BR;28.0;28.0;1.0;7.0;0.25;21.0;0.75;0.0;0.0;0.0;0.0;28.0;1.0;0.0;0.0;0.0;0.0;0.0;0.0;0.0;0.0;fragment;marlin;diff;11f;recall;0.0
65;65_5fd41ae872d51961a7f3e60ba9b6a7cba85d61f7-FRAGMENT.arff;LP;28.0;28.0;1.0;0.0;0.0;28.0;1.0;0.0;0.0;0.0;0.0;28.0;1.0;0.0;0.0;0.0;0.0;0.0;0.0;0.0;0.0;fragment;marlin;diff;11f;recall;0.0
65;65_5fd41ae872d51961a7f3e60ba9b6a7cba85d61f7-FRAGMENT.arff;RAkELd;28.0;28.0;1.0;7.0;0.25;21.0;0.75;0.0;0.0;0.0;0.0;28.0;1.0;0.0;0.0;0.0;0.0;0.0;0.0;0.0;0.0;fragment;marlin;diff;11f;recall;0.0
70;70_edb5ea7efa555b59f17655e20e93d9e93499d5d8-FRAGMENT.arff;BR;44.0;44.0;1.0;2.0;0.045454545454545456;42.0;0.9545454545454546;0.0;0.0;0.0;0.0;44.0;1.0;0.0;0.0;0.0;0.0;0.0;0.0;0.0;0.0;fragment;marlin;diff;11f;recall;0.0
70;70_edb5ea7efa555b59f17655e20e93d9e93499d5d8-FRAGMENT.arff;LP;44.0;44.0;1.0;0.0;0.0;44.0;1.0;0.0;0.0;0.0;0.0;44.0;1.0;0.0;0.0;0.0;0.0;0.0;0.0;0.0;0.0;fragment;marlin;diff;11f;recall;0.0
70;70_edb5ea7efa555b59f17655e20e93d9e93499d5d8-FRAGMENT.arff;RAkELd;44.0;44.0;1.0;3.0;0.06818181818181818;41.0;0.9318181818181818;0.0;0.0;0.0;0.0;44.0;1.0;0.0;0.0;0.0;0.0;0.0;0.0;0.0;0.0;fragment;marlin;diff;11f;recall;0.0
72;72_e63e224a33011f2aa302ee435acc066af8a87ddb-FRAGMENT.arff;BR;27.0;27.0;1.0;4.0;0.14814814814814814;23.0;0.8518518518518519;0.0;0.0;0.0;0.0;27.0;1.0;0.0;0.0;0.0;0.0;0.0;0.0;0.0;0.0;fragment;marlin;diff;11f;recall;0.0
72;72_e63e224a33011f2aa302ee435acc066af8a87ddb-FRAGMENT.arff;LP;27.0;27.0;1.0;0.0;0.0;27.0;1.0;0.0;0.0;0.0;0.0;27.0;1.0;0.0;0.0;0.0;0.0;0.0;0.0;0.0;0.0;fragment;marlin;diff;11f;recall;0.0
72;72_e63e224a33011f2aa302ee435acc066af8a87ddb-FRAGMENT.arff;RAkELd;27.0;27.0;1.0;3.0;0.1111111111111111;24.0;0.8888888888888888;0.0;0.0;0.0;0.0;27.0;1.0;0.0;0.0;0.0;0.0;0.0;0.0;0.0;0.0;fragment;marlin;diff;11f;recall;0.0
73;73_b15902d3b5131d1ddfc4d52ce99a54827ece5d53-FRAGMENT.arff;BR;44.0;44.0;1.0;1.0;0.022727272727272728;43.0;0.9772727272727273;0.0;0.0;0.0;0.0;44.0;1.0;0.0;0.0;0.0;0.0;0.0;0.0;0.0;0.0;fragment;marlin;diff;11f;recall;0.0
73;73_b15902d3b5131d1ddfc4d52ce99a54827ece5d53-FRAGMENT.arff;LP;44.0;44.0;1.0;0.0;0.0;44.0;1.0;0.0;0.0;0.0;0.0;44.0;1.0;0.0;0.0;0.0;0.0;0.0;0.0;0.0;0.0;fragment;marlin;diff;11f;recall;0.0
73;73_b15902d3b5131d1ddfc4d52ce99a54827ece5d53-FRAGMENT.arff;RAkELd;44.0;44.0;1.0;1.0;0.022727272727272728;43.0;0.9772727272727273;0.0;0.0;0.0;0.0;44.0;1.0;0.0;0.0;0.0;0.0;0.0;0.0;0.0;0.0;fragment;marlin;diff;11f;recall;0.0
75;75_ff69e0a772c71226be7d6000c5096c0a850e3a62-FRAGMENT.arff;BR;2.0;2.0;1.0;1.0;0.5;1.0;0.5;0.0;0.0;0.0;0.0;2.0;1.0;0.0;0.0;0.0;0.0;0.0;0.0;0.0;0.0;fragment;marlin;diff;11f;recall;0.0
75;75_ff69e0a772c71226be7d6000c5096c0a850e3a62-FRAGMENT.arff;LP;2.0;2.0;1.0;0.0;0.0;2.0;1.0;0.0;0.0;0.0;0.0;2.0;1.0;0.0;0.0;0.0;0.0;0.0;0.0;0.0;0.0;fragment;marlin;diff;11f;recall;0.0
75;75_ff69e0a772c71226be7d6000c5096c0a850e3a62-FRAGMENT.arff;RAkELd;2.0;2.0;1.0;0.0;0.0;2.0;1.0;0.0;0.0;0.0;0.0;2.0;1.0;0.0;0.0;0.0;0.0;0.0;0.0;0.0;0.0;fragment;marlin;diff;11f;recall;0.0
82;82_8a08b8e07e0bd84c1778eca7f3f32fafff5c3af5-FRAGMENT.arff;BR;25.0;25.0;1.0;3.0;0.12;22.0;0.88;0.0;0.0;0.0;0.0;25.0;1.0;0.0;0.0;0.0;0.0;0.0;0.0;0.0;0.0;fragment;marlin;diff;11f;recall;0.0
82;82_8a08b8e07e0bd84c1778eca7f3f32fafff5c3af5-FRAGMENT.arff;LP;25.0;25.0;1.0;0.0;0.0;25.0;1.0;0.0;0.0;0.0;0.0;25.0;1.0;0.0;0.0;0.0;0.0;0.0;0.0;0.0;0.0;fragment;marlin;diff;11f;recall;0.0
82;82_8a08b8e07e0bd84c1778eca7f3f32fafff5c3af5-FRAGMENT.arff;RAkELd;25.0;25.0;1.0;3.0;0.12;22.0;0.88;0.0;0.0;0.0;0.0;25.0;1.0;0.0;0.0;0.0;0.0;0.0;0.0;0.0;0.0;fragment;marlin;diff;11f;recall;0.0
84;84_537b5c155dd0e35080528bcaba088d0d177aa2bd-FRAGMENT.arff;BR;5.0;5.0;1.0;3.0;0.6;2.0;0.4;0.0;0.0;0.0;0.0;5.0;1.0;0.0;0.0;0.0;0.0;0.0;0.0;0.0;0.0;fragment;marlin;diff;11f;recall;0.0
84;84_537b5c155dd0e35080528bcaba088d0d177aa2bd-FRAGMENT.arff;LP;5.0;5.0;1.0;0.0;0.0;5.0;1.0;0.0;0.0;0.0;0.0;5.0;1.0;0.0;0.0;0.0;0.0;0.0;0.0;0.0;0.0;fragment;marlin;diff;11f;recall;0.0
84;84_537b5c155dd0e35080528bcaba088d0d177aa2bd-FRAGMENT.arff;RAkELd;5.0;5.0;1.0;4.0;0.8;1.0;0.2;0.0;0.0;0.0;0.0;5.0;1.0;0.0;0.0;0.0;0.0;0.0;0.0;0.0;0.0;fragment;marlin;diff;11f;recall;0.0
89;89_7a2d1f5aeb85225a7d71e8b95982e36c5fb17722-FRAGMENT.arff;BR;2.0;2.0;1.0;2.0;1.0;0.0;0.0;0.0;0.0;0.0;0.0;2.0;1.0;0.0;0.0;0.0;0.0;0.0;0.0;0.0;0.0;fragment;marlin;diff;11f;recall;0.0
89;89_7a2d1f5aeb85225a7d71e8b95982e36c5fb17722-FRAGMENT.arff;LP;2.0;2.0;1.0;0.0;0.0;2.0;1.0;0.0;0.0;0.0;0.0;2.0;1.0;0.0;0.0;0.0;0.0;0.0;0.0;0.0;0.0;fragment;marlin;diff;11f;recall;0.0
89;89_7a2d1f5aeb85225a7d71e8b95982e36c5fb17722-FRAGMENT.arff;RAkELd;2.0;2.0;1.0;0.0;0.0;2.0;1.0;0.0;0.0;0.0;0.0;2.0;1.0;0.0;0.0;0.0;0.0;0.0;0.0;0.0;0.0;fragment;marlin;diff;11f;recall;0.0
90;90_5ad1d19384ba3ea8a1e6c33babc63de1d28acf31-FRAGMENT.arff;BR;46.0;46.0;1.0;8.0;0.17391304347826086;38.0;0.8260869565217391;0.0;0.0;0.0;0.0;46.0;1.0;0.0;0.0;0.0;0.0;0.0;0.0;0.0;0.0;fragment;marlin;diff;11f;recall;0.0
90;90_5ad1d19384ba3ea8a1e6c33babc63de1d28acf31-FRAGMENT.arff;LP;46.0;46.0;1.0;0.0;0.0;46.0;1.0;0.0;0.0;0.0;0.0;46.0;1.0;0.0;0.0;0.0;0.0;0.0;0.0;0.0;0.0;fragment;marlin;diff;11f;recall;0.0
90;90_5ad1d19384ba3ea8a1e6c33babc63de1d28acf31-FRAGMENT.arff;RAkELd;46.0;46.0;1.0;10.0;0.21739130434782608;36.0;0.782608695652174;0.0;0.0;0.0;0.0;46.0;1.0;0.0;0.0;0.0;0.0;0.0;0.0;0.0;0.0;fragment;marlin;diff;11f;recall;0.0
94;94_915ef2d4a136df67f468917c725d032919e189d4-FRAGMENT.arff;BR;46.0;46.0;1.0;5.0;0.10869565217391304;41.0;0.8913043478260869;0.0;0.0;0.0;0.0;46.0;1.0;0.0;0.0;0.0;0.0;0.0;0.0;0.0;0.0;fragment;marlin;diff;11f;recall;0.0
94;94_915ef2d4a136df67f468917c725d032919e189d4-FRAGMENT.arff;LP;46.0;46.0;1.0;0.0;0.0;46.0;1.0;0.0;0.0;0.0;0.0;46.0;1.0;0.0;0.0;0.0;0.0;0.0;0.0;0.0;0.0;fragment;marlin;diff;11f;recall;0.0
94;94_915ef2d4a136df67f468917c725d032919e189d4-FRAGMENT.arff;RAkELd;46.0;46.0;1.0;7.0;0.15217391304347827;39.0;0.8478260869565217;0.0;0.0;0.0;0.0;46.0;1.0;0.0;0.0;0.0;0.0;0.0;0.0;0.0;0.0;fragment;marlin;diff;11f;recall;0.0
100;100_6dba34ab0ed5b5f89b70ebe71086200606319bd8-FRAGMENT.arff;BR;65.0;65.0;1.0;44.0;0.676923076923077;21.0;0.3230769230769231;0.0;0.0;0.0;0.0;65.0;1.0;0.0;0.0;0.0;0.0;0.0;0.0;0.0;0.0;fragment;marlin;diff;11f;recall;0.0
100;100_6dba34ab0ed5b5f89b70ebe71086200606319bd8-FRAGMENT.arff;LP;65.0;65.0;1.0;0.0;0.0;65.0;1.0;0.0;0.0;0.0;0.0;65.0;1.0;0.0;0.0;0.0;0.0;0.0;0.0;0.0;0.0;fragment;marlin;diff;11f;recall;0.0
100;100_6dba34ab0ed5b5f89b70ebe71086200606319bd8-FRAGMENT.arff;RAkELd;65.0;65.0;1.0;26.0;0.4;39.0;0.6;0.0;0.0;0.0;0.0;65.0;1.0;0.0;0.0;0.0;0.0;0.0;0.0;0.0;0.0;fragment;marlin;diff;11f;recall;0.0
105;105_cd2268f10a88de393a565c887c8891c7f7979a97-FRAGMENT.arff;BR;4.0;4.0;1.0;4.0;1.0;0.0;0.0;0.0;0.0;0.0;0.0;4.0;1.0;0.0;0.0;0.0;0.0;0.0;0.0;0.0;0.0;fragment;marlin;diff;11f;recall;0.0
105;105_cd2268f10a88de393a565c887c8891c7f7979a97-FRAGMENT.arff;LP;4.0;4.0;1.0;0.0;0.0;4.0;1.0;0.0;0.0;0.0;0.0;4.0;1.0;0.0;0.0;0.0;0.0;0.0;0.0;0.0;0.0;fragment;marlin;diff;11f;recall;0.0
105;105_cd2268f10a88de393a565c887c8891c7f7979a97-FRAGMENT.arff;RAkELd;4.0;4.0;1.0;4.0;1.0;0.0;0.0;0.0;0.0;0.0;0.0;4.0;1.0;0.0;0.0;0.0;0.0;0.0;0.0;0.0;0.0;fragment;marlin;diff;11f;recall;0.0
106;106_b21d5193f25e3e388ddc3787aba7f0086a1abad7-FRAGMENT.arff;BR;62.0;62.0;1.0;39.0;0.6290322580645161;23.0;0.3709677419354839;0.0;0.0;0.0;0.0;62.0;1.0;0.0;0.0;0.0;0.0;0.0;0.0;0.0;0.0;fragment;marlin;diff;11f;recall;0.0
106;106_b21d5193f25e3e388ddc3787aba7f0086a1abad7-FRAGMENT.arff;LP;62.0;62.0;1.0;0.0;0.0;62.0;1.0;0.0;0.0;0.0;0.0;62.0;1.0;0.0;0.0;0.0;0.0;0.0;0.0;0.0;0.0;fragment;marlin;diff;11f;recall;0.0
106;106_b21d5193f25e3e388ddc3787aba7f0086a1abad7-FRAGMENT.arff;RAkELd;62.0;62.0;1.0;26.0;0.41935483870967744;36.0;0.5806451612903226;0.0;0.0;0.0;0.0;62.0;1.0;0.0;0.0;0.0;0.0;0.0;0.0;0.0;0.0;fragment;marlin;diff;11f;recall;0.0
107;107_eeb4f029dbaa8f12350f631441303832fc14fc9e-FRAGMENT.arff;BR;4.0;4.0;1.0;2.0;0.5;2.0;0.5;0.0;0.0;0.0;0.0;4.0;1.0;0.0;0.0;0.0;0.0;0.0;0.0;0.0;0.0;fragment;marlin;diff;11f;recall;0.0
107;107_eeb4f029dbaa8f12350f631441303832fc14fc9e-FRAGMENT.arff;LP;4.0;4.0;1.0;0.0;0.0;4.0;1.0;0.0;0.0;0.0;0.0;4.0;1.0;0.0;0.0;0.0;0.0;0.0;0.0;0.0;0.0;fragment;marlin;diff;11f;recall;0.0
107;107_eeb4f029dbaa8f12350f631441303832fc14fc9e-FRAGMENT.arff;RAkELd;4.0;4.0;1.0;4.0;1.0;0.0;0.0;0.0;0.0;0.0;0.0;4.0;1.0;0.0;0.0;0.0;0.0;0.0;0.0;0.0;0.0;fragment;marlin;diff;11f;recall;0.0
109;109_379ea642e181ee072a80d361dfb043e7f3318103-FRAGMENT.arff;BR;3.0;3.0;1.0;3.0;1.0;0.0;0.0;0.0;0.0;0.0;0.0;3.0;1.0;0.0;0.0;0.0;0.0;0.0;0.0;0.0;0.0;fragment;marlin;diff;11f;recall;0.0
109;109_379ea642e181ee072a80d361dfb043e7f3318103-FRAGMENT.arff;LP;3.0;3.0;1.0;0.0;0.0;3.0;1.0;0.0;0.0;0.0;0.0;3.0;1.0;0.0;0.0;0.0;0.0;0.0;0.0;0.0;0.0;fragment;marlin;diff;11f;recall;0.0
109;109_379ea642e181ee072a80d361dfb043e7f3318103-FRAGMENT.arff;RAkELd;3.0;3.0;1.0;3.0;1.0;0.0;0.0;0.0;0.0;0.0;0.0;3.0;1.0;0.0;0.0;0.0;0.0;0.0;0.0;0.0;0.0;fragment;marlin;diff;11f;recall;0.0
110;110_924bab1a031101634ba350cd8daf1c5a2e08430a-FRAGMENT.arff;BR;4.0;4.0;1.0;0.0;0.0;4.0;1.0;0.0;0.0;0.0;0.0;4.0;1.0;0.0;0.0;0.0;0.0;0.0;0.0;0.0;0.0;fragment;marlin;diff;11f;recall;0.0
110;110_924bab1a031101634ba350cd8daf1c5a2e08430a-FRAGMENT.arff;LP;4.0;4.0;1.0;0.0;0.0;4.0;1.0;0.0;0.0;0.0;0.0;4.0;1.0;0.0;0.0;0.0;0.0;0.0;0.0;0.0;0.0;fragment;marlin;diff;11f;recall;0.0
110;110_924bab1a031101634ba350cd8daf1c5a2e08430a-FRAGMENT.arff;RAkELd;4.0;4.0;1.0;4.0;1.0;0.0;0.0;0.0;0.0;0.0;0.0;4.0;1.0;0.0;0.0;0.0;0.0;0.0;0.0;0.0;0.0;fragment;marlin;diff;11f;recall;0.0
116;116_0e0e4945d8ad060aa50552a0b27369c18442c2d0-FRAGMENT.arff;BR;5.0;5.0;1.0;3.0;0.6;2.0;0.4;0.0;0.0;0.0;0.0;5.0;1.0;0.0;0.0;0.0;0.0;0.0;0.0;0.0;0.0;fragment;marlin;diff;11f;recall;0.0
116;116_0e0e4945d8ad060aa50552a0b27369c18442c2d0-FRAGMENT.arff;LP;5.0;5.0;1.0;0.0;0.0;5.0;1.0;0.0;0.0;0.0;0.0;5.0;1.0;0.0;0.0;0.0;0.0;0.0;0.0;0.0;0.0;fragment;marlin;diff;11f;recall;0.0
116;116_0e0e4945d8ad060aa50552a0b27369c18442c2d0-FRAGMENT.arff;RAkELd;5.0;5.0;1.0;5.0;1.0;0.0;0.0;0.0;0.0;0.0;0.0;5.0;1.0;0.0;0.0;0.0;0.0;0.0;0.0;0.0;0.0;fragment;marlin;diff;11f;recall;0.0
121;121_27654bfe697ee08a83f4f39567357827ef77fd1f-FRAGMENT.arff;BR;1.0;1.0;1.0;0.0;0.0;1.0;1.0;0.0;0.0;0.0;0.0;1.0;1.0;0.0;0.0;0.0;0.0;0.0;0.0;0.0;0.0;fragment;marlin;diff;11f;recall;0.0
121;121_27654bfe697ee08a83f4f39567357827ef77fd1f-FRAGMENT.arff;LP;1.0;1.0;1.0;0.0;0.0;1.0;1.0;0.0;0.0;0.0;0.0;1.0;1.0;0.0;0.0;0.0;0.0;0.0;0.0;0.0;0.0;fragment;marlin;diff;11f;recall;0.0
121;121_27654bfe697ee08a83f4f39567357827ef77fd1f-FRAGMENT.arff;RAkELd;1.0;1.0;1.0;0.0;0.0;1.0;1.0;0.0;0.0;0.0;0.0;1.0;1.0;0.0;0.0;0.0;0.0;0.0;0.0;0.0;0.0;fragment;marlin;diff;11f;recall;0.0
125;125_a6823a84e18f7738cafe309c21b55a110ea51d6d-FRAGMENT.arff;BR;6.0;6.0;1.0;6.0;1.0;0.0;0.0;0.0;0.0;0.0;0.0;6.0;1.0;0.0;0.0;0.0;0.0;0.0;0.0;0.0;0.0;fragment;marlin;diff;11f;recall;0.0
125;125_a6823a84e18f7738cafe309c21b55a110ea51d6d-FRAGMENT.arff;LP;6.0;6.0;1.0;0.0;0.0;6.0;1.0;0.0;0.0;0.0;0.0;6.0;1.0;0.0;0.0;0.0;0.0;0.0;0.0;0.0;0.0;fragment;marlin;diff;11f;recall;0.0
125;125_a6823a84e18f7738cafe309c21b55a110ea51d6d-FRAGMENT.arff;RAkELd;6.0;6.0;1.0;0.0;0.0;6.0;1.0;0.0;0.0;0.0;0.0;6.0;1.0;0.0;0.0;0.0;0.0;0.0;0.0;0.0;0.0;fragment;marlin;diff;11f;recall;0.0
127;127_191f36b4933be2686a51dd62dbe532ee90f38ab5-FRAGMENT.arff;BR;22.0;22.0;1.0;14.0;0.6363636363636364;8.0;0.36363636363636365;0.0;0.0;0.0;0.0;22.0;1.0;0.0;0.0;0.0;0.0;0.0;0.0;0.0;0.0;fragment;marlin;diff;11f;recall;0.0
127;127_191f36b4933be2686a51dd62dbe532ee90f38ab5-FRAGMENT.arff;LP;22.0;22.0;1.0;0.0;0.0;22.0;1.0;0.0;0.0;0.0;0.0;22.0;1.0;0.0;0.0;0.0;0.0;0.0;0.0;0.0;0.0;fragment;marlin;diff;11f;recall;0.0
127;127_191f36b4933be2686a51dd62dbe532ee90f38ab5-FRAGMENT.arff;RAkELd;22.0;22.0;1.0;14.0;0.6363636363636364;8.0;0.36363636363636365;0.0;0.0;0.0;0.0;22.0;1.0;0.0;0.0;0.0;0.0;0.0;0.0;0.0;0.0;fragment;marlin;diff;11f;recall;0.0
129;129_4d6a5c29df87270b13c6ec7b5adb58c1aa29e3a8-FRAGMENT.arff;BR;22.0;22.0;1.0;18.0;0.8181818181818182;4.0;0.18181818181818182;0.0;0.0;0.0;0.0;22.0;1.0;0.0;0.0;0.0;0.0;0.0;0.0;0.0;0.0;fragment;marlin;diff;11f;recall;0.0
129;129_4d6a5c29df87270b13c6ec7b5adb58c1aa29e3a8-FRAGMENT.arff;LP;22.0;22.0;1.0;0.0;0.0;22.0;1.0;0.0;0.0;0.0;0.0;22.0;1.0;0.0;0.0;0.0;0.0;0.0;0.0;0.0;0.0;fragment;marlin;diff;11f;recall;0.0
129;129_4d6a5c29df87270b13c6ec7b5adb58c1aa29e3a8-FRAGMENT.arff;RAkELd;22.0;22.0;1.0;18.0;0.8181818181818182;4.0;0.18181818181818182;0.0;0.0;0.0;0.0;22.0;1.0;0.0;0.0;0.0;0.0;0.0;0.0;0.0;0.0;fragment;marlin;diff;11f;recall;0.0
12;12_0b1423c303c6d7eef7d9f8f04666dd1a1a529bb7-FRAGMENT.arff;BR;18.0;18.0;1.0;0.0;0.0;18.0;1.0;0.0;0.0;0.0;0.0;18.0;1.0;0.0;0.0;0.0;0.0;0.0;0.0;0.0;0.0;fragment;marlin;diff;11f;fscore;0.0
12;12_0b1423c303c6d7eef7d9f8f04666dd1a1a529bb7-FRAGMENT.arff;LP;18.0;18.0;1.0;0.0;0.0;18.0;1.0;0.0;0.0;0.0;0.0;18.0;1.0;0.0;0.0;0.0;0.0;0.0;0.0;0.0;0.0;fragment;marlin;diff;11f;fscore;0.0
12;12_0b1423c303c6d7eef7d9f8f04666dd1a1a529bb7-FRAGMENT.arff;RAkELd;18.0;18.0;1.0;0.0;0.0;18.0;1.0;0.0;0.0;0.0;0.0;18.0;1.0;0.0;0.0;0.0;0.0;0.0;0.0;0.0;0.0;fragment;marlin;diff;11f;fscore;0.0
13;13_094afe7c1065d5663628b389f27687a5f465abb8-FRAGMENT.arff;BR;6.0;6.0;1.0;2.0;0.3333333333333333;4.0;0.6666666666666666;0.0;0.0;0.0;0.0;6.0;1.0;0.0;0.0;0.0;0.0;0.0;0.0;0.0;0.0;fragment;marlin;diff;11f;fscore;0.0
13;13_094afe7c1065d5663628b389f27687a5f465abb8-FRAGMENT.arff;LP;6.0;6.0;1.0;0.0;0.0;6.0;1.0;0.0;0.0;0.0;0.0;6.0;1.0;0.0;0.0;0.0;0.0;0.0;0.0;0.0;0.0;fragment;marlin;diff;11f;fscore;0.0
13;13_094afe7c1065d5663628b389f27687a5f465abb8-FRAGMENT.arff;RAkELd;6.0;6.0;1.0;6.0;1.0;0.0;0.0;0.0;0.0;0.0;0.0;6.0;1.0;0.0;0.0;0.0;0.0;0.0;0.0;0.0;0.0;fragment;marlin;diff;11f;fscore;0.0
17;17_d15f01e1b45119838900da53128c619ebe93895d-FRAGMENT.arff;BR;38.0;38.0;1.0;0.0;0.0;38.0;1.0;0.0;0.0;0.0;0.0;38.0;1.0;0.0;0.0;0.0;0.0;0.0;0.0;0.0;0.0;fragment;marlin;diff;11f;fscore;0.0
17;17_d15f01e1b45119838900da53128c619ebe93895d-FRAGMENT.arff;LP;38.0;38.0;1.0;0.0;0.0;38.0;1.0;0.0;0.0;0.0;0.0;38.0;1.0;0.0;0.0;0.0;0.0;0.0;0.0;0.0;0.0;fragment;marlin;diff;11f;fscore;0.0
17;17_d15f01e1b45119838900da53128c619ebe93895d-FRAGMENT.arff;RAkELd;38.0;38.0;1.0;0.0;0.0;38.0;1.0;0.0;0.0;0.0;0.0;38.0;1.0;0.0;0.0;0.0;0.0;0.0;0.0;0.0;0.0;fragment;marlin;diff;11f;fscore;0.0
18;18_00674af3a82e6b6b517a12ae3e77803df4f4892d-FRAGMENT.arff;BR;109.0;109.0;1.0;43.0;0.3944954128440367;66.0;0.6055045871559633;0.0;0.0;0.0;0.0;109.0;1.0;0.0;0.0;0.0;0.0;0.0;0.0;0.0;0.0;fragment;marlin;diff;11f;fscore;0.0
18;18_00674af3a82e6b6b517a12ae3e77803df4f4892d-FRAGMENT.arff;LP;109.0;109.0;1.0;0.0;0.0;109.0;1.0;0.0;0.0;0.0;0.0;109.0;1.0;0.0;0.0;0.0;0.0;0.0;0.0;0.0;0.0;fragment;marlin;diff;11f;fscore;0.0
18;18_00674af3a82e6b6b517a12ae3e77803df4f4892d-FRAGMENT.arff;RAkELd;109.0;109.0;1.0;43.0;0.3944954128440367;66.0;0.6055045871559633;0.0;0.0;0.0;0.0;109.0;1.0;0.0;0.0;0.0;0.0;0.0;0.0;0.0;0.0;fragment;marlin;diff;11f;fscore;0.0
19;19_40e80816235739064fcc7fd74228c9c225387caf-FRAGMENT.arff;BR;6.0;6.0;1.0;0.0;0.0;6.0;1.0;0.0;0.0;0.0;0.0;6.0;1.0;0.0;0.0;0.0;0.0;0.0;0.0;0.0;0.0;fragment;marlin;diff;11f;fscore;0.0
19;19_40e80816235739064fcc7fd74228c9c225387caf-FRAGMENT.arff;LP;6.0;6.0;1.0;0.0;0.0;6.0;1.0;0.0;0.0;0.0;0.0;6.0;1.0;0.0;0.0;0.0;0.0;0.0;0.0;0.0;0.0;fragment;marlin;diff;11f;fscore;0.0
19;19_40e80816235739064fcc7fd74228c9c225387caf-FRAGMENT.arff;RAkELd;6.0;6.0;1.0;0.0;0.0;6.0;1.0;0.0;0.0;0.0;0.0;6.0;1.0;0.0;0.0;0.0;0.0;0.0;0.0;0.0;0.0;fragment;marlin;diff;11f;fscore;0.0
20;20_8bcdb9f5f062fe68d90e31752453e1d662b3f0e2-FRAGMENT.arff;BR;6.0;6.0;1.0;3.0;0.5;3.0;0.5;0.0;0.0;0.0;0.0;6.0;1.0;0.0;0.0;0.0;0.0;0.0;0.0;0.0;0.0;fragment;marlin;diff;11f;fscore;0.0
20;20_8bcdb9f5f062fe68d90e31752453e1d662b3f0e2-FRAGMENT.arff;LP;6.0;6.0;1.0;0.0;0.0;6.0;1.0;0.0;0.0;0.0;0.0;6.0;1.0;0.0;0.0;0.0;0.0;0.0;0.0;0.0;0.0;fragment;marlin;diff;11f;fscore;0.0
20;20_8bcdb9f5f062fe68d90e31752453e1d662b3f0e2-FRAGMENT.arff;RAkELd;6.0;6.0;1.0;3.0;0.5;3.0;0.5;0.0;0.0;0.0;0.0;6.0;1.0;0.0;0.0;0.0;0.0;0.0;0.0;0.0;0.0;fragment;marlin;diff;11f;fscore;0.0
22;22_ea86a5e10f7b8c0b2e0e0bf97a1fc95dbac4ae89-FRAGMENT.arff;BR;20.0;20.0;1.0;8.0;0.4;12.0;0.6;0.0;0.0;0.0;0.0;20.0;1.0;0.0;0.0;0.0;0.0;0.0;0.0;0.0;0.0;fragment;marlin;diff;11f;fscore;0.0
22;22_ea86a5e10f7b8c0b2e0e0bf97a1fc95dbac4ae89-FRAGMENT.arff;LP;20.0;20.0;1.0;0.0;0.0;20.0;1.0;0.0;0.0;0.0;0.0;20.0;1.0;0.0;0.0;0.0;0.0;0.0;0.0;0.0;0.0;fragment;marlin;diff;11f;fscore;0.0
22;22_ea86a5e10f7b8c0b2e0e0bf97a1fc95dbac4ae89-FRAGMENT.arff;RAkELd;20.0;20.0;1.0;8.0;0.4;12.0;0.6;0.0;0.0;0.0;0.0;20.0;1.0;0.0;0.0;0.0;0.0;0.0;0.0;0.0;0.0;fragment;marlin;diff;11f;fscore;0.0
23;23_04d3b5537f7c23adf7ea362a8492d21114aa6a2e-FRAGMENT.arff;BR;45.0;45.0;1.0;11.0;0.24444444444444444;34.0;0.7555555555555555;0.0;0.0;0.0;0.0;45.0;1.0;0.0;0.0;0.0;0.0;0.0;0.0;0.0;0.0;fragment;marlin;diff;11f;fscore;0.0
23;23_04d3b5537f7c23adf7ea362a8492d21114aa6a2e-FRAGMENT.arff;LP;45.0;45.0;1.0;0.0;0.0;45.0;1.0;0.0;0.0;0.0;0.0;45.0;1.0;0.0;0.0;0.0;0.0;0.0;0.0;0.0;0.0;fragment;marlin;diff;11f;fscore;0.0
23;23_04d3b5537f7c23adf7ea362a8492d21114aa6a2e-FRAGMENT.arff;RAkELd;45.0;45.0;1.0;18.0;0.4;27.0;0.6;0.0;0.0;0.0;0.0;45.0;1.0;0.0;0.0;0.0;0.0;0.0;0.0;0.0;0.0;fragment;marlin;diff;11f;fscore;0.0
24;24_2e8e8878e55f1455155e43590afbaa1ed21e8e3f-FRAGMENT.arff;BR;49.0;49.0;1.0;8.0;0.16326530612244897;41.0;0.8367346938775511;0.0;0.0;0.0;0.0;49.0;1.0;0.0;0.0;0.0;0.0;0.0;0.0;0.0;0.0;fragment;marlin;diff;11f;fscore;0.0
24;24_2e8e8878e55f1455155e43590afbaa1ed21e8e3f-FRAGMENT.arff;LP;49.0;49.0;1.0;0.0;0.0;49.0;1.0;0.0;0.0;0.0;0.0;49.0;1.0;0.0;0.0;0.0;0.0;0.0;0.0;0.0;0.0;fragment;marlin;diff;11f;fscore;0.0
24;24_2e8e8878e55f1455155e43590afbaa1ed21e8e3f-FRAGMENT.arff;RAkELd;49.0;49.0;1.0;8.0;0.16326530612244897;41.0;0.8367346938775511;0.0;0.0;0.0;0.0;49.0;1.0;0.0;0.0;0.0;0.0;0.0;0.0;0.0;0.0;fragment;marlin;diff;11f;fscore;0.0
27;27_e8092898b1c4db328a2f5d247fe06603f586f924-FRAGMENT.arff;BR;4.0;4.0;1.0;0.0;0.0;4.0;1.0;0.0;0.0;0.0;0.0;4.0;1.0;0.0;0.0;0.0;0.0;0.0;0.0;0.0;0.0;fragment;marlin;diff;11f;fscore;0.0
27;27_e8092898b1c4db328a2f5d247fe06603f586f924-FRAGMENT.arff;LP;4.0;4.0;1.0;0.0;0.0;4.0;1.0;0.0;0.0;0.0;0.0;4.0;1.0;0.0;0.0;0.0;0.0;0.0;0.0;0.0;0.0;fragment;marlin;diff;11f;fscore;0.0
27;27_e8092898b1c4db328a2f5d247fe06603f586f924-FRAGMENT.arff;RAkELd;4.0;4.0;1.0;0.0;0.0;4.0;1.0;0.0;0.0;0.0;0.0;4.0;1.0;0.0;0.0;0.0;0.0;0.0;0.0;0.0;0.0;fragment;marlin;diff;11f;fscore;0.0
29;29_1740a83e11c678c8621e6497350db13cd3d2426e-FRAGMENT.arff;BR;1.0;1.0;1.0;0.0;0.0;1.0;1.0;0.0;0.0;0.0;0.0;1.0;1.0;0.0;0.0;0.0;0.0;0.0;0.0;0.0;0.0;fragment;marlin;diff;11f;fscore;0.0
29;29_1740a83e11c678c8621e6497350db13cd3d2426e-FRAGMENT.arff;LP;1.0;1.0;1.0;0.0;0.0;1.0;1.0;0.0;0.0;0.0;0.0;1.0;1.0;0.0;0.0;0.0;0.0;0.0;0.0;0.0;0.0;fragment;marlin;diff;11f;fscore;0.0
29;29_1740a83e11c678c8621e6497350db13cd3d2426e-FRAGMENT.arff;RAkELd;1.0;1.0;1.0;0.0;0.0;1.0;1.0;0.0;0.0;0.0;0.0;1.0;1.0;0.0;0.0;0.0;0.0;0.0;0.0;0.0;0.0;fragment;marlin;diff;11f;fscore;0.0
30;30_900e0c9bf23f7df6a2057af4b2c1f166e55e9163-FRAGMENT.arff;BR;54.0;54.0;1.0;35.0;0.6481481481481481;19.0;0.35185185185185186;0.0;0.0;0.0;0.0;54.0;1.0;0.0;0.0;0.0;0.0;0.0;0.0;0.0;0.0;fragment;marlin;diff;11f;fscore;0.0
30;30_900e0c9bf23f7df6a2057af4b2c1f166e55e9163-FRAGMENT.arff;LP;54.0;54.0;1.0;0.0;0.0;54.0;1.0;0.0;0.0;0.0;0.0;54.0;1.0;0.0;0.0;0.0;0.0;0.0;0.0;0.0;0.0;fragment;marlin;diff;11f;fscore;0.0
30;30_900e0c9bf23f7df6a2057af4b2c1f166e55e9163-FRAGMENT.arff;RAkELd;54.0;54.0;1.0;20.0;0.37037037037037035;34.0;0.6296296296296297;0.0;0.0;0.0;0.0;54.0;1.0;0.0;0.0;0.0;0.0;0.0;0.0;0.0;0.0;fragment;marlin;diff;11f;fscore;0.0
33;33_87aaf0f70a22686d2107efa01cfa19bba542c386-FRAGMENT.arff;BR;11.0;11.0;1.0;10.0;0.9090909090909091;1.0;0.09090909090909091;0.0;0.0;0.0;0.0;11.0;1.0;0.0;0.0;0.0;0.0;0.0;0.0;0.0;0.0;fragment;marlin;diff;11f;fscore;0.0
33;33_87aaf0f70a22686d2107efa01cfa19bba542c386-FRAGMENT.arff;LP;11.0;11.0;1.0;0.0;0.0;11.0;1.0;0.0;0.0;0.0;0.0;11.0;1.0;0.0;0.0;0.0;0.0;0.0;0.0;0.0;0.0;fragment;marlin;diff;11f;fscore;0.0
33;33_87aaf0f70a22686d2107efa01cfa19bba542c386-FRAGMENT.arff;RAkELd;11.0;11.0;1.0;10.0;0.9090909090909091;1.0;0.09090909090909091;0.0;0.0;0.0;0.0;11.0;1.0;0.0;0.0;0.0;0.0;0.0;0.0;0.0;0.0;fragment;marlin;diff;11f;fscore;0.0
35;35_5cf349a24a610d7223c5bc88193c07c713818028-FRAGMENT.arff;BR;12.0;12.0;1.0;0.0;0.0;12.0;1.0;0.0;0.0;0.0;0.0;12.0;1.0;0.0;0.0;0.0;0.0;0.0;0.0;0.0;0.0;fragment;marlin;diff;11f;fscore;0.0
35;35_5cf349a24a610d7223c5bc88193c07c713818028-FRAGMENT.arff;LP;12.0;12.0;1.0;0.0;0.0;12.0;1.0;0.0;0.0;0.0;0.0;12.0;1.0;0.0;0.0;0.0;0.0;0.0;0.0;0.0;0.0;fragment;marlin;diff;11f;fscore;0.0
35;35_5cf349a24a610d7223c5bc88193c07c713818028-FRAGMENT.arff;RAkELd;12.0;12.0;1.0;1.0;0.08333333333333333;11.0;0.9166666666666666;0.0;0.0;0.0;0.0;12.0;1.0;0.0;0.0;0.0;0.0;0.0;0.0;0.0;0.0;fragment;marlin;diff;11f;fscore;0.0
45;45_72ace55e6ae964a5984a13e09492d1d92295f098-FRAGMENT.arff;BR;3.0;3.0;1.0;0.0;0.0;3.0;1.0;0.0;0.0;0.0;0.0;3.0;1.0;0.0;0.0;0.0;0.0;0.0;0.0;0.0;0.0;fragment;marlin;diff;11f;fscore;0.0
45;45_72ace55e6ae964a5984a13e09492d1d92295f098-FRAGMENT.arff;LP;3.0;3.0;1.0;0.0;0.0;3.0;1.0;0.0;0.0;0.0;0.0;3.0;1.0;0.0;0.0;0.0;0.0;0.0;0.0;0.0;0.0;fragment;marlin;diff;11f;fscore;0.0
45;45_72ace55e6ae964a5984a13e09492d1d92295f098-FRAGMENT.arff;RAkELd;3.0;3.0;1.0;1.0;0.3333333333333333;2.0;0.6666666666666666;0.0;0.0;0.0;0.0;3.0;1.0;0.0;0.0;0.0;0.0;0.0;0.0;0.0;0.0;fragment;marlin;diff;11f;fscore;0.0
46;46_7b70caab7c4bdc45490d83730b62c5c2ea31e98e-FRAGMENT.arff;BR;22.0;22.0;1.0;16.0;0.7272727272727273;6.0;0.2727272727272727;0.0;0.0;0.0;0.0;22.0;1.0;0.0;0.0;0.0;0.0;0.0;0.0;0.0;0.0;fragment;marlin;diff;11f;fscore;0.0
46;46_7b70caab7c4bdc45490d83730b62c5c2ea31e98e-FRAGMENT.arff;LP;22.0;22.0;1.0;0.0;0.0;22.0;1.0;0.0;0.0;0.0;0.0;22.0;1.0;0.0;0.0;0.0;0.0;0.0;0.0;0.0;0.0;fragment;marlin;diff;11f;fscore;0.0
46;46_7b70caab7c4bdc45490d83730b62c5c2ea31e98e-FRAGMENT.arff;RAkELd;22.0;22.0;1.0;21.0;0.9545454545454546;1.0;0.045454545454545456;0.0;0.0;0.0;0.0;22.0;1.0;0.0;0.0;0.0;0.0;0.0;0.0;0.0;0.0;fragment;marlin;diff;11f;fscore;0.0
47;47_ab154d55927776add58c878f7de94e82b07bee1c-FRAGMENT.arff;BR;53.0;53.0;1.0;22.0;0.41509433962264153;31.0;0.5849056603773585;0.0;0.0;0.0;0.0;53.0;1.0;0.0;0.0;0.0;0.0;0.0;0.0;0.0;0.0;fragment;marlin;diff;11f;fscore;0.0
47;47_ab154d55927776add58c878f7de94e82b07bee1c-FRAGMENT.arff;LP;53.0;53.0;1.0;0.0;0.0;53.0;1.0;0.0;0.0;0.0;0.0;53.0;1.0;0.0;0.0;0.0;0.0;0.0;0.0;0.0;0.0;fragment;marlin;diff;11f;fscore;0.0
47;47_ab154d55927776add58c878f7de94e82b07bee1c-FRAGMENT.arff;RAkELd;53.0;53.0;1.0;33.0;0.6226415094339622;20.0;0.37735849056603776;0.0;0.0;0.0;0.0;53.0;1.0;0.0;0.0;0.0;0.0;0.0;0.0;0.0;0.0;fragment;marlin;diff;11f;fscore;0.0
49;49_ba8a53a40fa0adaa947b536639bab998cc872feb-FRAGMENT.arff;BR;1.0;1.0;1.0;0.0;0.0;1.0;1.0;0.0;0.0;0.0;0.0;1.0;1.0;0.0;0.0;0.0;0.0;0.0;0.0;0.0;0.0;fragment;marlin;diff;11f;fscore;0.0
49;49_ba8a53a40fa0adaa947b536639bab998cc872feb-FRAGMENT.arff;LP;1.0;1.0;1.0;0.0;0.0;1.0;1.0;0.0;0.0;0.0;0.0;1.0;1.0;0.0;0.0;0.0;0.0;0.0;0.0;0.0;0.0;fragment;marlin;diff;11f;fscore;0.0
49;49_ba8a53a40fa0adaa947b536639bab998cc872feb-FRAGMENT.arff;RAkELd;1.0;1.0;1.0;0.0;0.0;1.0;1.0;0.0;0.0;0.0;0.0;1.0;1.0;0.0;0.0;0.0;0.0;0.0;0.0;0.0;0.0;fragment;marlin;diff;11f;fscore;0.0
52;52_ff592b056ad492632a810e6c77a7d063b6ce05e3-FRAGMENT.arff;BR;1.0;1.0;1.0;0.0;0.0;1.0;1.0;0.0;0.0;0.0;0.0;1.0;1.0;0.0;0.0;0.0;0.0;0.0;0.0;0.0;0.0;fragment;marlin;diff;11f;fscore;0.0
52;52_ff592b056ad492632a810e6c77a7d063b6ce05e3-FRAGMENT.arff;LP;1.0;1.0;1.0;0.0;0.0;1.0;1.0;0.0;0.0;0.0;0.0;1.0;1.0;0.0;0.0;0.0;0.0;0.0;0.0;0.0;0.0;fragment;marlin;diff;11f;fscore;0.0
52;52_ff592b056ad492632a810e6c77a7d063b6ce05e3-FRAGMENT.arff;RAkELd;1.0;1.0;1.0;0.0;0.0;1.0;1.0;0.0;0.0;0.0;0.0;1.0;1.0;0.0;0.0;0.0;0.0;0.0;0.0;0.0;0.0;fragment;marlin;diff;11f;fscore;0.0
56;56_02b9eceead9903beb9e1cf7d48f05fc2de8a8e8a-FRAGMENT.arff;BR;37.0;37.0;1.0;12.0;0.32432432432432434;25.0;0.6756756756756757;0.0;0.0;0.0;0.0;37.0;1.0;0.0;0.0;0.0;0.0;0.0;0.0;0.0;0.0;fragment;marlin;diff;11f;fscore;0.0
56;56_02b9eceead9903beb9e1cf7d48f05fc2de8a8e8a-FRAGMENT.arff;LP;37.0;37.0;1.0;0.0;0.0;37.0;1.0;0.0;0.0;0.0;0.0;37.0;1.0;0.0;0.0;0.0;0.0;0.0;0.0;0.0;0.0;fragment;marlin;diff;11f;fscore;0.0
56;56_02b9eceead9903beb9e1cf7d48f05fc2de8a8e8a-FRAGMENT.arff;RAkELd;37.0;37.0;1.0;14.0;0.3783783783783784;23.0;0.6216216216216216;0.0;0.0;0.0;0.0;37.0;1.0;0.0;0.0;0.0;0.0;0.0;0.0;0.0;0.0;fragment;marlin;diff;11f;fscore;0.0
57;57_a9c7da06e398101517acc5b7a07e8dcb544df294-FRAGMENT.arff;BR;27.0;27.0;1.0;4.0;0.14814814814814814;23.0;0.8518518518518519;0.0;0.0;0.0;0.0;27.0;1.0;0.0;0.0;0.0;0.0;0.0;0.0;0.0;0.0;fragment;marlin;diff;11f;fscore;0.0
57;57_a9c7da06e398101517acc5b7a07e8dcb544df294-FRAGMENT.arff;LP;27.0;27.0;1.0;0.0;0.0;27.0;1.0;0.0;0.0;0.0;0.0;27.0;1.0;0.0;0.0;0.0;0.0;0.0;0.0;0.0;0.0;fragment;marlin;diff;11f;fscore;0.0
57;57_a9c7da06e398101517acc5b7a07e8dcb544df294-FRAGMENT.arff;RAkELd;27.0;27.0;1.0;4.0;0.14814814814814814;23.0;0.8518518518518519;0.0;0.0;0.0;0.0;27.0;1.0;0.0;0.0;0.0;0.0;0.0;0.0;0.0;0.0;fragment;marlin;diff;11f;fscore;0.0
58;58_65934eee9c6ae792c708bc1cea9996c8a5df67f5-FRAGMENT.arff;BR;85.0;85.0;1.0;52.0;0.611764705882353;33.0;0.38823529411764707;0.0;0.0;0.0;0.0;85.0;1.0;0.0;0.0;0.0;0.0;0.0;0.0;0.0;0.0;fragment;marlin;diff;11f;fscore;0.0
58;58_65934eee9c6ae792c708bc1cea9996c8a5df67f5-FRAGMENT.arff;LP;85.0;85.0;1.0;0.0;0.0;85.0;1.0;0.0;0.0;0.0;0.0;85.0;1.0;0.0;0.0;0.0;0.0;0.0;0.0;0.0;0.0;fragment;marlin;diff;11f;fscore;0.0
58;58_65934eee9c6ae792c708bc1cea9996c8a5df67f5-FRAGMENT.arff;RAkELd;85.0;85.0;1.0;63.0;0.7411764705882353;22.0;0.25882352941176473;0.0;0.0;0.0;0.0;85.0;1.0;0.0;0.0;0.0;0.0;0.0;0.0;0.0;0.0;fragment;marlin;diff;11f;fscore;0.0
62;62_2643ae93d69b4171acb18bf9994b12076b4f2496-FRAGMENT.arff;BR;1.0;1.0;1.0;0.0;0.0;1.0;1.0;0.0;0.0;0.0;0.0;1.0;1.0;0.0;0.0;0.0;0.0;0.0;0.0;0.0;0.0;fragment;marlin;diff;11f;fscore;0.0
62;62_2643ae93d69b4171acb18bf9994b12076b4f2496-FRAGMENT.arff;LP;1.0;1.0;1.0;0.0;0.0;1.0;1.0;0.0;0.0;0.0;0.0;1.0;1.0;0.0;0.0;0.0;0.0;0.0;0.0;0.0;0.0;fragment;marlin;diff;11f;fscore;0.0
62;62_2643ae93d69b4171acb18bf9994b12076b4f2496-FRAGMENT.arff;RAkELd;1.0;1.0;1.0;0.0;0.0;1.0;1.0;0.0;0.0;0.0;0.0;1.0;1.0;0.0;0.0;0.0;0.0;0.0;0.0;0.0;0.0;fragment;marlin;diff;11f;fscore;0.0
63;63_331e82dcd3d7eaf9f76dbec8759f2f730335fea3-FRAGMENT.arff;BR;23.0;23.0;1.0;5.0;0.21739130434782608;18.0;0.782608695652174;0.0;0.0;0.0;0.0;23.0;1.0;0.0;0.0;0.0;0.0;0.0;0.0;0.0;0.0;fragment;marlin;diff;11f;fscore;0.0
63;63_331e82dcd3d7eaf9f76dbec8759f2f730335fea3-FRAGMENT.arff;LP;23.0;23.0;1.0;0.0;0.0;23.0;1.0;0.0;0.0;0.0;0.0;23.0;1.0;0.0;0.0;0.0;0.0;0.0;0.0;0.0;0.0;fragment;marlin;diff;11f;fscore;0.0
63;63_331e82dcd3d7eaf9f76dbec8759f2f730335fea3-FRAGMENT.arff;RAkELd;23.0;23.0;1.0;5.0;0.21739130434782608;18.0;0.782608695652174;0.0;0.0;0.0;0.0;23.0;1.0;0.0;0.0;0.0;0.0;0.0;0.0;0.0;0.0;fragment;marlin;diff;11f;fscore;0.0
64;64_95126c09c0ffbea8f15ba74105f403d8c36683cf-FRAGMENT.arff;BR;31.0;31.0;1.0;9.0;0.2903225806451613;22.0;0.7096774193548387;0.0;0.0;0.0;0.0;31.0;1.0;0.0;0.0;0.0;0.0;0.0;0.0;0.0;0.0;fragment;marlin;diff;11f;fscore;0.0
64;64_95126c09c0ffbea8f15ba74105f403d8c36683cf-FRAGMENT.arff;LP;31.0;31.0;1.0;0.0;0.0;31.0;1.0;0.0;0.0;0.0;0.0;31.0;1.0;0.0;0.0;0.0;0.0;0.0;0.0;0.0;0.0;fragment;marlin;diff;11f;fscore;0.0
64;64_95126c09c0ffbea8f15ba74105f403d8c36683cf-FRAGMENT.arff;RAkELd;31.0;31.0;1.0;7.0;0.22580645161290322;24.0;0.7741935483870968;0.0;0.0;0.0;0.0;31.0;1.0;0.0;0.0;0.0;0.0;0.0;0.0;0.0;0.0;fragment;marlin;diff;11f;fscore;0.0
65;65_5fd41ae872d51961a7f3e60ba9b6a7cba85d61f7-FRAGMENT.arff;BR;28.0;28.0;1.0;7.0;0.25;21.0;0.75;0.0;0.0;0.0;0.0;28.0;1.0;0.0;0.0;0.0;0.0;0.0;0.0;0.0;0.0;fragment;marlin;diff;11f;fscore;0.0
65;65_5fd41ae872d51961a7f3e60ba9b6a7cba85d61f7-FRAGMENT.arff;LP;28.0;28.0;1.0;0.0;0.0;28.0;1.0;0.0;0.0;0.0;0.0;28.0;1.0;0.0;0.0;0.0;0.0;0.0;0.0;0.0;0.0;fragment;marlin;diff;11f;fscore;0.0
65;65_5fd41ae872d51961a7f3e60ba9b6a7cba85d61f7-FRAGMENT.arff;RAkELd;28.0;28.0;1.0;7.0;0.25;21.0;0.75;0.0;0.0;0.0;0.0;28.0;1.0;0.0;0.0;0.0;0.0;0.0;0.0;0.0;0.0;fragment;marlin;diff;11f;fscore;0.0
70;70_edb5ea7efa555b59f17655e20e93d9e93499d5d8-FRAGMENT.arff;BR;44.0;44.0;1.0;2.0;0.045454545454545456;42.0;0.9545454545454546;0.0;0.0;0.0;0.0;44.0;1.0;0.0;0.0;0.0;0.0;0.0;0.0;0.0;0.0;fragment;marlin;diff;11f;fscore;0.0
70;70_edb5ea7efa555b59f17655e20e93d9e93499d5d8-FRAGMENT.arff;LP;44.0;44.0;1.0;0.0;0.0;44.0;1.0;0.0;0.0;0.0;0.0;44.0;1.0;0.0;0.0;0.0;0.0;0.0;0.0;0.0;0.0;fragment;marlin;diff;11f;fscore;0.0
70;70_edb5ea7efa555b59f17655e20e93d9e93499d5d8-FRAGMENT.arff;RAkELd;44.0;44.0;1.0;3.0;0.06818181818181818;41.0;0.9318181818181818;0.0;0.0;0.0;0.0;44.0;1.0;0.0;0.0;0.0;0.0;0.0;0.0;0.0;0.0;fragment;marlin;diff;11f;fscore;0.0
72;72_e63e224a33011f2aa302ee435acc066af8a87ddb-FRAGMENT.arff;BR;27.0;27.0;1.0;4.0;0.14814814814814814;23.0;0.8518518518518519;0.0;0.0;0.0;0.0;27.0;1.0;0.0;0.0;0.0;0.0;0.0;0.0;0.0;0.0;fragment;marlin;diff;11f;fscore;0.0
72;72_e63e224a33011f2aa302ee435acc066af8a87ddb-FRAGMENT.arff;LP;27.0;27.0;1.0;0.0;0.0;27.0;1.0;0.0;0.0;0.0;0.0;27.0;1.0;0.0;0.0;0.0;0.0;0.0;0.0;0.0;0.0;fragment;marlin;diff;11f;fscore;0.0
72;72_e63e224a33011f2aa302ee435acc066af8a87ddb-FRAGMENT.arff;RAkELd;27.0;27.0;1.0;3.0;0.1111111111111111;24.0;0.8888888888888888;0.0;0.0;0.0;0.0;27.0;1.0;0.0;0.0;0.0;0.0;0.0;0.0;0.0;0.0;fragment;marlin;diff;11f;fscore;0.0
73;73_b15902d3b5131d1ddfc4d52ce99a54827ece5d53-FRAGMENT.arff;BR;44.0;44.0;1.0;1.0;0.022727272727272728;43.0;0.9772727272727273;0.0;0.0;0.0;0.0;44.0;1.0;0.0;0.0;0.0;0.0;0.0;0.0;0.0;0.0;fragment;marlin;diff;11f;fscore;0.0
73;73_b15902d3b5131d1ddfc4d52ce99a54827ece5d53-FRAGMENT.arff;LP;44.0;44.0;1.0;0.0;0.0;44.0;1.0;0.0;0.0;0.0;0.0;44.0;1.0;0.0;0.0;0.0;0.0;0.0;0.0;0.0;0.0;fragment;marlin;diff;11f;fscore;0.0
73;73_b15902d3b5131d1ddfc4d52ce99a54827ece5d53-FRAGMENT.arff;RAkELd;44.0;44.0;1.0;1.0;0.022727272727272728;43.0;0.9772727272727273;0.0;0.0;0.0;0.0;44.0;1.0;0.0;0.0;0.0;0.0;0.0;0.0;0.0;0.0;fragment;marlin;diff;11f;fscore;0.0
75;75_ff69e0a772c71226be7d6000c5096c0a850e3a62-FRAGMENT.arff;BR;2.0;2.0;1.0;1.0;0.5;1.0;0.5;0.0;0.0;0.0;0.0;2.0;1.0;0.0;0.0;0.0;0.0;0.0;0.0;0.0;0.0;fragment;marlin;diff;11f;fscore;0.0
75;75_ff69e0a772c71226be7d6000c5096c0a850e3a62-FRAGMENT.arff;LP;2.0;2.0;1.0;0.0;0.0;2.0;1.0;0.0;0.0;0.0;0.0;2.0;1.0;0.0;0.0;0.0;0.0;0.0;0.0;0.0;0.0;fragment;marlin;diff;11f;fscore;0.0
75;75_ff69e0a772c71226be7d6000c5096c0a850e3a62-FRAGMENT.arff;RAkELd;2.0;2.0;1.0;0.0;0.0;2.0;1.0;0.0;0.0;0.0;0.0;2.0;1.0;0.0;0.0;0.0;0.0;0.0;0.0;0.0;0.0;fragment;marlin;diff;11f;fscore;0.0
82;82_8a08b8e07e0bd84c1778eca7f3f32fafff5c3af5-FRAGMENT.arff;BR;25.0;25.0;1.0;3.0;0.12;22.0;0.88;0.0;0.0;0.0;0.0;25.0;1.0;0.0;0.0;0.0;0.0;0.0;0.0;0.0;0.0;fragment;marlin;diff;11f;fscore;0.0
82;82_8a08b8e07e0bd84c1778eca7f3f32fafff5c3af5-FRAGMENT.arff;LP;25.0;25.0;1.0;0.0;0.0;25.0;1.0;0.0;0.0;0.0;0.0;25.0;1.0;0.0;0.0;0.0;0.0;0.0;0.0;0.0;0.0;fragment;marlin;diff;11f;fscore;0.0
82;82_8a08b8e07e0bd84c1778eca7f3f32fafff5c3af5-FRAGMENT.arff;RAkELd;25.0;25.0;1.0;3.0;0.12;22.0;0.88;0.0;0.0;0.0;0.0;25.0;1.0;0.0;0.0;0.0;0.0;0.0;0.0;0.0;0.0;fragment;marlin;diff;11f;fscore;0.0
84;84_537b5c155dd0e35080528bcaba088d0d177aa2bd-FRAGMENT.arff;BR;5.0;5.0;1.0;3.0;0.6;2.0;0.4;0.0;0.0;0.0;0.0;5.0;1.0;0.0;0.0;0.0;0.0;0.0;0.0;0.0;0.0;fragment;marlin;diff;11f;fscore;0.0
84;84_537b5c155dd0e35080528bcaba088d0d177aa2bd-FRAGMENT.arff;LP;5.0;5.0;1.0;0.0;0.0;5.0;1.0;0.0;0.0;0.0;0.0;5.0;1.0;0.0;0.0;0.0;0.0;0.0;0.0;0.0;0.0;fragment;marlin;diff;11f;fscore;0.0
84;84_537b5c155dd0e35080528bcaba088d0d177aa2bd-FRAGMENT.arff;RAkELd;5.0;5.0;1.0;4.0;0.8;1.0;0.2;0.0;0.0;0.0;0.0;5.0;1.0;0.0;0.0;0.0;0.0;0.0;0.0;0.0;0.0;fragment;marlin;diff;11f;fscore;0.0
89;89_7a2d1f5aeb85225a7d71e8b95982e36c5fb17722-FRAGMENT.arff;BR;2.0;2.0;1.0;2.0;1.0;0.0;0.0;0.0;0.0;0.0;0.0;2.0;1.0;0.0;0.0;0.0;0.0;0.0;0.0;0.0;0.0;fragment;marlin;diff;11f;fscore;0.0
89;89_7a2d1f5aeb85225a7d71e8b95982e36c5fb17722-FRAGMENT.arff;LP;2.0;2.0;1.0;0.0;0.0;2.0;1.0;0.0;0.0;0.0;0.0;2.0;1.0;0.0;0.0;0.0;0.0;0.0;0.0;0.0;0.0;fragment;marlin;diff;11f;fscore;0.0
89;89_7a2d1f5aeb85225a7d71e8b95982e36c5fb17722-FRAGMENT.arff;RAkELd;2.0;2.0;1.0;0.0;0.0;2.0;1.0;0.0;0.0;0.0;0.0;2.0;1.0;0.0;0.0;0.0;0.0;0.0;0.0;0.0;0.0;fragment;marlin;diff;11f;fscore;0.0
90;90_5ad1d19384ba3ea8a1e6c33babc63de1d28acf31-FRAGMENT.arff;BR;46.0;46.0;1.0;8.0;0.17391304347826086;38.0;0.8260869565217391;0.0;0.0;0.0;0.0;46.0;1.0;0.0;0.0;0.0;0.0;0.0;0.0;0.0;0.0;fragment;marlin;diff;11f;fscore;0.0
90;90_5ad1d19384ba3ea8a1e6c33babc63de1d28acf31-FRAGMENT.arff;LP;46.0;46.0;1.0;0.0;0.0;46.0;1.0;0.0;0.0;0.0;0.0;46.0;1.0;0.0;0.0;0.0;0.0;0.0;0.0;0.0;0.0;fragment;marlin;diff;11f;fscore;0.0
90;90_5ad1d19384ba3ea8a1e6c33babc63de1d28acf31-FRAGMENT.arff;RAkELd;46.0;46.0;1.0;10.0;0.21739130434782608;36.0;0.782608695652174;0.0;0.0;0.0;0.0;46.0;1.0;0.0;0.0;0.0;0.0;0.0;0.0;0.0;0.0;fragment;marlin;diff;11f;fscore;0.0
94;94_915ef2d4a136df67f468917c725d032919e189d4-FRAGMENT.arff;BR;46.0;46.0;1.0;5.0;0.10869565217391304;41.0;0.8913043478260869;0.0;0.0;0.0;0.0;46.0;1.0;0.0;0.0;0.0;0.0;0.0;0.0;0.0;0.0;fragment;marlin;diff;11f;fscore;0.0
94;94_915ef2d4a136df67f468917c725d032919e189d4-FRAGMENT.arff;LP;46.0;46.0;1.0;0.0;0.0;46.0;1.0;0.0;0.0;0.0;0.0;46.0;1.0;0.0;0.0;0.0;0.0;0.0;0.0;0.0;0.0;fragment;marlin;diff;11f;fscore;0.0
94;94_915ef2d4a136df67f468917c725d032919e189d4-FRAGMENT.arff;RAkELd;46.0;46.0;1.0;7.0;0.15217391304347827;39.0;0.8478260869565217;0.0;0.0;0.0;0.0;46.0;1.0;0.0;0.0;0.0;0.0;0.0;0.0;0.0;0.0;fragment;marlin;diff;11f;fscore;0.0
100;100_6dba34ab0ed5b5f89b70ebe71086200606319bd8-FRAGMENT.arff;BR;65.0;65.0;1.0;44.0;0.676923076923077;21.0;0.3230769230769231;0.0;0.0;0.0;0.0;65.0;1.0;0.0;0.0;0.0;0.0;0.0;0.0;0.0;0.0;fragment;marlin;diff;11f;fscore;0.0
100;100_6dba34ab0ed5b5f89b70ebe71086200606319bd8-FRAGMENT.arff;LP;65.0;65.0;1.0;0.0;0.0;65.0;1.0;0.0;0.0;0.0;0.0;65.0;1.0;0.0;0.0;0.0;0.0;0.0;0.0;0.0;0.0;fragment;marlin;diff;11f;fscore;0.0
100;100_6dba34ab0ed5b5f89b70ebe71086200606319bd8-FRAGMENT.arff;RAkELd;65.0;65.0;1.0;26.0;0.4;39.0;0.6;0.0;0.0;0.0;0.0;65.0;1.0;0.0;0.0;0.0;0.0;0.0;0.0;0.0;0.0;fragment;marlin;diff;11f;fscore;0.0
105;105_cd2268f10a88de393a565c887c8891c7f7979a97-FRAGMENT.arff;BR;4.0;4.0;1.0;4.0;1.0;0.0;0.0;0.0;0.0;0.0;0.0;4.0;1.0;0.0;0.0;0.0;0.0;0.0;0.0;0.0;0.0;fragment;marlin;diff;11f;fscore;0.0
105;105_cd2268f10a88de393a565c887c8891c7f7979a97-FRAGMENT.arff;LP;4.0;4.0;1.0;0.0;0.0;4.0;1.0;0.0;0.0;0.0;0.0;4.0;1.0;0.0;0.0;0.0;0.0;0.0;0.0;0.0;0.0;fragment;marlin;diff;11f;fscore;0.0
105;105_cd2268f10a88de393a565c887c8891c7f7979a97-FRAGMENT.arff;RAkELd;4.0;4.0;1.0;4.0;1.0;0.0;0.0;0.0;0.0;0.0;0.0;4.0;1.0;0.0;0.0;0.0;0.0;0.0;0.0;0.0;0.0;fragment;marlin;diff;11f;fscore;0.0
106;106_b21d5193f25e3e388ddc3787aba7f0086a1abad7-FRAGMENT.arff;BR;62.0;62.0;1.0;39.0;0.6290322580645161;23.0;0.3709677419354839;0.0;0.0;0.0;0.0;62.0;1.0;0.0;0.0;0.0;0.0;0.0;0.0;0.0;0.0;fragment;marlin;diff;11f;fscore;0.0
106;106_b21d5193f25e3e388ddc3787aba7f0086a1abad7-FRAGMENT.arff;LP;62.0;62.0;1.0;0.0;0.0;62.0;1.0;0.0;0.0;0.0;0.0;62.0;1.0;0.0;0.0;0.0;0.0;0.0;0.0;0.0;0.0;fragment;marlin;diff;11f;fscore;0.0
106;106_b21d5193f25e3e388ddc3787aba7f0086a1abad7-FRAGMENT.arff;RAkELd;62.0;62.0;1.0;26.0;0.41935483870967744;36.0;0.5806451612903226;0.0;0.0;0.0;0.0;62.0;1.0;0.0;0.0;0.0;0.0;0.0;0.0;0.0;0.0;fragment;marlin;diff;11f;fscore;0.0
107;107_eeb4f029dbaa8f12350f631441303832fc14fc9e-FRAGMENT.arff;BR;4.0;4.0;1.0;2.0;0.5;2.0;0.5;0.0;0.0;0.0;0.0;4.0;1.0;0.0;0.0;0.0;0.0;0.0;0.0;0.0;0.0;fragment;marlin;diff;11f;fscore;0.0
107;107_eeb4f029dbaa8f12350f631441303832fc14fc9e-FRAGMENT.arff;LP;4.0;4.0;1.0;0.0;0.0;4.0;1.0;0.0;0.0;0.0;0.0;4.0;1.0;0.0;0.0;0.0;0.0;0.0;0.0;0.0;0.0;fragment;marlin;diff;11f;fscore;0.0
107;107_eeb4f029dbaa8f12350f631441303832fc14fc9e-FRAGMENT.arff;RAkELd;4.0;4.0;1.0;4.0;1.0;0.0;0.0;0.0;0.0;0.0;0.0;4.0;1.0;0.0;0.0;0.0;0.0;0.0;0.0;0.0;0.0;fragment;marlin;diff;11f;fscore;0.0
109;109_379ea642e181ee072a80d361dfb043e7f3318103-FRAGMENT.arff;BR;3.0;3.0;1.0;3.0;1.0;0.0;0.0;0.0;0.0;0.0;0.0;3.0;1.0;0.0;0.0;0.0;0.0;0.0;0.0;0.0;0.0;fragment;marlin;diff;11f;fscore;0.0
109;109_379ea642e181ee072a80d361dfb043e7f3318103-FRAGMENT.arff;LP;3.0;3.0;1.0;0.0;0.0;3.0;1.0;0.0;0.0;0.0;0.0;3.0;1.0;0.0;0.0;0.0;0.0;0.0;0.0;0.0;0.0;fragment;marlin;diff;11f;fscore;0.0
109;109_379ea642e181ee072a80d361dfb043e7f3318103-FRAGMENT.arff;RAkELd;3.0;3.0;1.0;3.0;1.0;0.0;0.0;0.0;0.0;0.0;0.0;3.0;1.0;0.0;0.0;0.0;0.0;0.0;0.0;0.0;0.0;fragment;marlin;diff;11f;fscore;0.0
110;110_924bab1a031101634ba350cd8daf1c5a2e08430a-FRAGMENT.arff;BR;4.0;4.0;1.0;0.0;0.0;4.0;1.0;0.0;0.0;0.0;0.0;4.0;1.0;0.0;0.0;0.0;0.0;0.0;0.0;0.0;0.0;fragment;marlin;diff;11f;fscore;0.0
110;110_924bab1a031101634ba350cd8daf1c5a2e08430a-FRAGMENT.arff;LP;4.0;4.0;1.0;0.0;0.0;4.0;1.0;0.0;0.0;0.0;0.0;4.0;1.0;0.0;0.0;0.0;0.0;0.0;0.0;0.0;0.0;fragment;marlin;diff;11f;fscore;0.0
110;110_924bab1a031101634ba350cd8daf1c5a2e08430a-FRAGMENT.arff;RAkELd;4.0;4.0;1.0;4.0;1.0;0.0;0.0;0.0;0.0;0.0;0.0;4.0;1.0;0.0;0.0;0.0;0.0;0.0;0.0;0.0;0.0;fragment;marlin;diff;11f;fscore;0.0
116;116_0e0e4945d8ad060aa50552a0b27369c18442c2d0-FRAGMENT.arff;BR;5.0;5.0;1.0;3.0;0.6;2.0;0.4;0.0;0.0;0.0;0.0;5.0;1.0;0.0;0.0;0.0;0.0;0.0;0.0;0.0;0.0;fragment;marlin;diff;11f;fscore;0.0
116;116_0e0e4945d8ad060aa50552a0b27369c18442c2d0-FRAGMENT.arff;LP;5.0;5.0;1.0;0.0;0.0;5.0;1.0;0.0;0.0;0.0;0.0;5.0;1.0;0.0;0.0;0.0;0.0;0.0;0.0;0.0;0.0;fragment;marlin;diff;11f;fscore;0.0
116;116_0e0e4945d8ad060aa50552a0b27369c18442c2d0-FRAGMENT.arff;RAkELd;5.0;5.0;1.0;5.0;1.0;0.0;0.0;0.0;0.0;0.0;0.0;5.0;1.0;0.0;0.0;0.0;0.0;0.0;0.0;0.0;0.0;fragment;marlin;diff;11f;fscore;0.0
121;121_27654bfe697ee08a83f4f39567357827ef77fd1f-FRAGMENT.arff;BR;1.0;1.0;1.0;0.0;0.0;1.0;1.0;0.0;0.0;0.0;0.0;1.0;1.0;0.0;0.0;0.0;0.0;0.0;0.0;0.0;0.0;fragment;marlin;diff;11f;fscore;0.0
121;121_27654bfe697ee08a83f4f39567357827ef77fd1f-FRAGMENT.arff;LP;1.0;1.0;1.0;0.0;0.0;1.0;1.0;0.0;0.0;0.0;0.0;1.0;1.0;0.0;0.0;0.0;0.0;0.0;0.0;0.0;0.0;fragment;marlin;diff;11f;fscore;0.0
121;121_27654bfe697ee08a83f4f39567357827ef77fd1f-FRAGMENT.arff;RAkELd;1.0;1.0;1.0;0.0;0.0;1.0;1.0;0.0;0.0;0.0;0.0;1.0;1.0;0.0;0.0;0.0;0.0;0.0;0.0;0.0;0.0;fragment;marlin;diff;11f;fscore;0.0
125;125_a6823a84e18f7738cafe309c21b55a110ea51d6d-FRAGMENT.arff;BR;6.0;6.0;1.0;6.0;1.0;0.0;0.0;0.0;0.0;0.0;0.0;6.0;1.0;0.0;0.0;0.0;0.0;0.0;0.0;0.0;0.0;fragment;marlin;diff;11f;fscore;0.0
125;125_a6823a84e18f7738cafe309c21b55a110ea51d6d-FRAGMENT.arff;LP;6.0;6.0;1.0;0.0;0.0;6.0;1.0;0.0;0.0;0.0;0.0;6.0;1.0;0.0;0.0;0.0;0.0;0.0;0.0;0.0;0.0;fragment;marlin;diff;11f;fscore;0.0
125;125_a6823a84e18f7738cafe309c21b55a110ea51d6d-FRAGMENT.arff;RAkELd;6.0;6.0;1.0;0.0;0.0;6.0;1.0;0.0;0.0;0.0;0.0;6.0;1.0;0.0;0.0;0.0;0.0;0.0;0.0;0.0;0.0;fragment;marlin;diff;11f;fscore;0.0
127;127_191f36b4933be2686a51dd62dbe532ee90f38ab5-FRAGMENT.arff;BR;22.0;22.0;1.0;14.0;0.6363636363636364;8.0;0.36363636363636365;0.0;0.0;0.0;0.0;22.0;1.0;0.0;0.0;0.0;0.0;0.0;0.0;0.0;0.0;fragment;marlin;diff;11f;fscore;0.0
127;127_191f36b4933be2686a51dd62dbe532ee90f38ab5-FRAGMENT.arff;LP;22.0;22.0;1.0;0.0;0.0;22.0;1.0;0.0;0.0;0.0;0.0;22.0;1.0;0.0;0.0;0.0;0.0;0.0;0.0;0.0;0.0;fragment;marlin;diff;11f;fscore;0.0
127;127_191f36b4933be2686a51dd62dbe532ee90f38ab5-FRAGMENT.arff;RAkELd;22.0;22.0;1.0;14.0;0.6363636363636364;8.0;0.36363636363636365;0.0;0.0;0.0;0.0;22.0;1.0;0.0;0.0;0.0;0.0;0.0;0.0;0.0;0.0;fragment;marlin;diff;11f;fscore;0.0
129;129_4d6a5c29df87270b13c6ec7b5adb58c1aa29e3a8-FRAGMENT.arff;BR;22.0;22.0;1.0;18.0;0.8181818181818182;4.0;0.18181818181818182;0.0;0.0;0.0;0.0;22.0;1.0;0.0;0.0;0.0;0.0;0.0;0.0;0.0;0.0;fragment;marlin;diff;11f;fscore;0.0
129;129_4d6a5c29df87270b13c6ec7b5adb58c1aa29e3a8-FRAGMENT.arff;LP;22.0;22.0;1.0;0.0;0.0;22.0;1.0;0.0;0.0;0.0;0.0;22.0;1.0;0.0;0.0;0.0;0.0;0.0;0.0;0.0;0.0;fragment;marlin;diff;11f;fscore;0.0
129;129_4d6a5c29df87270b13c6ec7b5adb58c1aa29e3a8-FRAGMENT.arff;RAkELd;22.0;22.0;1.0;18.0;0.8181818181818182;4.0;0.18181818181818182;0.0;0.0;0.0;0.0;22.0;1.0;0.0;0.0;0.0;0.0;0.0;0.0;0.0;0.0;fragment;marlin;diff;11f;fscore;0.0
