commit;Dataset;NumOfInstances;NumOfLabels;Cardinality;MeanIR;CVIR;MaxIRLb;MinIRLb;MaxImR;MinImR;Scumble;
100;100_8ba05b512b49bd635d4b235ce73566b2ec2762cb-FRAGMENT.arff;46.0;26.0;1.2173913043478262;6.8076923076923075;0.8478404659431399;15.0;1.0;45.0;2.066666666666667;0.029124912220774218;
101;101_0cf7d318b6faa29a4e0965d8c389ae2d44c48d2b-FRAGMENT.arff;46.0;26.0;1.2173913043478262;6.8076923076923075;0.8478404659431399;15.0;1.0;45.0;2.066666666666667;0.029124912220774218;
102;102_de0f17d3b924732b3fbf89c7325f47590f94c357-FRAGMENT.arff;46.0;26.0;1.2173913043478262;6.8076923076923075;0.8478404659431399;15.0;1.0;45.0;2.066666666666667;0.029124912220774218;
103;103_0b0f7befc3a26d492301581787a37b4948190248-FRAGMENT.arff;46.0;26.0;1.2173913043478262;6.8076923076923075;0.8478404659431399;15.0;1.0;45.0;2.066666666666667;0.029124912220774218;
104;104_31d977b73abc7e3505fd71bfc60c6c3342164b1f-FRAGMENT.arff;46.0;26.0;1.2173913043478262;6.8076923076923075;0.8478404659431399;15.0;1.0;45.0;2.066666666666667;0.029124912220774218;
105;105_d7f3e32607eae7fdac742db03d50962835069382-FRAGMENT.arff;46.0;26.0;1.2173913043478262;6.8076923076923075;0.8478404659431399;15.0;1.0;45.0;2.066666666666667;0.029124912220774218;
106;106_88420bffe0882ab595d1313ae974f45854fa5423-FRAGMENT.arff;46.0;26.0;1.2173913043478262;6.8076923076923075;0.8478404659431399;15.0;1.0;45.0;2.066666666666667;0.029124912220774218;
107;107_0e004bc5c1b6fea5a6b10423d672ca80fd418395-FRAGMENT.arff;46.0;26.0;1.2173913043478262;6.8076923076923075;0.8478404659431399;15.0;1.0;45.0;2.066666666666667;0.029124912220774218;
108;108_772f5dd67bec6cf79de3823c52b2c3c80c0388d1-FRAGMENT.arff;46.0;26.0;1.2173913043478262;6.8076923076923075;0.8478404659431399;15.0;1.0;45.0;2.066666666666667;0.029124912220774218;
109;109_6c347bbc82d9e708f0a7d7348da5fa149b8a0100-FRAGMENT.arff;46.0;27.0;1.2173913043478262;6.8076923076923075;0.8478404659431399;15.0;1.0;45.0;2.066666666666667;0.029124912220774218;
110;110_782b2167bed5be68157655295a3dd61323759630-FRAGMENT.arff;47.0;27.0;1.2127659574468086;7.392857142857143;0.8064528093248612;15.0;1.0;46.0;2.1333333333333333;0.02850523323735349;
111;111_e1718c3b040e83752562006902cec84018d16f12-FRAGMENT.arff;47.0;27.0;1.2127659574468086;7.392857142857143;0.8064528093248612;15.0;1.0;46.0;2.1333333333333333;0.02850523323735349;
112;112_cc9f8304c58fb76b29bc3f58ae858f17e0c679d4-FRAGMENT.arff;47.0;29.0;1.2127659574468086;7.392857142857143;0.8064528093248612;15.0;1.0;46.0;2.1333333333333333;0.02850523323735349;
113;113_2304c669c687065dca815ef089fa9697761f2c35-FRAGMENT.arff;55.0;29.0;1.1818181818181819;8.154411764705882;0.7425835860622143;15.0;1.0;54.0;2.6666666666666665;0.024359017493738436;
114;114_0ce38856a4b299c89c637508a2b774f6b3d292ce-FRAGMENT.arff;55.0;29.0;1.1818181818181819;8.154411764705882;0.7425835860622143;15.0;1.0;54.0;2.6666666666666665;0.024359017493738436;
115;115_b796cc168013297bcce74ac6e9fa18fa3dfafabb-FRAGMENT.arff;55.0;29.0;1.1818181818181819;8.154411764705882;0.7425835860622143;15.0;1.0;54.0;2.6666666666666665;0.024359017493738436;
116;116_416bb062fa64d262735f1d79bd6faa1f81c09921-FRAGMENT.arff;55.0;29.0;1.1818181818181819;8.154411764705882;0.7425835860622143;15.0;1.0;54.0;2.6666666666666665;0.024359017493738436;
117;117_953e5924ca7d12f339c3cff14617920445c491ab-FRAGMENT.arff;55.0;29.0;1.1818181818181819;8.154411764705882;0.7425835860622143;15.0;1.0;54.0;2.6666666666666665;0.024359017493738436;
118;118_59c234dbb9f8d6b8d3b6a8353ee8ab9c13cba886-FRAGMENT.arff;55.0;29.0;1.1818181818181819;8.154411764705882;0.7425835860622143;15.0;1.0;54.0;2.6666666666666665;0.024359017493738436;
119;119_233455b0adb6d2e4db1c0c5c26801181f4ccf741-FRAGMENT.arff;55.0;29.0;1.1818181818181819;8.154411764705882;0.7425835860622143;15.0;1.0;54.0;2.6666666666666665;0.024359017493738436;
11;11_289f5b0ebcdcb3bdca2ff995094e45405764ded0-FRAGMENT.arff;4.0;10.0;1.0;1.6666666666666667;0.3464101615137754;2.0;1.0;3.0;1.0;0.0;
120;120_98aa63a7e2057b3e0522ff0a4ab80abdb39422a4-FRAGMENT.arff;55.0;29.0;1.1818181818181819;8.154411764705882;0.7425835860622143;15.0;1.0;54.0;2.6666666666666665;0.024359017493738436;
121;121_44f492a35aadefabd283a6cdd1b4e17595b28f04-FRAGMENT.arff;55.0;29.0;1.1818181818181819;8.154411764705882;0.7425835860622143;15.0;1.0;54.0;2.6666666666666665;0.024359017493738436;
122;122_10e659ea0d19d97968b9b8379133574f28ddfa17-FRAGMENT.arff;55.0;29.0;1.1818181818181819;8.154411764705882;0.7425835860622143;15.0;1.0;54.0;2.6666666666666665;0.024359017493738436;
123;123_0990f870a6975969be9467067fbb8826592526bb-FRAGMENT.arff;55.0;29.0;1.1818181818181819;8.154411764705882;0.7425835860622143;15.0;1.0;54.0;2.6666666666666665;0.024359017493738436;
124;124_1e21ff6d6372732656f7a10c5fedf69e7574ed2b-FRAGMENT.arff;55.0;29.0;1.1818181818181819;8.154411764705882;0.7425835860622143;15.0;1.0;54.0;2.6666666666666665;0.024359017493738436;
125;125_94680dfa6a5b315ddf4cdbfeabc663e8b6402c4c-FRAGMENT.arff;55.0;29.0;1.1818181818181819;8.154411764705882;0.7425835860622143;15.0;1.0;54.0;2.6666666666666665;0.024359017493738436;
126;126_194b586c2268b5129e0a6a3ec8ed66d570700bec-FRAGMENT.arff;55.0;29.0;1.1818181818181819;8.154411764705882;0.7425835860622143;15.0;1.0;54.0;2.6666666666666665;0.024359017493738436;
127;127_5a8216c3c326807f533e8c7048a584a8b5ed9cf6-FRAGMENT.arff;55.0;29.0;1.1818181818181819;8.154411764705882;0.7425835860622143;15.0;1.0;54.0;2.6666666666666665;0.024359017493738436;
128;128_3adce827666dc3a080fb8a77c1da8c9b2c40c82d-FRAGMENT.arff;55.0;29.0;1.1818181818181819;8.154411764705882;0.7425835860622143;15.0;1.0;54.0;2.6666666666666665;0.024359017493738436;
129;129_3ccc7bb168aa1063dbdaec231b4eadadbd2f3a86-FRAGMENT.arff;55.0;29.0;1.1818181818181819;8.154411764705882;0.7425835860622143;15.0;1.0;54.0;2.6666666666666665;0.024359017493738436;
12;12_9f64008f909cd3b529bfc14800860214a948e8d2-FRAGMENT.arff;4.0;10.0;1.0;1.6666666666666667;0.3464101615137754;2.0;1.0;3.0;1.0;0.0;
130;130_18e24a579e9c641c6c0d24cd8eaa2c4bbeba0a87-FRAGMENT.arff;55.0;29.0;1.1818181818181819;8.154411764705882;0.7425835860622143;15.0;1.0;54.0;2.6666666666666665;0.024359017493738436;
131;131_f486988524c304a1499c68e1bc4622d815d970b4-FRAGMENT.arff;55.0;29.0;1.1818181818181819;8.154411764705882;0.7425835860622143;15.0;1.0;54.0;2.6666666666666665;0.024359017493738436;
132;132_750929f6aebed5797ad28f294924ce12ee56b411-FRAGMENT.arff;55.0;29.0;1.1818181818181819;8.154411764705882;0.7425835860622143;15.0;1.0;54.0;2.6666666666666665;0.024359017493738436;
133;133_2dc494a0c1111c78766e18cce0adca2a9cb53bd2-FRAGMENT.arff;55.0;29.0;1.1818181818181819;8.154411764705882;0.7425835860622143;15.0;1.0;54.0;2.6666666666666665;0.024359017493738436;
134;134_433690c45f301e4ec31144a8a9c7270123bd19a1-FRAGMENT.arff;55.0;29.0;1.1818181818181819;8.154411764705882;0.7425835860622143;15.0;1.0;54.0;2.6666666666666665;0.024359017493738436;
135;135_b22718373607986a03463a835ec8e8971cdbddea-FRAGMENT.arff;55.0;29.0;1.1818181818181819;8.154411764705882;0.7425835860622143;15.0;1.0;54.0;2.6666666666666665;0.024359017493738436;
136;136_e13a553389fb4da104f328e74aaa31b07a62dac6-FRAGMENT.arff;55.0;29.0;1.1818181818181819;8.154411764705882;0.7425835860622143;15.0;1.0;54.0;2.6666666666666665;0.024359017493738436;
137;137_d29719bf75f3ab5f670738e0ccb45f909173c75c-FRAGMENT.arff;55.0;29.0;1.1818181818181819;8.154411764705882;0.7425835860622143;15.0;1.0;54.0;2.6666666666666665;0.024359017493738436;
138;138_9143cbf769435e281e3f2966a556ccacdc599603-FRAGMENT.arff;55.0;29.0;1.1818181818181819;8.154411764705882;0.7425835860622143;15.0;1.0;54.0;2.6666666666666665;0.024359017493738436;
139;139_a565e753399b52030baaeabf7d1905602a55ecef-FRAGMENT.arff;55.0;29.0;1.1818181818181819;8.154411764705882;0.7425835860622143;15.0;1.0;54.0;2.6666666666666665;0.024359017493738436;
13;13_eeadfc72105e8d5260b052b5f770696e70e2f988-FRAGMENT.arff;4.0;10.0;1.0;1.6666666666666667;0.3464101615137754;2.0;1.0;3.0;1.0;0.0;
140;140_7f4c4394753a6745f7fcd9e672c6a75801421f0e-FRAGMENT.arff;55.0;29.0;1.1818181818181819;8.154411764705882;0.7425835860622143;15.0;1.0;54.0;2.6666666666666665;0.024359017493738436;
141;141_7a07c067c12ccc509cca896c7158fff4355e9de4-FRAGMENT.arff;55.0;29.0;1.1818181818181819;8.154411764705882;0.7425835860622143;15.0;1.0;54.0;2.6666666666666665;0.024359017493738436;
142;142_fb8f2c96e0c824abbcb772ca909506fc237e4430-FRAGMENT.arff;55.0;29.0;1.1818181818181819;8.154411764705882;0.7425835860622143;15.0;1.0;54.0;2.6666666666666665;0.024359017493738436;
143;143_878f3ee38f9876bb8957092703eb7a7e6a02edc1-FRAGMENT.arff;55.0;29.0;1.1818181818181819;8.154411764705882;0.7425835860622143;15.0;1.0;54.0;2.6666666666666665;0.024359017493738436;
144;144_ac9320736a8c25536ba1a7582485ddc71bc01c9e-FRAGMENT.arff;55.0;29.0;1.1818181818181819;8.154411764705882;0.7425835860622143;15.0;1.0;54.0;2.6666666666666665;0.024359017493738436;
145;145_e9e7d44369cb1e3f03fbdebcd84ce54be895fd49-FRAGMENT.arff;55.0;29.0;1.1818181818181819;8.154411764705882;0.7425835860622143;15.0;1.0;54.0;2.6666666666666665;0.024359017493738436;
146;146_968b90676dc4430dc836f2048a28cd9dd23b5a60-FRAGMENT.arff;55.0;29.0;1.1818181818181819;8.154411764705882;0.7425835860622143;15.0;1.0;54.0;2.6666666666666665;0.024359017493738436;
147;147_3e37db2aaa63aaa53ce7c92d2a1cfa8359649a24-FRAGMENT.arff;55.0;29.0;1.1818181818181819;8.154411764705882;0.7425835860622143;15.0;1.0;54.0;2.6666666666666665;0.024359017493738436;
148;148_78f3377a6d40c4d65757d2f471edc6950cfb8750-FRAGMENT.arff;55.0;29.0;1.1818181818181819;8.154411764705882;0.7425835860622143;15.0;1.0;54.0;2.6666666666666665;0.024359017493738436;
149;149_a2591003be3eaa8171ee6f587425b2456afd52b0-FRAGMENT.arff;55.0;29.0;1.1818181818181819;8.154411764705882;0.7425835860622143;15.0;1.0;54.0;2.6666666666666665;0.024359017493738436;
14;14_35f3483a98ae3a5831f707433477614bfb5f1dc1-FRAGMENT.arff;4.0;10.0;1.0;1.6666666666666667;0.3464101615137754;2.0;1.0;3.0;1.0;0.0;
150;150_dfbb4c929ae83066bc0e7011f6e8c41cd0210cc8-FRAGMENT.arff;55.0;29.0;1.1818181818181819;8.154411764705882;0.7425835860622143;15.0;1.0;54.0;2.6666666666666665;0.024359017493738436;
151;151_16bc5e2b39c696caaabe265db85ed2c952e5ffd9-FRAGMENT.arff;55.0;29.0;1.1818181818181819;8.154411764705882;0.7425835860622143;15.0;1.0;54.0;2.6666666666666665;0.024359017493738436;
152;152_2f3a3b4547d9f19ae34951b48b8c38f0cf411b60-FRAGMENT.arff;55.0;29.0;1.1818181818181819;8.154411764705882;0.7425835860622143;15.0;1.0;54.0;2.6666666666666665;0.024359017493738436;
153;153_f4989b3de59156267a75db7d64aba95b1357181a-FRAGMENT.arff;55.0;29.0;1.1818181818181819;8.154411764705882;0.7425835860622143;15.0;1.0;54.0;2.6666666666666665;0.024359017493738436;
154;154_191c9e3dd9fe30f75eaa5d2b63bfeab587bc72dd-FRAGMENT.arff;55.0;29.0;1.1818181818181819;8.154411764705882;0.7425835860622143;15.0;1.0;54.0;2.6666666666666665;0.024359017493738436;
155;155_05eff7f1111445f387990c7183d32cf9e1430527-FRAGMENT.arff;55.0;29.0;1.1818181818181819;8.154411764705882;0.7425835860622143;15.0;1.0;54.0;2.6666666666666665;0.024359017493738436;
156;156_29c952333609276d307d5e9e0c439df69ede07ed-FRAGMENT.arff;55.0;29.0;1.1818181818181819;8.154411764705882;0.7425835860622143;15.0;1.0;54.0;2.6666666666666665;0.024359017493738436;
157;157_0d99c12e88bf4d00d2927584cdd09dff6b1e78ef-FRAGMENT.arff;55.0;29.0;1.1818181818181819;8.154411764705882;0.7425835860622143;15.0;1.0;54.0;2.6666666666666665;0.024359017493738436;
158;158_643f7526efdc18f4eb65a7160edf1f892f6aca40-FRAGMENT.arff;55.0;29.0;1.1818181818181819;8.154411764705882;0.7425835860622143;15.0;1.0;54.0;2.6666666666666665;0.024359017493738436;
159;159_6fb8020d09bb848e24d29866ed9e5d1bc4375761-FRAGMENT.arff;55.0;29.0;1.1818181818181819;8.154411764705882;0.7425835860622143;15.0;1.0;54.0;2.6666666666666665;0.024359017493738436;
15;15_e9ec5b47c3d417981f4b46f861a85525c2de3e42-FRAGMENT.arff;4.0;12.0;1.0;1.6666666666666667;0.3464101615137754;2.0;1.0;3.0;1.0;0.0;
160;160_1eed737ac6542e354ebc7b82b07ea7634c177e54-FRAGMENT.arff;55.0;29.0;1.1818181818181819;8.154411764705882;0.7425835860622143;15.0;1.0;54.0;2.6666666666666665;0.024359017493738436;
161;161_c7cd739aeda2aca8f67c5240bbfb934b3f8fd2ae-FRAGMENT.arff;55.0;29.0;1.1818181818181819;8.154411764705882;0.7425835860622143;15.0;1.0;54.0;2.6666666666666665;0.024359017493738436;
162;162_a7fd0c67d023cbb60467a79aedc44e10632a74e4-FRAGMENT.arff;55.0;29.0;1.1818181818181819;8.154411764705882;0.7425835860622143;15.0;1.0;54.0;2.6666666666666665;0.024359017493738436;
163;163_58ed8513e82fa988534a152935196f44e19fcd8b-FRAGMENT.arff;55.0;29.0;1.1818181818181819;8.154411764705882;0.7425835860622143;15.0;1.0;54.0;2.6666666666666665;0.024359017493738436;
164;164_3e77545e80253f7ff4101c0eda50de460b5b224e-FRAGMENT.arff;55.0;29.0;1.1818181818181819;8.154411764705882;0.7425835860622143;15.0;1.0;54.0;2.6666666666666665;0.024359017493738436;
165;165_c32b599e72933ca7db04f75eb494e8cf9ef3fde3-FRAGMENT.arff;55.0;29.0;1.1818181818181819;8.154411764705882;0.7425835860622143;15.0;1.0;54.0;2.6666666666666665;0.024359017493738436;
166;166_0818781e2e608ca5ffaafd91d359675e04148125-FRAGMENT.arff;55.0;29.0;1.1818181818181819;8.154411764705882;0.7425835860622143;15.0;1.0;54.0;2.6666666666666665;0.024359017493738436;
167;167_68ddb25ebccba3723136ec70c8913826463dbe96-FRAGMENT.arff;55.0;29.0;1.1818181818181819;8.154411764705882;0.7425835860622143;15.0;1.0;54.0;2.6666666666666665;0.024359017493738436;
168;168_1d5a039fb82c86e1e525f1102dc91ffe9abd9052-FRAGMENT.arff;55.0;29.0;1.1818181818181819;8.154411764705882;0.7425835860622143;15.0;1.0;54.0;2.6666666666666665;0.024359017493738436;
169;169_f9da3bd68af69e4a315dcfb5e0c0dc1d4bb170e9-FRAGMENT.arff;55.0;29.0;1.1818181818181819;8.154411764705882;0.7425835860622143;15.0;1.0;54.0;2.6666666666666665;0.024359017493738436;
16;16_137e03feabfd9a3dba768d2e5d6d4df1b8a59478-FRAGMENT.arff;13.0;22.0;1.1538461538461537;2.7083333333333335;0.2545761911819906;3.0;1.0;12.0;3.3333333333333335;0.0206114763408556;
170;170_6dcc57ff34dbba4f41ece598b62e7dbebdfbad09-FRAGMENT.arff;55.0;29.0;1.1818181818181819;8.154411764705882;0.7425835860622143;15.0;1.0;54.0;2.6666666666666665;0.024359017493738436;
171;171_ec9d5cee2c914275dc42d8cafcf0bf0f6fdfbe05-FRAGMENT.arff;55.0;29.0;1.1818181818181819;8.154411764705882;0.7425835860622143;15.0;1.0;54.0;2.6666666666666665;0.024359017493738436;
172;172_980ea3515bca7a23bf212ecbfce21a85293aaa92-FRAGMENT.arff;55.0;29.0;1.1818181818181819;8.154411764705882;0.7425835860622143;15.0;1.0;54.0;2.6666666666666665;0.024359017493738436;
173;173_95401bdbdaf8fdfe0e52a3c9c0e6026d124719fa-FRAGMENT.arff;55.0;29.0;1.1818181818181819;8.154411764705882;0.7425835860622143;15.0;1.0;54.0;2.6666666666666665;0.024359017493738436;
174;174_4c1a019aa798e20ce0e1cebd12a7df94e4600264-FRAGMENT.arff;55.0;29.0;1.1818181818181819;8.154411764705882;0.7425835860622143;15.0;1.0;54.0;2.6666666666666665;0.024359017493738436;
175;175_7e830192e0fc725536e58274754cb460aa81dfbf-FRAGMENT.arff;55.0;29.0;1.1818181818181819;8.154411764705882;0.7425835860622143;15.0;1.0;54.0;2.6666666666666665;0.024359017493738436;
176;176_340dcc563d42fb33ca38f9a71d6aa401cfbde244-FRAGMENT.arff;55.0;29.0;1.1818181818181819;8.154411764705882;0.7425835860622143;15.0;1.0;54.0;2.6666666666666665;0.024359017493738436;
177;177_50ef3498f52c359497ca9ca002f858585fe6d516-FRAGMENT.arff;59.0;29.0;1.1694915254237288;8.058823529411764;0.7623697984056155;15.0;1.0;58.0;2.933333333333333;0.022707558680603628;
178;178_be9286dcd2ea999910e8d83edcc2a53cb55f6139-FRAGMENT.arff;59.0;29.0;1.1694915254237288;8.058823529411764;0.7623697984056155;15.0;1.0;58.0;2.933333333333333;0.022707558680603628;
179;179_c57049218fedf9172e8e8219eb00b310abef6508-FRAGMENT.arff;59.0;29.0;1.1694915254237288;8.058823529411764;0.7623697984056155;15.0;1.0;58.0;2.933333333333333;0.022707558680603628;
17;17_452234143f8a0e450634432d6bc51d1a944b51b5-FRAGMENT.arff;13.0;23.0;1.1538461538461537;2.7083333333333335;0.2545761911819906;3.0;1.0;12.0;3.3333333333333335;0.0206114763408556;
180;180_e0e91b688c9ec4687c61ee1d5d072e985819fadd-FRAGMENT.arff;59.0;29.0;1.1694915254237288;8.058823529411764;0.7623697984056155;15.0;1.0;58.0;2.933333333333333;0.022707558680603628;
181;181_01cef04f33ede23a36abc78eb2d676eb3e360e60-FRAGMENT.arff;59.0;29.0;1.1694915254237288;8.058823529411764;0.7623697984056155;15.0;1.0;58.0;2.933333333333333;0.022707558680603628;
182;182_42998763234f9c4a63085902a9b80cad9d8cf4c8-FRAGMENT.arff;59.0;29.0;1.1694915254237288;8.058823529411764;0.7623697984056155;15.0;1.0;58.0;2.933333333333333;0.022707558680603628;
18;18_3e80266e8dfc03687dac1b8a77effe7ea66cdb34-FRAGMENT.arff;13.0;23.0;1.1538461538461537;2.7083333333333335;0.2545761911819906;3.0;1.0;12.0;3.3333333333333335;0.0206114763408556;
19;19_82829deb0d4c81f35ab73c4c92a95a4713ca2da7-FRAGMENT.arff;13.0;23.0;1.1538461538461537;2.7083333333333335;0.2545761911819906;3.0;1.0;12.0;3.3333333333333335;0.0206114763408556;
20;20_a0390a1945d87e77960e3b49bfc5293bdf4cc7f1-FRAGMENT.arff;13.0;23.0;1.1538461538461537;2.7083333333333335;0.2545761911819906;3.0;1.0;12.0;3.3333333333333335;0.0206114763408556;
21;21_8ea5cba374125e90d9474b19e9f009f2c8c1e393-FRAGMENT.arff;13.0;23.0;1.1538461538461537;2.7083333333333335;0.2545761911819906;3.0;1.0;12.0;3.3333333333333335;0.0206114763408556;
22;22_cdb3ce045bf29e12febbf41e55d6af4e4b223cc9-FRAGMENT.arff;13.0;23.0;1.1538461538461537;2.7083333333333335;0.2545761911819906;3.0;1.0;12.0;3.3333333333333335;0.0206114763408556;
23;23_c86910dc5497dadec1d525edb7e2c0b9de2ecce3-FRAGMENT.arff;13.0;23.0;1.1538461538461537;2.7083333333333335;0.2545761911819906;3.0;1.0;12.0;3.3333333333333335;0.0206114763408556;
24;24_4a80445e9ae67352a3c67d1e526f2051f84684d1-FRAGMENT.arff;13.0;23.0;1.1538461538461537;2.7083333333333335;0.2545761911819906;3.0;1.0;12.0;3.3333333333333335;0.0206114763408556;
25;25_ced5214cb1c958a22b18223ac9bcc3cc214204cd-FRAGMENT.arff;13.0;23.0;1.1538461538461537;2.7083333333333335;0.2545761911819906;3.0;1.0;12.0;3.3333333333333335;0.0206114763408556;
26;26_ca6697a0374cf1f36dfe592f0189477343520457-FRAGMENT.arff;13.0;23.0;1.1538461538461537;2.7083333333333335;0.2545761911819906;3.0;1.0;12.0;3.3333333333333335;0.0206114763408556;
27;27_3c4b3007bd4a20a44abe676f8be32ffa1415251c-FRAGMENT.arff;13.0;24.0;1.1538461538461537;2.7083333333333335;0.2545761911819906;3.0;1.0;12.0;3.3333333333333335;0.0206114763408556;
28;28_31ed4148d24c716f53674190194d678a10963319-FRAGMENT.arff;13.0;24.0;1.1538461538461537;2.7083333333333335;0.2545761911819906;3.0;1.0;12.0;3.3333333333333335;0.0206114763408556;
29;29_2d4fee10f0a276a0319faefcef3008745b37a67f-FRAGMENT.arff;13.0;24.0;1.1538461538461537;2.7083333333333335;0.2545761911819906;3.0;1.0;12.0;3.3333333333333335;0.0206114763408556;
30;30_3e09f8b1096836f89d0bc60e3537406a16459fbd-FRAGMENT.arff;13.0;24.0;1.1538461538461537;2.7083333333333335;0.2545761911819906;3.0;1.0;12.0;3.3333333333333335;0.0206114763408556;
31;31_38272079aa0d488a2fb6cb62b383c5f79cc22a09-FRAGMENT.arff;13.0;24.0;1.1538461538461537;2.7083333333333335;0.2545761911819906;3.0;1.0;12.0;3.3333333333333335;0.0206114763408556;
32;32_9c4622426a7e8b0d23ccc4a90f4c9a5e5016740a-FRAGMENT.arff;13.0;24.0;1.1538461538461537;2.7083333333333335;0.2545761911819906;3.0;1.0;12.0;3.3333333333333335;0.0206114763408556;
33;33_4b227bee4c14ca65495a14bf136baf127117cfb5-FRAGMENT.arff;13.0;24.0;1.1538461538461537;2.7083333333333335;0.2545761911819906;3.0;1.0;12.0;3.3333333333333335;0.0206114763408556;
34;34_eb4ef8bdb632b025fac0fcb559d6ea5ea5cd7fb9-FRAGMENT.arff;13.0;24.0;1.1538461538461537;2.7083333333333335;0.2545761911819906;3.0;1.0;12.0;3.3333333333333335;0.0206114763408556;
35;35_4be4ce5788f752150327e8be666eb84afef6881a-FRAGMENT.arff;13.0;24.0;1.1538461538461537;2.7083333333333335;0.2545761911819906;3.0;1.0;12.0;3.3333333333333335;0.0206114763408556;
36;36_f3e11d29059ad671359c7ae3deeedd00817293a8-FRAGMENT.arff;13.0;24.0;1.1538461538461537;2.7083333333333335;0.2545761911819906;3.0;1.0;12.0;3.3333333333333335;0.0206114763408556;
37;37_a3ff951e4ab64bda60f0bbd05c697257120e41bb-FRAGMENT.arff;13.0;24.0;1.1538461538461537;2.7083333333333335;0.2545761911819906;3.0;1.0;12.0;3.3333333333333335;0.0206114763408556;
38;38_a3a52fed8df123af995b39816c6a1eb531fd91a9-FRAGMENT.arff;13.0;24.0;1.1538461538461537;2.7083333333333335;0.2545761911819906;3.0;1.0;12.0;3.3333333333333335;0.0206114763408556;
39;39_80d744b05f24a1c230afb4802aa6a70d6fc9259c-FRAGMENT.arff;13.0;24.0;1.1538461538461537;2.7083333333333335;0.2545761911819906;3.0;1.0;12.0;3.3333333333333335;0.0206114763408556;
40;40_61060284aaefc13a758eaa5d56ea15ef00940d50-FRAGMENT.arff;17.0;24.0;1.1176470588235294;3.194444444444444;0.38134898625955366;4.0;1.0;16.0;3.25;0.015761717201830755;
41;41_f27292734432228765446ca71db00314424fce48-FRAGMENT.arff;17.0;24.0;1.1176470588235294;3.194444444444444;0.38134898625955366;4.0;1.0;16.0;3.25;0.015761717201830755;
42;42_369ff94e4d3a476e60c6105eb90d4bdd477f0b8b-FRAGMENT.arff;18.0;24.0;1.1111111111111112;3.138888888888889;0.41118639255828876;4.0;1.0;17.0;3.5;0.01488606624617349;
43;43_b18c4172f5a973f38241f1f997a9df14635ab54f-FRAGMENT.arff;18.0;24.0;1.1111111111111112;3.138888888888889;0.41118639255828876;4.0;1.0;17.0;3.5;0.01488606624617349;
44;44_43f6a71a8c932f305e10dbaacd2c5299f8c8e34e-FRAGMENT.arff;19.0;24.0;1.105263157894737;3.0833333333333335;0.44004358397835763;4.0;1.0;18.0;3.75;0.014102589075322252;
45;45_19199f215cdb4775d266bf041295d22d76ba9cb0-FRAGMENT.arff;19.0;24.0;1.105263157894737;3.0833333333333335;0.44004358397835763;4.0;1.0;18.0;3.75;0.014102589075322252;
46;46_59bcd268f5d06568e409bcbe8a5eb11002bb567d-FRAGMENT.arff;19.0;24.0;1.105263157894737;3.0833333333333335;0.44004358397835763;4.0;1.0;18.0;3.75;0.014102589075322252;
47;47_c98853c8e5e62551fef443045ba4a1e28ce97ef7-FRAGMENT.arff;19.0;24.0;1.105263157894737;3.0833333333333335;0.44004358397835763;4.0;1.0;18.0;3.75;0.014102589075322252;
48;48_84d1a72c953d794b09f027038e5443e65aaf3c3a-FRAGMENT.arff;19.0;24.0;1.105263157894737;3.0833333333333335;0.44004358397835763;4.0;1.0;18.0;3.75;0.014102589075322252;
49;49_530b5a0317e4ca2ed7eef9a4fcf786479d13ea67-FRAGMENT.arff;19.0;24.0;1.105263157894737;3.0833333333333335;0.44004358397835763;4.0;1.0;18.0;3.75;0.014102589075322252;
50;50_58814f7fae89b206c214eec6ca2d780b1c9ccb62-FRAGMENT.arff;19.0;24.0;1.105263157894737;3.0833333333333335;0.44004358397835763;4.0;1.0;18.0;3.75;0.014102589075322252;
51;51_0c1cbdf955234b0a8c4da3ce7ae9168acde8d013-FRAGMENT.arff;19.0;24.0;1.105263157894737;3.0833333333333335;0.44004358397835763;4.0;1.0;18.0;3.75;0.014102589075322252;
52;52_9e22f13942eee52d3fe5091d9d33a050c455631d-FRAGMENT.arff;19.0;24.0;1.105263157894737;3.0833333333333335;0.44004358397835763;4.0;1.0;18.0;3.75;0.014102589075322252;
53;53_2ce2f01675438273384d8cc3377814fe7722d9a5-FRAGMENT.arff;21.0;24.0;1.1428571428571428;2.8611111111111107;0.5003875994474711;4.0;1.0;20.0;4.25;0.014970567468374916;
54;54_daba07546e9da9add0d1be40862d8214c4a6a84c-FRAGMENT.arff;21.0;25.0;1.1428571428571428;2.8611111111111107;0.5003875994474711;4.0;1.0;20.0;4.25;0.014970567468374916;
55;55_4c654aaab13f778145cfdf2b88d15ee9a1392b91-FRAGMENT.arff;23.0;25.0;1.1304347826086956;2.7948717948717947;0.49782795624325743;4.0;1.0;22.0;4.75;0.013668778992864054;
56;56_eda7b0d53c2b7b5a692e94f9466828c452b1c0c9-FRAGMENT.arff;23.0;25.0;1.1304347826086956;2.7948717948717947;0.49782795624325743;4.0;1.0;22.0;4.75;0.013668778992864054;
57;57_3364b99ef9f6c0d28d26219dd4803c87757c218a-FRAGMENT.arff;23.0;25.0;1.1304347826086956;2.7948717948717947;0.49782795624325743;4.0;1.0;22.0;4.75;0.013668778992864054;
58;58_0940c6491e5adc00cf3ce40e27d499cf3482dffd-FRAGMENT.arff;23.0;25.0;1.1304347826086956;2.7948717948717947;0.49782795624325743;4.0;1.0;22.0;4.75;0.013668778992864054;
59;59_7e4007bedf5b89c573da9e2044b82a99ef384d1a-FRAGMENT.arff;23.0;25.0;1.1304347826086956;2.7948717948717947;0.49782795624325743;4.0;1.0;22.0;4.75;0.013668778992864054;
60;60_1acf3253ba48cd92b600dcb391932c6cee0bf578-FRAGMENT.arff;24.0;25.0;1.125;2.7435897435897436;0.5229331778632952;4.0;1.0;23.0;5.0;0.013099246534828052;
61;61_553bdfa546dfae970f1f5b5815144cd732ced6a9-FRAGMENT.arff;26.0;25.0;1.1153846153846154;3.3782051282051286;0.5495300066919745;5.0;1.0;25.0;4.2;0.012091612185995125;
62;62_302bb066f5a10438e8f4c73bbefad6f74317a490-FRAGMENT.arff;26.0;25.0;1.1153846153846154;3.3782051282051286;0.5495300066919745;5.0;1.0;25.0;4.2;0.012091612185995125;
63;63_f8fa53a5f43184d885478b148aa95a3f517dbe4e-FRAGMENT.arff;26.0;25.0;1.1153846153846154;3.3782051282051286;0.5495300066919745;5.0;1.0;25.0;4.2;0.012091612185995125;
64;64_ff63b18f0f3ae41482487323c39defbd8601213c-FRAGMENT.arff;26.0;25.0;1.1153846153846154;3.3782051282051286;0.5495300066919745;5.0;1.0;25.0;4.2;0.012091612185995125;
65;65_db3b307c583acb9d199af423134fa89e6ec94a0d-FRAGMENT.arff;43.0;25.0;1.2325581395348837;7.634615384615385;0.8017227715910223;15.0;1.0;42.0;1.8666666666666667;0.031156882840828234;
66;66_2f7f04c0093b4d42f89eb0a816d9f61ea48bddd1-FRAGMENT.arff;43.0;25.0;1.2325581395348837;7.634615384615385;0.8017227715910223;15.0;1.0;42.0;1.8666666666666667;0.031156882840828234;
67;67_94ea340580bb4f9b7450e0de6a3d0e980b975e24-FRAGMENT.arff;43.0;25.0;1.2325581395348837;7.634615384615385;0.8017227715910223;15.0;1.0;42.0;1.8666666666666667;0.031156882840828234;
68;68_590fe2c93368d52a9e7d1a899119b33686fc6389-FRAGMENT.arff;43.0;25.0;1.2325581395348837;7.634615384615385;0.8017227715910223;15.0;1.0;42.0;1.8666666666666667;0.031156882840828234;
69;69_74db7f435c81ed454b42b626a7e85f333170b642-FRAGMENT.arff;43.0;25.0;1.2325581395348837;7.634615384615385;0.8017227715910223;15.0;1.0;42.0;1.8666666666666667;0.031156882840828234;
70;70_e1bb4ba1db76854f4a04b2a63c0f849f381dd369-FRAGMENT.arff;43.0;25.0;1.2325581395348837;7.634615384615385;0.8017227715910223;15.0;1.0;42.0;1.8666666666666667;0.031156882840828234;
71;71_39a8676ad426556e569228d0cd24cd6ca5d3bd8f-FRAGMENT.arff;43.0;25.0;1.2325581395348837;7.634615384615385;0.8017227715910223;15.0;1.0;42.0;1.8666666666666667;0.031156882840828234;
72;72_572e97d24f78f841fb6011bee85a059e99ddccc1-FRAGMENT.arff;43.0;25.0;1.2325581395348837;7.634615384615385;0.8017227715910223;15.0;1.0;42.0;1.8666666666666667;0.031156882840828234;
73;73_a7c8dd7857b06dcdc8f40ba05b3b5987092d5823-FRAGMENT.arff;43.0;26.0;1.2325581395348837;7.634615384615385;0.8017227715910223;15.0;1.0;42.0;1.8666666666666667;0.031156882840828234;
74;74_3ebcc0a1bd173f328bf6e2d7852bfc532cd7ae96-FRAGMENT.arff;43.0;26.0;1.2325581395348837;7.634615384615385;0.8017227715910223;15.0;1.0;42.0;1.8666666666666667;0.031156882840828234;
75;75_28ed3cb202717d3ef42fb6d4769a565bf10860c0-FRAGMENT.arff;43.0;26.0;1.2325581395348837;7.634615384615385;0.8017227715910223;15.0;1.0;42.0;1.8666666666666667;0.031156882840828234;
76;76_7ba426d38d45651dbf4e1592d3718234d2881472-FRAGMENT.arff;43.0;26.0;1.2325581395348837;7.634615384615385;0.8017227715910223;15.0;1.0;42.0;1.8666666666666667;0.031156882840828234;
77;77_1005b084492bd5b92e76dc2cb6d22f97494fdc4c-FRAGMENT.arff;43.0;26.0;1.2325581395348837;7.634615384615385;0.8017227715910223;15.0;1.0;42.0;1.8666666666666667;0.031156882840828234;
78;78_b093de0b24118b6c1d2210de30de190d7de9a631-FRAGMENT.arff;43.0;26.0;1.2325581395348837;7.634615384615385;0.8017227715910223;15.0;1.0;42.0;1.8666666666666667;0.031156882840828234;
79;79_16182e50200960a87a87359c17d616395cda75d2-FRAGMENT.arff;43.0;26.0;1.2325581395348837;7.634615384615385;0.8017227715910223;15.0;1.0;42.0;1.8666666666666667;0.031156882840828234;
80;80_260095a268721fcfab443af2b9118bb8bc6dae8e-FRAGMENT.arff;43.0;26.0;1.2325581395348837;7.634615384615385;0.8017227715910223;15.0;1.0;42.0;1.8666666666666667;0.031156882840828234;
81;81_eead3ada1756ddbcd8892626eb3fa23b0bdfb257-FRAGMENT.arff;43.0;26.0;1.2325581395348837;7.634615384615385;0.8017227715910223;15.0;1.0;42.0;1.8666666666666667;0.031156882840828234;
82;82_b768189cff9e1fa63596afc9de25adecb1666e09-FRAGMENT.arff;46.0;26.0;1.2173913043478262;6.8076923076923075;0.8478404659431399;15.0;1.0;45.0;2.066666666666667;0.029124912220774218;
83;83_5a81091401d8f392e7d2e09748af081135b59852-FRAGMENT.arff;46.0;26.0;1.2173913043478262;6.8076923076923075;0.8478404659431399;15.0;1.0;45.0;2.066666666666667;0.029124912220774218;
84;84_4b1d587ca21aae80ff63e1a260734cd73aed0fef-FRAGMENT.arff;46.0;26.0;1.2173913043478262;6.8076923076923075;0.8478404659431399;15.0;1.0;45.0;2.066666666666667;0.029124912220774218;
85;85_b99828942b4f95dc720cba9732d4c6eb3ef75fe8-FRAGMENT.arff;46.0;26.0;1.2173913043478262;6.8076923076923075;0.8478404659431399;15.0;1.0;45.0;2.066666666666667;0.029124912220774218;
86;86_370ceb378a1551dc15a9847c754dc3cd0fed4bde-FRAGMENT.arff;46.0;26.0;1.2173913043478262;6.8076923076923075;0.8478404659431399;15.0;1.0;45.0;2.066666666666667;0.029124912220774218;
87;87_438f55cdb5e2875a2e284114441f601182fbff33-FRAGMENT.arff;46.0;26.0;1.2173913043478262;6.8076923076923075;0.8478404659431399;15.0;1.0;45.0;2.066666666666667;0.029124912220774218;
88;88_405f496ace817ae66797ea23030b7345de965bfa-FRAGMENT.arff;46.0;26.0;1.2173913043478262;6.8076923076923075;0.8478404659431399;15.0;1.0;45.0;2.066666666666667;0.029124912220774218;
89;89_e855b3551360b40ab7b6f6f029fbbf10b069bb37-FRAGMENT.arff;46.0;26.0;1.2173913043478262;6.8076923076923075;0.8478404659431399;15.0;1.0;45.0;2.066666666666667;0.029124912220774218;
90;90_47201f7a7707ed6b07421eae5efb0569f7915e8e-FRAGMENT.arff;46.0;26.0;1.2173913043478262;6.8076923076923075;0.8478404659431399;15.0;1.0;45.0;2.066666666666667;0.029124912220774218;
91;91_5ac38442feb228c56bbab64cab3c40327e5ac16f-FRAGMENT.arff;46.0;26.0;1.2173913043478262;6.8076923076923075;0.8478404659431399;15.0;1.0;45.0;2.066666666666667;0.029124912220774218;
92;92_08e36d9cd4a51ab4391f10901f90e9502443fc2a-FRAGMENT.arff;46.0;26.0;1.2173913043478262;6.8076923076923075;0.8478404659431399;15.0;1.0;45.0;2.066666666666667;0.029124912220774218;
93;93_8693232fbf8490d0b3a4a420fad8da379c761834-FRAGMENT.arff;46.0;26.0;1.2173913043478262;6.8076923076923075;0.8478404659431399;15.0;1.0;45.0;2.066666666666667;0.029124912220774218;
94;94_8a7b181119b1189ced6dda77b662b4d327294039-FRAGMENT.arff;46.0;26.0;1.2173913043478262;6.8076923076923075;0.8478404659431399;15.0;1.0;45.0;2.066666666666667;0.029124912220774218;
95;95_40a5739790479472c05f0126cc9625bccdcb5efa-FRAGMENT.arff;46.0;26.0;1.2173913043478262;6.8076923076923075;0.8478404659431399;15.0;1.0;45.0;2.066666666666667;0.029124912220774218;
96;96_b51480e879404bfb3188c9976f2ed7500e4efa9e-FRAGMENT.arff;46.0;26.0;1.2173913043478262;6.8076923076923075;0.8478404659431399;15.0;1.0;45.0;2.066666666666667;0.029124912220774218;
97;97_e721f3ca053a1766a3c520d23c31b75e5521b8a5-FRAGMENT.arff;46.0;26.0;1.2173913043478262;6.8076923076923075;0.8478404659431399;15.0;1.0;45.0;2.066666666666667;0.029124912220774218;
98;98_1ec424a9ebb7df9ae16b9002afe8894b1e43cc01-FRAGMENT.arff;46.0;26.0;1.2173913043478262;6.8076923076923075;0.8478404659431399;15.0;1.0;45.0;2.066666666666667;0.029124912220774218;
99;99_fed18e340ca1cf79d877bbc869c7efbf24412aed-FRAGMENT.arff;46.0;26.0;1.2173913043478262;6.8076923076923075;0.8478404659431399;15.0;1.0;45.0;2.066666666666667;0.029124912220774218;
