commit;Dataset;NumOfInstances;NumOfLabels;Cardinality;MeanIR;CVIR;MaxIRLb;MinIRLb;MaxImR;MinImR;Scumble;
100;100_8ba05b512b49bd635d4b235ce73566b2ec2762cb-FILE.arff;9.0;26.0;1.0;1.0;0.0;1.0;1.0;8.0;8.0;0.0;
101;101_0cf7d318b6faa29a4e0965d8c389ae2d44c48d2b-FILE.arff;9.0;26.0;1.0;1.0;0.0;1.0;1.0;8.0;8.0;0.0;
102;102_de0f17d3b924732b3fbf89c7325f47590f94c357-FILE.arff;9.0;26.0;1.0;1.0;0.0;1.0;1.0;8.0;8.0;0.0;
103;103_0b0f7befc3a26d492301581787a37b4948190248-FILE.arff;9.0;26.0;1.0;1.0;0.0;1.0;1.0;8.0;8.0;0.0;
104;104_31d977b73abc7e3505fd71bfc60c6c3342164b1f-FILE.arff;9.0;26.0;1.0;1.0;0.0;1.0;1.0;8.0;8.0;0.0;
105;105_d7f3e32607eae7fdac742db03d50962835069382-FILE.arff;9.0;26.0;1.0;1.0;0.0;1.0;1.0;8.0;8.0;0.0;
106;106_88420bffe0882ab595d1313ae974f45854fa5423-FILE.arff;9.0;26.0;1.0;1.0;0.0;1.0;1.0;8.0;8.0;0.0;
107;107_0e004bc5c1b6fea5a6b10423d672ca80fd418395-FILE.arff;9.0;26.0;1.0;1.0;0.0;1.0;1.0;8.0;8.0;0.0;
108;108_772f5dd67bec6cf79de3823c52b2c3c80c0388d1-FILE.arff;9.0;26.0;1.0;1.0;0.0;1.0;1.0;8.0;8.0;0.0;
109;109_6c347bbc82d9e708f0a7d7348da5fa149b8a0100-FILE.arff;9.0;27.0;1.0;1.0;0.0;1.0;1.0;8.0;8.0;0.0;
10;10_6e6bbcad3d2c374d6b07749cecb5740b9c329e5f-FILE.arff;2.0;10.0;1.0;1.0;0.0;1.0;1.0;1.0;1.0;0.0;
110;110_782b2167bed5be68157655295a3dd61323759630-FILE.arff;9.0;27.0;1.0;1.0;0.0;1.0;1.0;8.0;8.0;0.0;
111;111_e1718c3b040e83752562006902cec84018d16f12-FILE.arff;9.0;27.0;1.0;1.0;0.0;1.0;1.0;8.0;8.0;0.0;
112;112_cc9f8304c58fb76b29bc3f58ae858f17e0c679d4-FILE.arff;9.0;29.0;1.0;1.0;0.0;1.0;1.0;8.0;8.0;0.0;
113;113_2304c669c687065dca815ef089fa9697761f2c35-FILE.arff;9.0;29.0;1.0;1.0;0.0;1.0;1.0;8.0;8.0;0.0;
114;114_0ce38856a4b299c89c637508a2b774f6b3d292ce-FILE.arff;9.0;29.0;1.0;1.0;0.0;1.0;1.0;8.0;8.0;0.0;
115;115_b796cc168013297bcce74ac6e9fa18fa3dfafabb-FILE.arff;9.0;29.0;1.0;1.0;0.0;1.0;1.0;8.0;8.0;0.0;
116;116_416bb062fa64d262735f1d79bd6faa1f81c09921-FILE.arff;9.0;29.0;1.0;1.0;0.0;1.0;1.0;8.0;8.0;0.0;
117;117_953e5924ca7d12f339c3cff14617920445c491ab-FILE.arff;9.0;29.0;1.0;1.0;0.0;1.0;1.0;8.0;8.0;0.0;
118;118_59c234dbb9f8d6b8d3b6a8353ee8ab9c13cba886-FILE.arff;9.0;29.0;1.0;1.0;0.0;1.0;1.0;8.0;8.0;0.0;
119;119_233455b0adb6d2e4db1c0c5c26801181f4ccf741-FILE.arff;9.0;29.0;1.0;1.0;0.0;1.0;1.0;8.0;8.0;0.0;
11;11_289f5b0ebcdcb3bdca2ff995094e45405764ded0-FILE.arff;2.0;10.0;1.0;1.0;0.0;1.0;1.0;1.0;1.0;0.0;
120;120_98aa63a7e2057b3e0522ff0a4ab80abdb39422a4-FILE.arff;9.0;29.0;1.0;1.0;0.0;1.0;1.0;8.0;8.0;0.0;
121;121_44f492a35aadefabd283a6cdd1b4e17595b28f04-FILE.arff;9.0;29.0;1.0;1.0;0.0;1.0;1.0;8.0;8.0;0.0;
122;122_10e659ea0d19d97968b9b8379133574f28ddfa17-FILE.arff;9.0;29.0;1.0;1.0;0.0;1.0;1.0;8.0;8.0;0.0;
123;123_0990f870a6975969be9467067fbb8826592526bb-FILE.arff;9.0;29.0;1.0;1.0;0.0;1.0;1.0;8.0;8.0;0.0;
124;124_1e21ff6d6372732656f7a10c5fedf69e7574ed2b-FILE.arff;9.0;29.0;1.0;1.0;0.0;1.0;1.0;8.0;8.0;0.0;
125;125_94680dfa6a5b315ddf4cdbfeabc663e8b6402c4c-FILE.arff;9.0;29.0;1.0;1.0;0.0;1.0;1.0;8.0;8.0;0.0;
126;126_194b586c2268b5129e0a6a3ec8ed66d570700bec-FILE.arff;9.0;29.0;1.0;1.0;0.0;1.0;1.0;8.0;8.0;0.0;
127;127_5a8216c3c326807f533e8c7048a584a8b5ed9cf6-FILE.arff;9.0;29.0;1.0;1.0;0.0;1.0;1.0;8.0;8.0;0.0;
128;128_3adce827666dc3a080fb8a77c1da8c9b2c40c82d-FILE.arff;9.0;29.0;1.0;1.0;0.0;1.0;1.0;8.0;8.0;0.0;
129;129_3ccc7bb168aa1063dbdaec231b4eadadbd2f3a86-FILE.arff;9.0;29.0;1.0;1.0;0.0;1.0;1.0;8.0;8.0;0.0;
12;12_9f64008f909cd3b529bfc14800860214a948e8d2-FILE.arff;2.0;10.0;1.0;1.0;0.0;1.0;1.0;1.0;1.0;0.0;
130;130_18e24a579e9c641c6c0d24cd8eaa2c4bbeba0a87-FILE.arff;9.0;29.0;1.0;1.0;0.0;1.0;1.0;8.0;8.0;0.0;
131;131_f486988524c304a1499c68e1bc4622d815d970b4-FILE.arff;9.0;29.0;1.0;1.0;0.0;1.0;1.0;8.0;8.0;0.0;
132;132_750929f6aebed5797ad28f294924ce12ee56b411-FILE.arff;9.0;29.0;1.0;1.0;0.0;1.0;1.0;8.0;8.0;0.0;
133;133_2dc494a0c1111c78766e18cce0adca2a9cb53bd2-FILE.arff;9.0;29.0;1.0;1.0;0.0;1.0;1.0;8.0;8.0;0.0;
134;134_433690c45f301e4ec31144a8a9c7270123bd19a1-FILE.arff;9.0;29.0;1.0;1.0;0.0;1.0;1.0;8.0;8.0;0.0;
135;135_b22718373607986a03463a835ec8e8971cdbddea-FILE.arff;9.0;29.0;1.0;1.0;0.0;1.0;1.0;8.0;8.0;0.0;
136;136_e13a553389fb4da104f328e74aaa31b07a62dac6-FILE.arff;9.0;29.0;1.0;1.0;0.0;1.0;1.0;8.0;8.0;0.0;
137;137_d29719bf75f3ab5f670738e0ccb45f909173c75c-FILE.arff;9.0;29.0;1.0;1.0;0.0;1.0;1.0;8.0;8.0;0.0;
138;138_9143cbf769435e281e3f2966a556ccacdc599603-FILE.arff;9.0;29.0;1.0;1.0;0.0;1.0;1.0;8.0;8.0;0.0;
139;139_a565e753399b52030baaeabf7d1905602a55ecef-FILE.arff;9.0;29.0;1.0;1.0;0.0;1.0;1.0;8.0;8.0;0.0;
13;13_eeadfc72105e8d5260b052b5f770696e70e2f988-FILE.arff;2.0;10.0;1.0;1.0;0.0;1.0;1.0;1.0;1.0;0.0;
140;140_7f4c4394753a6745f7fcd9e672c6a75801421f0e-FILE.arff;9.0;29.0;1.0;1.0;0.0;1.0;1.0;8.0;8.0;0.0;
141;141_7a07c067c12ccc509cca896c7158fff4355e9de4-FILE.arff;9.0;29.0;1.0;1.0;0.0;1.0;1.0;8.0;8.0;0.0;
142;142_fb8f2c96e0c824abbcb772ca909506fc237e4430-FILE.arff;9.0;29.0;1.0;1.0;0.0;1.0;1.0;8.0;8.0;0.0;
143;143_878f3ee38f9876bb8957092703eb7a7e6a02edc1-FILE.arff;9.0;29.0;1.0;1.0;0.0;1.0;1.0;8.0;8.0;0.0;
144;144_ac9320736a8c25536ba1a7582485ddc71bc01c9e-FILE.arff;9.0;29.0;1.0;1.0;0.0;1.0;1.0;8.0;8.0;0.0;
145;145_e9e7d44369cb1e3f03fbdebcd84ce54be895fd49-FILE.arff;9.0;29.0;1.0;1.0;0.0;1.0;1.0;8.0;8.0;0.0;
146;146_968b90676dc4430dc836f2048a28cd9dd23b5a60-FILE.arff;9.0;29.0;1.0;1.0;0.0;1.0;1.0;8.0;8.0;0.0;
147;147_3e37db2aaa63aaa53ce7c92d2a1cfa8359649a24-FILE.arff;9.0;29.0;1.0;1.0;0.0;1.0;1.0;8.0;8.0;0.0;
148;148_78f3377a6d40c4d65757d2f471edc6950cfb8750-FILE.arff;9.0;29.0;1.0;1.0;0.0;1.0;1.0;8.0;8.0;0.0;
149;149_a2591003be3eaa8171ee6f587425b2456afd52b0-FILE.arff;9.0;29.0;1.0;1.0;0.0;1.0;1.0;8.0;8.0;0.0;
14;14_35f3483a98ae3a5831f707433477614bfb5f1dc1-FILE.arff;2.0;10.0;1.0;1.0;0.0;1.0;1.0;1.0;1.0;0.0;
150;150_dfbb4c929ae83066bc0e7011f6e8c41cd0210cc8-FILE.arff;9.0;29.0;1.0;1.0;0.0;1.0;1.0;8.0;8.0;0.0;
151;151_16bc5e2b39c696caaabe265db85ed2c952e5ffd9-FILE.arff;9.0;29.0;1.0;1.0;0.0;1.0;1.0;8.0;8.0;0.0;
152;152_2f3a3b4547d9f19ae34951b48b8c38f0cf411b60-FILE.arff;9.0;29.0;1.0;1.0;0.0;1.0;1.0;8.0;8.0;0.0;
153;153_f4989b3de59156267a75db7d64aba95b1357181a-FILE.arff;9.0;29.0;1.0;1.0;0.0;1.0;1.0;8.0;8.0;0.0;
154;154_191c9e3dd9fe30f75eaa5d2b63bfeab587bc72dd-FILE.arff;9.0;29.0;1.0;1.0;0.0;1.0;1.0;8.0;8.0;0.0;
155;155_05eff7f1111445f387990c7183d32cf9e1430527-FILE.arff;9.0;29.0;1.0;1.0;0.0;1.0;1.0;8.0;8.0;0.0;
156;156_29c952333609276d307d5e9e0c439df69ede07ed-FILE.arff;9.0;29.0;1.0;1.0;0.0;1.0;1.0;8.0;8.0;0.0;
157;157_0d99c12e88bf4d00d2927584cdd09dff6b1e78ef-FILE.arff;9.0;29.0;1.0;1.0;0.0;1.0;1.0;8.0;8.0;0.0;
158;158_643f7526efdc18f4eb65a7160edf1f892f6aca40-FILE.arff;9.0;29.0;1.0;1.0;0.0;1.0;1.0;8.0;8.0;0.0;
159;159_6fb8020d09bb848e24d29866ed9e5d1bc4375761-FILE.arff;9.0;29.0;1.0;1.0;0.0;1.0;1.0;8.0;8.0;0.0;
15;15_e9ec5b47c3d417981f4b46f861a85525c2de3e42-FILE.arff;2.0;12.0;1.0;1.0;0.0;1.0;1.0;1.0;1.0;0.0;
160;160_1eed737ac6542e354ebc7b82b07ea7634c177e54-FILE.arff;9.0;29.0;1.0;1.0;0.0;1.0;1.0;8.0;8.0;0.0;
161;161_c7cd739aeda2aca8f67c5240bbfb934b3f8fd2ae-FILE.arff;9.0;29.0;1.0;1.0;0.0;1.0;1.0;8.0;8.0;0.0;
162;162_a7fd0c67d023cbb60467a79aedc44e10632a74e4-FILE.arff;9.0;29.0;1.0;1.0;0.0;1.0;1.0;8.0;8.0;0.0;
163;163_58ed8513e82fa988534a152935196f44e19fcd8b-FILE.arff;9.0;29.0;1.0;1.0;0.0;1.0;1.0;8.0;8.0;0.0;
164;164_3e77545e80253f7ff4101c0eda50de460b5b224e-FILE.arff;9.0;29.0;1.0;1.0;0.0;1.0;1.0;8.0;8.0;0.0;
165;165_c32b599e72933ca7db04f75eb494e8cf9ef3fde3-FILE.arff;9.0;29.0;1.0;1.0;0.0;1.0;1.0;8.0;8.0;0.0;
166;166_0818781e2e608ca5ffaafd91d359675e04148125-FILE.arff;9.0;29.0;1.0;1.0;0.0;1.0;1.0;8.0;8.0;0.0;
167;167_68ddb25ebccba3723136ec70c8913826463dbe96-FILE.arff;9.0;29.0;1.0;1.0;0.0;1.0;1.0;8.0;8.0;0.0;
168;168_1d5a039fb82c86e1e525f1102dc91ffe9abd9052-FILE.arff;9.0;29.0;1.0;1.0;0.0;1.0;1.0;8.0;8.0;0.0;
169;169_f9da3bd68af69e4a315dcfb5e0c0dc1d4bb170e9-FILE.arff;9.0;29.0;1.0;1.0;0.0;1.0;1.0;8.0;8.0;0.0;
16;16_137e03feabfd9a3dba768d2e5d6d4df1b8a59478-FILE.arff;2.0;22.0;1.0;1.0;0.0;1.0;1.0;1.0;1.0;0.0;
170;170_6dcc57ff34dbba4f41ece598b62e7dbebdfbad09-FILE.arff;9.0;29.0;1.0;1.0;0.0;1.0;1.0;8.0;8.0;0.0;
171;171_ec9d5cee2c914275dc42d8cafcf0bf0f6fdfbe05-FILE.arff;9.0;29.0;1.0;1.0;0.0;1.0;1.0;8.0;8.0;0.0;
172;172_980ea3515bca7a23bf212ecbfce21a85293aaa92-FILE.arff;9.0;29.0;1.0;1.0;0.0;1.0;1.0;8.0;8.0;0.0;
173;173_95401bdbdaf8fdfe0e52a3c9c0e6026d124719fa-FILE.arff;9.0;29.0;1.0;1.0;0.0;1.0;1.0;8.0;8.0;0.0;
174;174_4c1a019aa798e20ce0e1cebd12a7df94e4600264-FILE.arff;9.0;29.0;1.0;1.0;0.0;1.0;1.0;8.0;8.0;0.0;
175;175_7e830192e0fc725536e58274754cb460aa81dfbf-FILE.arff;9.0;29.0;1.0;1.0;0.0;1.0;1.0;8.0;8.0;0.0;
176;176_340dcc563d42fb33ca38f9a71d6aa401cfbde244-FILE.arff;9.0;29.0;1.0;1.0;0.0;1.0;1.0;8.0;8.0;0.0;
177;177_50ef3498f52c359497ca9ca002f858585fe6d516-FILE.arff;9.0;29.0;1.0;1.0;0.0;1.0;1.0;8.0;8.0;0.0;
178;178_be9286dcd2ea999910e8d83edcc2a53cb55f6139-FILE.arff;9.0;29.0;1.0;1.0;0.0;1.0;1.0;8.0;8.0;0.0;
179;179_c57049218fedf9172e8e8219eb00b310abef6508-FILE.arff;9.0;29.0;1.0;1.0;0.0;1.0;1.0;8.0;8.0;0.0;
17;17_452234143f8a0e450634432d6bc51d1a944b51b5-FILE.arff;3.0;23.0;1.0;1.0;0.0;1.0;1.0;2.0;2.0;0.0;
180;180_e0e91b688c9ec4687c61ee1d5d072e985819fadd-FILE.arff;9.0;29.0;1.0;1.0;0.0;1.0;1.0;8.0;8.0;0.0;
181;181_01cef04f33ede23a36abc78eb2d676eb3e360e60-FILE.arff;9.0;29.0;1.0;1.0;0.0;1.0;1.0;8.0;8.0;0.0;
182;182_42998763234f9c4a63085902a9b80cad9d8cf4c8-FILE.arff;9.0;29.0;1.0;1.0;0.0;1.0;1.0;8.0;8.0;0.0;
18;18_3e80266e8dfc03687dac1b8a77effe7ea66cdb34-FILE.arff;6.0;23.0;1.0;1.0;0.0;1.0;1.0;5.0;5.0;0.0;
19;19_82829deb0d4c81f35ab73c4c92a95a4713ca2da7-FILE.arff;6.0;23.0;1.0;1.0;0.0;1.0;1.0;5.0;5.0;0.0;
20;20_a0390a1945d87e77960e3b49bfc5293bdf4cc7f1-FILE.arff;7.0;23.0;1.0;1.0;0.0;1.0;1.0;6.0;6.0;0.0;
21;21_8ea5cba374125e90d9474b19e9f009f2c8c1e393-FILE.arff;7.0;23.0;1.0;1.0;0.0;1.0;1.0;6.0;6.0;0.0;
22;22_cdb3ce045bf29e12febbf41e55d6af4e4b223cc9-FILE.arff;7.0;23.0;1.0;1.0;0.0;1.0;1.0;6.0;6.0;0.0;
23;23_c86910dc5497dadec1d525edb7e2c0b9de2ecce3-FILE.arff;7.0;23.0;1.0;1.0;0.0;1.0;1.0;6.0;6.0;0.0;
24;24_4a80445e9ae67352a3c67d1e526f2051f84684d1-FILE.arff;7.0;23.0;1.0;1.0;0.0;1.0;1.0;6.0;6.0;0.0;
25;25_ced5214cb1c958a22b18223ac9bcc3cc214204cd-FILE.arff;7.0;23.0;1.0;1.0;0.0;1.0;1.0;6.0;6.0;0.0;
26;26_ca6697a0374cf1f36dfe592f0189477343520457-FILE.arff;7.0;23.0;1.0;1.0;0.0;1.0;1.0;6.0;6.0;0.0;
27;27_3c4b3007bd4a20a44abe676f8be32ffa1415251c-FILE.arff;7.0;24.0;1.0;1.0;0.0;1.0;1.0;6.0;6.0;0.0;
28;28_31ed4148d24c716f53674190194d678a10963319-FILE.arff;7.0;24.0;1.0;1.0;0.0;1.0;1.0;6.0;6.0;0.0;
29;29_2d4fee10f0a276a0319faefcef3008745b37a67f-FILE.arff;7.0;24.0;1.0;1.0;0.0;1.0;1.0;6.0;6.0;0.0;
30;30_3e09f8b1096836f89d0bc60e3537406a16459fbd-FILE.arff;7.0;24.0;1.0;1.0;0.0;1.0;1.0;6.0;6.0;0.0;
31;31_38272079aa0d488a2fb6cb62b383c5f79cc22a09-FILE.arff;7.0;24.0;1.0;1.0;0.0;1.0;1.0;6.0;6.0;0.0;
32;32_9c4622426a7e8b0d23ccc4a90f4c9a5e5016740a-FILE.arff;7.0;24.0;1.0;1.0;0.0;1.0;1.0;6.0;6.0;0.0;
33;33_4b227bee4c14ca65495a14bf136baf127117cfb5-FILE.arff;7.0;24.0;1.0;1.0;0.0;1.0;1.0;6.0;6.0;0.0;
34;34_eb4ef8bdb632b025fac0fcb559d6ea5ea5cd7fb9-FILE.arff;7.0;24.0;1.0;1.0;0.0;1.0;1.0;6.0;6.0;0.0;
35;35_4be4ce5788f752150327e8be666eb84afef6881a-FILE.arff;7.0;24.0;1.0;1.0;0.0;1.0;1.0;6.0;6.0;0.0;
36;36_f3e11d29059ad671359c7ae3deeedd00817293a8-FILE.arff;7.0;24.0;1.0;1.0;0.0;1.0;1.0;6.0;6.0;0.0;
37;37_a3ff951e4ab64bda60f0bbd05c697257120e41bb-FILE.arff;7.0;24.0;1.0;1.0;0.0;1.0;1.0;6.0;6.0;0.0;
38;38_a3a52fed8df123af995b39816c6a1eb531fd91a9-FILE.arff;7.0;24.0;1.0;1.0;0.0;1.0;1.0;6.0;6.0;0.0;
39;39_80d744b05f24a1c230afb4802aa6a70d6fc9259c-FILE.arff;7.0;24.0;1.0;1.0;0.0;1.0;1.0;6.0;6.0;0.0;
40;40_61060284aaefc13a758eaa5d56ea15ef00940d50-FILE.arff;7.0;24.0;1.0;1.0;0.0;1.0;1.0;6.0;6.0;0.0;
41;41_f27292734432228765446ca71db00314424fce48-FILE.arff;7.0;24.0;1.0;1.0;0.0;1.0;1.0;6.0;6.0;0.0;
42;42_369ff94e4d3a476e60c6105eb90d4bdd477f0b8b-FILE.arff;8.0;24.0;1.0;1.0;0.0;1.0;1.0;7.0;7.0;0.0;
43;43_b18c4172f5a973f38241f1f997a9df14635ab54f-FILE.arff;8.0;24.0;1.0;1.0;0.0;1.0;1.0;7.0;7.0;0.0;
44;44_43f6a71a8c932f305e10dbaacd2c5299f8c8e34e-FILE.arff;8.0;24.0;1.0;1.0;0.0;1.0;1.0;7.0;7.0;0.0;
45;45_19199f215cdb4775d266bf041295d22d76ba9cb0-FILE.arff;8.0;24.0;1.0;1.0;0.0;1.0;1.0;7.0;7.0;0.0;
46;46_59bcd268f5d06568e409bcbe8a5eb11002bb567d-FILE.arff;8.0;24.0;1.0;1.0;0.0;1.0;1.0;7.0;7.0;0.0;
47;47_c98853c8e5e62551fef443045ba4a1e28ce97ef7-FILE.arff;8.0;24.0;1.0;1.0;0.0;1.0;1.0;7.0;7.0;0.0;
48;48_84d1a72c953d794b09f027038e5443e65aaf3c3a-FILE.arff;8.0;24.0;1.0;1.0;0.0;1.0;1.0;7.0;7.0;0.0;
49;49_530b5a0317e4ca2ed7eef9a4fcf786479d13ea67-FILE.arff;8.0;24.0;1.0;1.0;0.0;1.0;1.0;7.0;7.0;0.0;
50;50_58814f7fae89b206c214eec6ca2d780b1c9ccb62-FILE.arff;8.0;24.0;1.0;1.0;0.0;1.0;1.0;7.0;7.0;0.0;
51;51_0c1cbdf955234b0a8c4da3ce7ae9168acde8d013-FILE.arff;8.0;24.0;1.0;1.0;0.0;1.0;1.0;7.0;7.0;0.0;
52;52_9e22f13942eee52d3fe5091d9d33a050c455631d-FILE.arff;8.0;24.0;1.0;1.0;0.0;1.0;1.0;7.0;7.0;0.0;
53;53_2ce2f01675438273384d8cc3377814fe7722d9a5-FILE.arff;8.0;24.0;1.0;1.0;0.0;1.0;1.0;7.0;7.0;0.0;
54;54_daba07546e9da9add0d1be40862d8214c4a6a84c-FILE.arff;8.0;25.0;1.0;1.0;0.0;1.0;1.0;7.0;7.0;0.0;
55;55_4c654aaab13f778145cfdf2b88d15ee9a1392b91-FILE.arff;8.0;25.0;1.0;1.0;0.0;1.0;1.0;7.0;7.0;0.0;
56;56_eda7b0d53c2b7b5a692e94f9466828c452b1c0c9-FILE.arff;8.0;25.0;1.0;1.0;0.0;1.0;1.0;7.0;7.0;0.0;
57;57_3364b99ef9f6c0d28d26219dd4803c87757c218a-FILE.arff;8.0;25.0;1.0;1.0;0.0;1.0;1.0;7.0;7.0;0.0;
58;58_0940c6491e5adc00cf3ce40e27d499cf3482dffd-FILE.arff;8.0;25.0;1.0;1.0;0.0;1.0;1.0;7.0;7.0;0.0;
59;59_7e4007bedf5b89c573da9e2044b82a99ef384d1a-FILE.arff;8.0;25.0;1.0;1.0;0.0;1.0;1.0;7.0;7.0;0.0;
60;60_1acf3253ba48cd92b600dcb391932c6cee0bf578-FILE.arff;8.0;25.0;1.0;1.0;0.0;1.0;1.0;7.0;7.0;0.0;
61;61_553bdfa546dfae970f1f5b5815144cd732ced6a9-FILE.arff;8.0;25.0;1.0;1.0;0.0;1.0;1.0;7.0;7.0;0.0;
62;62_302bb066f5a10438e8f4c73bbefad6f74317a490-FILE.arff;8.0;25.0;1.0;1.0;0.0;1.0;1.0;7.0;7.0;0.0;
63;63_f8fa53a5f43184d885478b148aa95a3f517dbe4e-FILE.arff;8.0;25.0;1.0;1.0;0.0;1.0;1.0;7.0;7.0;0.0;
64;64_ff63b18f0f3ae41482487323c39defbd8601213c-FILE.arff;8.0;25.0;1.0;1.0;0.0;1.0;1.0;7.0;7.0;0.0;
65;65_db3b307c583acb9d199af423134fa89e6ec94a0d-FILE.arff;8.0;25.0;1.0;1.0;0.0;1.0;1.0;7.0;7.0;0.0;
66;66_2f7f04c0093b4d42f89eb0a816d9f61ea48bddd1-FILE.arff;8.0;25.0;1.0;1.0;0.0;1.0;1.0;7.0;7.0;0.0;
67;67_94ea340580bb4f9b7450e0de6a3d0e980b975e24-FILE.arff;8.0;25.0;1.0;1.0;0.0;1.0;1.0;7.0;7.0;0.0;
68;68_590fe2c93368d52a9e7d1a899119b33686fc6389-FILE.arff;8.0;25.0;1.0;1.0;0.0;1.0;1.0;7.0;7.0;0.0;
69;69_74db7f435c81ed454b42b626a7e85f333170b642-FILE.arff;8.0;25.0;1.0;1.0;0.0;1.0;1.0;7.0;7.0;0.0;
70;70_e1bb4ba1db76854f4a04b2a63c0f849f381dd369-FILE.arff;8.0;25.0;1.0;1.0;0.0;1.0;1.0;7.0;7.0;0.0;
71;71_39a8676ad426556e569228d0cd24cd6ca5d3bd8f-FILE.arff;8.0;25.0;1.0;1.0;0.0;1.0;1.0;7.0;7.0;0.0;
72;72_572e97d24f78f841fb6011bee85a059e99ddccc1-FILE.arff;8.0;25.0;1.0;1.0;0.0;1.0;1.0;7.0;7.0;0.0;
73;73_a7c8dd7857b06dcdc8f40ba05b3b5987092d5823-FILE.arff;8.0;26.0;1.0;1.0;0.0;1.0;1.0;7.0;7.0;0.0;
74;74_3ebcc0a1bd173f328bf6e2d7852bfc532cd7ae96-FILE.arff;8.0;26.0;1.0;1.0;0.0;1.0;1.0;7.0;7.0;0.0;
75;75_28ed3cb202717d3ef42fb6d4769a565bf10860c0-FILE.arff;8.0;26.0;1.0;1.0;0.0;1.0;1.0;7.0;7.0;0.0;
76;76_7ba426d38d45651dbf4e1592d3718234d2881472-FILE.arff;8.0;26.0;1.0;1.0;0.0;1.0;1.0;7.0;7.0;0.0;
77;77_1005b084492bd5b92e76dc2cb6d22f97494fdc4c-FILE.arff;8.0;26.0;1.0;1.0;0.0;1.0;1.0;7.0;7.0;0.0;
78;78_b093de0b24118b6c1d2210de30de190d7de9a631-FILE.arff;8.0;26.0;1.0;1.0;0.0;1.0;1.0;7.0;7.0;0.0;
79;79_16182e50200960a87a87359c17d616395cda75d2-FILE.arff;8.0;26.0;1.0;1.0;0.0;1.0;1.0;7.0;7.0;0.0;
80;80_260095a268721fcfab443af2b9118bb8bc6dae8e-FILE.arff;8.0;26.0;1.0;1.0;0.0;1.0;1.0;7.0;7.0;0.0;
81;81_eead3ada1756ddbcd8892626eb3fa23b0bdfb257-FILE.arff;8.0;26.0;1.0;1.0;0.0;1.0;1.0;7.0;7.0;0.0;
82;82_b768189cff9e1fa63596afc9de25adecb1666e09-FILE.arff;8.0;26.0;1.0;1.0;0.0;1.0;1.0;7.0;7.0;0.0;
83;83_5a81091401d8f392e7d2e09748af081135b59852-FILE.arff;8.0;26.0;1.0;1.0;0.0;1.0;1.0;7.0;7.0;0.0;
84;84_4b1d587ca21aae80ff63e1a260734cd73aed0fef-FILE.arff;8.0;26.0;1.0;1.0;0.0;1.0;1.0;7.0;7.0;0.0;
85;85_b99828942b4f95dc720cba9732d4c6eb3ef75fe8-FILE.arff;8.0;26.0;1.0;1.0;0.0;1.0;1.0;7.0;7.0;0.0;
86;86_370ceb378a1551dc15a9847c754dc3cd0fed4bde-FILE.arff;8.0;26.0;1.0;1.0;0.0;1.0;1.0;7.0;7.0;0.0;
87;87_438f55cdb5e2875a2e284114441f601182fbff33-FILE.arff;8.0;26.0;1.0;1.0;0.0;1.0;1.0;7.0;7.0;0.0;
88;88_405f496ace817ae66797ea23030b7345de965bfa-FILE.arff;8.0;26.0;1.0;1.0;0.0;1.0;1.0;7.0;7.0;0.0;
89;89_e855b3551360b40ab7b6f6f029fbbf10b069bb37-FILE.arff;9.0;26.0;1.0;1.0;0.0;1.0;1.0;8.0;8.0;0.0;
8;8_bf6e79b7f2241a6a465e5656b09f33b39d751791-FILE.arff;1.0;7.0;1.0;1.0;NaN;1.0;1.0;4.9E-324;1.7976931348623157E308;0.0;
90;90_47201f7a7707ed6b07421eae5efb0569f7915e8e-FILE.arff;9.0;26.0;1.0;1.0;0.0;1.0;1.0;8.0;8.0;0.0;
91;91_5ac38442feb228c56bbab64cab3c40327e5ac16f-FILE.arff;9.0;26.0;1.0;1.0;0.0;1.0;1.0;8.0;8.0;0.0;
92;92_08e36d9cd4a51ab4391f10901f90e9502443fc2a-FILE.arff;9.0;26.0;1.0;1.0;0.0;1.0;1.0;8.0;8.0;0.0;
93;93_8693232fbf8490d0b3a4a420fad8da379c761834-FILE.arff;9.0;26.0;1.0;1.0;0.0;1.0;1.0;8.0;8.0;0.0;
94;94_8a7b181119b1189ced6dda77b662b4d327294039-FILE.arff;9.0;26.0;1.0;1.0;0.0;1.0;1.0;8.0;8.0;0.0;
95;95_40a5739790479472c05f0126cc9625bccdcb5efa-FILE.arff;9.0;26.0;1.0;1.0;0.0;1.0;1.0;8.0;8.0;0.0;
96;96_b51480e879404bfb3188c9976f2ed7500e4efa9e-FILE.arff;9.0;26.0;1.0;1.0;0.0;1.0;1.0;8.0;8.0;0.0;
97;97_e721f3ca053a1766a3c520d23c31b75e5521b8a5-FILE.arff;9.0;26.0;1.0;1.0;0.0;1.0;1.0;8.0;8.0;0.0;
98;98_1ec424a9ebb7df9ae16b9002afe8894b1e43cc01-FILE.arff;9.0;26.0;1.0;1.0;0.0;1.0;1.0;8.0;8.0;0.0;
99;99_fed18e340ca1cf79d877bbc869c7efbf24412aed-FILE.arff;9.0;26.0;1.0;1.0;0.0;1.0;1.0;8.0;8.0;0.0;
9;9_553771a4efe103fef602ebb012b909232c87d90c-FILE.arff;2.0;7.0;1.0;1.0;0.0;1.0;1.0;1.0;1.0;0.0;
