commit;DataSet;Classifier;TotalInstances;InstancesWithRankedLabels;PercentageOfInstancesWithRankedLabels;InstancesWithPrecisionNull;PercentageOfInstancesWithPrecisionNull;InstancesWithPrecisionZero;PercentageOfInstancesWithPrecisionZero;InstancesWithPrecisionNonZero;PercentageOfInstancesWithPrecisionNonZero;InstancesWithPrecisionOne;PercentageOfInstancesWithPrecisionOne;InstancesWithRecallZero;PercentageOfInstancesWithRecallZero;InstancesWithRecallOne;PercentageOfInstancesWithRecallOne;AveragePrecisionForAllNonNullPrecision;AveragePrecisionForNonZeroPrecision;AverageRecallForAllNonNullPrecision;AverageRecallForAllNonZeroPrecision;AverageFScoreForAllNonNullPrecision;AverageFScoreForAllNonZeroPrecision;
10;10_6e6bbcad3d2c374d6b07749cecb5740b9c329e5f-LOC.arff;BR;3.0;3.0;1.0;0.0;0.0;0.0;0.0;3.0;1.0;3.0;1.0;0.0;0.0;3.0;1.0;1.0;1.0;1.0;1.0;1.0;1.0;
10;10_6e6bbcad3d2c374d6b07749cecb5740b9c329e5f-LOC.arff;LP;3.0;3.0;1.0;0.0;0.0;0.0;0.0;3.0;1.0;3.0;1.0;0.0;0.0;3.0;1.0;1.0;1.0;1.0;1.0;1.0;1.0;
10;10_6e6bbcad3d2c374d6b07749cecb5740b9c329e5f-LOC.arff;RAkELd;3.0;3.0;1.0;0.0;0.0;0.0;0.0;3.0;1.0;3.0;1.0;0.0;0.0;3.0;1.0;1.0;1.0;1.0;1.0;1.0;1.0;
15;15_e9ec5b47c3d417981f4b46f861a85525c2de3e42-LOC.arff;BR;22.0;22.0;1.0;0.0;0.0;22.0;1.0;0.0;0.0;0.0;0.0;22.0;1.0;0.0;0.0;0.0;0.0;0.0;0.0;0.0;0.0;
15;15_e9ec5b47c3d417981f4b46f861a85525c2de3e42-LOC.arff;LP;22.0;22.0;1.0;0.0;0.0;22.0;1.0;0.0;0.0;0.0;0.0;22.0;1.0;0.0;0.0;0.0;0.0;0.0;0.0;0.0;0.0;
15;15_e9ec5b47c3d417981f4b46f861a85525c2de3e42-LOC.arff;RAkELd;22.0;22.0;1.0;0.0;0.0;22.0;1.0;0.0;0.0;0.0;0.0;22.0;1.0;0.0;0.0;0.0;0.0;0.0;0.0;0.0;0.0;
19;19_82829deb0d4c81f35ab73c4c92a95a4713ca2da7-LOC.arff;BR;5.0;5.0;1.0;0.0;0.0;0.0;0.0;5.0;1.0;5.0;1.0;0.0;0.0;5.0;1.0;1.0;1.0;1.0;1.0;1.0;1.0;
19;19_82829deb0d4c81f35ab73c4c92a95a4713ca2da7-LOC.arff;LP;5.0;5.0;1.0;0.0;0.0;0.0;0.0;5.0;1.0;5.0;1.0;0.0;0.0;5.0;1.0;1.0;1.0;1.0;1.0;1.0;1.0;
19;19_82829deb0d4c81f35ab73c4c92a95a4713ca2da7-LOC.arff;RAkELd;5.0;5.0;1.0;0.0;0.0;0.0;0.0;5.0;1.0;5.0;1.0;0.0;0.0;5.0;1.0;1.0;1.0;1.0;1.0;1.0;1.0;
20;20_a0390a1945d87e77960e3b49bfc5293bdf4cc7f1-LOC.arff;BR;7.0;7.0;1.0;0.0;0.0;4.0;0.5714285714285714;3.0;0.42857142857142855;2.0;0.2857142857142857;4.0;0.5714285714285714;0.0;0.0;0.35714285714285715;0.8333333333333334;0.21428571428571427;0.5;0.2619047619047619;0.611111111111111;
20;20_a0390a1945d87e77960e3b49bfc5293bdf4cc7f1-LOC.arff;LP;7.0;7.0;1.0;0.0;0.0;7.0;1.0;0.0;0.0;0.0;0.0;7.0;1.0;0.0;0.0;0.0;0.0;0.0;0.0;0.0;0.0;
20;20_a0390a1945d87e77960e3b49bfc5293bdf4cc7f1-LOC.arff;RAkELd;7.0;7.0;1.0;0.0;0.0;4.0;0.5714285714285714;3.0;0.42857142857142855;2.0;0.2857142857142857;4.0;0.5714285714285714;0.0;0.0;0.35714285714285715;0.8333333333333334;0.21428571428571427;0.5;0.2619047619047619;0.611111111111111;
21;21_8ea5cba374125e90d9474b19e9f009f2c8c1e393-LOC.arff;BR;4.0;4.0;1.0;0.0;0.0;4.0;1.0;0.0;0.0;0.0;0.0;4.0;1.0;0.0;0.0;0.0;0.0;0.0;0.0;0.0;0.0;
21;21_8ea5cba374125e90d9474b19e9f009f2c8c1e393-LOC.arff;LP;4.0;4.0;1.0;0.0;0.0;4.0;1.0;0.0;0.0;0.0;0.0;4.0;1.0;0.0;0.0;0.0;0.0;0.0;0.0;0.0;0.0;
21;21_8ea5cba374125e90d9474b19e9f009f2c8c1e393-LOC.arff;RAkELd;4.0;4.0;1.0;0.0;0.0;4.0;1.0;0.0;0.0;0.0;0.0;4.0;1.0;0.0;0.0;0.0;0.0;0.0;0.0;0.0;0.0;
23;23_c86910dc5497dadec1d525edb7e2c0b9de2ecce3-LOC.arff;BR;3.0;3.0;1.0;0.0;0.0;0.0;0.0;3.0;1.0;3.0;1.0;0.0;0.0;3.0;1.0;1.0;1.0;1.0;1.0;1.0;1.0;
23;23_c86910dc5497dadec1d525edb7e2c0b9de2ecce3-LOC.arff;LP;3.0;3.0;1.0;0.0;0.0;0.0;0.0;3.0;1.0;3.0;1.0;0.0;0.0;3.0;1.0;1.0;1.0;1.0;1.0;1.0;1.0;
23;23_c86910dc5497dadec1d525edb7e2c0b9de2ecce3-LOC.arff;RAkELd;3.0;3.0;1.0;0.0;0.0;0.0;0.0;3.0;1.0;3.0;1.0;0.0;0.0;3.0;1.0;1.0;1.0;1.0;1.0;1.0;1.0;
29;29_2d4fee10f0a276a0319faefcef3008745b37a67f-LOC.arff;BR;14.0;14.0;1.0;0.0;0.0;5.0;0.35714285714285715;9.0;0.6428571428571429;9.0;0.6428571428571429;5.0;0.35714285714285715;9.0;0.6428571428571429;0.6428571428571429;1.0;0.6428571428571429;1.0;0.6428571428571429;1.0;
29;29_2d4fee10f0a276a0319faefcef3008745b37a67f-LOC.arff;LP;14.0;14.0;1.0;0.0;0.0;5.0;0.35714285714285715;9.0;0.6428571428571429;9.0;0.6428571428571429;5.0;0.35714285714285715;9.0;0.6428571428571429;0.6428571428571429;1.0;0.6428571428571429;1.0;0.6428571428571429;1.0;
29;29_2d4fee10f0a276a0319faefcef3008745b37a67f-LOC.arff;RAkELd;14.0;14.0;1.0;0.0;0.0;5.0;0.35714285714285715;9.0;0.6428571428571429;9.0;0.6428571428571429;5.0;0.35714285714285715;9.0;0.6428571428571429;0.6428571428571429;1.0;0.6428571428571429;1.0;0.6428571428571429;1.0;
34;34_eb4ef8bdb632b025fac0fcb559d6ea5ea5cd7fb9-LOC.arff;BR;12.0;12.0;1.0;0.0;0.0;0.0;0.0;12.0;1.0;12.0;1.0;0.0;0.0;12.0;1.0;1.0;1.0;1.0;1.0;1.0;1.0;
34;34_eb4ef8bdb632b025fac0fcb559d6ea5ea5cd7fb9-LOC.arff;LP;12.0;12.0;1.0;0.0;0.0;0.0;0.0;12.0;1.0;12.0;1.0;0.0;0.0;12.0;1.0;1.0;1.0;1.0;1.0;1.0;1.0;
34;34_eb4ef8bdb632b025fac0fcb559d6ea5ea5cd7fb9-LOC.arff;RAkELd;12.0;12.0;1.0;0.0;0.0;0.0;0.0;12.0;1.0;2.0;0.16666666666666666;0.0;0.0;12.0;1.0;0.5833333333333334;0.5833333333333334;1.0;1.0;0.7222222222222222;0.7222222222222222;
37;37_a3ff951e4ab64bda60f0bbd05c697257120e41bb-LOC.arff;BR;18.0;18.0;1.0;0.0;0.0;9.0;0.5;9.0;0.5;9.0;0.5;9.0;0.5;9.0;0.5;0.5;1.0;0.5;1.0;0.5;1.0;
37;37_a3ff951e4ab64bda60f0bbd05c697257120e41bb-LOC.arff;LP;18.0;18.0;1.0;0.0;0.0;9.0;0.5;9.0;0.5;9.0;0.5;9.0;0.5;9.0;0.5;0.5;1.0;0.5;1.0;0.5;1.0;
37;37_a3ff951e4ab64bda60f0bbd05c697257120e41bb-LOC.arff;RAkELd;18.0;18.0;1.0;0.0;0.0;9.0;0.5;9.0;0.5;9.0;0.5;9.0;0.5;9.0;0.5;0.5;1.0;0.5;1.0;0.5;1.0;
38;38_a3a52fed8df123af995b39816c6a1eb531fd91a9-LOC.arff;BR;52.0;52.0;1.0;0.0;0.0;27.0;0.5192307692307693;25.0;0.4807692307692308;9.0;0.17307692307692307;27.0;0.5192307692307693;25.0;0.4807692307692308;0.3269230769230769;0.68;0.4807692307692308;1.0;0.37820512820512825;0.7866666666666667;
38;38_a3a52fed8df123af995b39816c6a1eb531fd91a9-LOC.arff;LP;52.0;52.0;1.0;0.0;0.0;43.0;0.8269230769230769;9.0;0.17307692307692307;9.0;0.17307692307692307;43.0;0.8269230769230769;9.0;0.17307692307692307;0.17307692307692307;1.0;0.17307692307692307;1.0;0.17307692307692307;1.0;
38;38_a3a52fed8df123af995b39816c6a1eb531fd91a9-LOC.arff;RAkELd;52.0;52.0;1.0;0.0;0.0;27.0;0.5192307692307693;25.0;0.4807692307692308;9.0;0.17307692307692307;27.0;0.5192307692307693;25.0;0.4807692307692308;0.3269230769230769;0.68;0.4807692307692308;1.0;0.37820512820512825;0.7866666666666667;
39;39_80d744b05f24a1c230afb4802aa6a70d6fc9259c-LOC.arff;BR;15.0;15.0;1.0;0.0;0.0;12.0;0.8;3.0;0.2;0.0;0.0;12.0;0.8;3.0;0.2;0.1;0.5;0.2;1.0;0.13333333333333333;0.6666666666666666;
39;39_80d744b05f24a1c230afb4802aa6a70d6fc9259c-LOC.arff;LP;15.0;15.0;1.0;0.0;0.0;12.0;0.8;3.0;0.2;3.0;0.2;12.0;0.8;3.0;0.2;0.2;1.0;0.2;1.0;0.2;1.0;
39;39_80d744b05f24a1c230afb4802aa6a70d6fc9259c-LOC.arff;RAkELd;15.0;15.0;1.0;0.0;0.0;12.0;0.8;3.0;0.2;0.0;0.0;12.0;0.8;3.0;0.2;0.1;0.5;0.2;1.0;0.13333333333333333;0.6666666666666666;
40;40_61060284aaefc13a758eaa5d56ea15ef00940d50-LOC.arff;BR;13.0;13.0;1.0;0.0;0.0;0.0;0.0;13.0;1.0;13.0;1.0;0.0;0.0;13.0;1.0;1.0;1.0;1.0;1.0;1.0;1.0;
40;40_61060284aaefc13a758eaa5d56ea15ef00940d50-LOC.arff;LP;13.0;13.0;1.0;0.0;0.0;0.0;0.0;13.0;1.0;13.0;1.0;0.0;0.0;13.0;1.0;1.0;1.0;1.0;1.0;1.0;1.0;
40;40_61060284aaefc13a758eaa5d56ea15ef00940d50-LOC.arff;RAkELd;13.0;13.0;1.0;0.0;0.0;0.0;0.0;13.0;1.0;13.0;1.0;0.0;0.0;13.0;1.0;1.0;1.0;1.0;1.0;1.0;1.0;
41;41_f27292734432228765446ca71db00314424fce48-LOC.arff;BR;29.0;29.0;1.0;0.0;0.0;12.0;0.41379310344827586;17.0;0.5862068965517241;17.0;0.5862068965517241;12.0;0.41379310344827586;17.0;0.5862068965517241;0.5862068965517241;1.0;0.5862068965517241;1.0;0.5862068965517241;1.0;
41;41_f27292734432228765446ca71db00314424fce48-LOC.arff;LP;29.0;29.0;1.0;0.0;0.0;12.0;0.41379310344827586;17.0;0.5862068965517241;17.0;0.5862068965517241;12.0;0.41379310344827586;17.0;0.5862068965517241;0.5862068965517241;1.0;0.5862068965517241;1.0;0.5862068965517241;1.0;
41;41_f27292734432228765446ca71db00314424fce48-LOC.arff;RAkELd;29.0;29.0;1.0;0.0;0.0;12.0;0.41379310344827586;17.0;0.5862068965517241;17.0;0.5862068965517241;12.0;0.41379310344827586;17.0;0.5862068965517241;0.5862068965517241;1.0;0.5862068965517241;1.0;0.5862068965517241;1.0;
42;42_369ff94e4d3a476e60c6105eb90d4bdd477f0b8b-LOC.arff;BR;35.0;35.0;1.0;0.0;0.0;2.0;0.05714285714285714;33.0;0.9428571428571428;25.0;0.7142857142857143;2.0;0.05714285714285714;33.0;0.9428571428571428;0.8285714285714286;0.8787878787878788;0.9428571428571428;1.0;0.8666666666666666;0.9191919191919191;
42;42_369ff94e4d3a476e60c6105eb90d4bdd477f0b8b-LOC.arff;LP;35.0;35.0;1.0;0.0;0.0;5.0;0.14285714285714285;30.0;0.8571428571428571;30.0;0.8571428571428571;5.0;0.14285714285714285;30.0;0.8571428571428571;0.8571428571428571;1.0;0.8571428571428571;1.0;0.8571428571428571;1.0;
42;42_369ff94e4d3a476e60c6105eb90d4bdd477f0b8b-LOC.arff;RAkELd;35.0;35.0;1.0;0.0;0.0;5.0;0.14285714285714285;30.0;0.8571428571428571;27.0;0.7714285714285715;5.0;0.14285714285714285;30.0;0.8571428571428571;0.8142857142857143;0.95;0.8571428571428571;1.0;0.8285714285714286;0.9666666666666667;
43;43_b18c4172f5a973f38241f1f997a9df14635ab54f-LOC.arff;BR;37.0;37.0;1.0;1.0;0.02702702702702703;1.0;0.02702702702702703;35.0;0.9459459459459459;29.0;0.7837837837837838;2.0;0.05405405405405406;35.0;0.9459459459459459;0.8888888888888888;0.9142857142857143;0.9722222222222222;1.0;0.9166666666666666;0.9428571428571428;
43;43_b18c4172f5a973f38241f1f997a9df14635ab54f-LOC.arff;LP;37.0;37.0;1.0;0.0;0.0;16.0;0.43243243243243246;21.0;0.5675675675675675;16.0;0.43243243243243246;16.0;0.43243243243243246;21.0;0.5675675675675675;0.5;0.8809523809523809;0.5675675675675675;1.0;0.5225225225225225;0.9206349206349206;
43;43_b18c4172f5a973f38241f1f997a9df14635ab54f-LOC.arff;RAkELd;37.0;37.0;1.0;5.0;0.13513513513513514;2.0;0.05405405405405406;30.0;0.8108108108108109;30.0;0.8108108108108109;7.0;0.1891891891891892;30.0;0.8108108108108109;0.9375;1.0;0.9375;1.0;0.9375;1.0;
46;46_59bcd268f5d06568e409bcbe8a5eb11002bb567d-LOC.arff;BR;16.0;16.0;1.0;0.0;0.0;1.0;0.0625;15.0;0.9375;0.0;0.0;1.0;0.0625;15.0;0.9375;0.3125;0.3333333333333333;0.9375;1.0;0.46875;0.5;
46;46_59bcd268f5d06568e409bcbe8a5eb11002bb567d-LOC.arff;LP;16.0;16.0;1.0;0.0;0.0;1.0;0.0625;15.0;0.9375;15.0;0.9375;1.0;0.0625;15.0;0.9375;0.9375;1.0;0.9375;1.0;0.9375;1.0;
46;46_59bcd268f5d06568e409bcbe8a5eb11002bb567d-LOC.arff;RAkELd;16.0;16.0;1.0;0.0;0.0;1.0;0.0625;15.0;0.9375;0.0;0.0;1.0;0.0625;15.0;0.9375;0.46875;0.5;0.9375;1.0;0.625;0.6666666666666666;
52;52_9e22f13942eee52d3fe5091d9d33a050c455631d-LOC.arff;BR;39.0;39.0;1.0;0.0;0.0;33.0;0.8461538461538461;6.0;0.15384615384615385;6.0;0.15384615384615385;33.0;0.8461538461538461;0.0;0.0;0.15384615384615385;1.0;0.07264957264957266;0.47222222222222227;0.09829059829059829;0.6388888888888888;
52;52_9e22f13942eee52d3fe5091d9d33a050c455631d-LOC.arff;LP;39.0;39.0;1.0;0.0;0.0;33.0;0.8461538461538461;6.0;0.15384615384615385;6.0;0.15384615384615385;33.0;0.8461538461538461;0.0;0.0;0.15384615384615385;1.0;0.07264957264957266;0.47222222222222227;0.09829059829059829;0.6388888888888888;
52;52_9e22f13942eee52d3fe5091d9d33a050c455631d-LOC.arff;RAkELd;39.0;39.0;1.0;0.0;0.0;33.0;0.8461538461538461;6.0;0.15384615384615385;6.0;0.15384615384615385;33.0;0.8461538461538461;0.0;0.0;0.15384615384615385;1.0;0.07264957264957266;0.47222222222222227;0.09829059829059829;0.6388888888888888;
53;53_2ce2f01675438273384d8cc3377814fe7722d9a5-LOC.arff;BR;22.0;22.0;1.0;0.0;0.0;22.0;1.0;0.0;0.0;0.0;0.0;22.0;1.0;0.0;0.0;0.0;0.0;0.0;0.0;0.0;0.0;
53;53_2ce2f01675438273384d8cc3377814fe7722d9a5-LOC.arff;LP;22.0;22.0;1.0;0.0;0.0;22.0;1.0;0.0;0.0;0.0;0.0;22.0;1.0;0.0;0.0;0.0;0.0;0.0;0.0;0.0;0.0;
53;53_2ce2f01675438273384d8cc3377814fe7722d9a5-LOC.arff;RAkELd;22.0;22.0;1.0;0.0;0.0;22.0;1.0;0.0;0.0;0.0;0.0;22.0;1.0;0.0;0.0;0.0;0.0;0.0;0.0;0.0;0.0;
55;55_4c654aaab13f778145cfdf2b88d15ee9a1392b91-LOC.arff;BR;1.0;1.0;1.0;0.0;0.0;0.0;0.0;1.0;1.0;1.0;1.0;0.0;0.0;1.0;1.0;1.0;1.0;1.0;1.0;1.0;1.0;
55;55_4c654aaab13f778145cfdf2b88d15ee9a1392b91-LOC.arff;LP;1.0;1.0;1.0;0.0;0.0;0.0;0.0;1.0;1.0;1.0;1.0;0.0;0.0;1.0;1.0;1.0;1.0;1.0;1.0;1.0;1.0;
55;55_4c654aaab13f778145cfdf2b88d15ee9a1392b91-LOC.arff;RAkELd;1.0;1.0;1.0;0.0;0.0;0.0;0.0;1.0;1.0;1.0;1.0;0.0;0.0;1.0;1.0;1.0;1.0;1.0;1.0;1.0;1.0;
57;57_3364b99ef9f6c0d28d26219dd4803c87757c218a-LOC.arff;BR;4.0;4.0;1.0;0.0;0.0;0.0;0.0;4.0;1.0;4.0;1.0;0.0;0.0;4.0;1.0;1.0;1.0;1.0;1.0;1.0;1.0;
57;57_3364b99ef9f6c0d28d26219dd4803c87757c218a-LOC.arff;LP;4.0;4.0;1.0;0.0;0.0;0.0;0.0;4.0;1.0;4.0;1.0;0.0;0.0;4.0;1.0;1.0;1.0;1.0;1.0;1.0;1.0;
57;57_3364b99ef9f6c0d28d26219dd4803c87757c218a-LOC.arff;RAkELd;4.0;4.0;1.0;0.0;0.0;0.0;0.0;4.0;1.0;4.0;1.0;0.0;0.0;4.0;1.0;1.0;1.0;1.0;1.0;1.0;1.0;
58;58_0940c6491e5adc00cf3ce40e27d499cf3482dffd-LOC.arff;BR;5.0;5.0;1.0;0.0;0.0;0.0;0.0;5.0;1.0;5.0;1.0;0.0;0.0;5.0;1.0;1.0;1.0;1.0;1.0;1.0;1.0;
58;58_0940c6491e5adc00cf3ce40e27d499cf3482dffd-LOC.arff;LP;5.0;5.0;1.0;0.0;0.0;0.0;0.0;5.0;1.0;5.0;1.0;0.0;0.0;5.0;1.0;1.0;1.0;1.0;1.0;1.0;1.0;
58;58_0940c6491e5adc00cf3ce40e27d499cf3482dffd-LOC.arff;RAkELd;5.0;5.0;1.0;0.0;0.0;0.0;0.0;5.0;1.0;5.0;1.0;0.0;0.0;5.0;1.0;1.0;1.0;1.0;1.0;1.0;1.0;
59;59_7e4007bedf5b89c573da9e2044b82a99ef384d1a-LOC.arff;BR;6.0;6.0;1.0;0.0;0.0;6.0;1.0;0.0;0.0;0.0;0.0;6.0;1.0;0.0;0.0;0.0;0.0;0.0;0.0;0.0;0.0;
59;59_7e4007bedf5b89c573da9e2044b82a99ef384d1a-LOC.arff;LP;6.0;6.0;1.0;0.0;0.0;6.0;1.0;0.0;0.0;0.0;0.0;6.0;1.0;0.0;0.0;0.0;0.0;0.0;0.0;0.0;0.0;
59;59_7e4007bedf5b89c573da9e2044b82a99ef384d1a-LOC.arff;RAkELd;6.0;6.0;1.0;0.0;0.0;6.0;1.0;0.0;0.0;0.0;0.0;6.0;1.0;0.0;0.0;0.0;0.0;0.0;0.0;0.0;0.0;
64;64_ff63b18f0f3ae41482487323c39defbd8601213c-LOC.arff;BR;259.0;259.0;1.0;0.0;0.0;106.0;0.4092664092664093;153.0;0.5907335907335908;153.0;0.5907335907335908;106.0;0.4092664092664093;53.0;0.20463320463320464;0.5907335907335908;1.0;0.380952380952381;0.644880174291939;0.4453024453024453;0.7538126361655774;
64;64_ff63b18f0f3ae41482487323c39defbd8601213c-LOC.arff;LP;259.0;259.0;1.0;0.0;0.0;151.0;0.583011583011583;108.0;0.416988416988417;46.0;0.1776061776061776;151.0;0.583011583011583;59.0;0.2277992277992278;0.2972972972972973;0.7129629629629629;0.32689832689832693;0.7839506172839507;0.29716859716859717;0.7126543209876544;
64;64_ff63b18f0f3ae41482487323c39defbd8601213c-LOC.arff;RAkELd;259.0;259.0;1.0;0.0;0.0;106.0;0.4092664092664093;153.0;0.5907335907335908;153.0;0.5907335907335908;106.0;0.4092664092664093;53.0;0.20463320463320464;0.5907335907335908;1.0;0.380952380952381;0.644880174291939;0.4453024453024453;0.7538126361655774;
77;77_1005b084492bd5b92e76dc2cb6d22f97494fdc4c-LOC.arff;BR;2.0;2.0;1.0;0.0;0.0;0.0;0.0;2.0;1.0;1.0;0.5;0.0;0.0;2.0;1.0;0.75;0.75;1.0;1.0;0.8333333333333333;0.8333333333333333;
77;77_1005b084492bd5b92e76dc2cb6d22f97494fdc4c-LOC.arff;LP;2.0;2.0;1.0;0.0;0.0;1.0;0.5;1.0;0.5;1.0;0.5;1.0;0.5;1.0;0.5;0.5;1.0;0.5;1.0;0.5;1.0;
77;77_1005b084492bd5b92e76dc2cb6d22f97494fdc4c-LOC.arff;RAkELd;2.0;2.0;1.0;1.0;0.5;1.0;0.5;0.0;0.0;0.0;0.0;2.0;1.0;0.0;0.0;0.0;0.0;0.0;0.0;0.0;0.0;
80;80_260095a268721fcfab443af2b9118bb8bc6dae8e-LOC.arff;BR;10.0;10.0;1.0;0.0;0.0;1.0;0.1;9.0;0.9;9.0;0.9;1.0;0.1;5.0;0.5;0.9;1.0;0.7;0.7777777777777778;0.7666666666666666;0.8518518518518517;
80;80_260095a268721fcfab443af2b9118bb8bc6dae8e-LOC.arff;LP;10.0;10.0;1.0;0.0;0.0;1.0;0.1;9.0;0.9;9.0;0.9;1.0;0.1;5.0;0.5;0.9;1.0;0.7;0.7777777777777778;0.7666666666666666;0.8518518518518517;
80;80_260095a268721fcfab443af2b9118bb8bc6dae8e-LOC.arff;RAkELd;10.0;10.0;1.0;0.0;0.0;1.0;0.1;9.0;0.9;9.0;0.9;1.0;0.1;5.0;0.5;0.9;1.0;0.7;0.7777777777777778;0.7666666666666666;0.8518518518518517;
88;88_405f496ace817ae66797ea23030b7345de965bfa-LOC.arff;BR;121.0;121.0;1.0;10.0;0.08264462809917356;111.0;0.9173553719008265;0.0;0.0;0.0;0.0;121.0;1.0;0.0;0.0;0.0;0.0;0.0;0.0;0.0;0.0;
88;88_405f496ace817ae66797ea23030b7345de965bfa-LOC.arff;LP;121.0;121.0;1.0;0.0;0.0;98.0;0.8099173553719008;23.0;0.19008264462809918;23.0;0.19008264462809918;98.0;0.8099173553719008;23.0;0.19008264462809918;0.19008264462809918;1.0;0.19008264462809918;1.0;0.19008264462809918;1.0;
88;88_405f496ace817ae66797ea23030b7345de965bfa-LOC.arff;RAkELd;121.0;121.0;1.0;10.0;0.08264462809917356;111.0;0.9173553719008265;0.0;0.0;0.0;0.0;121.0;1.0;0.0;0.0;0.0;0.0;0.0;0.0;0.0;0.0;
96;96_b51480e879404bfb3188c9976f2ed7500e4efa9e-LOC.arff;BR;35.0;35.0;1.0;0.0;0.0;12.0;0.34285714285714286;23.0;0.6571428571428571;16.0;0.45714285714285713;12.0;0.34285714285714286;23.0;0.6571428571428571;0.5571428571428572;0.8478260869565217;0.6571428571428571;1.0;0.5904761904761905;0.8985507246376813;
96;96_b51480e879404bfb3188c9976f2ed7500e4efa9e-LOC.arff;LP;35.0;35.0;1.0;0.0;0.0;12.0;0.34285714285714286;23.0;0.6571428571428571;23.0;0.6571428571428571;12.0;0.34285714285714286;23.0;0.6571428571428571;0.6571428571428571;1.0;0.6571428571428571;1.0;0.6571428571428571;1.0;
96;96_b51480e879404bfb3188c9976f2ed7500e4efa9e-LOC.arff;RAkELd;35.0;35.0;1.0;0.0;0.0;12.0;0.34285714285714286;23.0;0.6571428571428571;16.0;0.45714285714285713;12.0;0.34285714285714286;23.0;0.6571428571428571;0.5571428571428572;0.8478260869565217;0.6571428571428571;1.0;0.5904761904761905;0.8985507246376813;
108;108_772f5dd67bec6cf79de3823c52b2c3c80c0388d1-LOC.arff;BR;47.0;47.0;1.0;0.0;0.0;47.0;1.0;0.0;0.0;0.0;0.0;47.0;1.0;0.0;0.0;0.0;0.0;0.0;0.0;0.0;0.0;
108;108_772f5dd67bec6cf79de3823c52b2c3c80c0388d1-LOC.arff;LP;47.0;47.0;1.0;0.0;0.0;47.0;1.0;0.0;0.0;0.0;0.0;47.0;1.0;0.0;0.0;0.0;0.0;0.0;0.0;0.0;0.0;
108;108_772f5dd67bec6cf79de3823c52b2c3c80c0388d1-LOC.arff;RAkELd;47.0;47.0;1.0;0.0;0.0;47.0;1.0;0.0;0.0;0.0;0.0;47.0;1.0;0.0;0.0;0.0;0.0;0.0;0.0;0.0;0.0;
111;111_e1718c3b040e83752562006902cec84018d16f12-LOC.arff;BR;117.0;117.0;1.0;80.0;0.6837606837606838;37.0;0.3162393162393162;0.0;0.0;0.0;0.0;117.0;1.0;0.0;0.0;0.0;0.0;0.0;0.0;0.0;0.0;
111;111_e1718c3b040e83752562006902cec84018d16f12-LOC.arff;LP;117.0;117.0;1.0;0.0;0.0;117.0;1.0;0.0;0.0;0.0;0.0;117.0;1.0;0.0;0.0;0.0;0.0;0.0;0.0;0.0;0.0;
111;111_e1718c3b040e83752562006902cec84018d16f12-LOC.arff;RAkELd;117.0;117.0;1.0;80.0;0.6837606837606838;37.0;0.3162393162393162;0.0;0.0;0.0;0.0;117.0;1.0;0.0;0.0;0.0;0.0;0.0;0.0;0.0;0.0;
176;176_340dcc563d42fb33ca38f9a71d6aa401cfbde244-LOC.arff;BR;85.0;85.0;1.0;0.0;0.0;4.0;0.047058823529411764;81.0;0.9529411764705882;33.0;0.38823529411764707;4.0;0.047058823529411764;22.0;0.25882352941176473;0.6705882352941176;0.7037037037037037;0.5892156862745098;0.6183127572016461;0.6015686274509804;0.6312757201646091;
176;176_340dcc563d42fb33ca38f9a71d6aa401cfbde244-LOC.arff;LP;85.0;85.0;1.0;0.0;0.0;53.0;0.6235294117647059;32.0;0.3764705882352941;29.0;0.3411764705882353;53.0;0.6235294117647059;15.0;0.17647058823529413;0.3568627450980392;0.9479166666666666;0.2627450980392157;0.6979166666666666;0.28509803921568627;0.7572916666666667;
176;176_340dcc563d42fb33ca38f9a71d6aa401cfbde244-LOC.arff;RAkELd;85.0;85.0;1.0;0.0;0.0;4.0;0.047058823529411764;81.0;0.9529411764705882;27.0;0.3176470588235294;4.0;0.047058823529411764;22.0;0.25882352941176473;0.6352941176470588;0.6666666666666666;0.5892156862745098;0.6183127572016461;0.5905882352941176;0.6197530864197531;
