commit;DataSet;Classifier;TotalInstances;InstancesWithRankedLabels;PercentageOfInstancesWithRankedLabels;InstancesWithPrecisionNull;PercentageOfInstancesWithPrecisionNull;InstancesWithPrecisionZero;PercentageOfInstancesWithPrecisionZero;InstancesWithPrecisionNonZero;PercentageOfInstancesWithPrecisionNonZero;InstancesWithPrecisionOne;PercentageOfInstancesWithPrecisionOne;InstancesWithRecallZero;PercentageOfInstancesWithRecallZero;InstancesWithRecallOne;PercentageOfInstancesWithRecallOne;AveragePrecisionForAllNonNullPrecision;AveragePrecisionForNonZeroPrecision;AverageRecallForAllNonNullPrecision;AverageRecallForAllNonZeroPrecision;AverageFScoreForAllNonNullPrecision;AverageFScoreForAllNonZeroPrecision;
7;7_7a7c87aedb9974d4b1f84ca4ab80dba640d0e0d4-FRAGMENT.arff;BR;3.0;3.0;1.0;0.0;0.0;3.0;1.0;0.0;0.0;0.0;0.0;3.0;1.0;0.0;0.0;0.0;0.0;0.0;0.0;0.0;0.0;
7;7_7a7c87aedb9974d4b1f84ca4ab80dba640d0e0d4-FRAGMENT.arff;LP;3.0;3.0;1.0;0.0;0.0;3.0;1.0;0.0;0.0;0.0;0.0;3.0;1.0;0.0;0.0;0.0;0.0;0.0;0.0;0.0;0.0;
7;7_7a7c87aedb9974d4b1f84ca4ab80dba640d0e0d4-FRAGMENT.arff;RAkELd;3.0;3.0;1.0;3.0;1.0;0.0;0.0;0.0;0.0;0.0;0.0;3.0;1.0;0.0;0.0;0.0;0.0;0.0;0.0;0.0;0.0;
11;11_9bf8b2fda3eb5feee5a8fa644dd2a559fea95fc5-FRAGMENT.arff;BR;2.0;2.0;1.0;0.0;0.0;2.0;1.0;0.0;0.0;0.0;0.0;2.0;1.0;0.0;0.0;0.0;0.0;0.0;0.0;0.0;0.0;
11;11_9bf8b2fda3eb5feee5a8fa644dd2a559fea95fc5-FRAGMENT.arff;LP;2.0;2.0;1.0;0.0;0.0;2.0;1.0;0.0;0.0;0.0;0.0;2.0;1.0;0.0;0.0;0.0;0.0;0.0;0.0;0.0;0.0;
11;11_9bf8b2fda3eb5feee5a8fa644dd2a559fea95fc5-FRAGMENT.arff;RAkELd;2.0;2.0;1.0;0.0;0.0;2.0;1.0;0.0;0.0;0.0;0.0;2.0;1.0;0.0;0.0;0.0;0.0;0.0;0.0;0.0;0.0;
17;17_da3e20a4618706b4fefe6668860120973f261174-FRAGMENT.arff;BR;1.0;1.0;1.0;0.0;0.0;1.0;1.0;0.0;0.0;0.0;0.0;1.0;1.0;0.0;0.0;0.0;0.0;0.0;0.0;0.0;0.0;
17;17_da3e20a4618706b4fefe6668860120973f261174-FRAGMENT.arff;LP;1.0;1.0;1.0;0.0;0.0;1.0;1.0;0.0;0.0;0.0;0.0;1.0;1.0;0.0;0.0;0.0;0.0;0.0;0.0;0.0;0.0;
17;17_da3e20a4618706b4fefe6668860120973f261174-FRAGMENT.arff;RAkELd;1.0;1.0;1.0;0.0;0.0;1.0;1.0;0.0;0.0;0.0;0.0;1.0;1.0;0.0;0.0;0.0;0.0;0.0;0.0;0.0;0.0;
18;18_f9744676f5fc2b1cd17e1d529e834a1aa25baedb-FRAGMENT.arff;BR;1.0;1.0;1.0;0.0;0.0;1.0;1.0;0.0;0.0;0.0;0.0;1.0;1.0;0.0;0.0;0.0;0.0;0.0;0.0;0.0;0.0;
18;18_f9744676f5fc2b1cd17e1d529e834a1aa25baedb-FRAGMENT.arff;LP;1.0;1.0;1.0;0.0;0.0;1.0;1.0;0.0;0.0;0.0;0.0;1.0;1.0;0.0;0.0;0.0;0.0;0.0;0.0;0.0;0.0;
18;18_f9744676f5fc2b1cd17e1d529e834a1aa25baedb-FRAGMENT.arff;RAkELd;1.0;1.0;1.0;0.0;0.0;1.0;1.0;0.0;0.0;0.0;0.0;1.0;1.0;0.0;0.0;0.0;0.0;0.0;0.0;0.0;0.0;
20;20_efa08edd831faabee1ca5dae56561504f1435e16-FRAGMENT.arff;BR;4.0;4.0;1.0;0.0;0.0;4.0;1.0;0.0;0.0;0.0;0.0;4.0;1.0;0.0;0.0;0.0;0.0;0.0;0.0;0.0;0.0;
20;20_efa08edd831faabee1ca5dae56561504f1435e16-FRAGMENT.arff;LP;4.0;4.0;1.0;0.0;0.0;4.0;1.0;0.0;0.0;0.0;0.0;4.0;1.0;0.0;0.0;0.0;0.0;0.0;0.0;0.0;0.0;
20;20_efa08edd831faabee1ca5dae56561504f1435e16-FRAGMENT.arff;RAkELd;4.0;4.0;1.0;0.0;0.0;4.0;1.0;0.0;0.0;0.0;0.0;4.0;1.0;0.0;0.0;0.0;0.0;0.0;0.0;0.0;0.0;
24;24_d8b4a77b6f37179a265b120bdfbd8c44f7e66b80-FRAGMENT.arff;BR;5.0;5.0;1.0;0.0;0.0;5.0;1.0;0.0;0.0;0.0;0.0;5.0;1.0;0.0;0.0;0.0;0.0;0.0;0.0;0.0;0.0;
24;24_d8b4a77b6f37179a265b120bdfbd8c44f7e66b80-FRAGMENT.arff;LP;5.0;5.0;1.0;0.0;0.0;5.0;1.0;0.0;0.0;0.0;0.0;5.0;1.0;0.0;0.0;0.0;0.0;0.0;0.0;0.0;0.0;
24;24_d8b4a77b6f37179a265b120bdfbd8c44f7e66b80-FRAGMENT.arff;RAkELd;5.0;5.0;1.0;0.0;0.0;5.0;1.0;0.0;0.0;0.0;0.0;5.0;1.0;0.0;0.0;0.0;0.0;0.0;0.0;0.0;0.0;
30;30_ab8d7e7e99dce24a5499641314192b64a62bd045-FRAGMENT.arff;BR;31.0;31.0;1.0;0.0;0.0;31.0;1.0;0.0;0.0;0.0;0.0;31.0;1.0;0.0;0.0;0.0;0.0;0.0;0.0;0.0;0.0;
30;30_ab8d7e7e99dce24a5499641314192b64a62bd045-FRAGMENT.arff;LP;31.0;31.0;1.0;0.0;0.0;31.0;1.0;0.0;0.0;0.0;0.0;31.0;1.0;0.0;0.0;0.0;0.0;0.0;0.0;0.0;0.0;
30;30_ab8d7e7e99dce24a5499641314192b64a62bd045-FRAGMENT.arff;RAkELd;31.0;31.0;1.0;0.0;0.0;31.0;1.0;0.0;0.0;0.0;0.0;31.0;1.0;0.0;0.0;0.0;0.0;0.0;0.0;0.0;0.0;
31;31_746ef129fab6c2ec90fa3356a637c38e7aa460a7-FRAGMENT.arff;BR;15.0;15.0;1.0;5.0;0.3333333333333333;10.0;0.6666666666666666;0.0;0.0;0.0;0.0;15.0;1.0;0.0;0.0;0.0;0.0;0.0;0.0;0.0;0.0;
31;31_746ef129fab6c2ec90fa3356a637c38e7aa460a7-FRAGMENT.arff;LP;15.0;15.0;1.0;0.0;0.0;15.0;1.0;0.0;0.0;0.0;0.0;15.0;1.0;0.0;0.0;0.0;0.0;0.0;0.0;0.0;0.0;
31;31_746ef129fab6c2ec90fa3356a637c38e7aa460a7-FRAGMENT.arff;RAkELd;15.0;15.0;1.0;5.0;0.3333333333333333;10.0;0.6666666666666666;0.0;0.0;0.0;0.0;15.0;1.0;0.0;0.0;0.0;0.0;0.0;0.0;0.0;0.0;
37;37_a6f39393b82fcb801d316dedd94a191091db6ad5-FRAGMENT.arff;BR;3.0;3.0;1.0;2.0;0.6666666666666666;1.0;0.3333333333333333;0.0;0.0;0.0;0.0;3.0;1.0;0.0;0.0;0.0;0.0;0.0;0.0;0.0;0.0;
37;37_a6f39393b82fcb801d316dedd94a191091db6ad5-FRAGMENT.arff;LP;3.0;3.0;1.0;0.0;0.0;3.0;1.0;0.0;0.0;0.0;0.0;3.0;1.0;0.0;0.0;0.0;0.0;0.0;0.0;0.0;0.0;
37;37_a6f39393b82fcb801d316dedd94a191091db6ad5-FRAGMENT.arff;RAkELd;3.0;3.0;1.0;0.0;0.0;3.0;1.0;0.0;0.0;0.0;0.0;3.0;1.0;0.0;0.0;0.0;0.0;0.0;0.0;0.0;0.0;
40;40_4a99f9ffea0f6f9a7ef3305190a689b6fc50926a-FRAGMENT.arff;BR;2.0;2.0;1.0;0.0;0.0;2.0;1.0;0.0;0.0;0.0;0.0;2.0;1.0;0.0;0.0;0.0;0.0;0.0;0.0;0.0;0.0;
40;40_4a99f9ffea0f6f9a7ef3305190a689b6fc50926a-FRAGMENT.arff;LP;2.0;2.0;1.0;0.0;0.0;2.0;1.0;0.0;0.0;0.0;0.0;2.0;1.0;0.0;0.0;0.0;0.0;0.0;0.0;0.0;0.0;
40;40_4a99f9ffea0f6f9a7ef3305190a689b6fc50926a-FRAGMENT.arff;RAkELd;2.0;2.0;1.0;0.0;0.0;2.0;1.0;0.0;0.0;0.0;0.0;2.0;1.0;0.0;0.0;0.0;0.0;0.0;0.0;0.0;0.0;
46;46_0b8dd9dc6033b1155378977f10d881b602c0425e-FRAGMENT.arff;BR;4.0;4.0;1.0;0.0;0.0;4.0;1.0;0.0;0.0;0.0;0.0;4.0;1.0;0.0;0.0;0.0;0.0;0.0;0.0;0.0;0.0;
46;46_0b8dd9dc6033b1155378977f10d881b602c0425e-FRAGMENT.arff;LP;4.0;4.0;1.0;0.0;0.0;4.0;1.0;0.0;0.0;0.0;0.0;4.0;1.0;0.0;0.0;0.0;0.0;0.0;0.0;0.0;0.0;
46;46_0b8dd9dc6033b1155378977f10d881b602c0425e-FRAGMENT.arff;RAkELd;4.0;4.0;1.0;0.0;0.0;4.0;1.0;0.0;0.0;0.0;0.0;4.0;1.0;0.0;0.0;0.0;0.0;0.0;0.0;0.0;0.0;
47;47_5cfd31e4828489d82d4bbe335865b8b993632a1b-FRAGMENT.arff;BR;1.0;1.0;1.0;0.0;0.0;1.0;1.0;0.0;0.0;0.0;0.0;1.0;1.0;0.0;0.0;0.0;0.0;0.0;0.0;0.0;0.0;
47;47_5cfd31e4828489d82d4bbe335865b8b993632a1b-FRAGMENT.arff;LP;1.0;1.0;1.0;0.0;0.0;1.0;1.0;0.0;0.0;0.0;0.0;1.0;1.0;0.0;0.0;0.0;0.0;0.0;0.0;0.0;0.0;
47;47_5cfd31e4828489d82d4bbe335865b8b993632a1b-FRAGMENT.arff;RAkELd;1.0;1.0;1.0;0.0;0.0;1.0;1.0;0.0;0.0;0.0;0.0;1.0;1.0;0.0;0.0;0.0;0.0;0.0;0.0;0.0;0.0;
48;48_794650939a51f20a13e6d97c0c87727e8ba2f47c-FRAGMENT.arff;BR;1.0;1.0;1.0;0.0;0.0;1.0;1.0;0.0;0.0;0.0;0.0;1.0;1.0;0.0;0.0;0.0;0.0;0.0;0.0;0.0;0.0;
48;48_794650939a51f20a13e6d97c0c87727e8ba2f47c-FRAGMENT.arff;LP;1.0;1.0;1.0;0.0;0.0;1.0;1.0;0.0;0.0;0.0;0.0;1.0;1.0;0.0;0.0;0.0;0.0;0.0;0.0;0.0;0.0;
48;48_794650939a51f20a13e6d97c0c87727e8ba2f47c-FRAGMENT.arff;RAkELd;1.0;1.0;1.0;0.0;0.0;1.0;1.0;0.0;0.0;0.0;0.0;1.0;1.0;0.0;0.0;0.0;0.0;0.0;0.0;0.0;0.0;
52;52_21339b2f9739c5d801601cfc2a2c997196389e69-FRAGMENT.arff;BR;3.0;3.0;1.0;0.0;0.0;3.0;1.0;0.0;0.0;0.0;0.0;3.0;1.0;0.0;0.0;0.0;0.0;0.0;0.0;0.0;0.0;
52;52_21339b2f9739c5d801601cfc2a2c997196389e69-FRAGMENT.arff;LP;3.0;3.0;1.0;0.0;0.0;3.0;1.0;0.0;0.0;0.0;0.0;3.0;1.0;0.0;0.0;0.0;0.0;0.0;0.0;0.0;0.0;
52;52_21339b2f9739c5d801601cfc2a2c997196389e69-FRAGMENT.arff;RAkELd;3.0;3.0;1.0;0.0;0.0;3.0;1.0;0.0;0.0;0.0;0.0;3.0;1.0;0.0;0.0;0.0;0.0;0.0;0.0;0.0;0.0;
53;53_3844b6bd98df06f8bcb8ca905eae8e4b83d29fd6-FRAGMENT.arff;BR;2.0;2.0;1.0;1.0;0.5;1.0;0.5;0.0;0.0;0.0;0.0;2.0;1.0;0.0;0.0;0.0;0.0;0.0;0.0;0.0;0.0;
53;53_3844b6bd98df06f8bcb8ca905eae8e4b83d29fd6-FRAGMENT.arff;LP;2.0;2.0;1.0;0.0;0.0;2.0;1.0;0.0;0.0;0.0;0.0;2.0;1.0;0.0;0.0;0.0;0.0;0.0;0.0;0.0;0.0;
53;53_3844b6bd98df06f8bcb8ca905eae8e4b83d29fd6-FRAGMENT.arff;RAkELd;2.0;2.0;1.0;0.0;0.0;2.0;1.0;0.0;0.0;0.0;0.0;2.0;1.0;0.0;0.0;0.0;0.0;0.0;0.0;0.0;0.0;
54;54_f12128dcfa9a723a013f5bdbe6ee3d17099b6d71-FRAGMENT.arff;BR;12.0;12.0;1.0;10.0;0.8333333333333334;2.0;0.16666666666666666;0.0;0.0;0.0;0.0;12.0;1.0;0.0;0.0;0.0;0.0;0.0;0.0;0.0;0.0;
54;54_f12128dcfa9a723a013f5bdbe6ee3d17099b6d71-FRAGMENT.arff;LP;12.0;12.0;1.0;0.0;0.0;12.0;1.0;0.0;0.0;0.0;0.0;12.0;1.0;0.0;0.0;0.0;0.0;0.0;0.0;0.0;0.0;
54;54_f12128dcfa9a723a013f5bdbe6ee3d17099b6d71-FRAGMENT.arff;RAkELd;12.0;12.0;1.0;8.0;0.6666666666666666;4.0;0.3333333333333333;0.0;0.0;0.0;0.0;12.0;1.0;0.0;0.0;0.0;0.0;0.0;0.0;0.0;0.0;
55;55_cbc0de4f9ad2930d2b879b642f72e59416f9e977-FRAGMENT.arff;BR;19.0;19.0;1.0;0.0;0.0;19.0;1.0;0.0;0.0;0.0;0.0;19.0;1.0;0.0;0.0;0.0;0.0;0.0;0.0;0.0;0.0;
55;55_cbc0de4f9ad2930d2b879b642f72e59416f9e977-FRAGMENT.arff;LP;19.0;19.0;1.0;0.0;0.0;19.0;1.0;0.0;0.0;0.0;0.0;19.0;1.0;0.0;0.0;0.0;0.0;0.0;0.0;0.0;0.0;
55;55_cbc0de4f9ad2930d2b879b642f72e59416f9e977-FRAGMENT.arff;RAkELd;19.0;19.0;1.0;0.0;0.0;19.0;1.0;0.0;0.0;0.0;0.0;19.0;1.0;0.0;0.0;0.0;0.0;0.0;0.0;0.0;0.0;
57;57_7f0c85eae897fbcd687f55d915507c322ceb7cae-FRAGMENT.arff;BR;14.0;14.0;1.0;12.0;0.8571428571428571;2.0;0.14285714285714285;0.0;0.0;0.0;0.0;14.0;1.0;0.0;0.0;0.0;0.0;0.0;0.0;0.0;0.0;
57;57_7f0c85eae897fbcd687f55d915507c322ceb7cae-FRAGMENT.arff;LP;14.0;14.0;1.0;0.0;0.0;14.0;1.0;0.0;0.0;0.0;0.0;14.0;1.0;0.0;0.0;0.0;0.0;0.0;0.0;0.0;0.0;
57;57_7f0c85eae897fbcd687f55d915507c322ceb7cae-FRAGMENT.arff;RAkELd;14.0;14.0;1.0;0.0;0.0;14.0;1.0;0.0;0.0;0.0;0.0;14.0;1.0;0.0;0.0;0.0;0.0;0.0;0.0;0.0;0.0;
58;58_0a3d36c57cc9defe930071eb0f3d7ac33223e116-FRAGMENT.arff;BR;18.0;18.0;1.0;14.0;0.7777777777777778;4.0;0.2222222222222222;0.0;0.0;0.0;0.0;18.0;1.0;0.0;0.0;0.0;0.0;0.0;0.0;0.0;0.0;
58;58_0a3d36c57cc9defe930071eb0f3d7ac33223e116-FRAGMENT.arff;LP;18.0;18.0;1.0;0.0;0.0;18.0;1.0;0.0;0.0;0.0;0.0;18.0;1.0;0.0;0.0;0.0;0.0;0.0;0.0;0.0;0.0;
58;58_0a3d36c57cc9defe930071eb0f3d7ac33223e116-FRAGMENT.arff;RAkELd;18.0;18.0;1.0;14.0;0.7777777777777778;4.0;0.2222222222222222;0.0;0.0;0.0;0.0;18.0;1.0;0.0;0.0;0.0;0.0;0.0;0.0;0.0;0.0;
62;62_6fb26410e33b9aae4de58f33132efd09f4cd992c-FRAGMENT.arff;BR;6.0;6.0;1.0;3.0;0.5;3.0;0.5;0.0;0.0;0.0;0.0;6.0;1.0;0.0;0.0;0.0;0.0;0.0;0.0;0.0;0.0;
62;62_6fb26410e33b9aae4de58f33132efd09f4cd992c-FRAGMENT.arff;LP;6.0;6.0;1.0;0.0;0.0;6.0;1.0;0.0;0.0;0.0;0.0;6.0;1.0;0.0;0.0;0.0;0.0;0.0;0.0;0.0;0.0;
62;62_6fb26410e33b9aae4de58f33132efd09f4cd992c-FRAGMENT.arff;RAkELd;6.0;6.0;1.0;3.0;0.5;3.0;0.5;0.0;0.0;0.0;0.0;6.0;1.0;0.0;0.0;0.0;0.0;0.0;0.0;0.0;0.0;
63;63_12dcc99d75cd3cd9d8efb7d316656e4d19bc8d52-FRAGMENT.arff;BR;7.0;7.0;1.0;0.0;0.0;7.0;1.0;0.0;0.0;0.0;0.0;7.0;1.0;0.0;0.0;0.0;0.0;0.0;0.0;0.0;0.0;
63;63_12dcc99d75cd3cd9d8efb7d316656e4d19bc8d52-FRAGMENT.arff;LP;7.0;7.0;1.0;0.0;0.0;7.0;1.0;0.0;0.0;0.0;0.0;7.0;1.0;0.0;0.0;0.0;0.0;0.0;0.0;0.0;0.0;
63;63_12dcc99d75cd3cd9d8efb7d316656e4d19bc8d52-FRAGMENT.arff;RAkELd;7.0;7.0;1.0;0.0;0.0;7.0;1.0;0.0;0.0;0.0;0.0;7.0;1.0;0.0;0.0;0.0;0.0;0.0;0.0;0.0;0.0;
64;64_b33605b07445d3258df8229a1e786dc5b4ab4a06-FRAGMENT.arff;BR;15.0;15.0;1.0;0.0;0.0;15.0;1.0;0.0;0.0;0.0;0.0;15.0;1.0;0.0;0.0;0.0;0.0;0.0;0.0;0.0;0.0;
64;64_b33605b07445d3258df8229a1e786dc5b4ab4a06-FRAGMENT.arff;LP;15.0;15.0;1.0;0.0;0.0;15.0;1.0;0.0;0.0;0.0;0.0;15.0;1.0;0.0;0.0;0.0;0.0;0.0;0.0;0.0;0.0;
64;64_b33605b07445d3258df8229a1e786dc5b4ab4a06-FRAGMENT.arff;RAkELd;15.0;15.0;1.0;0.0;0.0;15.0;1.0;0.0;0.0;0.0;0.0;15.0;1.0;0.0;0.0;0.0;0.0;0.0;0.0;0.0;0.0;
65;65_a40b2b29bb20a3c1ec25b73360d6712cdb97cd98-FRAGMENT.arff;BR;27.0;27.0;1.0;0.0;0.0;27.0;1.0;0.0;0.0;0.0;0.0;27.0;1.0;0.0;0.0;0.0;0.0;0.0;0.0;0.0;0.0;
65;65_a40b2b29bb20a3c1ec25b73360d6712cdb97cd98-FRAGMENT.arff;LP;27.0;27.0;1.0;0.0;0.0;27.0;1.0;0.0;0.0;0.0;0.0;27.0;1.0;0.0;0.0;0.0;0.0;0.0;0.0;0.0;0.0;
65;65_a40b2b29bb20a3c1ec25b73360d6712cdb97cd98-FRAGMENT.arff;RAkELd;27.0;27.0;1.0;0.0;0.0;27.0;1.0;0.0;0.0;0.0;0.0;27.0;1.0;0.0;0.0;0.0;0.0;0.0;0.0;0.0;0.0;
68;68_e041ff570250275045c01f6d4a87b9a73f92f416-FRAGMENT.arff;BR;3.0;3.0;1.0;1.0;0.3333333333333333;2.0;0.6666666666666666;0.0;0.0;0.0;0.0;3.0;1.0;0.0;0.0;0.0;0.0;0.0;0.0;0.0;0.0;
68;68_e041ff570250275045c01f6d4a87b9a73f92f416-FRAGMENT.arff;LP;3.0;3.0;1.0;0.0;0.0;3.0;1.0;0.0;0.0;0.0;0.0;3.0;1.0;0.0;0.0;0.0;0.0;0.0;0.0;0.0;0.0;
68;68_e041ff570250275045c01f6d4a87b9a73f92f416-FRAGMENT.arff;RAkELd;3.0;3.0;1.0;0.0;0.0;3.0;1.0;0.0;0.0;0.0;0.0;3.0;1.0;0.0;0.0;0.0;0.0;0.0;0.0;0.0;0.0;
69;69_5b6d5707ee06cf659ff4d3d7e71241e532fcfeb2-FRAGMENT.arff;BR;4.0;4.0;1.0;4.0;1.0;0.0;0.0;0.0;0.0;0.0;0.0;4.0;1.0;0.0;0.0;0.0;0.0;0.0;0.0;0.0;0.0;
69;69_5b6d5707ee06cf659ff4d3d7e71241e532fcfeb2-FRAGMENT.arff;LP;4.0;4.0;1.0;0.0;0.0;4.0;1.0;0.0;0.0;0.0;0.0;4.0;1.0;0.0;0.0;0.0;0.0;0.0;0.0;0.0;0.0;
69;69_5b6d5707ee06cf659ff4d3d7e71241e532fcfeb2-FRAGMENT.arff;RAkELd;4.0;4.0;1.0;0.0;0.0;4.0;1.0;0.0;0.0;0.0;0.0;4.0;1.0;0.0;0.0;0.0;0.0;0.0;0.0;0.0;0.0;
70;70_c4ade34b0c9b55328fad8c3294289e3a086aa0d2-FRAGMENT.arff;BR;1.0;1.0;1.0;1.0;1.0;0.0;0.0;0.0;0.0;0.0;0.0;1.0;1.0;0.0;0.0;0.0;0.0;0.0;0.0;0.0;0.0;
70;70_c4ade34b0c9b55328fad8c3294289e3a086aa0d2-FRAGMENT.arff;LP;1.0;1.0;1.0;0.0;0.0;1.0;1.0;0.0;0.0;0.0;0.0;1.0;1.0;0.0;0.0;0.0;0.0;0.0;0.0;0.0;0.0;
70;70_c4ade34b0c9b55328fad8c3294289e3a086aa0d2-FRAGMENT.arff;RAkELd;1.0;1.0;1.0;0.0;0.0;1.0;1.0;0.0;0.0;0.0;0.0;1.0;1.0;0.0;0.0;0.0;0.0;0.0;0.0;0.0;0.0;
75;75_13ec2a47ff332e9c1a1c642068d26a7fae43e5cb-FRAGMENT.arff;BR;6.0;6.0;1.0;0.0;0.0;6.0;1.0;0.0;0.0;0.0;0.0;6.0;1.0;0.0;0.0;0.0;0.0;0.0;0.0;0.0;0.0;
75;75_13ec2a47ff332e9c1a1c642068d26a7fae43e5cb-FRAGMENT.arff;LP;6.0;6.0;1.0;0.0;0.0;6.0;1.0;0.0;0.0;0.0;0.0;6.0;1.0;0.0;0.0;0.0;0.0;0.0;0.0;0.0;0.0;
75;75_13ec2a47ff332e9c1a1c642068d26a7fae43e5cb-FRAGMENT.arff;RAkELd;6.0;6.0;1.0;0.0;0.0;6.0;1.0;0.0;0.0;0.0;0.0;6.0;1.0;0.0;0.0;0.0;0.0;0.0;0.0;0.0;0.0;
76;76_3955fd03aad3b9ea6cc6e8fc5c6e421f9c90d79d-FRAGMENT.arff;BR;7.0;7.0;1.0;1.0;0.14285714285714285;6.0;0.8571428571428571;0.0;0.0;0.0;0.0;7.0;1.0;0.0;0.0;0.0;0.0;0.0;0.0;0.0;0.0;
76;76_3955fd03aad3b9ea6cc6e8fc5c6e421f9c90d79d-FRAGMENT.arff;LP;7.0;7.0;1.0;0.0;0.0;7.0;1.0;0.0;0.0;0.0;0.0;7.0;1.0;0.0;0.0;0.0;0.0;0.0;0.0;0.0;0.0;
76;76_3955fd03aad3b9ea6cc6e8fc5c6e421f9c90d79d-FRAGMENT.arff;RAkELd;7.0;7.0;1.0;1.0;0.14285714285714285;6.0;0.8571428571428571;0.0;0.0;0.0;0.0;7.0;1.0;0.0;0.0;0.0;0.0;0.0;0.0;0.0;0.0;
77;77_d9d81ba61b4b3897a898e54fdd7867898f222550-FRAGMENT.arff;BR;7.0;7.0;1.0;0.0;0.0;7.0;1.0;0.0;0.0;0.0;0.0;7.0;1.0;0.0;0.0;0.0;0.0;0.0;0.0;0.0;0.0;
77;77_d9d81ba61b4b3897a898e54fdd7867898f222550-FRAGMENT.arff;LP;7.0;7.0;1.0;0.0;0.0;7.0;1.0;0.0;0.0;0.0;0.0;7.0;1.0;0.0;0.0;0.0;0.0;0.0;0.0;0.0;0.0;
77;77_d9d81ba61b4b3897a898e54fdd7867898f222550-FRAGMENT.arff;RAkELd;7.0;7.0;1.0;0.0;0.0;7.0;1.0;0.0;0.0;0.0;0.0;7.0;1.0;0.0;0.0;0.0;0.0;0.0;0.0;0.0;0.0;
78;78_c5d04b9750c4053c726bd4950d1c78bedb75f8e7-FRAGMENT.arff;BR;4.0;4.0;1.0;4.0;1.0;0.0;0.0;0.0;0.0;0.0;0.0;4.0;1.0;0.0;0.0;0.0;0.0;0.0;0.0;0.0;0.0;
78;78_c5d04b9750c4053c726bd4950d1c78bedb75f8e7-FRAGMENT.arff;LP;4.0;4.0;1.0;0.0;0.0;4.0;1.0;0.0;0.0;0.0;0.0;4.0;1.0;0.0;0.0;0.0;0.0;0.0;0.0;0.0;0.0;
78;78_c5d04b9750c4053c726bd4950d1c78bedb75f8e7-FRAGMENT.arff;RAkELd;4.0;4.0;1.0;4.0;1.0;0.0;0.0;0.0;0.0;0.0;0.0;4.0;1.0;0.0;0.0;0.0;0.0;0.0;0.0;0.0;0.0;
79;79_04c38c3d1120e0d8b9741e41bd62cbdfa3109a65-FRAGMENT.arff;BR;61.0;61.0;1.0;20.0;0.32786885245901637;41.0;0.6721311475409836;0.0;0.0;0.0;0.0;61.0;1.0;0.0;0.0;0.0;0.0;0.0;0.0;0.0;0.0;
79;79_04c38c3d1120e0d8b9741e41bd62cbdfa3109a65-FRAGMENT.arff;LP;61.0;61.0;1.0;0.0;0.0;61.0;1.0;0.0;0.0;0.0;0.0;61.0;1.0;0.0;0.0;0.0;0.0;0.0;0.0;0.0;0.0;
79;79_04c38c3d1120e0d8b9741e41bd62cbdfa3109a65-FRAGMENT.arff;RAkELd;61.0;61.0;1.0;22.0;0.36065573770491804;39.0;0.639344262295082;0.0;0.0;0.0;0.0;61.0;1.0;0.0;0.0;0.0;0.0;0.0;0.0;0.0;0.0;
80;80_3e1f7782b8b8f1d2b8ddabc9cbeeaa7d9c199e5f-FRAGMENT.arff;BR;78.0;78.0;1.0;4.0;0.05128205128205128;74.0;0.9487179487179487;0.0;0.0;0.0;0.0;78.0;1.0;0.0;0.0;0.0;0.0;0.0;0.0;0.0;0.0;
80;80_3e1f7782b8b8f1d2b8ddabc9cbeeaa7d9c199e5f-FRAGMENT.arff;LP;78.0;78.0;1.0;0.0;0.0;78.0;1.0;0.0;0.0;0.0;0.0;78.0;1.0;0.0;0.0;0.0;0.0;0.0;0.0;0.0;0.0;
80;80_3e1f7782b8b8f1d2b8ddabc9cbeeaa7d9c199e5f-FRAGMENT.arff;RAkELd;78.0;78.0;1.0;4.0;0.05128205128205128;74.0;0.9487179487179487;0.0;0.0;0.0;0.0;78.0;1.0;0.0;0.0;0.0;0.0;0.0;0.0;0.0;0.0;
81;81_e316290ea16a2bff350a5e0a481e408c38272e12-FRAGMENT.arff;BR;2.0;2.0;1.0;0.0;0.0;2.0;1.0;0.0;0.0;0.0;0.0;2.0;1.0;0.0;0.0;0.0;0.0;0.0;0.0;0.0;0.0;
81;81_e316290ea16a2bff350a5e0a481e408c38272e12-FRAGMENT.arff;LP;2.0;2.0;1.0;0.0;0.0;2.0;1.0;0.0;0.0;0.0;0.0;2.0;1.0;0.0;0.0;0.0;0.0;0.0;0.0;0.0;0.0;
81;81_e316290ea16a2bff350a5e0a481e408c38272e12-FRAGMENT.arff;RAkELd;2.0;2.0;1.0;0.0;0.0;2.0;1.0;0.0;0.0;0.0;0.0;2.0;1.0;0.0;0.0;0.0;0.0;0.0;0.0;0.0;0.0;
82;82_4f6a8c5831459ebfd4d552f8766037a94723f21b-FRAGMENT.arff;BR;23.0;23.0;1.0;8.0;0.34782608695652173;15.0;0.6521739130434783;0.0;0.0;0.0;0.0;23.0;1.0;0.0;0.0;0.0;0.0;0.0;0.0;0.0;0.0;
82;82_4f6a8c5831459ebfd4d552f8766037a94723f21b-FRAGMENT.arff;LP;23.0;23.0;1.0;0.0;0.0;23.0;1.0;0.0;0.0;0.0;0.0;23.0;1.0;0.0;0.0;0.0;0.0;0.0;0.0;0.0;0.0;
82;82_4f6a8c5831459ebfd4d552f8766037a94723f21b-FRAGMENT.arff;RAkELd;23.0;23.0;1.0;0.0;0.0;23.0;1.0;0.0;0.0;0.0;0.0;23.0;1.0;0.0;0.0;0.0;0.0;0.0;0.0;0.0;0.0;
83;83_73532e34ce3061f98657eb2ef02af7e4258c825b-FRAGMENT.arff;BR;25.0;25.0;1.0;6.0;0.24;19.0;0.76;0.0;0.0;0.0;0.0;25.0;1.0;0.0;0.0;0.0;0.0;0.0;0.0;0.0;0.0;
83;83_73532e34ce3061f98657eb2ef02af7e4258c825b-FRAGMENT.arff;LP;25.0;25.0;1.0;0.0;0.0;25.0;1.0;0.0;0.0;0.0;0.0;25.0;1.0;0.0;0.0;0.0;0.0;0.0;0.0;0.0;0.0;
83;83_73532e34ce3061f98657eb2ef02af7e4258c825b-FRAGMENT.arff;RAkELd;25.0;25.0;1.0;2.0;0.08;23.0;0.92;0.0;0.0;0.0;0.0;25.0;1.0;0.0;0.0;0.0;0.0;0.0;0.0;0.0;0.0;
85;85_f13f5ee8af1d30ba46330b284421a0147aaaedd4-FRAGMENT.arff;BR;50.0;50.0;1.0;3.0;0.06;47.0;0.94;0.0;0.0;0.0;0.0;50.0;1.0;0.0;0.0;0.0;0.0;0.0;0.0;0.0;0.0;
85;85_f13f5ee8af1d30ba46330b284421a0147aaaedd4-FRAGMENT.arff;LP;50.0;50.0;1.0;0.0;0.0;50.0;1.0;0.0;0.0;0.0;0.0;50.0;1.0;0.0;0.0;0.0;0.0;0.0;0.0;0.0;0.0;
85;85_f13f5ee8af1d30ba46330b284421a0147aaaedd4-FRAGMENT.arff;RAkELd;50.0;50.0;1.0;3.0;0.06;47.0;0.94;0.0;0.0;0.0;0.0;50.0;1.0;0.0;0.0;0.0;0.0;0.0;0.0;0.0;0.0;
86;86_34014198f540fe0f148017b2e0afed1ef33bb30a-FRAGMENT.arff;BR;33.0;33.0;1.0;11.0;0.3333333333333333;22.0;0.6666666666666666;0.0;0.0;0.0;0.0;33.0;1.0;0.0;0.0;0.0;0.0;0.0;0.0;0.0;0.0;
86;86_34014198f540fe0f148017b2e0afed1ef33bb30a-FRAGMENT.arff;LP;33.0;33.0;1.0;0.0;0.0;33.0;1.0;0.0;0.0;0.0;0.0;33.0;1.0;0.0;0.0;0.0;0.0;0.0;0.0;0.0;0.0;
86;86_34014198f540fe0f148017b2e0afed1ef33bb30a-FRAGMENT.arff;RAkELd;33.0;33.0;1.0;7.0;0.21212121212121213;26.0;0.7878787878787878;0.0;0.0;0.0;0.0;33.0;1.0;0.0;0.0;0.0;0.0;0.0;0.0;0.0;0.0;
87;87_3e1eb7278e5c8ad2a2dc7855b03075496f8c9322-FRAGMENT.arff;BR;4.0;4.0;1.0;4.0;1.0;0.0;0.0;0.0;0.0;0.0;0.0;4.0;1.0;0.0;0.0;0.0;0.0;0.0;0.0;0.0;0.0;
87;87_3e1eb7278e5c8ad2a2dc7855b03075496f8c9322-FRAGMENT.arff;LP;4.0;4.0;1.0;0.0;0.0;4.0;1.0;0.0;0.0;0.0;0.0;4.0;1.0;0.0;0.0;0.0;0.0;0.0;0.0;0.0;0.0;
87;87_3e1eb7278e5c8ad2a2dc7855b03075496f8c9322-FRAGMENT.arff;RAkELd;4.0;4.0;1.0;4.0;1.0;0.0;0.0;0.0;0.0;0.0;0.0;4.0;1.0;0.0;0.0;0.0;0.0;0.0;0.0;0.0;0.0;
90;90_0de35212b89a2e229aa9b7cc8e73cef3c15671b2-FRAGMENT.arff;BR;13.0;13.0;1.0;7.0;0.5384615384615384;6.0;0.46153846153846156;0.0;0.0;0.0;0.0;13.0;1.0;0.0;0.0;0.0;0.0;0.0;0.0;0.0;0.0;
90;90_0de35212b89a2e229aa9b7cc8e73cef3c15671b2-FRAGMENT.arff;LP;13.0;13.0;1.0;0.0;0.0;13.0;1.0;0.0;0.0;0.0;0.0;13.0;1.0;0.0;0.0;0.0;0.0;0.0;0.0;0.0;0.0;
90;90_0de35212b89a2e229aa9b7cc8e73cef3c15671b2-FRAGMENT.arff;RAkELd;13.0;13.0;1.0;7.0;0.5384615384615384;6.0;0.46153846153846156;0.0;0.0;0.0;0.0;13.0;1.0;0.0;0.0;0.0;0.0;0.0;0.0;0.0;0.0;
94;94_69f575891baa1bf137729b22345f2d8c4bd265d5-FRAGMENT.arff;BR;16.0;16.0;1.0;11.0;0.6875;5.0;0.3125;0.0;0.0;0.0;0.0;16.0;1.0;0.0;0.0;0.0;0.0;0.0;0.0;0.0;0.0;
94;94_69f575891baa1bf137729b22345f2d8c4bd265d5-FRAGMENT.arff;LP;16.0;16.0;1.0;0.0;0.0;16.0;1.0;0.0;0.0;0.0;0.0;16.0;1.0;0.0;0.0;0.0;0.0;0.0;0.0;0.0;0.0;
94;94_69f575891baa1bf137729b22345f2d8c4bd265d5-FRAGMENT.arff;RAkELd;16.0;16.0;1.0;1.0;0.0625;15.0;0.9375;0.0;0.0;0.0;0.0;16.0;1.0;0.0;0.0;0.0;0.0;0.0;0.0;0.0;0.0;
95;95_45f1b327dadc5d5b562989a10b03eea5d185c64a-FRAGMENT.arff;BR;18.0;18.0;1.0;16.0;0.8888888888888888;2.0;0.1111111111111111;0.0;0.0;0.0;0.0;18.0;1.0;0.0;0.0;0.0;0.0;0.0;0.0;0.0;0.0;
95;95_45f1b327dadc5d5b562989a10b03eea5d185c64a-FRAGMENT.arff;LP;18.0;18.0;1.0;0.0;0.0;18.0;1.0;0.0;0.0;0.0;0.0;18.0;1.0;0.0;0.0;0.0;0.0;0.0;0.0;0.0;0.0;
95;95_45f1b327dadc5d5b562989a10b03eea5d185c64a-FRAGMENT.arff;RAkELd;18.0;18.0;1.0;2.0;0.1111111111111111;16.0;0.8888888888888888;0.0;0.0;0.0;0.0;18.0;1.0;0.0;0.0;0.0;0.0;0.0;0.0;0.0;0.0;
96;96_40ae2d7f4054d46863164655d2d345f31ea563a8-FRAGMENT.arff;BR;6.0;6.0;1.0;0.0;0.0;6.0;1.0;0.0;0.0;0.0;0.0;6.0;1.0;0.0;0.0;0.0;0.0;0.0;0.0;0.0;0.0;
96;96_40ae2d7f4054d46863164655d2d345f31ea563a8-FRAGMENT.arff;LP;6.0;6.0;1.0;0.0;0.0;6.0;1.0;0.0;0.0;0.0;0.0;6.0;1.0;0.0;0.0;0.0;0.0;0.0;0.0;0.0;0.0;
96;96_40ae2d7f4054d46863164655d2d345f31ea563a8-FRAGMENT.arff;RAkELd;6.0;6.0;1.0;2.0;0.3333333333333333;4.0;0.6666666666666666;0.0;0.0;0.0;0.0;6.0;1.0;0.0;0.0;0.0;0.0;0.0;0.0;0.0;0.0;
105;105_8e0a9c9d4b56543d4831f5db223438409f16ec9f-FRAGMENT.arff;BR;1.0;1.0;1.0;0.0;0.0;1.0;1.0;0.0;0.0;0.0;0.0;1.0;1.0;0.0;0.0;0.0;0.0;0.0;0.0;0.0;0.0;
105;105_8e0a9c9d4b56543d4831f5db223438409f16ec9f-FRAGMENT.arff;LP;1.0;1.0;1.0;0.0;0.0;1.0;1.0;0.0;0.0;0.0;0.0;1.0;1.0;0.0;0.0;0.0;0.0;0.0;0.0;0.0;0.0;
105;105_8e0a9c9d4b56543d4831f5db223438409f16ec9f-FRAGMENT.arff;RAkELd;1.0;1.0;1.0;0.0;0.0;1.0;1.0;0.0;0.0;0.0;0.0;1.0;1.0;0.0;0.0;0.0;0.0;0.0;0.0;0.0;0.0;
106;106_9beb91f475006d702261b0afe2ca588009c417fe-FRAGMENT.arff;BR;45.0;45.0;1.0;0.0;0.0;45.0;1.0;0.0;0.0;0.0;0.0;45.0;1.0;0.0;0.0;0.0;0.0;0.0;0.0;0.0;0.0;
106;106_9beb91f475006d702261b0afe2ca588009c417fe-FRAGMENT.arff;LP;45.0;45.0;1.0;0.0;0.0;45.0;1.0;0.0;0.0;0.0;0.0;45.0;1.0;0.0;0.0;0.0;0.0;0.0;0.0;0.0;0.0;
106;106_9beb91f475006d702261b0afe2ca588009c417fe-FRAGMENT.arff;RAkELd;45.0;45.0;1.0;0.0;0.0;45.0;1.0;0.0;0.0;0.0;0.0;45.0;1.0;0.0;0.0;0.0;0.0;0.0;0.0;0.0;0.0;
107;107_7fadfaa725eb44af2d806a6a3aa35b16ae371ff8-FRAGMENT.arff;BR;55.0;55.0;1.0;0.0;0.0;55.0;1.0;0.0;0.0;0.0;0.0;55.0;1.0;0.0;0.0;0.0;0.0;0.0;0.0;0.0;0.0;
107;107_7fadfaa725eb44af2d806a6a3aa35b16ae371ff8-FRAGMENT.arff;LP;55.0;55.0;1.0;0.0;0.0;55.0;1.0;0.0;0.0;0.0;0.0;55.0;1.0;0.0;0.0;0.0;0.0;0.0;0.0;0.0;0.0;
107;107_7fadfaa725eb44af2d806a6a3aa35b16ae371ff8-FRAGMENT.arff;RAkELd;55.0;55.0;1.0;2.0;0.03636363636363636;53.0;0.9636363636363636;0.0;0.0;0.0;0.0;55.0;1.0;0.0;0.0;0.0;0.0;0.0;0.0;0.0;0.0;
112;112_2ac838a86290cda81b832ef110afbc4056bcfc4f-FRAGMENT.arff;BR;6.0;6.0;1.0;3.0;0.5;3.0;0.5;0.0;0.0;0.0;0.0;6.0;1.0;0.0;0.0;0.0;0.0;0.0;0.0;0.0;0.0;
112;112_2ac838a86290cda81b832ef110afbc4056bcfc4f-FRAGMENT.arff;LP;6.0;6.0;1.0;0.0;0.0;6.0;1.0;0.0;0.0;0.0;0.0;6.0;1.0;0.0;0.0;0.0;0.0;0.0;0.0;0.0;0.0;
112;112_2ac838a86290cda81b832ef110afbc4056bcfc4f-FRAGMENT.arff;RAkELd;6.0;6.0;1.0;3.0;0.5;3.0;0.5;0.0;0.0;0.0;0.0;6.0;1.0;0.0;0.0;0.0;0.0;0.0;0.0;0.0;0.0;
115;115_0cc320cee1b10428c462ac68b0644004e3a69053-FRAGMENT.arff;BR;4.0;4.0;1.0;1.0;0.25;3.0;0.75;0.0;0.0;0.0;0.0;4.0;1.0;0.0;0.0;0.0;0.0;0.0;0.0;0.0;0.0;
115;115_0cc320cee1b10428c462ac68b0644004e3a69053-FRAGMENT.arff;LP;4.0;4.0;1.0;0.0;0.0;4.0;1.0;0.0;0.0;0.0;0.0;4.0;1.0;0.0;0.0;0.0;0.0;0.0;0.0;0.0;0.0;
115;115_0cc320cee1b10428c462ac68b0644004e3a69053-FRAGMENT.arff;RAkELd;4.0;4.0;1.0;1.0;0.25;3.0;0.75;0.0;0.0;0.0;0.0;4.0;1.0;0.0;0.0;0.0;0.0;0.0;0.0;0.0;0.0;
117;117_f7cbe1b67fe1ef68e553f67da1d9cc3c0a16e9a9-FRAGMENT.arff;BR;45.0;45.0;1.0;14.0;0.3111111111111111;31.0;0.6888888888888889;0.0;0.0;0.0;0.0;45.0;1.0;0.0;0.0;0.0;0.0;0.0;0.0;0.0;0.0;
117;117_f7cbe1b67fe1ef68e553f67da1d9cc3c0a16e9a9-FRAGMENT.arff;LP;45.0;45.0;1.0;0.0;0.0;45.0;1.0;0.0;0.0;0.0;0.0;45.0;1.0;0.0;0.0;0.0;0.0;0.0;0.0;0.0;0.0;
117;117_f7cbe1b67fe1ef68e553f67da1d9cc3c0a16e9a9-FRAGMENT.arff;RAkELd;45.0;45.0;1.0;0.0;0.0;45.0;1.0;0.0;0.0;0.0;0.0;45.0;1.0;0.0;0.0;0.0;0.0;0.0;0.0;0.0;0.0;
120;120_5fb9be28bbfcdfad3bcec2788f55f87c685fae3b-FRAGMENT.arff;BR;16.0;16.0;1.0;7.0;0.4375;9.0;0.5625;0.0;0.0;0.0;0.0;16.0;1.0;0.0;0.0;0.0;0.0;0.0;0.0;0.0;0.0;
120;120_5fb9be28bbfcdfad3bcec2788f55f87c685fae3b-FRAGMENT.arff;LP;16.0;16.0;1.0;0.0;0.0;16.0;1.0;0.0;0.0;0.0;0.0;16.0;1.0;0.0;0.0;0.0;0.0;0.0;0.0;0.0;0.0;
120;120_5fb9be28bbfcdfad3bcec2788f55f87c685fae3b-FRAGMENT.arff;RAkELd;16.0;16.0;1.0;11.0;0.6875;5.0;0.3125;0.0;0.0;0.0;0.0;16.0;1.0;0.0;0.0;0.0;0.0;0.0;0.0;0.0;0.0;
124;124_dedd036e78209467b61c048a465b51035ad0e395-FRAGMENT.arff;BR;4.0;4.0;1.0;2.0;0.5;2.0;0.5;0.0;0.0;0.0;0.0;4.0;1.0;0.0;0.0;0.0;0.0;0.0;0.0;0.0;0.0;
124;124_dedd036e78209467b61c048a465b51035ad0e395-FRAGMENT.arff;LP;4.0;4.0;1.0;0.0;0.0;4.0;1.0;0.0;0.0;0.0;0.0;4.0;1.0;0.0;0.0;0.0;0.0;0.0;0.0;0.0;0.0;
124;124_dedd036e78209467b61c048a465b51035ad0e395-FRAGMENT.arff;RAkELd;4.0;4.0;1.0;2.0;0.5;2.0;0.5;0.0;0.0;0.0;0.0;4.0;1.0;0.0;0.0;0.0;0.0;0.0;0.0;0.0;0.0;
125;125_c788062f4afa815da069ba62783435db249ca8f2-FRAGMENT.arff;BR;5.0;5.0;1.0;2.0;0.4;3.0;0.6;0.0;0.0;0.0;0.0;5.0;1.0;0.0;0.0;0.0;0.0;0.0;0.0;0.0;0.0;
125;125_c788062f4afa815da069ba62783435db249ca8f2-FRAGMENT.arff;LP;5.0;5.0;1.0;0.0;0.0;5.0;1.0;0.0;0.0;0.0;0.0;5.0;1.0;0.0;0.0;0.0;0.0;0.0;0.0;0.0;0.0;
125;125_c788062f4afa815da069ba62783435db249ca8f2-FRAGMENT.arff;RAkELd;5.0;5.0;1.0;2.0;0.4;3.0;0.6;0.0;0.0;0.0;0.0;5.0;1.0;0.0;0.0;0.0;0.0;0.0;0.0;0.0;0.0;
127;127_71f987e0d06152d6f802b7e861fc362403762b10-FRAGMENT.arff;BR;50.0;50.0;1.0;16.0;0.32;34.0;0.68;0.0;0.0;0.0;0.0;50.0;1.0;0.0;0.0;0.0;0.0;0.0;0.0;0.0;0.0;
127;127_71f987e0d06152d6f802b7e861fc362403762b10-FRAGMENT.arff;LP;50.0;50.0;1.0;0.0;0.0;50.0;1.0;0.0;0.0;0.0;0.0;50.0;1.0;0.0;0.0;0.0;0.0;0.0;0.0;0.0;0.0;
127;127_71f987e0d06152d6f802b7e861fc362403762b10-FRAGMENT.arff;RAkELd;50.0;50.0;1.0;16.0;0.32;34.0;0.68;0.0;0.0;0.0;0.0;50.0;1.0;0.0;0.0;0.0;0.0;0.0;0.0;0.0;0.0;
128;128_427e104c2d7f815f2f303213cf610fe8bd245c72-FRAGMENT.arff;BR;10.0;10.0;1.0;1.0;0.1;9.0;0.9;0.0;0.0;0.0;0.0;10.0;1.0;0.0;0.0;0.0;0.0;0.0;0.0;0.0;0.0;
128;128_427e104c2d7f815f2f303213cf610fe8bd245c72-FRAGMENT.arff;LP;10.0;10.0;1.0;0.0;0.0;10.0;1.0;0.0;0.0;0.0;0.0;10.0;1.0;0.0;0.0;0.0;0.0;0.0;0.0;0.0;0.0;
128;128_427e104c2d7f815f2f303213cf610fe8bd245c72-FRAGMENT.arff;RAkELd;10.0;10.0;1.0;1.0;0.1;9.0;0.9;0.0;0.0;0.0;0.0;10.0;1.0;0.0;0.0;0.0;0.0;0.0;0.0;0.0;0.0;
131;131_2c66a92ba29d45f4f4db2c90d440f4e7a1d10f08-FRAGMENT.arff;BR;126.0;126.0;1.0;0.0;0.0;126.0;1.0;0.0;0.0;0.0;0.0;126.0;1.0;0.0;0.0;0.0;0.0;0.0;0.0;0.0;0.0;
131;131_2c66a92ba29d45f4f4db2c90d440f4e7a1d10f08-FRAGMENT.arff;LP;126.0;126.0;1.0;0.0;0.0;126.0;1.0;0.0;0.0;0.0;0.0;126.0;1.0;0.0;0.0;0.0;0.0;0.0;0.0;0.0;0.0;
131;131_2c66a92ba29d45f4f4db2c90d440f4e7a1d10f08-FRAGMENT.arff;RAkELd;126.0;126.0;1.0;0.0;0.0;126.0;1.0;0.0;0.0;0.0;0.0;126.0;1.0;0.0;0.0;0.0;0.0;0.0;0.0;0.0;0.0;
139;139_b893fc56df181c0bd90303135564c28b90f3fb4d-FRAGMENT.arff;BR;10.0;10.0;1.0;4.0;0.4;6.0;0.6;0.0;0.0;0.0;0.0;10.0;1.0;0.0;0.0;0.0;0.0;0.0;0.0;0.0;0.0;
139;139_b893fc56df181c0bd90303135564c28b90f3fb4d-FRAGMENT.arff;LP;10.0;10.0;1.0;0.0;0.0;10.0;1.0;0.0;0.0;0.0;0.0;10.0;1.0;0.0;0.0;0.0;0.0;0.0;0.0;0.0;0.0;
139;139_b893fc56df181c0bd90303135564c28b90f3fb4d-FRAGMENT.arff;RAkELd;10.0;10.0;1.0;0.0;0.0;10.0;1.0;0.0;0.0;0.0;0.0;10.0;1.0;0.0;0.0;0.0;0.0;0.0;0.0;0.0;0.0;
141;141_5abbfbed6ab735ca92637637c76a4c3fe558eb42-FRAGMENT.arff;BR;7.0;7.0;1.0;0.0;0.0;7.0;1.0;0.0;0.0;0.0;0.0;7.0;1.0;0.0;0.0;0.0;0.0;0.0;0.0;0.0;0.0;
141;141_5abbfbed6ab735ca92637637c76a4c3fe558eb42-FRAGMENT.arff;LP;7.0;7.0;1.0;0.0;0.0;7.0;1.0;0.0;0.0;0.0;0.0;7.0;1.0;0.0;0.0;0.0;0.0;0.0;0.0;0.0;0.0;
141;141_5abbfbed6ab735ca92637637c76a4c3fe558eb42-FRAGMENT.arff;RAkELd;7.0;7.0;1.0;0.0;0.0;7.0;1.0;0.0;0.0;0.0;0.0;7.0;1.0;0.0;0.0;0.0;0.0;0.0;0.0;0.0;0.0;
142;142_fea98ef906bd11fc42f3f0d272fd76015496201c-FRAGMENT.arff;BR;14.0;14.0;1.0;0.0;0.0;14.0;1.0;0.0;0.0;0.0;0.0;14.0;1.0;0.0;0.0;0.0;0.0;0.0;0.0;0.0;0.0;
142;142_fea98ef906bd11fc42f3f0d272fd76015496201c-FRAGMENT.arff;LP;14.0;14.0;1.0;0.0;0.0;14.0;1.0;0.0;0.0;0.0;0.0;14.0;1.0;0.0;0.0;0.0;0.0;0.0;0.0;0.0;0.0;
142;142_fea98ef906bd11fc42f3f0d272fd76015496201c-FRAGMENT.arff;RAkELd;14.0;14.0;1.0;0.0;0.0;14.0;1.0;0.0;0.0;0.0;0.0;14.0;1.0;0.0;0.0;0.0;0.0;0.0;0.0;0.0;0.0;
143;143_e23e91c882cbfb52f47f5617e621459350f3fe38-FRAGMENT.arff;BR;3.0;3.0;1.0;3.0;1.0;0.0;0.0;0.0;0.0;0.0;0.0;3.0;1.0;0.0;0.0;0.0;0.0;0.0;0.0;0.0;0.0;
143;143_e23e91c882cbfb52f47f5617e621459350f3fe38-FRAGMENT.arff;LP;3.0;3.0;1.0;0.0;0.0;3.0;1.0;0.0;0.0;0.0;0.0;3.0;1.0;0.0;0.0;0.0;0.0;0.0;0.0;0.0;0.0;
143;143_e23e91c882cbfb52f47f5617e621459350f3fe38-FRAGMENT.arff;RAkELd;3.0;3.0;1.0;0.0;0.0;3.0;1.0;0.0;0.0;0.0;0.0;3.0;1.0;0.0;0.0;0.0;0.0;0.0;0.0;0.0;0.0;
145;145_9e32bb6b85d9eb129437616a3ae3021865b76d56-FRAGMENT.arff;BR;2.0;2.0;1.0;2.0;1.0;0.0;0.0;0.0;0.0;0.0;0.0;2.0;1.0;0.0;0.0;0.0;0.0;0.0;0.0;0.0;0.0;
145;145_9e32bb6b85d9eb129437616a3ae3021865b76d56-FRAGMENT.arff;LP;2.0;2.0;1.0;0.0;0.0;2.0;1.0;0.0;0.0;0.0;0.0;2.0;1.0;0.0;0.0;0.0;0.0;0.0;0.0;0.0;0.0;
145;145_9e32bb6b85d9eb129437616a3ae3021865b76d56-FRAGMENT.arff;RAkELd;2.0;2.0;1.0;0.0;0.0;2.0;1.0;0.0;0.0;0.0;0.0;2.0;1.0;0.0;0.0;0.0;0.0;0.0;0.0;0.0;0.0;
146;146_91177058a0f52c25b501205a628e1f1e68b868d6-FRAGMENT.arff;BR;3.0;3.0;1.0;3.0;1.0;0.0;0.0;0.0;0.0;0.0;0.0;3.0;1.0;0.0;0.0;0.0;0.0;0.0;0.0;0.0;0.0;
146;146_91177058a0f52c25b501205a628e1f1e68b868d6-FRAGMENT.arff;LP;3.0;3.0;1.0;0.0;0.0;3.0;1.0;0.0;0.0;0.0;0.0;3.0;1.0;0.0;0.0;0.0;0.0;0.0;0.0;0.0;0.0;
146;146_91177058a0f52c25b501205a628e1f1e68b868d6-FRAGMENT.arff;RAkELd;3.0;3.0;1.0;2.0;0.6666666666666666;1.0;0.3333333333333333;0.0;0.0;0.0;0.0;3.0;1.0;0.0;0.0;0.0;0.0;0.0;0.0;0.0;0.0;
147;147_01955f4f4df4579405a8bb1868f60af30e9a028b-FRAGMENT.arff;BR;5.0;5.0;1.0;1.0;0.2;4.0;0.8;0.0;0.0;0.0;0.0;5.0;1.0;0.0;0.0;0.0;0.0;0.0;0.0;0.0;0.0;
147;147_01955f4f4df4579405a8bb1868f60af30e9a028b-FRAGMENT.arff;LP;5.0;5.0;1.0;0.0;0.0;5.0;1.0;0.0;0.0;0.0;0.0;5.0;1.0;0.0;0.0;0.0;0.0;0.0;0.0;0.0;0.0;
147;147_01955f4f4df4579405a8bb1868f60af30e9a028b-FRAGMENT.arff;RAkELd;5.0;5.0;1.0;0.0;0.0;5.0;1.0;0.0;0.0;0.0;0.0;5.0;1.0;0.0;0.0;0.0;0.0;0.0;0.0;0.0;0.0;
148;148_4cfd7fef412fb7e2bfb4e4cf6800400783e88901-FRAGMENT.arff;BR;1.0;1.0;1.0;0.0;0.0;1.0;1.0;0.0;0.0;0.0;0.0;1.0;1.0;0.0;0.0;0.0;0.0;0.0;0.0;0.0;0.0;
148;148_4cfd7fef412fb7e2bfb4e4cf6800400783e88901-FRAGMENT.arff;LP;1.0;1.0;1.0;0.0;0.0;1.0;1.0;0.0;0.0;0.0;0.0;1.0;1.0;0.0;0.0;0.0;0.0;0.0;0.0;0.0;0.0;
148;148_4cfd7fef412fb7e2bfb4e4cf6800400783e88901-FRAGMENT.arff;RAkELd;1.0;1.0;1.0;0.0;0.0;1.0;1.0;0.0;0.0;0.0;0.0;1.0;1.0;0.0;0.0;0.0;0.0;0.0;0.0;0.0;0.0;
151;151_87ad682eace7ceb5bc0034546f74f5be3a058ca9-FRAGMENT.arff;BR;125.0;125.0;1.0;94.0;0.752;31.0;0.248;0.0;0.0;0.0;0.0;125.0;1.0;0.0;0.0;0.0;0.0;0.0;0.0;0.0;0.0;
151;151_87ad682eace7ceb5bc0034546f74f5be3a058ca9-FRAGMENT.arff;LP;125.0;125.0;1.0;0.0;0.0;125.0;1.0;0.0;0.0;0.0;0.0;125.0;1.0;0.0;0.0;0.0;0.0;0.0;0.0;0.0;0.0;
151;151_87ad682eace7ceb5bc0034546f74f5be3a058ca9-FRAGMENT.arff;RAkELd;125.0;125.0;1.0;89.0;0.712;36.0;0.288;0.0;0.0;0.0;0.0;125.0;1.0;0.0;0.0;0.0;0.0;0.0;0.0;0.0;0.0;
152;152_78a952ea672d71661caa3de4b643979e5c1d96db-FRAGMENT.arff;BR;138.0;138.0;1.0;59.0;0.427536231884058;79.0;0.572463768115942;0.0;0.0;0.0;0.0;138.0;1.0;0.0;0.0;0.0;0.0;0.0;0.0;0.0;0.0;
152;152_78a952ea672d71661caa3de4b643979e5c1d96db-FRAGMENT.arff;LP;138.0;138.0;1.0;0.0;0.0;138.0;1.0;0.0;0.0;0.0;0.0;138.0;1.0;0.0;0.0;0.0;0.0;0.0;0.0;0.0;0.0;
152;152_78a952ea672d71661caa3de4b643979e5c1d96db-FRAGMENT.arff;RAkELd;138.0;138.0;1.0;65.0;0.47101449275362317;73.0;0.5289855072463768;0.0;0.0;0.0;0.0;138.0;1.0;0.0;0.0;0.0;0.0;0.0;0.0;0.0;0.0;
153;153_935ceeb6394c6f854d84fbfe7502dae01b6f8367-FRAGMENT.arff;BR;163.0;163.0;1.0;89.0;0.5460122699386503;74.0;0.4539877300613497;0.0;0.0;0.0;0.0;163.0;1.0;0.0;0.0;0.0;0.0;0.0;0.0;0.0;0.0;
153;153_935ceeb6394c6f854d84fbfe7502dae01b6f8367-FRAGMENT.arff;LP;163.0;163.0;1.0;0.0;0.0;163.0;1.0;0.0;0.0;0.0;0.0;163.0;1.0;0.0;0.0;0.0;0.0;0.0;0.0;0.0;0.0;
153;153_935ceeb6394c6f854d84fbfe7502dae01b6f8367-FRAGMENT.arff;RAkELd;163.0;163.0;1.0;84.0;0.5153374233128835;79.0;0.48466257668711654;0.0;0.0;0.0;0.0;163.0;1.0;0.0;0.0;0.0;0.0;0.0;0.0;0.0;0.0;
155;155_956ca7cd27d99797b93148ef364d7fc34ac936f0-FRAGMENT.arff;BR;171.0;171.0;1.0;129.0;0.7543859649122807;42.0;0.24561403508771928;0.0;0.0;0.0;0.0;171.0;1.0;0.0;0.0;0.0;0.0;0.0;0.0;0.0;0.0;
155;155_956ca7cd27d99797b93148ef364d7fc34ac936f0-FRAGMENT.arff;LP;171.0;171.0;1.0;0.0;0.0;171.0;1.0;0.0;0.0;0.0;0.0;171.0;1.0;0.0;0.0;0.0;0.0;0.0;0.0;0.0;0.0;
155;155_956ca7cd27d99797b93148ef364d7fc34ac936f0-FRAGMENT.arff;RAkELd;171.0;171.0;1.0;112.0;0.6549707602339181;59.0;0.34502923976608185;0.0;0.0;0.0;0.0;171.0;1.0;0.0;0.0;0.0;0.0;0.0;0.0;0.0;0.0;
156;156_0125cdcf18ce905b5de6cc0f490c93da1df1d1fc-FRAGMENT.arff;BR;2.0;2.0;1.0;2.0;1.0;0.0;0.0;0.0;0.0;0.0;0.0;2.0;1.0;0.0;0.0;0.0;0.0;0.0;0.0;0.0;0.0;
156;156_0125cdcf18ce905b5de6cc0f490c93da1df1d1fc-FRAGMENT.arff;LP;2.0;2.0;1.0;0.0;0.0;2.0;1.0;0.0;0.0;0.0;0.0;2.0;1.0;0.0;0.0;0.0;0.0;0.0;0.0;0.0;0.0;
156;156_0125cdcf18ce905b5de6cc0f490c93da1df1d1fc-FRAGMENT.arff;RAkELd;2.0;2.0;1.0;1.0;0.5;1.0;0.5;0.0;0.0;0.0;0.0;2.0;1.0;0.0;0.0;0.0;0.0;0.0;0.0;0.0;0.0;
157;157_eca6766f586b0a38da97c6b21e4d4838e847c006-FRAGMENT.arff;BR;4.0;4.0;1.0;0.0;0.0;4.0;1.0;0.0;0.0;0.0;0.0;4.0;1.0;0.0;0.0;0.0;0.0;0.0;0.0;0.0;0.0;
157;157_eca6766f586b0a38da97c6b21e4d4838e847c006-FRAGMENT.arff;LP;4.0;4.0;1.0;0.0;0.0;4.0;1.0;0.0;0.0;0.0;0.0;4.0;1.0;0.0;0.0;0.0;0.0;0.0;0.0;0.0;0.0;
157;157_eca6766f586b0a38da97c6b21e4d4838e847c006-FRAGMENT.arff;RAkELd;4.0;4.0;1.0;0.0;0.0;4.0;1.0;0.0;0.0;0.0;0.0;4.0;1.0;0.0;0.0;0.0;0.0;0.0;0.0;0.0;0.0;
162;162_3cc07f679c1ad20289d31cdd30837b6f0aebe2f8-FRAGMENT.arff;BR;4.0;4.0;1.0;0.0;0.0;4.0;1.0;0.0;0.0;0.0;0.0;4.0;1.0;0.0;0.0;0.0;0.0;0.0;0.0;0.0;0.0;
162;162_3cc07f679c1ad20289d31cdd30837b6f0aebe2f8-FRAGMENT.arff;LP;4.0;4.0;1.0;0.0;0.0;4.0;1.0;0.0;0.0;0.0;0.0;4.0;1.0;0.0;0.0;0.0;0.0;0.0;0.0;0.0;0.0;
162;162_3cc07f679c1ad20289d31cdd30837b6f0aebe2f8-FRAGMENT.arff;RAkELd;4.0;4.0;1.0;0.0;0.0;4.0;1.0;0.0;0.0;0.0;0.0;4.0;1.0;0.0;0.0;0.0;0.0;0.0;0.0;0.0;0.0;
