commit;DataSet;Classifier;TotalInstances;InstancesWithRankedLabels;PercentageOfInstancesWithRankedLabels;InstancesWithPrecisionNull;PercentageOfInstancesWithPrecisionNull;InstancesWithPrecisionZero;PercentageOfInstancesWithPrecisionZero;InstancesWithPrecisionNonZero;PercentageOfInstancesWithPrecisionNonZero;InstancesWithPrecisionOne;PercentageOfInstancesWithPrecisionOne;InstancesWithRecallZero;PercentageOfInstancesWithRecallZero;InstancesWithRecallOne;PercentageOfInstancesWithRecallOne;AveragePrecisionForAllNonNullPrecision;AveragePrecisionForNonZeroPrecision;AverageRecallForAllNonNullPrecision;AverageRecallForAllNonZeroPrecision;AverageFScoreForAllNonNullPrecision;AverageFScoreForAllNonZeroPrecision;
7;7_7a7c87aedb9974d4b1f84ca4ab80dba640d0e0d4-FRAGMENT.arff;BR;3.0;3.0;1.0;2.0;0.6666666666666666;1.0;0.3333333333333333;0.0;0.0;0.0;0.0;3.0;1.0;0.0;0.0;0.0;0.0;0.0;0.0;0.0;0.0;
7;7_7a7c87aedb9974d4b1f84ca4ab80dba640d0e0d4-FRAGMENT.arff;LP;3.0;3.0;1.0;0.0;0.0;3.0;1.0;0.0;0.0;0.0;0.0;3.0;1.0;0.0;0.0;0.0;0.0;0.0;0.0;0.0;0.0;
7;7_7a7c87aedb9974d4b1f84ca4ab80dba640d0e0d4-FRAGMENT.arff;RAkELd;3.0;3.0;1.0;2.0;0.6666666666666666;1.0;0.3333333333333333;0.0;0.0;0.0;0.0;3.0;1.0;0.0;0.0;0.0;0.0;0.0;0.0;0.0;0.0;
11;11_9bf8b2fda3eb5feee5a8fa644dd2a559fea95fc5-FRAGMENT.arff;BR;2.0;2.0;1.0;0.0;0.0;2.0;1.0;0.0;0.0;0.0;0.0;2.0;1.0;0.0;0.0;0.0;0.0;0.0;0.0;0.0;0.0;
11;11_9bf8b2fda3eb5feee5a8fa644dd2a559fea95fc5-FRAGMENT.arff;LP;2.0;2.0;1.0;0.0;0.0;2.0;1.0;0.0;0.0;0.0;0.0;2.0;1.0;0.0;0.0;0.0;0.0;0.0;0.0;0.0;0.0;
11;11_9bf8b2fda3eb5feee5a8fa644dd2a559fea95fc5-FRAGMENT.arff;RAkELd;2.0;2.0;1.0;0.0;0.0;1.0;0.5;1.0;0.5;0.0;0.0;1.0;0.5;0.0;0.0;0.185;0.37;0.37;0.74;0.24666666666666665;0.4933333333333333;
17;17_da3e20a4618706b4fefe6668860120973f261174-FRAGMENT.arff;BR;1.0;1.0;1.0;0.0;0.0;0.0;0.0;1.0;1.0;0.0;0.0;0.0;0.0;0.0;0.0;0.6666666666666666;0.6666666666666666;0.6666666666666666;0.6666666666666666;0.6666666666666666;0.6666666666666666;
17;17_da3e20a4618706b4fefe6668860120973f261174-FRAGMENT.arff;LP;1.0;1.0;1.0;0.0;0.0;0.0;0.0;1.0;1.0;0.0;0.0;0.0;0.0;0.0;0.0;0.6666666666666666;0.6666666666666666;0.6666666666666666;0.6666666666666666;0.6666666666666666;0.6666666666666666;
17;17_da3e20a4618706b4fefe6668860120973f261174-FRAGMENT.arff;RAkELd;1.0;1.0;1.0;0.0;0.0;0.0;0.0;1.0;1.0;0.0;0.0;0.0;0.0;0.0;0.0;0.6666666666666666;0.6666666666666666;0.6666666666666666;0.6666666666666666;0.6666666666666666;0.6666666666666666;
18;18_f9744676f5fc2b1cd17e1d529e834a1aa25baedb-FRAGMENT.arff;BR;1.0;1.0;1.0;0.0;0.0;0.0;0.0;1.0;1.0;0.0;0.0;0.0;0.0;0.0;0.0;0.6666666666666666;0.6666666666666666;0.6666666666666666;0.6666666666666666;0.6666666666666666;0.6666666666666666;
18;18_f9744676f5fc2b1cd17e1d529e834a1aa25baedb-FRAGMENT.arff;LP;1.0;1.0;1.0;0.0;0.0;0.0;0.0;1.0;1.0;0.0;0.0;0.0;0.0;0.0;0.0;0.6666666666666666;0.6666666666666666;0.6666666666666666;0.6666666666666666;0.6666666666666666;0.6666666666666666;
18;18_f9744676f5fc2b1cd17e1d529e834a1aa25baedb-FRAGMENT.arff;RAkELd;1.0;1.0;1.0;0.0;0.0;0.0;0.0;1.0;1.0;0.0;0.0;0.0;0.0;0.0;0.0;0.6666666666666666;0.6666666666666666;0.6666666666666666;0.6666666666666666;0.6666666666666666;0.6666666666666666;
19;19_8801d730480d660370094d13c6490c8ccd763ca8-FRAGMENT.arff;BR;1.0;1.0;1.0;0.0;0.0;1.0;1.0;0.0;0.0;0.0;0.0;1.0;1.0;0.0;0.0;0.0;0.0;0.0;0.0;0.0;0.0;
19;19_8801d730480d660370094d13c6490c8ccd763ca8-FRAGMENT.arff;LP;1.0;1.0;1.0;0.0;0.0;1.0;1.0;0.0;0.0;0.0;0.0;1.0;1.0;0.0;0.0;0.0;0.0;0.0;0.0;0.0;0.0;
19;19_8801d730480d660370094d13c6490c8ccd763ca8-FRAGMENT.arff;RAkELd;1.0;1.0;1.0;0.0;0.0;1.0;1.0;0.0;0.0;0.0;0.0;1.0;1.0;0.0;0.0;0.0;0.0;0.0;0.0;0.0;0.0;
20;20_efa08edd831faabee1ca5dae56561504f1435e16-FRAGMENT.arff;BR;4.0;4.0;1.0;1.0;0.25;0.0;0.0;3.0;0.75;2.0;0.5;1.0;0.25;0.0;0.0;0.8888888888888888;0.8888888888888888;0.5505050505050505;0.5505050505050505;0.6616161616161617;0.6616161616161617;
20;20_efa08edd831faabee1ca5dae56561504f1435e16-FRAGMENT.arff;LP;4.0;4.0;1.0;0.0;0.0;2.0;0.5;2.0;0.5;2.0;0.5;2.0;0.5;1.0;0.25;0.5;1.0;0.49242424242424243;0.9848484848484849;0.4954545454545455;0.990909090909091;
20;20_efa08edd831faabee1ca5dae56561504f1435e16-FRAGMENT.arff;RAkELd;4.0;4.0;1.0;1.0;0.25;0.0;0.0;3.0;0.75;2.0;0.5;1.0;0.25;0.0;0.0;0.8888888888888888;0.8888888888888888;0.5505050505050505;0.5505050505050505;0.6616161616161617;0.6616161616161617;
24;24_d8b4a77b6f37179a265b120bdfbd8c44f7e66b80-FRAGMENT.arff;BR;5.0;5.0;1.0;0.0;0.0;3.0;0.6;2.0;0.4;0.0;0.0;3.0;0.6;0.0;0.0;0.2297142857142857;0.5742857142857143;0.23899999999999996;0.5974999999999999;0.23114285714285715;0.5778571428571428;
24;24_d8b4a77b6f37179a265b120bdfbd8c44f7e66b80-FRAGMENT.arff;LP;5.0;5.0;1.0;0.0;0.0;5.0;1.0;0.0;0.0;0.0;0.0;5.0;1.0;0.0;0.0;0.0;0.0;0.0;0.0;0.0;0.0;
24;24_d8b4a77b6f37179a265b120bdfbd8c44f7e66b80-FRAGMENT.arff;RAkELd;5.0;5.0;1.0;0.0;0.0;3.0;0.6;2.0;0.4;0.0;0.0;3.0;0.6;0.0;0.0;0.2297142857142857;0.5742857142857143;0.23899999999999996;0.5974999999999999;0.23114285714285715;0.5778571428571428;
29;29_4e2d4bf3ba8d393c0161924911a21570ba25d7a0-FRAGMENT.arff;BR;8.0;8.0;1.0;3.0;0.375;1.0;0.125;4.0;0.5;0.0;0.0;4.0;0.5;0.0;0.0;0.4;0.5;0.34074074074074073;0.42592592592592593;0.36444444444444446;0.4555555555555556;
29;29_4e2d4bf3ba8d393c0161924911a21570ba25d7a0-FRAGMENT.arff;LP;8.0;8.0;1.0;0.0;0.0;8.0;1.0;0.0;0.0;0.0;0.0;8.0;1.0;0.0;0.0;0.0;0.0;0.0;0.0;0.0;0.0;
29;29_4e2d4bf3ba8d393c0161924911a21570ba25d7a0-FRAGMENT.arff;RAkELd;8.0;8.0;1.0;3.0;0.375;1.0;0.125;4.0;0.5;0.0;0.0;4.0;0.5;0.0;0.0;0.4;0.5;0.34074074074074073;0.42592592592592593;0.36444444444444446;0.4555555555555556;
30;30_ab8d7e7e99dce24a5499641314192b64a62bd045-FRAGMENT.arff;BR;31.0;31.0;1.0;9.0;0.2903225806451613;0.0;0.0;22.0;0.7096774193548387;0.0;0.0;9.0;0.2903225806451613;0.0;0.0;0.510478158205431;0.510478158205431;0.4178768201495474;0.4178768201495474;0.44793235384144475;0.44793235384144475;
30;30_ab8d7e7e99dce24a5499641314192b64a62bd045-FRAGMENT.arff;LP;31.0;31.0;1.0;0.0;0.0;30.0;0.967741935483871;1.0;0.03225806451612903;0.0;0.0;30.0;0.967741935483871;0.0;0.0;0.0010405827263267429;0.03225806451612903;5.202913631633714E-4;0.016129032258064516;6.93721817551162E-4;0.02150537634408602;
30;30_ab8d7e7e99dce24a5499641314192b64a62bd045-FRAGMENT.arff;RAkELd;31.0;31.0;1.0;8.0;0.25806451612903225;15.0;0.4838709677419355;8.0;0.25806451612903225;0.0;0.0;23.0;0.7419354838709677;0.0;0.0;0.16572557876905702;0.476461038961039;0.12283915762176631;0.3531625781625781;0.13890248238074324;0.39934463684463684;
31;31_746ef129fab6c2ec90fa3356a637c38e7aa460a7-FRAGMENT.arff;BR;14.0;14.0;1.0;3.0;0.21428571428571427;3.0;0.21428571428571427;8.0;0.5714285714285714;2.0;0.14285714285714285;6.0;0.42857142857142855;0.0;0.0;0.4750034911325234;0.6531298003072197;0.2183633570730345;0.30024961597542243;0.2929130009775171;0.402755376344086;
31;31_746ef129fab6c2ec90fa3356a637c38e7aa460a7-FRAGMENT.arff;LP;14.0;14.0;1.0;0.0;0.0;6.0;0.42857142857142855;8.0;0.5714285714285714;2.0;0.14285714285714285;6.0;0.42857142857142855;2.0;0.14285714285714285;0.4770408163265306;0.8348214285714286;0.34933390022675737;0.6113343253968254;0.38319160997732427;0.6705853174603175;
31;31_746ef129fab6c2ec90fa3356a637c38e7aa460a7-FRAGMENT.arff;RAkELd;14.0;14.0;1.0;3.0;0.21428571428571427;3.0;0.21428571428571427;8.0;0.5714285714285714;2.0;0.14285714285714285;6.0;0.42857142857142855;0.0;0.0;0.4750034911325234;0.6531298003072197;0.2183633570730345;0.30024961597542243;0.2929130009775171;0.402755376344086;
37;37_a6f39393b82fcb801d316dedd94a191091db6ad5-FRAGMENT.arff;BR;3.0;3.0;1.0;0.0;0.0;1.0;0.3333333333333333;2.0;0.6666666666666666;0.0;0.0;1.0;0.3333333333333333;0.0;0.0;0.2500813008130081;0.3751219512195122;0.491829268292683;0.7377439024390244;0.3306639566395664;0.49599593495934957;
37;37_a6f39393b82fcb801d316dedd94a191091db6ad5-FRAGMENT.arff;LP;3.0;3.0;1.0;0.0;0.0;0.0;0.0;3.0;1.0;0.0;0.0;0.0;0.0;0.0;0.0;0.785876887340302;0.785876887340302;0.6584959349593497;0.6584959349593497;0.7009562524196671;0.7009562524196671;
37;37_a6f39393b82fcb801d316dedd94a191091db6ad5-FRAGMENT.arff;RAkELd;3.0;3.0;1.0;0.0;0.0;0.0;0.0;3.0;1.0;0.0;0.0;0.0;0.0;0.0;0.0;0.5230197444831591;0.5230197444831591;0.6584959349593497;0.6584959349593497;0.5681784746418893;0.5681784746418893;
39;39_8b1f7e8cf42523fa177eef78cae189393d8909bb-FRAGMENT.arff;BR;1.0;1.0;1.0;0.0;0.0;0.0;0.0;1.0;1.0;0.0;0.0;0.0;0.0;0.0;0.0;0.24;0.24;0.695;0.695;0.355;0.355;
39;39_8b1f7e8cf42523fa177eef78cae189393d8909bb-FRAGMENT.arff;LP;1.0;1.0;1.0;0.0;0.0;0.0;0.0;1.0;1.0;0.0;0.0;0.0;0.0;0.0;0.0;0.72;0.72;0.695;0.695;0.7033333333333333;0.7033333333333333;
39;39_8b1f7e8cf42523fa177eef78cae189393d8909bb-FRAGMENT.arff;RAkELd;1.0;1.0;1.0;0.0;0.0;0.0;0.0;1.0;1.0;0.0;0.0;0.0;0.0;0.0;0.0;0.24;0.24;0.695;0.695;0.355;0.355;
40;40_4a99f9ffea0f6f9a7ef3305190a689b6fc50926a-FRAGMENT.arff;BR;2.0;2.0;1.0;0.0;0.0;1.0;0.5;1.0;0.5;0.0;0.0;1.0;0.5;0.0;0.0;0.12;0.24;0.3475;0.695;0.1775;0.355;
40;40_4a99f9ffea0f6f9a7ef3305190a689b6fc50926a-FRAGMENT.arff;LP;2.0;2.0;1.0;0.0;0.0;0.0;0.0;2.0;1.0;0.0;0.0;0.0;0.0;0.0;0.0;0.7885714285714285;0.7885714285714285;0.5974999999999999;0.5974999999999999;0.6611904761904761;0.6611904761904761;
40;40_4a99f9ffea0f6f9a7ef3305190a689b6fc50926a-FRAGMENT.arff;RAkELd;2.0;2.0;1.0;0.0;0.0;0.0;0.0;2.0;1.0;0.0;0.0;0.0;0.0;0.0;0.0;0.3342857142857143;0.3342857142857143;0.5974999999999999;0.5974999999999999;0.40369047619047616;0.40369047619047616;
46;46_0b8dd9dc6033b1155378977f10d881b602c0425e-FRAGMENT.arff;BR;4.0;4.0;1.0;1.0;0.25;0.0;0.0;3.0;0.75;0.0;0.0;1.0;0.25;0.0;0.0;0.335184331797235;0.335184331797235;0.569589093701997;0.569589093701997;0.3883702728403189;0.3883702728403189;
46;46_0b8dd9dc6033b1155378977f10d881b602c0425e-FRAGMENT.arff;LP;4.0;4.0;1.0;0.0;0.0;1.0;0.25;3.0;0.75;0.0;0.0;1.0;0.25;0.0;0.0;0.5627764976958525;0.75036866359447;0.4271918202764977;0.569589093701997;0.46107718894009214;0.6147695852534562;
46;46_0b8dd9dc6033b1155378977f10d881b602c0425e-FRAGMENT.arff;RAkELd;4.0;4.0;1.0;0.0;0.0;1.0;0.25;3.0;0.75;0.0;0.0;1.0;0.25;0.0;0.0;0.44277649769585253;0.59036866359447;0.4271918202764977;0.569589093701997;0.3739938556067588;0.49865847414234504;
47;47_5cfd31e4828489d82d4bbe335865b8b993632a1b-FRAGMENT.arff;BR;1.0;1.0;1.0;0.0;0.0;0.0;0.0;1.0;1.0;0.0;0.0;0.0;0.0;0.0;0.0;0.3333333333333333;0.3333333333333333;0.6666666666666666;0.6666666666666666;0.4444444444444444;0.4444444444444444;
47;47_5cfd31e4828489d82d4bbe335865b8b993632a1b-FRAGMENT.arff;LP;1.0;1.0;1.0;0.0;0.0;0.0;0.0;1.0;1.0;0.0;0.0;0.0;0.0;0.0;0.0;0.6666666666666666;0.6666666666666666;0.6666666666666666;0.6666666666666666;0.6666666666666666;0.6666666666666666;
47;47_5cfd31e4828489d82d4bbe335865b8b993632a1b-FRAGMENT.arff;RAkELd;1.0;1.0;1.0;0.0;0.0;0.0;0.0;1.0;1.0;0.0;0.0;0.0;0.0;0.0;0.0;0.6666666666666666;0.6666666666666666;0.6666666666666666;0.6666666666666666;0.6666666666666666;0.6666666666666666;
48;48_794650939a51f20a13e6d97c0c87727e8ba2f47c-FRAGMENT.arff;BR;1.0;1.0;1.0;0.0;0.0;0.0;0.0;1.0;1.0;0.0;0.0;0.0;0.0;0.0;0.0;0.2222222222222222;0.2222222222222222;0.6666666666666666;0.6666666666666666;0.3333333333333333;0.3333333333333333;
48;48_794650939a51f20a13e6d97c0c87727e8ba2f47c-FRAGMENT.arff;LP;1.0;1.0;1.0;0.0;0.0;0.0;0.0;1.0;1.0;0.0;0.0;0.0;0.0;0.0;0.0;0.6666666666666666;0.6666666666666666;0.6666666666666666;0.6666666666666666;0.6666666666666666;0.6666666666666666;
48;48_794650939a51f20a13e6d97c0c87727e8ba2f47c-FRAGMENT.arff;RAkELd;1.0;1.0;1.0;0.0;0.0;0.0;0.0;1.0;1.0;0.0;0.0;0.0;0.0;0.0;0.0;0.3333333333333333;0.3333333333333333;0.6666666666666666;0.6666666666666666;0.4444444444444444;0.4444444444444444;
52;52_21339b2f9739c5d801601cfc2a2c997196389e69-FRAGMENT.arff;BR;3.0;3.0;1.0;0.0;0.0;0.0;0.0;3.0;1.0;0.0;0.0;0.0;0.0;0.0;0.0;0.5072340425531915;0.5072340425531915;0.7311347517730497;0.7311347517730497;0.5818676122931442;0.5818676122931442;
52;52_21339b2f9739c5d801601cfc2a2c997196389e69-FRAGMENT.arff;LP;3.0;3.0;1.0;0.0;0.0;0.0;0.0;3.0;1.0;0.0;0.0;0.0;0.0;0.0;0.0;0.7478014184397163;0.7478014184397163;0.7311347517730497;0.7311347517730497;0.7366903073286052;0.7366903073286052;
52;52_21339b2f9739c5d801601cfc2a2c997196389e69-FRAGMENT.arff;RAkELd;3.0;3.0;1.0;0.0;0.0;0.0;0.0;3.0;1.0;0.0;0.0;0.0;0.0;0.0;0.0;0.5072340425531915;0.5072340425531915;0.7311347517730497;0.7311347517730497;0.5818676122931442;0.5818676122931442;
53;53_3844b6bd98df06f8bcb8ca905eae8e4b83d29fd6-FRAGMENT.arff;BR;2.0;2.0;1.0;1.0;0.5;0.0;0.0;1.0;0.5;0.0;0.0;1.0;0.5;0.0;0.0;0.36;0.36;0.67;0.67;0.46333333333333326;0.46333333333333326;
53;53_3844b6bd98df06f8bcb8ca905eae8e4b83d29fd6-FRAGMENT.arff;LP;2.0;2.0;1.0;0.0;0.0;1.0;0.5;1.0;0.5;0.0;0.0;1.0;0.5;0.0;0.0;0.36;0.72;0.335;0.67;0.3433333333333334;0.6866666666666668;
53;53_3844b6bd98df06f8bcb8ca905eae8e4b83d29fd6-FRAGMENT.arff;RAkELd;2.0;2.0;1.0;1.0;0.5;0.0;0.0;1.0;0.5;0.0;0.0;1.0;0.5;0.0;0.0;0.36;0.36;0.67;0.67;0.46333333333333326;0.46333333333333326;
54;54_f12128dcfa9a723a013f5bdbe6ee3d17099b6d71-FRAGMENT.arff;BR;12.0;12.0;1.0;4.0;0.3333333333333333;0.0;0.0;8.0;0.6666666666666666;1.0;0.08333333333333333;4.0;0.3333333333333333;1.0;0.08333333333333333;0.7174299155145929;0.7174299155145929;0.6955039789213177;0.6955039789213177;0.6795739308268111;0.6795739308268111;
54;54_f12128dcfa9a723a013f5bdbe6ee3d17099b6d71-FRAGMENT.arff;LP;12.0;12.0;1.0;0.0;0.0;3.0;0.25;9.0;0.75;2.0;0.16666666666666666;3.0;0.25;1.0;0.08333333333333333;0.5894358777423293;0.7859145036564391;0.4680615320064245;0.6240820426752326;0.5040149441359119;0.6720199255145491;
54;54_f12128dcfa9a723a013f5bdbe6ee3d17099b6d71-FRAGMENT.arff;RAkELd;12.0;12.0;1.0;2.0;0.16666666666666666;1.0;0.08333333333333333;9.0;0.75;2.0;0.16666666666666666;3.0;0.25;1.0;0.08333333333333333;0.7073230532907953;0.7859145036564391;0.5616738384077093;0.6240820426752326;0.6048179329630943;0.6720199255145491;
55;55_cbc0de4f9ad2930d2b879b642f72e59416f9e977-FRAGMENT.arff;BR;2.0;2.0;1.0;1.0;0.5;0.0;0.0;1.0;0.5;0.0;0.0;1.0;0.5;0.0;0.0;0.36;0.36;0.655;0.655;0.45833333333333326;0.45833333333333326;
55;55_cbc0de4f9ad2930d2b879b642f72e59416f9e977-FRAGMENT.arff;LP;2.0;2.0;1.0;0.0;0.0;1.0;0.5;1.0;0.5;0.0;0.0;1.0;0.5;0.0;0.0;0.36;0.72;0.3275;0.655;0.3383333333333334;0.6766666666666667;
55;55_cbc0de4f9ad2930d2b879b642f72e59416f9e977-FRAGMENT.arff;RAkELd;2.0;2.0;1.0;1.0;0.5;1.0;0.5;0.0;0.0;0.0;0.0;2.0;1.0;0.0;0.0;0.0;0.0;0.0;0.0;0.0;0.0;
57;57_7f0c85eae897fbcd687f55d915507c322ceb7cae-FRAGMENT.arff;BR;14.0;14.0;1.0;4.0;0.2857142857142857;0.0;0.0;10.0;0.7142857142857143;6.0;0.42857142857142855;4.0;0.2857142857142857;2.0;0.14285714285714285;0.8859690661581652;0.8859690661581652;0.8026096354516822;0.8026096354516822;0.8250026362217687;0.8250026362217687;
57;57_7f0c85eae897fbcd687f55d915507c322ceb7cae-FRAGMENT.arff;LP;14.0;14.0;1.0;0.0;0.0;3.0;0.21428571428571427;11.0;0.7857142857142857;6.0;0.42857142857142855;3.0;0.21428571428571427;2.0;0.14285714285714285;0.7273405417613267;0.9257061440598704;0.6392266626852675;0.8135612070539768;0.6720714800851461;0.8553637019265495;
57;57_7f0c85eae897fbcd687f55d915507c322ceb7cae-FRAGMENT.arff;RAkELd;14.0;14.0;1.0;3.0;0.21428571428571427;1.0;0.07142857142857142;10.0;0.7142857142857143;5.0;0.35714285714285715;4.0;0.2857142857142857;2.0;0.14285714285714285;0.7464143383498222;0.8210557721848044;0.7487754181302569;0.8236529599432826;0.727273049531114;0.8000003544842255;
58;58_0a3d36c57cc9defe930071eb0f3d7ac33223e116-FRAGMENT.arff;BR;1.0;1.0;1.0;0.0;0.0;0.0;0.0;1.0;1.0;1.0;1.0;0.0;0.0;0.0;0.0;1.0;1.0;0.7333333333333333;0.7333333333333333;0.8400000000000001;0.8400000000000001;
58;58_0a3d36c57cc9defe930071eb0f3d7ac33223e116-FRAGMENT.arff;LP;1.0;1.0;1.0;0.0;0.0;0.0;0.0;1.0;1.0;1.0;1.0;0.0;0.0;0.0;0.0;1.0;1.0;0.7333333333333333;0.7333333333333333;0.8400000000000001;0.8400000000000001;
58;58_0a3d36c57cc9defe930071eb0f3d7ac33223e116-FRAGMENT.arff;RAkELd;1.0;1.0;1.0;0.0;0.0;0.0;0.0;1.0;1.0;1.0;1.0;0.0;0.0;0.0;0.0;1.0;1.0;0.7333333333333333;0.7333333333333333;0.8400000000000001;0.8400000000000001;
59;59_d407796e499262d2063bdb8bdf556fe237daca75-FRAGMENT.arff;BR;7.0;7.0;1.0;3.0;0.42857142857142855;0.0;0.0;4.0;0.5714285714285714;3.0;0.42857142857142855;3.0;0.42857142857142855;0.0;0.0;0.9479166666666666;0.9479166666666666;0.6609375;0.6609375;0.768095238095238;0.768095238095238;
59;59_d407796e499262d2063bdb8bdf556fe237daca75-FRAGMENT.arff;LP;7.0;7.0;1.0;0.0;0.0;3.0;0.42857142857142855;4.0;0.5714285714285714;3.0;0.42857142857142855;3.0;0.42857142857142855;0.0;0.0;0.5446428571428571;0.953125;0.3464285714285714;0.60625;0.41892857142857143;0.733125;
59;59_d407796e499262d2063bdb8bdf556fe237daca75-FRAGMENT.arff;RAkELd;7.0;7.0;1.0;3.0;0.42857142857142855;0.0;0.0;4.0;0.5714285714285714;3.0;0.42857142857142855;3.0;0.42857142857142855;0.0;0.0;0.9479166666666666;0.9479166666666666;0.6609375;0.6609375;0.768095238095238;0.768095238095238;
62;62_6fb26410e33b9aae4de58f33132efd09f4cd992c-FRAGMENT.arff;BR;6.0;6.0;1.0;3.0;0.5;3.0;0.5;0.0;0.0;0.0;0.0;6.0;1.0;0.0;0.0;0.0;0.0;0.0;0.0;0.0;0.0;
62;62_6fb26410e33b9aae4de58f33132efd09f4cd992c-FRAGMENT.arff;LP;6.0;6.0;1.0;0.0;0.0;6.0;1.0;0.0;0.0;0.0;0.0;6.0;1.0;0.0;0.0;0.0;0.0;0.0;0.0;0.0;0.0;
62;62_6fb26410e33b9aae4de58f33132efd09f4cd992c-FRAGMENT.arff;RAkELd;6.0;6.0;1.0;3.0;0.5;3.0;0.5;0.0;0.0;0.0;0.0;6.0;1.0;0.0;0.0;0.0;0.0;0.0;0.0;0.0;0.0;
63;63_12dcc99d75cd3cd9d8efb7d316656e4d19bc8d52-FRAGMENT.arff;BR;7.0;7.0;1.0;3.0;0.42857142857142855;3.0;0.42857142857142855;1.0;0.14285714285714285;0.0;0.0;6.0;0.8571428571428571;0.0;0.0;0.24166666666666664;0.9666666666666666;0.24375;0.975;0.2414285714285714;0.9657142857142856;
63;63_12dcc99d75cd3cd9d8efb7d316656e4d19bc8d52-FRAGMENT.arff;LP;7.0;7.0;1.0;0.0;0.0;6.0;0.8571428571428571;1.0;0.14285714285714285;1.0;0.14285714285714285;6.0;0.8571428571428571;0.0;0.0;0.14285714285714285;1.0;0.09761904761904762;0.6833333333333333;0.11523809523809524;0.8066666666666666;
63;63_12dcc99d75cd3cd9d8efb7d316656e4d19bc8d52-FRAGMENT.arff;RAkELd;7.0;7.0;1.0;3.0;0.42857142857142855;3.0;0.42857142857142855;1.0;0.14285714285714285;0.0;0.0;6.0;0.8571428571428571;0.0;0.0;0.24166666666666664;0.9666666666666666;0.24375;0.975;0.2414285714285714;0.9657142857142856;
64;64_b33605b07445d3258df8229a1e786dc5b4ab4a06-FRAGMENT.arff;BR;15.0;15.0;1.0;8.0;0.5333333333333333;3.0;0.2;4.0;0.26666666666666666;1.0;0.06666666666666667;11.0;0.7333333333333333;0.0;0.0;0.48106575963718823;0.8418650793650794;0.30473356009070296;0.5332837301587302;0.35441043083900226;0.6202182539682539;
64;64_b33605b07445d3258df8229a1e786dc5b4ab4a06-FRAGMENT.arff;LP;15.0;15.0;1.0;0.0;0.0;4.0;0.26666666666666666;11.0;0.7333333333333333;2.0;0.13333333333333333;4.0;0.26666666666666666;1.0;0.06666666666666667;0.6661758414949904;0.9084216020386233;0.5838874817066306;0.7962102023272236;0.6070700213891703;0.8278227564397778;
64;64_b33605b07445d3258df8229a1e786dc5b4ab4a06-FRAGMENT.arff;RAkELd;15.0;15.0;1.0;4.0;0.26666666666666666;3.0;0.2;8.0;0.5333333333333333;1.0;0.06666666666666667;7.0;0.4666666666666667;0.0;0.0;0.622057965674987;0.855329702803107;0.5098465659635872;0.7010390281999325;0.5414591200761414;0.7445062901046944;
65;65_a40b2b29bb20a3c1ec25b73360d6712cdb97cd98-FRAGMENT.arff;BR;27.0;27.0;1.0;7.0;0.25925925925925924;7.0;0.25925925925925924;13.0;0.48148148148148145;2.0;0.07407407407407407;14.0;0.5185185185185185;2.0;0.07407407407407407;0.5251951171683499;0.8079924879513075;0.5071188669550029;0.7801828722384658;0.49815176506048164;0.7663873308622795;
65;65_a40b2b29bb20a3c1ec25b73360d6712cdb97cd98-FRAGMENT.arff;LP;27.0;27.0;1.0;0.0;0.0;7.0;0.25925925925925924;20.0;0.7407407407407407;7.0;0.25925925925925924;7.0;0.25925925925925924;4.0;0.14814814814814814;0.6562368591919419;0.8859197599091215;0.5905186096773961;0.7972001230644847;0.6108151821035982;0.8246004958398576;
65;65_a40b2b29bb20a3c1ec25b73360d6712cdb97cd98-FRAGMENT.arff;RAkELd;27.0;27.0;1.0;5.0;0.18518518518518517;5.0;0.18518518518518517;17.0;0.6296296296296297;2.0;0.07407407407407407;10.0;0.37037037037037035;3.0;0.1111111111111111;0.5863273403939155;0.7587765581568319;0.6321515729116964;0.818078506121019;0.5805523686512019;0.7513030653133201;
68;68_e041ff570250275045c01f6d4a87b9a73f92f416-FRAGMENT.arff;BR;3.0;3.0;1.0;0.0;0.0;0.0;0.0;3.0;1.0;0.0;0.0;0.0;0.0;0.0;0.0;0.751667388764163;0.751667388764163;0.7649780526124612;0.7649780526124612;0.7272125723738627;0.7272125723738627;
68;68_e041ff570250275045c01f6d4a87b9a73f92f416-FRAGMENT.arff;LP;3.0;3.0;1.0;0.0;0.0;0.0;0.0;3.0;1.0;0.0;0.0;0.0;0.0;0.0;0.0;0.8887641629577114;0.8887641629577114;0.7649780526124612;0.7649780526124612;0.8042735042735044;0.8042735042735044;
68;68_e041ff570250275045c01f6d4a87b9a73f92f416-FRAGMENT.arff;RAkELd;3.0;3.0;1.0;0.0;0.0;0.0;0.0;3.0;1.0;0.0;0.0;0.0;0.0;0.0;0.0;0.751667388764163;0.751667388764163;0.7649780526124612;0.7649780526124612;0.7272125723738627;0.7272125723738627;
69;69_5b6d5707ee06cf659ff4d3d7e71241e532fcfeb2-FRAGMENT.arff;BR;4.0;4.0;1.0;4.0;1.0;0.0;0.0;0.0;0.0;0.0;0.0;4.0;1.0;0.0;0.0;0.0;0.0;0.0;0.0;0.0;0.0;
69;69_5b6d5707ee06cf659ff4d3d7e71241e532fcfeb2-FRAGMENT.arff;LP;4.0;4.0;1.0;0.0;0.0;1.0;0.25;3.0;0.75;1.0;0.25;1.0;0.25;1.0;0.25;0.7361111111111112;0.9814814814814815;0.7361111111111112;0.9814814814814815;0.7361111111111112;0.9814814814814815;
69;69_5b6d5707ee06cf659ff4d3d7e71241e532fcfeb2-FRAGMENT.arff;RAkELd;4.0;4.0;1.0;0.0;0.0;4.0;1.0;0.0;0.0;0.0;0.0;4.0;1.0;0.0;0.0;0.0;0.0;0.0;0.0;0.0;0.0;
70;70_c4ade34b0c9b55328fad8c3294289e3a086aa0d2-FRAGMENT.arff;BR;4.0;4.0;1.0;4.0;1.0;0.0;0.0;0.0;0.0;0.0;0.0;4.0;1.0;0.0;0.0;0.0;0.0;0.0;0.0;0.0;0.0;
70;70_c4ade34b0c9b55328fad8c3294289e3a086aa0d2-FRAGMENT.arff;LP;4.0;4.0;1.0;0.0;0.0;4.0;1.0;0.0;0.0;0.0;0.0;4.0;1.0;0.0;0.0;0.0;0.0;0.0;0.0;0.0;0.0;
70;70_c4ade34b0c9b55328fad8c3294289e3a086aa0d2-FRAGMENT.arff;RAkELd;4.0;4.0;1.0;0.0;0.0;4.0;1.0;0.0;0.0;0.0;0.0;4.0;1.0;0.0;0.0;0.0;0.0;0.0;0.0;0.0;0.0;
75;75_13ec2a47ff332e9c1a1c642068d26a7fae43e5cb-FRAGMENT.arff;BR;6.0;6.0;1.0;0.0;0.0;1.0;0.16666666666666666;5.0;0.8333333333333334;0.0;0.0;1.0;0.16666666666666666;0.0;0.0;0.33959810874704494;0.4075177304964539;0.7100295508274233;0.852035460992908;0.45757525610717104;0.5490903073286052;
75;75_13ec2a47ff332e9c1a1c642068d26a7fae43e5cb-FRAGMENT.arff;LP;6.0;6.0;1.0;0.0;0.0;6.0;1.0;0.0;0.0;0.0;0.0;6.0;1.0;0.0;0.0;0.0;0.0;0.0;0.0;0.0;0.0;
75;75_13ec2a47ff332e9c1a1c642068d26a7fae43e5cb-FRAGMENT.arff;RAkELd;6.0;6.0;1.0;0.0;0.0;1.0;0.16666666666666666;5.0;0.8333333333333334;0.0;0.0;1.0;0.16666666666666666;0.0;0.0;0.33959810874704494;0.4075177304964539;0.7100295508274233;0.852035460992908;0.45757525610717104;0.5490903073286052;
76;76_3955fd03aad3b9ea6cc6e8fc5c6e421f9c90d79d-FRAGMENT.arff;BR;7.0;7.0;1.0;0.0;0.0;1.0;0.14285714285714285;6.0;0.8571428571428571;0.0;0.0;1.0;0.14285714285714285;0.0;0.0;0.6531914893617021;0.7620567375886526;0.7608105369807497;0.887612293144208;0.689064505234718;0.8039085894405043;
76;76_3955fd03aad3b9ea6cc6e8fc5c6e421f9c90d79d-FRAGMENT.arff;LP;7.0;7.0;1.0;0.0;0.0;0.0;0.0;7.0;1.0;0.0;0.0;0.0;0.0;0.0;0.0;0.896048632218845;0.896048632218845;0.8846200607902736;0.8846200607902736;0.8884295845997974;0.8884295845997974;
76;76_3955fd03aad3b9ea6cc6e8fc5c6e421f9c90d79d-FRAGMENT.arff;RAkELd;7.0;7.0;1.0;0.0;0.0;1.0;0.14285714285714285;6.0;0.8571428571428571;0.0;0.0;1.0;0.14285714285714285;0.0;0.0;0.6531914893617021;0.7620567375886526;0.7608105369807497;0.887612293144208;0.689064505234718;0.8039085894405043;
77;77_d9d81ba61b4b3897a898e54fdd7867898f222550-FRAGMENT.arff;BR;7.0;7.0;1.0;3.0;0.42857142857142855;1.0;0.14285714285714285;3.0;0.42857142857142855;0.0;0.0;4.0;0.5714285714285714;0.0;0.0;0.4038793103448276;0.5385057471264368;0.30716338259441706;0.4095511767925561;0.33938834154351394;0.45251778872468523;
77;77_d9d81ba61b4b3897a898e54fdd7867898f222550-FRAGMENT.arff;LP;7.0;7.0;1.0;0.0;0.0;1.0;0.14285714285714285;6.0;0.8571428571428571;0.0;0.0;1.0;0.14285714285714285;0.0;0.0;0.6163978058066728;0.7191307734411182;0.46213016594789996;0.5391518602725499;0.5088672958131086;0.5936785117819601;
77;77_d9d81ba61b4b3897a898e54fdd7867898f222550-FRAGMENT.arff;RAkELd;7.0;7.0;1.0;4.0;0.5714285714285714;1.0;0.14285714285714285;2.0;0.2857142857142857;0.0;0.0;5.0;0.7142857142857143;0.0;0.0;0.21666666666666667;0.325;0.15476190476190474;0.23214285714285712;0.1785714285714286;0.2678571428571429;
78;78_c5d04b9750c4053c726bd4950d1c78bedb75f8e7-FRAGMENT.arff;BR;4.0;4.0;1.0;3.0;0.75;1.0;0.25;0.0;0.0;0.0;0.0;4.0;1.0;0.0;0.0;0.0;0.0;0.0;0.0;0.0;0.0;
78;78_c5d04b9750c4053c726bd4950d1c78bedb75f8e7-FRAGMENT.arff;LP;4.0;4.0;1.0;0.0;0.0;4.0;1.0;0.0;0.0;0.0;0.0;4.0;1.0;0.0;0.0;0.0;0.0;0.0;0.0;0.0;0.0;
78;78_c5d04b9750c4053c726bd4950d1c78bedb75f8e7-FRAGMENT.arff;RAkELd;4.0;4.0;1.0;3.0;0.75;1.0;0.25;0.0;0.0;0.0;0.0;4.0;1.0;0.0;0.0;0.0;0.0;0.0;0.0;0.0;0.0;
79;79_04c38c3d1120e0d8b9741e41bd62cbdfa3109a65-FRAGMENT.arff;BR;61.0;61.0;1.0;5.0;0.08196721311475409;13.0;0.21311475409836064;43.0;0.7049180327868853;21.0;0.3442622950819672;18.0;0.29508196721311475;0.0;0.0;0.6431396928084716;0.8375772743552189;0.3862438917702455;0.5030153009100872;0.4554258060061631;0.5931126775894218;
79;79_04c38c3d1120e0d8b9741e41bd62cbdfa3109a65-FRAGMENT.arff;LP;61.0;61.0;1.0;0.0;0.0;56.0;0.9180327868852459;5.0;0.08196721311475409;1.0;0.01639344262295082;56.0;0.9180327868852459;1.0;0.01639344262295082;0.07559298624872395;0.9222344322344321;0.05274616852485705;0.6435032560032561;0.058046798374667224;0.7081709401709402;
79;79_04c38c3d1120e0d8b9741e41bd62cbdfa3109a65-FRAGMENT.arff;RAkELd;61.0;61.0;1.0;6.0;0.09836065573770492;38.0;0.6229508196721312;17.0;0.2786885245901639;1.0;0.01639344262295082;44.0;0.7213114754098361;0.0;0.0;0.22463833657382046;0.7267710889153015;0.17445157291931485;0.5644021476801363;0.18273008473008473;0.5911855682443918;
80;80_3e1f7782b8b8f1d2b8ddabc9cbeeaa7d9c199e5f-FRAGMENT.arff;BR;76.0;76.0;1.0;7.0;0.09210526315789473;13.0;0.17105263157894737;56.0;0.7368421052631579;5.0;0.06578947368421052;20.0;0.2631578947368421;1.0;0.013157894736842105;0.5145562582448978;0.6340068181946062;0.41443375735393034;0.5106415938825213;0.44005197674903146;0.5422068999229138;
80;80_3e1f7782b8b8f1d2b8ddabc9cbeeaa7d9c199e5f-FRAGMENT.arff;LP;76.0;76.0;1.0;0.0;0.0;17.0;0.2236842105263158;59.0;0.7763157894736842;23.0;0.3026315789473684;17.0;0.2236842105263158;2.0;0.02631578947368421;0.6297122823453365;0.8111548043770437;0.43246943397663923;0.5570792708851624;0.4984901706089954;0.6421229316319264;
80;80_3e1f7782b8b8f1d2b8ddabc9cbeeaa7d9c199e5f-FRAGMENT.arff;RAkELd;76.0;76.0;1.0;5.0;0.06578947368421052;14.0;0.18421052631578946;57.0;0.75;5.0;0.06578947368421052;19.0;0.25;1.0;0.013157894736842105;0.511445152858147;0.6370632605776918;0.39743918316442167;0.4950558246434024;0.4292102185764158;0.5346302722618512;
81;81_e316290ea16a2bff350a5e0a481e408c38272e12-FRAGMENT.arff;BR;2.0;2.0;1.0;1.0;0.5;1.0;0.5;0.0;0.0;0.0;0.0;2.0;1.0;0.0;0.0;0.0;0.0;0.0;0.0;0.0;0.0;
81;81_e316290ea16a2bff350a5e0a481e408c38272e12-FRAGMENT.arff;LP;2.0;2.0;1.0;0.0;0.0;2.0;1.0;0.0;0.0;0.0;0.0;2.0;1.0;0.0;0.0;0.0;0.0;0.0;0.0;0.0;0.0;
81;81_e316290ea16a2bff350a5e0a481e408c38272e12-FRAGMENT.arff;RAkELd;2.0;2.0;1.0;0.0;0.0;2.0;1.0;0.0;0.0;0.0;0.0;2.0;1.0;0.0;0.0;0.0;0.0;0.0;0.0;0.0;0.0;
82;82_4f6a8c5831459ebfd4d552f8766037a94723f21b-FRAGMENT.arff;BR;22.0;22.0;1.0;7.0;0.3181818181818182;1.0;0.045454545454545456;14.0;0.6363636363636364;1.0;0.045454545454545456;8.0;0.36363636363636365;0.0;0.0;0.8053964792674471;0.8629247992151219;0.5160528678808248;0.5529137870151695;0.6011890021567441;0.6441310737393687;
82;82_4f6a8c5831459ebfd4d552f8766037a94723f21b-FRAGMENT.arff;LP;22.0;22.0;1.0;0.0;0.0;13.0;0.5909090909090909;9.0;0.4090909090909091;0.0;0.0;13.0;0.5909090909090909;0.0;0.0;0.26288911261195075;0.642617830829213;0.18970758033950938;0.46372964082991186;0.21312614666273202;0.5209750251755672;
82;82_4f6a8c5831459ebfd4d552f8766037a94723f21b-FRAGMENT.arff;RAkELd;22.0;22.0;1.0;7.0;0.3181818181818182;3.0;0.13636363636363635;12.0;0.5454545454545454;0.0;0.0;10.0;0.45454545454545453;0.0;0.0;0.6746272484982163;0.8432840606227704;0.4451126969406539;0.5563908711758174;0.5116163525840945;0.6395204407301182;
83;83_73532e34ce3061f98657eb2ef02af7e4258c825b-FRAGMENT.arff;BR;25.0;25.0;1.0;1.0;0.04;5.0;0.2;19.0;0.76;1.0;0.04;6.0;0.24;0.0;0.0;0.6719646243839792;0.8487974202745;0.43776552300745847;0.5529669764304739;0.5038242636495325;0.6364095961888832;
83;83_73532e34ce3061f98657eb2ef02af7e4258c825b-FRAGMENT.arff;LP;25.0;25.0;1.0;0.0;0.0;2.0;0.08;23.0;0.92;1.0;0.04;2.0;0.08;0.0;0.0;0.7449075349862132;0.8096821032458839;0.5044167889807544;0.5482791184573417;0.5776133283041229;0.6278405742436118;
83;83_73532e34ce3061f98657eb2ef02af7e4258c825b-FRAGMENT.arff;RAkELd;25.0;25.0;1.0;1.0;0.04;2.0;0.08;22.0;0.88;1.0;0.04;3.0;0.12;0.0;0.0;0.7237045511239061;0.7894958739533521;0.4966788319207674;0.5418314530044736;0.5601047886800575;0.61102340583279;
85;85_f13f5ee8af1d30ba46330b284421a0147aaaedd4-FRAGMENT.arff;BR;50.0;50.0;1.0;7.0;0.14;8.0;0.16;35.0;0.7;25.0;0.5;15.0;0.3;2.0;0.04;0.7710670613154758;0.9473109610447273;0.4758335783705762;0.5845955391409936;0.5656925116227441;0.6949936571365143;
85;85_f13f5ee8af1d30ba46330b284421a0147aaaedd4-FRAGMENT.arff;LP;50.0;50.0;1.0;0.0;0.0;12.0;0.24;38.0;0.76;17.0;0.34;12.0;0.24;2.0;0.04;0.650940812120431;0.8565010685795144;0.43788743076734277;0.5761676720622931;0.5122638437483013;0.674031373353028;
85;85_f13f5ee8af1d30ba46330b284421a0147aaaedd4-FRAGMENT.arff;RAkELd;50.0;50.0;1.0;6.0;0.12;8.0;0.16;36.0;0.72;18.0;0.36;14.0;0.28;2.0;0.04;0.7288706071247394;0.8908418531524593;0.4994196742001494;0.6104018240224048;0.5636808519763066;0.6889432635265968;
86;86_34014198f540fe0f148017b2e0afed1ef33bb30a-FRAGMENT.arff;BR;33.0;33.0;1.0;0.0;0.0;5.0;0.15151515151515152;28.0;0.8484848484848485;12.0;0.36363636363636365;5.0;0.15151515151515152;0.0;0.0;0.7831271055225969;0.9229712315087749;0.4992473954656451;0.5883987160845103;0.5834692064574285;0.6876601361819693;
86;86_34014198f540fe0f148017b2e0afed1ef33bb30a-FRAGMENT.arff;LP;33.0;33.0;1.0;0.0;0.0;5.0;0.15151515151515152;28.0;0.8484848484848485;12.0;0.36363636363636365;5.0;0.15151515151515152;0.0;0.0;0.7749176169664039;0.9132957628532619;0.5166563502964907;0.6089164128494354;0.5983490130566466;0.7051970511024763;
86;86_34014198f540fe0f148017b2e0afed1ef33bb30a-FRAGMENT.arff;RAkELd;33.0;33.0;1.0;0.0;0.0;5.0;0.15151515151515152;28.0;0.8484848484848485;10.0;0.30303030303030304;5.0;0.15151515151515152;0.0;0.0;0.7528240752195664;0.887256945794489;0.4992473954656451;0.5883987160845103;0.5772402502284724;0.6803188663406995;
87;87_3e1eb7278e5c8ad2a2dc7855b03075496f8c9322-FRAGMENT.arff;BR;4.0;4.0;1.0;0.0;0.0;0.0;0.0;4.0;1.0;0.0;0.0;0.0;0.0;0.0;0.0;0.3147856026888285;0.3147856026888285;0.7499943216878701;0.7499943216878701;0.43002405897567186;0.43002405897567186;
87;87_3e1eb7278e5c8ad2a2dc7855b03075496f8c9322-FRAGMENT.arff;LP;4.0;4.0;1.0;0.0;0.0;3.0;0.75;1.0;0.25;0.0;0.0;3.0;0.75;0.0;0.0;0.003968253968253968;0.015873015873015872;0.0013227513227513227;0.005291005291005291;0.001984126984126984;0.007936507936507936;
87;87_3e1eb7278e5c8ad2a2dc7855b03075496f8c9322-FRAGMENT.arff;RAkELd;4.0;4.0;1.0;0.0;0.0;0.0;0.0;4.0;1.0;0.0;0.0;0.0;0.0;0.0;0.0;0.47217840403324274;0.47217840403324274;0.7499943216878701;0.7499943216878701;0.560493745885451;0.560493745885451;
94;94_69f575891baa1bf137729b22345f2d8c4bd265d5-FRAGMENT.arff;BR;16.0;16.0;1.0;1.0;0.0625;3.0;0.1875;12.0;0.75;6.0;0.375;4.0;0.25;0.0;0.0;0.6747311827956989;0.8434139784946236;0.3385304659498208;0.423163082437276;0.42867383512544804;0.53584229390681;
94;94_69f575891baa1bf137729b22345f2d8c4bd265d5-FRAGMENT.arff;LP;16.0;16.0;1.0;0.0;0.0;6.0;0.375;10.0;0.625;4.0;0.25;6.0;0.375;0.0;0.0;0.454133064516129;0.7266129032258064;0.2576444892473118;0.4122311827956989;0.3203293010752688;0.51252688172043;
94;94_69f575891baa1bf137729b22345f2d8c4bd265d5-FRAGMENT.arff;RAkELd;16.0;16.0;1.0;1.0;0.0625;3.0;0.1875;12.0;0.75;4.0;0.25;4.0;0.25;0.0;0.0;0.6191756272401433;0.7739695340501792;0.37741935483870964;0.47177419354838707;0.4534357398873528;0.566794674859191;
95;95_45f1b327dadc5d5b562989a10b03eea5d185c64a-FRAGMENT.arff;BR;20.0;20.0;1.0;2.0;0.1;3.0;0.15;15.0;0.75;8.0;0.4;5.0;0.25;0.0;0.0;0.7265975365800162;0.8719170438960194;0.28247959555493307;0.33897551466591963;0.3848382193306443;0.46180586319677325;
95;95_45f1b327dadc5d5b562989a10b03eea5d185c64a-FRAGMENT.arff;LP;20.0;20.0;1.0;0.0;0.0;5.0;0.25;15.0;0.75;6.0;0.3;5.0;0.25;0.0;0.0;0.5999055248574985;0.7998740331433313;0.3057638940639559;0.40768519208527454;0.3914312023130945;0.5219082697507926;
95;95_45f1b327dadc5d5b562989a10b03eea5d185c64a-FRAGMENT.arff;RAkELd;20.0;20.0;1.0;2.0;0.1;3.0;0.15;15.0;0.75;6.0;0.3;5.0;0.25;0.0;0.0;0.6758209535453686;0.8109851442544423;0.353626548959951;0.4243518587519412;0.44815107135317384;0.5377812856238086;
106;106_9beb91f475006d702261b0afe2ca588009c417fe-FRAGMENT.arff;BR;45.0;45.0;1.0;0.0;0.0;7.0;0.15555555555555556;38.0;0.8444444444444444;0.0;0.0;7.0;0.15555555555555556;4.0;0.08888888888888889;0.5721263777326269;0.6775180788939003;0.4937514182969091;0.5847056269305503;0.46166062733251984;0.5467033744727209;
106;106_9beb91f475006d702261b0afe2ca588009c417fe-FRAGMENT.arff;LP;45.0;45.0;1.0;0.0;0.0;3.0;0.06666666666666667;42.0;0.9333333333333333;11.0;0.24444444444444444;3.0;0.06666666666666667;4.0;0.08888888888888889;0.8040060201456026;0.8614350215845742;0.5498789134980261;0.5891559787478852;0.6147595645708481;0.6586709620401944;
106;106_9beb91f475006d702261b0afe2ca588009c417fe-FRAGMENT.arff;RAkELd;45.0;45.0;1.0;0.0;0.0;7.0;0.15555555555555556;38.0;0.8444444444444444;0.0;0.0;7.0;0.15555555555555556;4.0;0.08888888888888889;0.5415196416207206;0.6412732598140112;0.4901883413503426;0.5804861937043531;0.4468253762007969;0.5291353139219963;
107;107_7fadfaa725eb44af2d806a6a3aa35b16ae371ff8-FRAGMENT.arff;BR;57.0;57.0;1.0;6.0;0.10526315789473684;14.0;0.24561403508771928;37.0;0.6491228070175439;11.0;0.19298245614035087;20.0;0.3508771929824561;3.0;0.05263157894736842;0.5481239270349556;0.7555221696968307;0.3536698582762174;0.48749088573208343;0.4081797922599262;0.5626262001420603;
107;107_7fadfaa725eb44af2d806a6a3aa35b16ae371ff8-FRAGMENT.arff;LP;57.0;57.0;1.0;0.0;0.0;20.0;0.3508771929824561;37.0;0.6491228070175439;9.0;0.15789473684210525;20.0;0.3508771929824561;3.0;0.05263157894736842;0.4792098841947944;0.7382422540298184;0.31888614546235017;0.4912570349014584;0.36275129415681134;0.5588330747821147;
107;107_7fadfaa725eb44af2d806a6a3aa35b16ae371ff8-FRAGMENT.arff;RAkELd;57.0;57.0;1.0;0.0;0.0;14.0;0.24561403508771928;43.0;0.7543859649122807;7.0;0.12280701754385964;14.0;0.24561403508771928;1.0;0.017543859649122806;0.48255274244716195;0.639662937662517;0.2919819297673175;0.3870458138776069;0.3427998418859494;0.4544090927325376;
108;108_69720a40bf191c4c154feee060ac050397db4291-FRAGMENT.arff;BR;6.0;6.0;1.0;3.0;0.5;1.0;0.16666666666666666;2.0;0.3333333333333333;2.0;0.3333333333333333;4.0;0.6666666666666666;0.0;0.0;0.6666666666666666;1.0;0.3679012345679012;0.5518518518518518;0.4645502645502646;0.6968253968253969;
108;108_69720a40bf191c4c154feee060ac050397db4291-FRAGMENT.arff;LP;6.0;6.0;1.0;0.0;0.0;1.0;0.16666666666666666;5.0;0.8333333333333334;1.0;0.16666666666666666;1.0;0.16666666666666666;0.0;0.0;0.7002357795461244;0.8402829354553493;0.4104137603562891;0.49249651242754694;0.4902685500961363;0.5883222601153635;
108;108_69720a40bf191c4c154feee060ac050397db4291-FRAGMENT.arff;RAkELd;6.0;6.0;1.0;1.0;0.16666666666666666;1.0;0.16666666666666666;4.0;0.6666666666666666;2.0;0.3333333333333333;2.0;0.3333333333333333;0.0;0.0;0.7864367816091955;0.9830459770114943;0.5059438058748403;0.6324297573435504;0.5890060207991243;0.7362575259989054;
112;112_2ac838a86290cda81b832ef110afbc4056bcfc4f-FRAGMENT.arff;BR;8.0;8.0;1.0;4.0;0.5;0.0;0.0;4.0;0.5;0.0;0.0;4.0;0.5;0.0;0.0;0.9303763440860215;0.9303763440860215;0.30201612903225805;0.30201612903225805;0.4396479774705581;0.4396479774705581;
112;112_2ac838a86290cda81b832ef110afbc4056bcfc4f-FRAGMENT.arff;LP;8.0;8.0;1.0;0.0;0.0;4.0;0.5;4.0;0.5;0.0;0.0;4.0;0.5;0.0;0.0;0.4721326164874552;0.9442652329749104;0.1608592549923195;0.321718509984639;0.23236036439665472;0.46472072879330945;
112;112_2ac838a86290cda81b832ef110afbc4056bcfc4f-FRAGMENT.arff;RAkELd;8.0;8.0;1.0;1.0;0.125;3.0;0.375;4.0;0.5;0.0;0.0;4.0;0.5;0.0;0.0;0.48095238095238096;0.8416666666666667;0.1443548387096774;0.2526209677419355;0.21712603320898255;0.37997055811571945;
115;115_0cc320cee1b10428c462ac68b0644004e3a69053-FRAGMENT.arff;BR;2.0;2.0;1.0;0.0;0.0;1.0;0.5;1.0;0.5;0.0;0.0;1.0;0.5;0.0;0.0;0.19444444444444445;0.3888888888888889;0.12962962962962962;0.25925925925925924;0.15555555555555556;0.3111111111111111;
115;115_0cc320cee1b10428c462ac68b0644004e3a69053-FRAGMENT.arff;LP;2.0;2.0;1.0;0.0;0.0;1.0;0.5;1.0;0.5;0.0;0.0;1.0;0.5;0.0;0.0;0.19444444444444445;0.3888888888888889;0.12962962962962962;0.25925925925925924;0.15555555555555556;0.3111111111111111;
115;115_0cc320cee1b10428c462ac68b0644004e3a69053-FRAGMENT.arff;RAkELd;2.0;2.0;1.0;0.0;0.0;1.0;0.5;1.0;0.5;0.0;0.0;1.0;0.5;0.0;0.0;0.19444444444444445;0.3888888888888889;0.12962962962962962;0.25925925925925924;0.15555555555555556;0.3111111111111111;
117;117_f7cbe1b67fe1ef68e553f67da1d9cc3c0a16e9a9-FRAGMENT.arff;BR;45.0;45.0;1.0;6.0;0.13333333333333333;3.0;0.06666666666666667;36.0;0.8;12.0;0.26666666666666666;9.0;0.2;4.0;0.08888888888888889;0.7402867431713586;0.8019773051023051;0.40952098767803896;0.4436477366512089;0.49693891747921054;0.5383504939358114;
117;117_f7cbe1b67fe1ef68e553f67da1d9cc3c0a16e9a9-FRAGMENT.arff;LP;45.0;45.0;1.0;0.0;0.0;7.0;0.15555555555555556;38.0;0.8444444444444444;3.0;0.06666666666666667;7.0;0.15555555555555556;1.0;0.022222222222222223;0.539955679697059;0.6394211996412541;0.33099401983357923;0.3919666024345017;0.38782122848871614;0.4592619811050586;
117;117_f7cbe1b67fe1ef68e553f67da1d9cc3c0a16e9a9-FRAGMENT.arff;RAkELd;45.0;45.0;1.0;2.0;0.044444444444444446;4.0;0.08888888888888889;39.0;0.8666666666666667;13.0;0.28888888888888886;6.0;0.13333333333333333;4.0;0.08888888888888889;0.6709914951394502;0.7398111356665733;0.43860740623020095;0.4835927812281703;0.5023173741288646;0.553837104808748;
120;120_5fb9be28bbfcdfad3bcec2788f55f87c685fae3b-FRAGMENT.arff;BR;11.0;11.0;1.0;8.0;0.7272727272727273;2.0;0.18181818181818182;1.0;0.09090909090909091;0.0;0.0;10.0;0.9090909090909091;0.0;0.0;0.25666666666666665;0.77;0.22666666666666668;0.68;0.23666666666666666;0.71;
120;120_5fb9be28bbfcdfad3bcec2788f55f87c685fae3b-FRAGMENT.arff;LP;11.0;11.0;1.0;0.0;0.0;1.0;0.09090909090909091;10.0;0.9090909090909091;4.0;0.36363636363636365;1.0;0.09090909090909091;0.0;0.0;0.7852147852147852;0.8637362637362637;0.5554445554445554;0.6109890109890109;0.6320346320346321;0.6952380952380952;
120;120_5fb9be28bbfcdfad3bcec2788f55f87c685fae3b-FRAGMENT.arff;RAkELd;11.0;11.0;1.0;4.0;0.36363636363636365;3.0;0.2727272727272727;4.0;0.36363636363636365;0.0;0.0;7.0;0.6363636363636364;0.0;0.0;0.28582417582417585;0.5001923076923077;0.21802197802197804;0.38153846153846155;0.24062271062271062;0.4210897435897436;
123;123_d74a45886ca4f6bac539dced1606e18a0d9c10a1-FRAGMENT.arff;BR;1.0;1.0;1.0;0.0;0.0;1.0;1.0;0.0;0.0;0.0;0.0;1.0;1.0;0.0;0.0;0.0;0.0;0.0;0.0;0.0;0.0;
123;123_d74a45886ca4f6bac539dced1606e18a0d9c10a1-FRAGMENT.arff;LP;1.0;1.0;1.0;0.0;0.0;1.0;1.0;0.0;0.0;0.0;0.0;1.0;1.0;0.0;0.0;0.0;0.0;0.0;0.0;0.0;0.0;
123;123_d74a45886ca4f6bac539dced1606e18a0d9c10a1-FRAGMENT.arff;RAkELd;1.0;1.0;1.0;0.0;0.0;1.0;1.0;0.0;0.0;0.0;0.0;1.0;1.0;0.0;0.0;0.0;0.0;0.0;0.0;0.0;0.0;
124;124_dedd036e78209467b61c048a465b51035ad0e395-FRAGMENT.arff;BR;3.0;3.0;1.0;0.0;0.0;0.0;0.0;3.0;1.0;0.0;0.0;0.0;0.0;0.0;0.0;0.6726677577741408;0.6726677577741408;0.5444626295690126;0.5444626295690126;0.5871976723040553;0.5871976723040553;
124;124_dedd036e78209467b61c048a465b51035ad0e395-FRAGMENT.arff;LP;3.0;3.0;1.0;0.0;0.0;1.0;0.3333333333333333;2.0;0.6666666666666666;0.0;0.0;1.0;0.3333333333333333;0.0;0.0;0.4102564102564103;0.6153846153846154;0.28205128205128205;0.4230769230769231;0.3247863247863248;0.48717948717948717;
124;124_dedd036e78209467b61c048a465b51035ad0e395-FRAGMENT.arff;RAkELd;3.0;3.0;1.0;0.0;0.0;0.0;0.0;3.0;1.0;0.0;0.0;0.0;0.0;0.0;0.0;0.6726677577741408;0.6726677577741408;0.5444626295690126;0.5444626295690126;0.5871976723040553;0.5871976723040553;
125;125_c788062f4afa815da069ba62783435db249ca8f2-FRAGMENT.arff;BR;7.0;7.0;1.0;2.0;0.2857142857142857;4.0;0.5714285714285714;1.0;0.14285714285714285;0.0;0.0;6.0;0.8571428571428571;0.0;0.0;0.09338842975206611;0.4669421487603306;0.1084022038567493;0.5420110192837465;0.09311294765840221;0.46556473829201106;
125;125_c788062f4afa815da069ba62783435db249ca8f2-FRAGMENT.arff;LP;7.0;7.0;1.0;0.0;0.0;6.0;0.8571428571428571;1.0;0.14285714285714285;0.0;0.0;6.0;0.8571428571428571;0.0;0.0;0.011806375442739079;0.08264462809917356;0.005017709563164109;0.03512396694214876;0.006926406926406926;0.048484848484848485;
125;125_c788062f4afa815da069ba62783435db249ca8f2-FRAGMENT.arff;RAkELd;7.0;7.0;1.0;0.0;0.0;6.0;0.8571428571428571;1.0;0.14285714285714285;0.0;0.0;6.0;0.8571428571428571;0.0;0.0;0.0667060212514758;0.4669421487603306;0.07743014561196379;0.5420110192837465;0.06650924832743015;0.46556473829201106;
127;127_71f987e0d06152d6f802b7e861fc362403762b10-FRAGMENT.arff;BR;44.0;44.0;1.0;4.0;0.09090909090909091;5.0;0.11363636363636363;35.0;0.7954545454545454;13.0;0.29545454545454547;9.0;0.20454545454545456;0.0;0.0;0.7316470618110955;0.836168070641252;0.3550424411388454;0.40576278987296616;0.44557551118417466;0.5092291556390567;
127;127_71f987e0d06152d6f802b7e861fc362403762b10-FRAGMENT.arff;LP;44.0;44.0;1.0;0.0;0.0;5.0;0.11363636363636363;39.0;0.8863636363636364;16.0;0.36363636363636365;5.0;0.11363636363636363;0.0;0.0;0.8022431028780748;0.9050947827342382;0.34040546630638296;0.3840471927559192;0.45113419189628434;0.5089719088060644;
127;127_71f987e0d06152d6f802b7e861fc362403762b10-FRAGMENT.arff;RAkELd;44.0;44.0;1.0;8.0;0.18181818181818182;4.0;0.09090909090909091;32.0;0.7272727272727273;12.0;0.2727272727272727;12.0;0.2727272727272727;0.0;0.0;0.7293988522230537;0.8205737087509354;0.3306606525556711;0.37199323412513;0.4220537638530519;0.47481048433468337;
128;128_427e104c2d7f815f2f303213cf610fe8bd245c72-FRAGMENT.arff;BR;8.0;8.0;1.0;1.0;0.125;0.0;0.0;7.0;0.875;3.0;0.375;1.0;0.125;0.0;0.0;0.908469387755102;0.908469387755102;0.6507142857142857;0.6507142857142857;0.7366326530612245;0.7366326530612245;
128;128_427e104c2d7f815f2f303213cf610fe8bd245c72-FRAGMENT.arff;LP;8.0;8.0;1.0;0.0;0.0;0.0;0.0;8.0;1.0;3.0;0.375;0.0;0.0;0.0;0.0;0.911577380952381;0.911577380952381;0.6860416666666667;0.6860416666666667;0.7612202380952381;0.7612202380952381;
128;128_427e104c2d7f815f2f303213cf610fe8bd245c72-FRAGMENT.arff;RAkELd;8.0;8.0;1.0;1.0;0.125;0.0;0.0;7.0;0.875;3.0;0.375;1.0;0.125;0.0;0.0;0.908469387755102;0.908469387755102;0.6507142857142857;0.6507142857142857;0.7366326530612245;0.7366326530612245;
131;131_2c66a92ba29d45f4f4db2c90d440f4e7a1d10f08-FRAGMENT.arff;BR;126.0;126.0;1.0;11.0;0.0873015873015873;10.0;0.07936507936507936;105.0;0.8333333333333334;20.0;0.15873015873015872;21.0;0.16666666666666666;0.0;0.0;0.6112467190219724;0.6694606922621602;0.3620880386441212;0.39657261375308517;0.40963220488911367;0.448644795830934;
131;131_2c66a92ba29d45f4f4db2c90d440f4e7a1d10f08-FRAGMENT.arff;LP;126.0;126.0;1.0;0.0;0.0;27.0;0.21428571428571427;99.0;0.7857142857142857;25.0;0.1984126984126984;27.0;0.21428571428571427;2.0;0.015873015873015872;0.6449075071474851;0.8207913727331628;0.32078123455810414;0.4082670258012234;0.40279946261403277;0.5126538615087689;
131;131_2c66a92ba29d45f4f4db2c90d440f4e7a1d10f08-FRAGMENT.arff;RAkELd;126.0;126.0;1.0;17.0;0.1349206349206349;10.0;0.07936507936507936;99.0;0.7857142857142857;24.0;0.19047619047619047;27.0;0.21428571428571427;0.0;0.0;0.6742934316666122;0.7424038793097043;0.3749040986127126;0.4127731994826836;0.43797859150134044;0.48221885326915265;
139;139_b893fc56df181c0bd90303135564c28b90f3fb4d-FRAGMENT.arff;BR;8.0;8.0;1.0;0.0;0.0;7.0;0.875;1.0;0.125;0.0;0.0;7.0;0.875;0.0;0.0;0.058333333333333334;0.4666666666666667;0.11666666666666667;0.9333333333333333;0.07777777777777777;0.6222222222222221;
139;139_b893fc56df181c0bd90303135564c28b90f3fb4d-FRAGMENT.arff;LP;8.0;8.0;1.0;0.0;0.0;0.0;0.0;8.0;1.0;5.0;0.625;0.0;0.0;5.0;0.625;0.955952380952381;0.955952380952381;0.9113095238095238;0.9113095238095238;0.9261904761904762;0.9261904761904762;
139;139_b893fc56df181c0bd90303135564c28b90f3fb4d-FRAGMENT.arff;RAkELd;8.0;8.0;1.0;1.0;0.125;5.0;0.625;2.0;0.25;0.0;0.0;6.0;0.75;0.0;0.0;0.12789115646258503;0.4476190476190476;0.25578231292517006;0.8952380952380952;0.17052154195011335;0.5968253968253967;
141;141_5abbfbed6ab735ca92637637c76a4c3fe558eb42-FRAGMENT.arff;BR;8.0;8.0;1.0;2.0;0.25;1.0;0.125;5.0;0.625;0.0;0.0;3.0;0.375;0.0;0.0;0.5482128982128982;0.6578554778554778;0.4818958818958819;0.5782750582750583;0.49231657231657233;0.5907798867798868;
141;141_5abbfbed6ab735ca92637637c76a4c3fe558eb42-FRAGMENT.arff;LP;8.0;8.0;1.0;0.0;0.0;1.0;0.125;7.0;0.875;0.0;0.0;1.0;0.125;0.0;0.0;0.6487179487179487;0.7413919413919414;0.48044871794871796;0.5490842490842491;0.5388461538461539;0.6158241758241758;
141;141_5abbfbed6ab735ca92637637c76a4c3fe558eb42-FRAGMENT.arff;RAkELd;8.0;8.0;1.0;3.0;0.375;0.0;0.0;5.0;0.625;0.0;0.0;3.0;0.375;0.0;0.0;0.8311888111888113;0.8311888111888113;0.5782750582750583;0.5782750582750583;0.6684941724941724;0.6684941724941724;
142;142_fea98ef906bd11fc42f3f0d272fd76015496201c-FRAGMENT.arff;BR;24.0;24.0;1.0;1.0;0.041666666666666664;6.0;0.25;17.0;0.7083333333333334;10.0;0.4166666666666667;7.0;0.2916666666666667;0.0;0.0;0.6159495149119655;0.8333434613514827;0.38660099964447786;0.5230484112837054;0.45961583651306975;0.6218331905765061;
142;142_fea98ef906bd11fc42f3f0d272fd76015496201c-FRAGMENT.arff;LP;24.0;24.0;1.0;0.0;0.0;5.0;0.20833333333333334;19.0;0.7916666666666666;15.0;0.625;5.0;0.20833333333333334;0.0;0.0;0.7575111914600551;0.9568562418442802;0.40886513178179845;0.5164612190927981;0.5115828216396398;0.6462098799658608;
142;142_fea98ef906bd11fc42f3f0d272fd76015496201c-FRAGMENT.arff;RAkELd;24.0;24.0;1.0;0.0;0.0;6.0;0.25;18.0;0.75;11.0;0.4583333333333333;6.0;0.25;0.0;0.0;0.6319516184573003;0.842602157943067;0.39497624289290956;0.5266349905238794;0.4692044928976747;0.6256059905302329;
143;143_e23e91c882cbfb52f47f5617e621459350f3fe38-FRAGMENT.arff;BR;3.0;3.0;1.0;0.0;0.0;3.0;1.0;0.0;0.0;0.0;0.0;3.0;1.0;0.0;0.0;0.0;0.0;0.0;0.0;0.0;0.0;
143;143_e23e91c882cbfb52f47f5617e621459350f3fe38-FRAGMENT.arff;LP;3.0;3.0;1.0;0.0;0.0;0.0;0.0;3.0;1.0;0.0;0.0;0.0;0.0;0.0;0.0;0.7692307692307692;0.7692307692307692;0.6666666666666666;0.6666666666666666;0.7008547008547009;0.7008547008547009;
143;143_e23e91c882cbfb52f47f5617e621459350f3fe38-FRAGMENT.arff;RAkELd;3.0;3.0;1.0;0.0;0.0;3.0;1.0;0.0;0.0;0.0;0.0;3.0;1.0;0.0;0.0;0.0;0.0;0.0;0.0;0.0;0.0;
145;145_9e32bb6b85d9eb129437616a3ae3021865b76d56-FRAGMENT.arff;BR;6.0;6.0;1.0;3.0;0.5;2.0;0.3333333333333333;1.0;0.16666666666666666;1.0;0.16666666666666666;5.0;0.8333333333333334;0.0;0.0;0.3333333333333333;1.0;0.1111111111111111;0.3333333333333333;0.16666666666666666;0.5;
145;145_9e32bb6b85d9eb129437616a3ae3021865b76d56-FRAGMENT.arff;LP;6.0;6.0;1.0;0.0;0.0;2.0;0.3333333333333333;4.0;0.6666666666666666;2.0;0.3333333333333333;2.0;0.3333333333333333;1.0;0.16666666666666666;0.576923076923077;0.8653846153846154;0.5149572649572649;0.7724358974358974;0.5393162393162393;0.808974358974359;
145;145_9e32bb6b85d9eb129437616a3ae3021865b76d56-FRAGMENT.arff;RAkELd;6.0;6.0;1.0;0.0;0.0;3.0;0.5;3.0;0.5;2.0;0.3333333333333333;3.0;0.5;1.0;0.16666666666666666;0.3461538461538461;0.6923076923076922;0.22863247863247863;0.45726495726495725;0.25854700854700857;0.5170940170940171;
146;146_91177058a0f52c25b501205a628e1f1e68b868d6-FRAGMENT.arff;BR;11.0;11.0;1.0;5.0;0.45454545454545453;1.0;0.09090909090909091;5.0;0.45454545454545453;3.0;0.2727272727272727;6.0;0.5454545454545454;3.0;0.2727272727272727;0.8048941798941799;0.9658730158730158;0.7453703703703703;0.8944444444444445;0.7652116402116401;0.9182539682539682;
146;146_91177058a0f52c25b501205a628e1f1e68b868d6-FRAGMENT.arff;LP;11.0;11.0;1.0;0.0;0.0;2.0;0.18181818181818182;9.0;0.8181818181818182;4.0;0.36363636363636365;2.0;0.18181818181818182;4.0;0.36363636363636365;0.7457182211727666;0.9114333814333815;0.6565840220385675;0.8024915824915825;0.6862954217499673;0.8388055154721822;
146;146_91177058a0f52c25b501205a628e1f1e68b868d6-FRAGMENT.arff;RAkELd;11.0;11.0;1.0;1.0;0.09090909090909091;2.0;0.18181818181818182;8.0;0.7272727272727273;3.0;0.2727272727272727;3.0;0.2727272727272727;4.0;0.36363636363636365;0.6845757575757576;0.855719696969697;0.6722424242424243;0.8403030303030303;0.6596868686868687;0.8246085858585859;
147;147_01955f4f4df4579405a8bb1868f60af30e9a028b-FRAGMENT.arff;BR;4.0;4.0;1.0;1.0;0.25;0.0;0.0;3.0;0.75;2.0;0.5;1.0;0.25;1.0;0.25;0.9777777777777779;0.9777777777777779;0.7849206349206349;0.7849206349206349;0.8492063492063492;0.8492063492063492;
147;147_01955f4f4df4579405a8bb1868f60af30e9a028b-FRAGMENT.arff;LP;4.0;4.0;1.0;0.0;0.0;0.0;0.0;4.0;1.0;2.0;0.5;0.0;0.0;1.0;0.25;0.9166666666666666;0.9166666666666666;0.6886904761904762;0.6886904761904762;0.7646825396825396;0.7646825396825396;
147;147_01955f4f4df4579405a8bb1868f60af30e9a028b-FRAGMENT.arff;RAkELd;4.0;4.0;1.0;1.0;0.25;0.0;0.0;3.0;0.75;2.0;0.5;1.0;0.25;1.0;0.25;0.9777777777777779;0.9777777777777779;0.7849206349206349;0.7849206349206349;0.8492063492063492;0.8492063492063492;
148;148_4cfd7fef412fb7e2bfb4e4cf6800400783e88901-FRAGMENT.arff;BR;7.0;7.0;1.0;0.0;0.0;0.0;0.0;7.0;1.0;1.0;0.14285714285714285;0.0;0.0;1.0;0.14285714285714285;0.8991590678824721;0.8991590678824721;0.7579685916919959;0.7579685916919959;0.805032083755488;0.805032083755488;
148;148_4cfd7fef412fb7e2bfb4e4cf6800400783e88901-FRAGMENT.arff;LP;7.0;7.0;1.0;0.0;0.0;0.0;0.0;7.0;1.0;1.0;0.14285714285714285;0.0;0.0;1.0;0.14285714285714285;0.8991590678824721;0.8991590678824721;0.7579685916919959;0.7579685916919959;0.805032083755488;0.805032083755488;
148;148_4cfd7fef412fb7e2bfb4e4cf6800400783e88901-FRAGMENT.arff;RAkELd;7.0;7.0;1.0;0.0;0.0;0.0;0.0;7.0;1.0;1.0;0.14285714285714285;0.0;0.0;1.0;0.14285714285714285;0.8991590678824721;0.8991590678824721;0.7579685916919959;0.7579685916919959;0.805032083755488;0.805032083755488;
151;151_87ad682eace7ceb5bc0034546f74f5be3a058ca9-FRAGMENT.arff;BR;124.0;124.0;1.0;14.0;0.11290322580645161;6.0;0.04838709677419355;104.0;0.8387096774193549;23.0;0.18548387096774194;20.0;0.16129032258064516;1.0;0.008064516129032258;0.7729253339655188;0.8175171801558372;0.39760194400342164;0.4205405176959267;0.48827959303479335;0.5164495695560315;
151;151_87ad682eace7ceb5bc0034546f74f5be3a058ca9-FRAGMENT.arff;LP;124.0;124.0;1.0;0.0;0.0;20.0;0.16129032258064516;104.0;0.8387096774193549;19.0;0.1532258064516129;20.0;0.16129032258064516;0.0;0.0;0.6664430760737804;0.7946052060879689;0.3126484100470129;0.3727731042868231;0.4033279030492192;0.48089096132791526;
151;151_87ad682eace7ceb5bc0034546f74f5be3a058ca9-FRAGMENT.arff;RAkELd;124.0;124.0;1.0;17.0;0.13709677419354838;6.0;0.04838709677419355;101.0;0.8145161290322581;31.0;0.25;23.0;0.18548387096774194;0.0;0.0;0.7817460510378422;0.8281864105054367;0.37435156915466083;0.3965902762331555;0.47555619344504957;0.5038070564219832;
152;152_78a952ea672d71661caa3de4b643979e5c1d96db-FRAGMENT.arff;BR;137.0;137.0;1.0;21.0;0.15328467153284672;8.0;0.058394160583941604;108.0;0.7883211678832117;31.0;0.22627737226277372;29.0;0.2116788321167883;0.0;0.0;0.7826959373443557;0.8406734141846783;0.36564829513648633;0.39273335403548537;0.4672617909249841;0.5018737754379459;
152;152_78a952ea672d71661caa3de4b643979e5c1d96db-FRAGMENT.arff;LP;137.0;137.0;1.0;0.0;0.0;14.0;0.10218978102189781;123.0;0.8978102189781022;28.0;0.20437956204379562;14.0;0.10218978102189781;0.0;0.0;0.7285494739653283;0.8114738043353658;0.33142360866661214;0.3691466210351696;0.4317080167266682;0.480845514565476;
152;152_78a952ea672d71661caa3de4b643979e5c1d96db-FRAGMENT.arff;RAkELd;137.0;137.0;1.0;13.0;0.0948905109489051;12.0;0.08759124087591241;112.0;0.8175182481751825;25.0;0.18248175182481752;25.0;0.18248175182481752;0.0;0.0;0.7078065700326269;0.7836429882504083;0.38040609295303063;0.4211638886265696;0.4565157255486302;0.5054281247145548;
153;153_935ceeb6394c6f854d84fbfe7502dae01b6f8367-FRAGMENT.arff;BR;163.0;163.0;1.0;17.0;0.10429447852760736;18.0;0.11042944785276074;128.0;0.7852760736196319;59.0;0.3619631901840491;35.0;0.2147239263803681;0.0;0.0;0.7977771819562218;0.9099645981688155;0.36963455596553135;0.4216144153981842;0.4800901193295696;0.5476027923602903;
153;153_935ceeb6394c6f854d84fbfe7502dae01b6f8367-FRAGMENT.arff;LP;163.0;163.0;1.0;0.0;0.0;23.0;0.1411042944785276;140.0;0.8588957055214724;53.0;0.32515337423312884;23.0;0.1411042944785276;0.0;0.0;0.744362914941638;0.8666511081106214;0.3604514057882409;0.41966842245345193;0.46262611801742476;0.5386289802631445;
153;153_935ceeb6394c6f854d84fbfe7502dae01b6f8367-FRAGMENT.arff;RAkELd;163.0;163.0;1.0;14.0;0.08588957055214724;16.0;0.09815950920245399;133.0;0.8159509202453987;60.0;0.36809815950920244;30.0;0.18404907975460122;0.0;0.0;0.8038330406559988;0.9005347598326603;0.3644258104528714;0.4082665094547206;0.476076771059063;0.5333491645699278;
155;155_956ca7cd27d99797b93148ef364d7fc34ac936f0-FRAGMENT.arff;BR;171.0;171.0;1.0;11.0;0.06432748538011696;22.0;0.1286549707602339;138.0;0.8070175438596491;52.0;0.30409356725146197;33.0;0.19298245614035087;0.0;0.0;0.7186583727655182;0.8332270988585718;0.3424344611839726;0.397025462242287;0.4429107794577655;0.5135197442988586;
155;155_956ca7cd27d99797b93148ef364d7fc34ac936f0-FRAGMENT.arff;LP;171.0;171.0;1.0;0.0;0.0;29.0;0.1695906432748538;142.0;0.8304093567251462;51.0;0.2982456140350877;29.0;0.1695906432748538;0.0;0.0;0.6967333058375592;0.8390239105508636;0.3070769552397956;0.36978985454933133;0.4093127626795027;0.4929048057619363;
155;155_956ca7cd27d99797b93148ef364d7fc34ac936f0-FRAGMENT.arff;RAkELd;171.0;171.0;1.0;9.0;0.05263157894736842;25.0;0.14619883040935672;137.0;0.8011695906432749;48.0;0.2807017543859649;34.0;0.19883040935672514;0.0;0.0;0.6875552471448412;0.8130215331201772;0.32231763853430045;0.38113472585807795;0.41146649549571046;0.4865516224109861;
156;156_0125cdcf18ce905b5de6cc0f490c93da1df1d1fc-FRAGMENT.arff;BR;1.0;1.0;1.0;0.0;0.0;0.0;0.0;1.0;1.0;0.0;0.0;0.0;0.0;0.0;0.0;0.6923076923076923;0.6923076923076923;0.6923076923076923;0.6923076923076923;0.6923076923076923;0.6923076923076923;
156;156_0125cdcf18ce905b5de6cc0f490c93da1df1d1fc-FRAGMENT.arff;LP;1.0;1.0;1.0;0.0;0.0;1.0;1.0;0.0;0.0;0.0;0.0;1.0;1.0;0.0;0.0;0.0;0.0;0.0;0.0;0.0;0.0;
156;156_0125cdcf18ce905b5de6cc0f490c93da1df1d1fc-FRAGMENT.arff;RAkELd;1.0;1.0;1.0;0.0;0.0;0.0;0.0;1.0;1.0;0.0;0.0;0.0;0.0;0.0;0.0;0.6923076923076923;0.6923076923076923;0.6923076923076923;0.6923076923076923;0.6923076923076923;0.6923076923076923;
157;157_eca6766f586b0a38da97c6b21e4d4838e847c006-FRAGMENT.arff;BR;4.0;4.0;1.0;1.0;0.25;0.0;0.0;3.0;0.75;0.0;0.0;1.0;0.25;0.0;0.0;0.8301587301587302;0.8301587301587302;0.580952380952381;0.580952380952381;0.6640211640211641;0.6640211640211641;
157;157_eca6766f586b0a38da97c6b21e4d4838e847c006-FRAGMENT.arff;LP;4.0;4.0;1.0;0.0;0.0;0.0;0.0;4.0;1.0;0.0;0.0;0.0;0.0;0.0;0.0;0.8369047619047619;0.8369047619047619;0.5607142857142857;0.5607142857142857;0.6527777777777777;0.6527777777777777;
157;157_eca6766f586b0a38da97c6b21e4d4838e847c006-FRAGMENT.arff;RAkELd;4.0;4.0;1.0;0.0;0.0;0.0;0.0;4.0;1.0;0.0;0.0;0.0;0.0;0.0;0.0;0.8369047619047619;0.8369047619047619;0.5607142857142857;0.5607142857142857;0.6527777777777777;0.6527777777777777;
158;158_b7261cb7d2fe73e24b9b2651e1070132de77bda2-FRAGMENT.arff;BR;9.0;9.0;1.0;3.0;0.3333333333333333;2.0;0.2222222222222222;4.0;0.4444444444444444;1.0;0.1111111111111111;5.0;0.5555555555555556;0.0;0.0;0.4230769230769231;0.6346153846153846;0.2579059829059829;0.3868589743589743;0.30914529914529915;0.4637179487179487;
158;158_b7261cb7d2fe73e24b9b2651e1070132de77bda2-FRAGMENT.arff;LP;9.0;9.0;1.0;0.0;0.0;6.0;0.6666666666666666;3.0;0.3333333333333333;2.0;0.2222222222222222;6.0;0.6666666666666666;1.0;0.1111111111111111;0.2991452991452992;0.8974358974358975;0.2232193732193732;0.6696581196581196;0.2484900284900285;0.7454700854700854;
158;158_b7261cb7d2fe73e24b9b2651e1070132de77bda2-FRAGMENT.arff;RAkELd;9.0;9.0;1.0;2.0;0.2222222222222222;3.0;0.3333333333333333;4.0;0.4444444444444444;1.0;0.1111111111111111;5.0;0.5555555555555556;0.0;0.0;0.31318681318681324;0.5480769230769231;0.22106227106227103;0.3868589743589743;0.24776556776556774;0.43358974358974356;
