commit;DataSet;Classifier;TotalInstances;InstancesWithRankedLabels;PercentageOfInstancesWithRankedLabels;InstancesWithPrecisionNull;PercentageOfInstancesWithPrecisionNull;InstancesWithPrecisionZero;PercentageOfInstancesWithPrecisionZero;InstancesWithPrecisionNonZero;PercentageOfInstancesWithPrecisionNonZero;InstancesWithPrecisionOne;PercentageOfInstancesWithPrecisionOne;InstancesWithRecallZero;PercentageOfInstancesWithRecallZero;InstancesWithRecallOne;PercentageOfInstancesWithRecallOne;AveragePrecisionForAllNonNullPrecision;AveragePrecisionForNonZeroPrecision;AverageRecallForAllNonNullPrecision;AverageRecallForAllNonZeroPrecision;AverageFScoreForAllNonNullPrecision;AverageFScoreForAllNonZeroPrecision;
7;7_7a7c87aedb9974d4b1f84ca4ab80dba640d0e0d4-LOC.arff;BR;6.0;6.0;1.0;6.0;1.0;0.0;0.0;0.0;0.0;0.0;0.0;6.0;1.0;0.0;0.0;0.0;0.0;0.0;0.0;0.0;0.0;
7;7_7a7c87aedb9974d4b1f84ca4ab80dba640d0e0d4-LOC.arff;LP;6.0;6.0;1.0;0.0;0.0;6.0;1.0;0.0;0.0;0.0;0.0;6.0;1.0;0.0;0.0;0.0;0.0;0.0;0.0;0.0;0.0;
7;7_7a7c87aedb9974d4b1f84ca4ab80dba640d0e0d4-LOC.arff;RAkELd;6.0;6.0;1.0;6.0;1.0;0.0;0.0;0.0;0.0;0.0;0.0;6.0;1.0;0.0;0.0;0.0;0.0;0.0;0.0;0.0;0.0;
11;11_9bf8b2fda3eb5feee5a8fa644dd2a559fea95fc5-LOC.arff;BR;14.0;14.0;1.0;14.0;1.0;0.0;0.0;0.0;0.0;0.0;0.0;14.0;1.0;0.0;0.0;0.0;0.0;0.0;0.0;0.0;0.0;
11;11_9bf8b2fda3eb5feee5a8fa644dd2a559fea95fc5-LOC.arff;LP;14.0;14.0;1.0;0.0;0.0;14.0;1.0;0.0;0.0;0.0;0.0;14.0;1.0;0.0;0.0;0.0;0.0;0.0;0.0;0.0;0.0;
11;11_9bf8b2fda3eb5feee5a8fa644dd2a559fea95fc5-LOC.arff;RAkELd;14.0;14.0;1.0;14.0;1.0;0.0;0.0;0.0;0.0;0.0;0.0;14.0;1.0;0.0;0.0;0.0;0.0;0.0;0.0;0.0;0.0;
17;17_da3e20a4618706b4fefe6668860120973f261174-LOC.arff;BR;2.0;2.0;1.0;0.0;0.0;1.0;0.5;1.0;0.5;0.0;0.0;1.0;0.5;1.0;0.5;0.25;0.5;0.5;1.0;0.3333333333333333;0.6666666666666666;
17;17_da3e20a4618706b4fefe6668860120973f261174-LOC.arff;LP;2.0;2.0;1.0;0.0;0.0;2.0;1.0;0.0;0.0;0.0;0.0;2.0;1.0;0.0;0.0;0.0;0.0;0.0;0.0;0.0;0.0;
17;17_da3e20a4618706b4fefe6668860120973f261174-LOC.arff;RAkELd;2.0;2.0;1.0;0.0;0.0;1.0;0.5;1.0;0.5;0.0;0.0;1.0;0.5;1.0;0.5;0.25;0.5;0.5;1.0;0.3333333333333333;0.6666666666666666;
18;18_f9744676f5fc2b1cd17e1d529e834a1aa25baedb-LOC.arff;BR;2.0;2.0;1.0;1.0;0.5;0.0;0.0;1.0;0.5;1.0;0.5;1.0;0.5;1.0;0.5;1.0;1.0;1.0;1.0;1.0;1.0;
18;18_f9744676f5fc2b1cd17e1d529e834a1aa25baedb-LOC.arff;LP;2.0;2.0;1.0;0.0;0.0;0.0;0.0;2.0;1.0;2.0;1.0;0.0;0.0;2.0;1.0;1.0;1.0;1.0;1.0;1.0;1.0;
18;18_f9744676f5fc2b1cd17e1d529e834a1aa25baedb-LOC.arff;RAkELd;2.0;2.0;1.0;1.0;0.5;0.0;0.0;1.0;0.5;1.0;0.5;1.0;0.5;1.0;0.5;1.0;1.0;1.0;1.0;1.0;1.0;
20;20_efa08edd831faabee1ca5dae56561504f1435e16-LOC.arff;BR;36.0;36.0;1.0;36.0;1.0;0.0;0.0;0.0;0.0;0.0;0.0;36.0;1.0;0.0;0.0;0.0;0.0;0.0;0.0;0.0;0.0;
20;20_efa08edd831faabee1ca5dae56561504f1435e16-LOC.arff;LP;36.0;36.0;1.0;0.0;0.0;34.0;0.9444444444444444;2.0;0.05555555555555555;2.0;0.05555555555555555;34.0;0.9444444444444444;2.0;0.05555555555555555;0.05555555555555555;1.0;0.05555555555555555;1.0;0.05555555555555555;1.0;
20;20_efa08edd831faabee1ca5dae56561504f1435e16-LOC.arff;RAkELd;36.0;36.0;1.0;0.0;0.0;33.0;0.9166666666666666;3.0;0.08333333333333333;2.0;0.05555555555555555;33.0;0.9166666666666666;1.0;0.027777777777777776;0.06944444444444445;0.8333333333333334;0.05555555555555555;0.6666666666666666;0.05555555555555555;0.6666666666666666;
24;24_d8b4a77b6f37179a265b120bdfbd8c44f7e66b80-LOC.arff;BR;26.0;26.0;1.0;5.0;0.19230769230769232;8.0;0.3076923076923077;13.0;0.5;13.0;0.5;13.0;0.5;11.0;0.4230769230769231;0.6190476190476191;1.0;0.5714285714285714;0.9230769230769231;0.5873015873015873;0.9487179487179488;
24;24_d8b4a77b6f37179a265b120bdfbd8c44f7e66b80-LOC.arff;LP;26.0;26.0;1.0;0.0;0.0;10.0;0.38461538461538464;16.0;0.6153846153846154;16.0;0.6153846153846154;10.0;0.38461538461538464;12.0;0.46153846153846156;0.6153846153846154;1.0;0.5384615384615384;0.875;0.5641025641025641;0.9166666666666666;
24;24_d8b4a77b6f37179a265b120bdfbd8c44f7e66b80-LOC.arff;RAkELd;26.0;26.0;1.0;5.0;0.19230769230769232;8.0;0.3076923076923077;13.0;0.5;13.0;0.5;13.0;0.5;11.0;0.4230769230769231;0.6190476190476191;1.0;0.5714285714285714;0.9230769230769231;0.5873015873015873;0.9487179487179488;
29;29_4e2d4bf3ba8d393c0161924911a21570ba25d7a0-LOC.arff;BR;23.0;23.0;1.0;0.0;0.0;8.0;0.34782608695652173;15.0;0.6521739130434783;0.0;0.0;8.0;0.34782608695652173;0.0;0.0;0.32608695652173914;0.5;0.2717391304347826;0.4166666666666667;0.2927536231884058;0.4488888888888889;
29;29_4e2d4bf3ba8d393c0161924911a21570ba25d7a0-LOC.arff;LP;23.0;23.0;1.0;0.0;0.0;23.0;1.0;0.0;0.0;0.0;0.0;23.0;1.0;0.0;0.0;0.0;0.0;0.0;0.0;0.0;0.0;
29;29_4e2d4bf3ba8d393c0161924911a21570ba25d7a0-LOC.arff;RAkELd;23.0;23.0;1.0;0.0;0.0;5.0;0.21739130434782608;18.0;0.782608695652174;0.0;0.0;5.0;0.21739130434782608;1.0;0.043478260869565216;0.28985507246376807;0.37037037037037035;0.3768115942028985;0.48148148148148145;0.3190476190476191;0.4076719576719577;
30;30_ab8d7e7e99dce24a5499641314192b64a62bd045-LOC.arff;BR;95.0;95.0;1.0;0.0;0.0;9.0;0.09473684210526316;86.0;0.9052631578947369;8.0;0.08421052631578947;9.0;0.09473684210526316;19.0;0.2;0.46842105263157896;0.5174418604651163;0.5229824561403509;0.5777131782945736;0.4662155388471178;0.5150055370985603;
30;30_ab8d7e7e99dce24a5499641314192b64a62bd045-LOC.arff;LP;95.0;95.0;1.0;0.0;0.0;29.0;0.30526315789473685;66.0;0.6947368421052632;44.0;0.4631578947368421;29.0;0.30526315789473685;32.0;0.3368421052631579;0.5894736842105263;0.8484848484848485;0.5398245614035088;0.7770202020202019;0.5464661654135339;0.7865800865800866;
30;30_ab8d7e7e99dce24a5499641314192b64a62bd045-LOC.arff;RAkELd;95.0;95.0;1.0;0.0;0.0;30.0;0.3157894736842105;65.0;0.6842105263157895;51.0;0.5368421052631579;30.0;0.3157894736842105;0.0;0.0;0.6105263157894737;0.8923076923076924;0.28087719298245617;0.4105128205128205;0.371578947368421;0.543076923076923;
31;31_746ef129fab6c2ec90fa3356a637c38e7aa460a7-LOC.arff;BR;97.0;97.0;1.0;8.0;0.08247422680412371;38.0;0.3917525773195876;51.0;0.5257731958762887;43.0;0.44329896907216493;46.0;0.4742268041237113;18.0;0.18556701030927836;0.5280898876404494;0.9215686274509803;0.39925093632958797;0.6967320261437908;0.4439807383627608;0.7747899159663865;
31;31_746ef129fab6c2ec90fa3356a637c38e7aa460a7-LOC.arff;LP;97.0;97.0;1.0;0.0;0.0;46.0;0.4742268041237113;51.0;0.5257731958762887;42.0;0.4329896907216495;46.0;0.4742268041237113;18.0;0.18556701030927836;0.4793814432989691;0.9117647058823529;0.3731958762886598;0.7098039215686275;0.4128620520373098;0.7852474323062559;
31;31_746ef129fab6c2ec90fa3356a637c38e7aa460a7-LOC.arff;RAkELd;97.0;97.0;1.0;8.0;0.08247422680412371;38.0;0.3917525773195876;51.0;0.5257731958762887;43.0;0.44329896907216493;46.0;0.4742268041237113;18.0;0.18556701030927836;0.5280898876404494;0.9215686274509803;0.4067415730337079;0.7098039215686275;0.4507223113964687;0.7865546218487395;
37;37_a6f39393b82fcb801d316dedd94a191091db6ad5-LOC.arff;BR;48.0;48.0;1.0;0.0;0.0;32.0;0.6666666666666666;16.0;0.3333333333333333;16.0;0.3333333333333333;32.0;0.6666666666666666;12.0;0.25;0.3333333333333333;1.0;0.2916666666666667;0.875;0.3055555555555555;0.9166666666666666;
37;37_a6f39393b82fcb801d316dedd94a191091db6ad5-LOC.arff;LP;48.0;48.0;1.0;0.0;0.0;1.0;0.020833333333333332;47.0;0.9791666666666666;47.0;0.9791666666666666;1.0;0.020833333333333332;43.0;0.8958333333333334;0.9791666666666666;1.0;0.9375;0.9574468085106383;0.9513888888888888;0.9716312056737588;
37;37_a6f39393b82fcb801d316dedd94a191091db6ad5-LOC.arff;RAkELd;48.0;48.0;1.0;0.0;0.0;33.0;0.6875;15.0;0.3125;15.0;0.3125;33.0;0.6875;12.0;0.25;0.3125;1.0;0.28125;0.9;0.2916666666666667;0.9333333333333333;
39;39_8b1f7e8cf42523fa177eef78cae189393d8909bb-LOC.arff;BR;16.0;16.0;1.0;0.0;0.0;0.0;0.0;16.0;1.0;16.0;1.0;0.0;0.0;12.0;0.75;1.0;1.0;0.875;0.875;0.9166666666666666;0.9166666666666666;
39;39_8b1f7e8cf42523fa177eef78cae189393d8909bb-LOC.arff;LP;16.0;16.0;1.0;0.0;0.0;0.0;0.0;16.0;1.0;16.0;1.0;0.0;0.0;12.0;0.75;1.0;1.0;0.875;0.875;0.9166666666666666;0.9166666666666666;
39;39_8b1f7e8cf42523fa177eef78cae189393d8909bb-LOC.arff;RAkELd;16.0;16.0;1.0;0.0;0.0;0.0;0.0;16.0;1.0;16.0;1.0;0.0;0.0;12.0;0.75;1.0;1.0;0.875;0.875;0.9166666666666666;0.9166666666666666;
40;40_4a99f9ffea0f6f9a7ef3305190a689b6fc50926a-LOC.arff;BR;16.0;16.0;1.0;0.0;0.0;0.0;0.0;16.0;1.0;15.0;0.9375;0.0;0.0;15.0;0.9375;0.96875;0.96875;0.96875;0.96875;0.9583333333333334;0.9583333333333334;
40;40_4a99f9ffea0f6f9a7ef3305190a689b6fc50926a-LOC.arff;LP;16.0;16.0;1.0;0.0;0.0;0.0;0.0;16.0;1.0;15.0;0.9375;0.0;0.0;15.0;0.9375;0.96875;0.96875;0.96875;0.96875;0.9583333333333334;0.9583333333333334;
40;40_4a99f9ffea0f6f9a7ef3305190a689b6fc50926a-LOC.arff;RAkELd;16.0;16.0;1.0;0.0;0.0;0.0;0.0;16.0;1.0;15.0;0.9375;0.0;0.0;15.0;0.9375;0.96875;0.96875;0.96875;0.96875;0.9583333333333334;0.9583333333333334;
46;46_0b8dd9dc6033b1155378977f10d881b602c0425e-LOC.arff;BR;37.0;37.0;1.0;17.0;0.4594594594594595;14.0;0.3783783783783784;6.0;0.16216216216216217;5.0;0.13513513513513514;31.0;0.8378378378378378;0.0;0.0;0.275;0.9166666666666666;0.12666666666666665;0.4222222222222222;0.17238095238095238;0.5746031746031747;
46;46_0b8dd9dc6033b1155378977f10d881b602c0425e-LOC.arff;LP;37.0;37.0;1.0;0.0;0.0;31.0;0.8378378378378378;6.0;0.16216216216216217;5.0;0.13513513513513514;31.0;0.8378378378378378;0.0;0.0;0.14864864864864866;0.9166666666666666;0.06846846846846846;0.4222222222222222;0.09317889317889319;0.5746031746031747;
46;46_0b8dd9dc6033b1155378977f10d881b602c0425e-LOC.arff;RAkELd;37.0;37.0;1.0;17.0;0.4594594594594595;14.0;0.3783783783783784;6.0;0.16216216216216217;6.0;0.16216216216216217;31.0;0.8378378378378378;0.0;0.0;0.3;1.0;0.07166666666666667;0.2388888888888889;0.11500000000000002;0.38333333333333336;
47;47_5cfd31e4828489d82d4bbe335865b8b993632a1b-LOC.arff;BR;3.0;3.0;1.0;0.0;0.0;3.0;1.0;0.0;0.0;0.0;0.0;3.0;1.0;0.0;0.0;0.0;0.0;0.0;0.0;0.0;0.0;
47;47_5cfd31e4828489d82d4bbe335865b8b993632a1b-LOC.arff;LP;3.0;3.0;1.0;0.0;0.0;2.0;0.6666666666666666;1.0;0.3333333333333333;1.0;0.3333333333333333;2.0;0.6666666666666666;1.0;0.3333333333333333;0.3333333333333333;1.0;0.3333333333333333;1.0;0.3333333333333333;1.0;
47;47_5cfd31e4828489d82d4bbe335865b8b993632a1b-LOC.arff;RAkELd;3.0;3.0;1.0;0.0;0.0;3.0;1.0;0.0;0.0;0.0;0.0;3.0;1.0;0.0;0.0;0.0;0.0;0.0;0.0;0.0;0.0;
48;48_794650939a51f20a13e6d97c0c87727e8ba2f47c-LOC.arff;BR;3.0;3.0;1.0;0.0;0.0;0.0;0.0;3.0;1.0;3.0;1.0;0.0;0.0;3.0;1.0;1.0;1.0;1.0;1.0;1.0;1.0;
48;48_794650939a51f20a13e6d97c0c87727e8ba2f47c-LOC.arff;LP;3.0;3.0;1.0;0.0;0.0;0.0;0.0;3.0;1.0;3.0;1.0;0.0;0.0;3.0;1.0;1.0;1.0;1.0;1.0;1.0;1.0;
48;48_794650939a51f20a13e6d97c0c87727e8ba2f47c-LOC.arff;RAkELd;3.0;3.0;1.0;0.0;0.0;0.0;0.0;3.0;1.0;3.0;1.0;0.0;0.0;3.0;1.0;1.0;1.0;1.0;1.0;1.0;1.0;
52;52_21339b2f9739c5d801601cfc2a2c997196389e69-LOC.arff;BR;28.0;28.0;1.0;28.0;1.0;0.0;0.0;0.0;0.0;0.0;0.0;28.0;1.0;0.0;0.0;0.0;0.0;0.0;0.0;0.0;0.0;
52;52_21339b2f9739c5d801601cfc2a2c997196389e69-LOC.arff;LP;28.0;28.0;1.0;0.0;0.0;0.0;0.0;28.0;1.0;24.0;0.8571428571428571;0.0;0.0;25.0;0.8928571428571429;0.9285714285714286;0.9285714285714286;0.9464285714285714;0.9464285714285714;0.9166666666666667;0.9166666666666667;
52;52_21339b2f9739c5d801601cfc2a2c997196389e69-LOC.arff;RAkELd;28.0;28.0;1.0;0.0;0.0;24.0;0.8571428571428571;4.0;0.14285714285714285;4.0;0.14285714285714285;24.0;0.8571428571428571;0.0;0.0;0.14285714285714285;1.0;0.07142857142857142;0.5;0.09523809523809523;0.6666666666666666;
53;53_3844b6bd98df06f8bcb8ca905eae8e4b83d29fd6-LOC.arff;BR;17.0;17.0;1.0;0.0;0.0;0.0;0.0;17.0;1.0;17.0;1.0;0.0;0.0;13.0;0.7647058823529411;1.0;1.0;0.8823529411764706;0.8823529411764706;0.9215686274509803;0.9215686274509803;
53;53_3844b6bd98df06f8bcb8ca905eae8e4b83d29fd6-LOC.arff;LP;17.0;17.0;1.0;0.0;0.0;0.0;0.0;17.0;1.0;17.0;1.0;0.0;0.0;13.0;0.7647058823529411;1.0;1.0;0.8823529411764706;0.8823529411764706;0.9215686274509803;0.9215686274509803;
53;53_3844b6bd98df06f8bcb8ca905eae8e4b83d29fd6-LOC.arff;RAkELd;17.0;17.0;1.0;0.0;0.0;0.0;0.0;17.0;1.0;17.0;1.0;0.0;0.0;13.0;0.7647058823529411;1.0;1.0;0.8823529411764706;0.8823529411764706;0.9215686274509803;0.9215686274509803;
54;54_f12128dcfa9a723a013f5bdbe6ee3d17099b6d71-LOC.arff;BR;84.0;84.0;1.0;7.0;0.08333333333333333;42.0;0.5;35.0;0.4166666666666667;20.0;0.23809523809523808;49.0;0.5833333333333334;7.0;0.08333333333333333;0.35714285714285715;0.7857142857142857;0.2753246753246753;0.6057142857142856;0.3049474335188621;0.6708843537414966;
54;54_f12128dcfa9a723a013f5bdbe6ee3d17099b6d71-LOC.arff;LP;84.0;84.0;1.0;0.0;0.0;66.0;0.7857142857142857;18.0;0.21428571428571427;18.0;0.21428571428571427;66.0;0.7857142857142857;13.0;0.15476190476190477;0.21428571428571427;1.0;0.18055555555555555;0.8425925925925926;0.19047619047619047;0.8888888888888888;
54;54_f12128dcfa9a723a013f5bdbe6ee3d17099b6d71-LOC.arff;RAkELd;84.0;84.0;1.0;0.0;0.0;33.0;0.39285714285714285;51.0;0.6071428571428571;24.0;0.2857142857142857;33.0;0.39285714285714285;19.0;0.2261904761904762;0.44642857142857145;0.7352941176470589;0.417063492063492;0.6869281045751634;0.411281179138322;0.6774042950513539;
55;55_cbc0de4f9ad2930d2b879b642f72e59416f9e977-LOC.arff;BR;140.0;140.0;1.0;0.0;0.0;66.0;0.4714285714285714;74.0;0.5285714285714286;0.0;0.0;66.0;0.4714285714285714;29.0;0.20714285714285716;0.24642857142857144;0.46621621621621623;0.3761904761904762;0.7117117117117117;0.2876190476190476;0.5441441441441441;
55;55_cbc0de4f9ad2930d2b879b642f72e59416f9e977-LOC.arff;LP;140.0;140.0;1.0;0.0;0.0;122.0;0.8714285714285714;18.0;0.12857142857142856;18.0;0.12857142857142856;122.0;0.8714285714285714;15.0;0.10714285714285714;0.12857142857142856;1.0;0.11785714285714285;0.9166666666666666;0.12142857142857143;0.9444444444444444;
55;55_cbc0de4f9ad2930d2b879b642f72e59416f9e977-LOC.arff;RAkELd;140.0;140.0;1.0;0.0;0.0;67.0;0.4785714285714286;73.0;0.5214285714285715;2.0;0.014285714285714285;67.0;0.4785714285714286;15.0;0.10714285714285714;0.26785714285714285;0.5136986301369864;0.2892857142857143;0.5547945205479452;0.26595238095238094;0.5100456621004567;
57;57_7f0c85eae897fbcd687f55d915507c322ceb7cae-LOC.arff;BR;101.0;101.0;1.0;0.0;0.0;22.0;0.21782178217821782;79.0;0.7821782178217822;4.0;0.039603960396039604;22.0;0.21782178217821782;42.0;0.4158415841584158;0.3217821782178218;0.41139240506329117;0.6023102310231023;0.770042194092827;0.39570957095709575;0.5059071729957806;
57;57_7f0c85eae897fbcd687f55d915507c322ceb7cae-LOC.arff;LP;101.0;101.0;1.0;0.0;0.0;76.0;0.7524752475247525;25.0;0.24752475247524752;24.0;0.2376237623762376;76.0;0.7524752475247525;19.0;0.18811881188118812;0.24158415841584158;0.976;0.2112211221122112;0.8533333333333333;0.21782178217821782;0.88;
57;57_7f0c85eae897fbcd687f55d915507c322ceb7cae-LOC.arff;RAkELd;101.0;101.0;1.0;0.0;0.0;19.0;0.18811881188118812;82.0;0.8118811881188119;4.0;0.039603960396039604;19.0;0.18811881188118812;44.0;0.43564356435643564;0.27887788778877887;0.3434959349593496;0.6254125412541254;0.7703252032520325;0.35959453088165966;0.4429152148664344;
58;58_0a3d36c57cc9defe930071eb0f3d7ac33223e116-LOC.arff;BR;128.0;128.0;1.0;0.0;0.0;51.0;0.3984375;77.0;0.6015625;1.0;0.0078125;51.0;0.3984375;46.0;0.359375;0.2884114583333333;0.4794372294372294;0.4609375;0.7662337662337663;0.334375;0.5558441558441558;
58;58_0a3d36c57cc9defe930071eb0f3d7ac33223e116-LOC.arff;LP;128.0;128.0;1.0;0.0;0.0;71.0;0.5546875;57.0;0.4453125;3.0;0.0234375;71.0;0.5546875;46.0;0.359375;0.22265625;0.5;0.3880208333333333;0.8713450292397661;0.2669270833333333;0.5994152046783625;
58;58_0a3d36c57cc9defe930071eb0f3d7ac33223e116-LOC.arff;RAkELd;128.0;128.0;1.0;0.0;0.0;71.0;0.5546875;57.0;0.4453125;26.0;0.203125;71.0;0.5546875;28.0;0.21875;0.32421875;0.7280701754385965;0.3151041666666667;0.7076023391812866;0.3065104166666667;0.6883040935672515;
59;59_d407796e499262d2063bdb8bdf556fe237daca75-LOC.arff;BR;20.0;20.0;1.0;0.0;0.0;11.0;0.55;9.0;0.45;0.0;0.0;11.0;0.55;1.0;0.05;0.24166666666666664;0.537037037037037;0.20833333333333334;0.462962962962963;0.215;0.47777777777777775;
59;59_d407796e499262d2063bdb8bdf556fe237daca75-LOC.arff;LP;20.0;20.0;1.0;0.0;0.0;15.0;0.75;5.0;0.25;4.0;0.2;15.0;0.75;1.0;0.05;0.225;0.9;0.15833333333333333;0.6333333333333333;0.18333333333333335;0.7333333333333334;
59;59_d407796e499262d2063bdb8bdf556fe237daca75-LOC.arff;RAkELd;20.0;20.0;1.0;0.0;0.0;11.0;0.55;9.0;0.45;0.0;0.0;11.0;0.55;2.0;0.1;0.2833333333333333;0.6296296296296295;0.2833333333333333;0.6296296296296297;0.2776190476190476;0.6169312169312169;
62;62_6fb26410e33b9aae4de58f33132efd09f4cd992c-LOC.arff;BR;22.0;22.0;1.0;0.0;0.0;14.0;0.6363636363636364;8.0;0.36363636363636365;0.0;0.0;14.0;0.6363636363636364;0.0;0.0;0.2121212121212121;0.5833333333333333;0.14772727272727273;0.40625;0.1735930735930736;0.4773809523809524;
62;62_6fb26410e33b9aae4de58f33132efd09f4cd992c-LOC.arff;LP;22.0;22.0;1.0;0.0;0.0;3.0;0.13636363636363635;19.0;0.8636363636363636;17.0;0.7727272727272727;3.0;0.13636363636363635;14.0;0.6363636363636364;0.7954545454545454;0.9210526315789473;0.7272727272727273;0.8421052631578947;0.7227272727272728;0.8368421052631579;
62;62_6fb26410e33b9aae4de58f33132efd09f4cd992c-LOC.arff;RAkELd;22.0;22.0;1.0;0.0;0.0;12.0;0.5454545454545454;10.0;0.45454545454545453;10.0;0.45454545454545453;12.0;0.5454545454545454;0.0;0.0;0.45454545454545453;1.0;0.24621212121212122;0.5416666666666667;0.30844155844155846;0.6785714285714286;
63;63_12dcc99d75cd3cd9d8efb7d316656e4d19bc8d52-LOC.arff;BR;25.0;25.0;1.0;7.0;0.28;7.0;0.28;11.0;0.44;11.0;0.44;14.0;0.56;0.0;0.0;0.6111111111111112;1.0;0.25925925925925924;0.4242424242424242;0.3611111111111111;0.5909090909090909;
63;63_12dcc99d75cd3cd9d8efb7d316656e4d19bc8d52-LOC.arff;LP;25.0;25.0;1.0;0.0;0.0;6.0;0.24;19.0;0.76;16.0;0.64;6.0;0.24;14.0;0.56;0.67;0.881578947368421;0.64;0.8421052631578947;0.612;0.8052631578947369;
63;63_12dcc99d75cd3cd9d8efb7d316656e4d19bc8d52-LOC.arff;RAkELd;25.0;25.0;1.0;0.0;0.0;9.0;0.36;16.0;0.64;16.0;0.64;9.0;0.36;4.0;0.16;0.64;1.0;0.41666666666666663;0.6510416666666666;0.4847619047619047;0.7574404761904762;
64;64_b33605b07445d3258df8229a1e786dc5b4ab4a06-LOC.arff;BR;70.0;70.0;1.0;0.0;0.0;48.0;0.6857142857142857;22.0;0.3142857142857143;0.0;0.0;48.0;0.6857142857142857;11.0;0.15714285714285714;0.12857142857142856;0.4090909090909091;0.2333333333333333;0.7424242424242423;0.15714285714285714;0.5;
64;64_b33605b07445d3258df8229a1e786dc5b4ab4a06-LOC.arff;LP;70.0;70.0;1.0;0.0;0.0;52.0;0.7428571428571429;18.0;0.2571428571428571;18.0;0.2571428571428571;52.0;0.7428571428571429;18.0;0.2571428571428571;0.2571428571428571;1.0;0.2571428571428571;1.0;0.2571428571428571;1.0;
64;64_b33605b07445d3258df8229a1e786dc5b4ab4a06-LOC.arff;RAkELd;70.0;70.0;1.0;25.0;0.35714285714285715;19.0;0.2714285714285714;26.0;0.37142857142857144;11.0;0.15714285714285714;44.0;0.6285714285714286;15.0;0.21428571428571427;0.37777777777777777;0.6538461538461539;0.40925925925925927;0.7083333333333334;0.3839153439153439;0.6644688644688644;
65;65_a40b2b29bb20a3c1ec25b73360d6712cdb97cd98-LOC.arff;BR;194.0;194.0;1.0;0.0;0.0;75.0;0.3865979381443299;119.0;0.6134020618556701;32.0;0.16494845360824742;75.0;0.3865979381443299;56.0;0.28865979381443296;0.38359106529209624;0.6253501400560224;0.45704467353951894;0.7450980392156863;0.397459499263623;0.6479591836734694;
65;65_a40b2b29bb20a3c1ec25b73360d6712cdb97cd98-LOC.arff;LP;194.0;194.0;1.0;0.0;0.0;79.0;0.4072164948453608;115.0;0.5927835051546392;48.0;0.24742268041237114;79.0;0.4072164948453608;75.0;0.3865979381443299;0.4097938144329897;0.691304347826087;0.49742268041237114;0.8391304347826087;0.4319833087874325;0.7287370600414078;
65;65_a40b2b29bb20a3c1ec25b73360d6712cdb97cd98-LOC.arff;RAkELd;194.0;194.0;1.0;0.0;0.0;75.0;0.3865979381443299;119.0;0.6134020618556701;43.0;0.22164948453608246;75.0;0.3865979381443299;75.0;0.3865979381443299;0.41065292096219935;0.669467787114846;0.5073024054982818;0.82703081232493;0.4374815905743741;0.7132052821128451;
68;68_e041ff570250275045c01f6d4a87b9a73f92f416-LOC.arff;BR;18.0;18.0;1.0;0.0;0.0;15.0;0.8333333333333334;3.0;0.16666666666666666;0.0;0.0;15.0;0.8333333333333334;1.0;0.05555555555555555;0.06018518518518518;0.3611111111111111;0.10185185185185185;0.611111111111111;0.07407407407407407;0.4444444444444444;
68;68_e041ff570250275045c01f6d4a87b9a73f92f416-LOC.arff;LP;18.0;18.0;1.0;0.0;0.0;11.0;0.6111111111111112;7.0;0.3888888888888889;7.0;0.3888888888888889;11.0;0.6111111111111112;5.0;0.2777777777777778;0.3888888888888889;1.0;0.3333333333333333;0.8571428571428571;0.35185185185185186;0.9047619047619048;
68;68_e041ff570250275045c01f6d4a87b9a73f92f416-LOC.arff;RAkELd;18.0;18.0;1.0;2.0;0.1111111111111111;12.0;0.6666666666666666;4.0;0.2222222222222222;2.0;0.1111111111111111;14.0;0.7777777777777778;2.0;0.1111111111111111;0.17708333333333334;0.7083333333333334;0.17708333333333334;0.7083333333333334;0.175;0.7;
69;69_5b6d5707ee06cf659ff4d3d7e71241e532fcfeb2-LOC.arff;BR;19.0;19.0;1.0;0.0;0.0;13.0;0.6842105263157895;6.0;0.3157894736842105;0.0;0.0;13.0;0.6842105263157895;6.0;0.3157894736842105;0.15789473684210525;0.5;0.3157894736842105;1.0;0.21052631578947367;0.6666666666666666;
69;69_5b6d5707ee06cf659ff4d3d7e71241e532fcfeb2-LOC.arff;LP;19.0;19.0;1.0;0.0;0.0;13.0;0.6842105263157895;6.0;0.3157894736842105;6.0;0.3157894736842105;13.0;0.6842105263157895;6.0;0.3157894736842105;0.3157894736842105;1.0;0.3157894736842105;1.0;0.3157894736842105;1.0;
69;69_5b6d5707ee06cf659ff4d3d7e71241e532fcfeb2-LOC.arff;RAkELd;19.0;19.0;1.0;0.0;0.0;19.0;1.0;0.0;0.0;0.0;0.0;19.0;1.0;0.0;0.0;0.0;0.0;0.0;0.0;0.0;0.0;
70;70_c4ade34b0c9b55328fad8c3294289e3a086aa0d2-LOC.arff;BR;19.0;19.0;1.0;0.0;0.0;0.0;0.0;19.0;1.0;18.0;0.9473684210526315;0.0;0.0;19.0;1.0;0.9736842105263158;0.9736842105263158;1.0;1.0;0.9824561403508772;0.9824561403508772;
70;70_c4ade34b0c9b55328fad8c3294289e3a086aa0d2-LOC.arff;LP;19.0;19.0;1.0;0.0;0.0;0.0;0.0;19.0;1.0;19.0;1.0;0.0;0.0;19.0;1.0;1.0;1.0;1.0;1.0;1.0;1.0;
70;70_c4ade34b0c9b55328fad8c3294289e3a086aa0d2-LOC.arff;RAkELd;19.0;19.0;1.0;0.0;0.0;0.0;0.0;19.0;1.0;19.0;1.0;0.0;0.0;19.0;1.0;1.0;1.0;1.0;1.0;1.0;1.0;
75;75_13ec2a47ff332e9c1a1c642068d26a7fae43e5cb-LOC.arff;BR;53.0;53.0;1.0;36.0;0.6792452830188679;15.0;0.2830188679245283;2.0;0.03773584905660377;2.0;0.03773584905660377;51.0;0.9622641509433962;0.0;0.0;0.11764705882352941;1.0;0.058823529411764705;0.5;0.0784313725490196;0.6666666666666666;
75;75_13ec2a47ff332e9c1a1c642068d26a7fae43e5cb-LOC.arff;LP;53.0;53.0;1.0;0.0;0.0;53.0;1.0;0.0;0.0;0.0;0.0;53.0;1.0;0.0;0.0;0.0;0.0;0.0;0.0;0.0;0.0;
75;75_13ec2a47ff332e9c1a1c642068d26a7fae43e5cb-LOC.arff;RAkELd;53.0;53.0;1.0;0.0;0.0;53.0;1.0;0.0;0.0;0.0;0.0;53.0;1.0;0.0;0.0;0.0;0.0;0.0;0.0;0.0;0.0;
76;76_3955fd03aad3b9ea6cc6e8fc5c6e421f9c90d79d-LOC.arff;BR;57.0;57.0;1.0;0.0;0.0;0.0;0.0;57.0;1.0;38.0;0.6666666666666666;0.0;0.0;50.0;0.8771929824561403;0.827485380116959;0.827485380116959;0.9385964912280702;0.9385964912280702;0.8450292397660818;0.8450292397660818;
76;76_3955fd03aad3b9ea6cc6e8fc5c6e421f9c90d79d-LOC.arff;LP;57.0;57.0;1.0;0.0;0.0;0.0;0.0;57.0;1.0;57.0;1.0;0.0;0.0;50.0;0.8771929824561403;1.0;1.0;0.9385964912280702;0.9385964912280702;0.9590643274853801;0.9590643274853801;
76;76_3955fd03aad3b9ea6cc6e8fc5c6e421f9c90d79d-LOC.arff;RAkELd;57.0;57.0;1.0;54.0;0.9473684210526315;3.0;0.05263157894736842;0.0;0.0;0.0;0.0;57.0;1.0;0.0;0.0;0.0;0.0;0.0;0.0;0.0;0.0;
77;77_d9d81ba61b4b3897a898e54fdd7867898f222550-LOC.arff;BR;63.0;63.0;1.0;0.0;0.0;50.0;0.7936507936507936;13.0;0.20634920634920634;0.0;0.0;50.0;0.7936507936507936;9.0;0.14285714285714285;0.10317460317460317;0.5;0.16402116402116404;0.7948717948717949;0.12063492063492062;0.5846153846153845;
77;77_d9d81ba61b4b3897a898e54fdd7867898f222550-LOC.arff;LP;63.0;63.0;1.0;0.0;0.0;63.0;1.0;0.0;0.0;0.0;0.0;63.0;1.0;0.0;0.0;0.0;0.0;0.0;0.0;0.0;0.0;
77;77_d9d81ba61b4b3897a898e54fdd7867898f222550-LOC.arff;RAkELd;63.0;63.0;1.0;0.0;0.0;50.0;0.7936507936507936;13.0;0.20634920634920634;0.0;0.0;50.0;0.7936507936507936;9.0;0.14285714285714285;0.10317460317460317;0.5;0.16402116402116404;0.7948717948717949;0.12063492063492062;0.5846153846153845;
78;78_c5d04b9750c4053c726bd4950d1c78bedb75f8e7-LOC.arff;BR;44.0;44.0;1.0;0.0;0.0;0.0;0.0;44.0;1.0;41.0;0.9318181818181818;0.0;0.0;37.0;0.8409090909090909;0.9659090909090909;0.9659090909090909;0.9204545454545454;0.9204545454545454;0.9242424242424242;0.9242424242424242;
78;78_c5d04b9750c4053c726bd4950d1c78bedb75f8e7-LOC.arff;LP;44.0;44.0;1.0;0.0;0.0;0.0;0.0;44.0;1.0;44.0;1.0;0.0;0.0;37.0;0.8409090909090909;1.0;1.0;0.9204545454545454;0.9204545454545454;0.9469696969696969;0.9469696969696969;
78;78_c5d04b9750c4053c726bd4950d1c78bedb75f8e7-LOC.arff;RAkELd;44.0;44.0;1.0;0.0;0.0;0.0;0.0;44.0;1.0;41.0;0.9318181818181818;0.0;0.0;37.0;0.8409090909090909;0.9659090909090909;0.9659090909090909;0.9204545454545454;0.9204545454545454;0.9242424242424242;0.9242424242424242;
79;79_04c38c3d1120e0d8b9741e41bd62cbdfa3109a65-LOC.arff;BR;203.0;203.0;1.0;31.0;0.15270935960591134;136.0;0.6699507389162561;36.0;0.17733990147783252;23.0;0.11330049261083744;167.0;0.8226600985221675;5.0;0.024630541871921183;0.17587209302325582;0.8402777777777778;0.10804263565891473;0.5162037037037037;0.12563676633444076;0.6002645502645503;
79;79_04c38c3d1120e0d8b9741e41bd62cbdfa3109a65-LOC.arff;LP;203.0;203.0;1.0;0.0;0.0;157.0;0.7733990147783252;46.0;0.22660098522167488;25.0;0.12315270935960591;157.0;0.7733990147783252;20.0;0.09852216748768473;0.1896551724137931;0.8369565217391305;0.16338259441707717;0.7210144927536232;0.1654937837203847;0.7303312629399585;
79;79_04c38c3d1120e0d8b9741e41bd62cbdfa3109a65-LOC.arff;RAkELd;203.0;203.0;1.0;0.0;0.0;137.0;0.6748768472906403;66.0;0.3251231527093596;55.0;0.270935960591133;137.0;0.6748768472906403;8.0;0.03940886699507389;0.29802955665024633;0.9166666666666666;0.1564039408866995;0.4810606060606061;0.19638752052545155;0.604040404040404;
80;80_3e1f7782b8b8f1d2b8ddabc9cbeeaa7d9c199e5f-LOC.arff;BR;312.0;312.0;1.0;0.0;0.0;182.0;0.5833333333333334;130.0;0.4166666666666667;60.0;0.19230769230769232;182.0;0.5833333333333334;21.0;0.0673076923076923;0.28205128205128205;0.676923076923077;0.21634615384615385;0.5192307692307693;0.20914224664224662;0.5019413919413919;
80;80_3e1f7782b8b8f1d2b8ddabc9cbeeaa7d9c199e5f-LOC.arff;LP;312.0;312.0;1.0;0.0;0.0;170.0;0.5448717948717948;142.0;0.4551282051282051;124.0;0.3974358974358974;170.0;0.5448717948717948;79.0;0.2532051282051282;0.42628205128205127;0.9366197183098591;0.3418803418803419;0.7511737089201879;0.36126373626373626;0.7937625754527162;
80;80_3e1f7782b8b8f1d2b8ddabc9cbeeaa7d9c199e5f-LOC.arff;RAkELd;312.0;312.0;1.0;0.0;0.0;184.0;0.5897435897435898;128.0;0.41025641025641024;60.0;0.19230769230769232;184.0;0.5897435897435898;25.0;0.08012820512820513;0.28205128205128205;0.6875;0.22409188034188035;0.5462239583333334;0.21555250305250304;0.5254092261904761;
81;81_e316290ea16a2bff350a5e0a481e408c38272e12-LOC.arff;BR;10.0;10.0;1.0;10.0;1.0;0.0;0.0;0.0;0.0;0.0;0.0;10.0;1.0;0.0;0.0;0.0;0.0;0.0;0.0;0.0;0.0;
81;81_e316290ea16a2bff350a5e0a481e408c38272e12-LOC.arff;LP;10.0;10.0;1.0;0.0;0.0;10.0;1.0;0.0;0.0;0.0;0.0;10.0;1.0;0.0;0.0;0.0;0.0;0.0;0.0;0.0;0.0;
81;81_e316290ea16a2bff350a5e0a481e408c38272e12-LOC.arff;RAkELd;10.0;10.0;1.0;10.0;1.0;0.0;0.0;0.0;0.0;0.0;0.0;10.0;1.0;0.0;0.0;0.0;0.0;0.0;0.0;0.0;0.0;
82;82_4f6a8c5831459ebfd4d552f8766037a94723f21b-LOC.arff;BR;223.0;223.0;1.0;17.0;0.07623318385650224;74.0;0.33183856502242154;132.0;0.5919282511210763;16.0;0.07174887892376682;91.0;0.4080717488789238;62.0;0.27802690582959644;0.33050161812297735;0.5157828282828283;0.4777508090614887;0.7455808080808081;0.3634650947757744;0.5672258297258298;
82;82_4f6a8c5831459ebfd4d552f8766037a94723f21b-LOC.arff;LP;223.0;223.0;1.0;0.0;0.0;117.0;0.5246636771300448;106.0;0.47533632286995514;86.0;0.38565022421524664;117.0;0.5246636771300448;62.0;0.27802690582959644;0.42713004484304934;0.8985849056603774;0.36771300448430494;0.7735849056603774;0.3722400170830664;0.7831087151841869;
82;82_4f6a8c5831459ebfd4d552f8766037a94723f21b-LOC.arff;RAkELd;223.0;223.0;1.0;47.0;0.21076233183856502;69.0;0.3094170403587444;107.0;0.4798206278026906;23.0;0.1031390134529148;116.0;0.5201793721973094;44.0;0.19730941704035873;0.36174242424242425;0.5950155763239875;0.41950757575757575;0.690031152647975;0.3665313852813853;0.6028927458834001;
83;83_73532e34ce3061f98657eb2ef02af7e4258c825b-LOC.arff;BR;239.0;239.0;1.0;21.0;0.08786610878661087;82.0;0.34309623430962344;136.0;0.5690376569037657;43.0;0.1799163179916318;103.0;0.4309623430962343;61.0;0.25523012552301255;0.40978593272171254;0.6568627450980392;0.4279816513761468;0.6860294117647059;0.39480122324159017;0.6328431372549019;
83;83_73532e34ce3061f98657eb2ef02af7e4258c825b-LOC.arff;LP;239.0;239.0;1.0;0.0;0.0;111.0;0.46443514644351463;128.0;0.5355648535564853;106.0;0.4435146443514644;111.0;0.46443514644351463;78.0;0.3263598326359833;0.49023709902370993;0.9153645833333334;0.4097629009762901;0.7651041666666667;0.42743574417214586;0.7981026785714286;
83;83_73532e34ce3061f98657eb2ef02af7e4258c825b-LOC.arff;RAkELd;239.0;239.0;1.0;18.0;0.07531380753138076;71.0;0.29707112970711297;150.0;0.6276150627615062;103.0;0.4309623430962343;89.0;0.3723849372384937;60.0;0.2510460251046025;0.5739064856711915;0.8455555555555555;0.4559577677224736;0.6717777777777778;0.4874595992243051;0.7181904761904762;
85;85_f13f5ee8af1d30ba46330b284421a0147aaaedd4-LOC.arff;BR;206.0;206.0;1.0;11.0;0.05339805825242718;66.0;0.32038834951456313;129.0;0.6262135922330098;9.0;0.043689320388349516;77.0;0.3737864077669903;48.0;0.23300970873786409;0.34615384615384615;0.5232558139534884;0.4157264957264957;0.6284237726098191;0.3580463980463981;0.541232927279439;
85;85_f13f5ee8af1d30ba46330b284421a0147aaaedd4-LOC.arff;LP;206.0;206.0;1.0;0.0;0.0;69.0;0.33495145631067963;137.0;0.6650485436893204;90.0;0.4368932038834951;69.0;0.33495145631067963;76.0;0.36893203883495146;0.5687702265372169;0.8552311435523114;0.49708737864077673;0.7474452554744526;0.5015256588072122;0.754118873826903;
85;85_f13f5ee8af1d30ba46330b284421a0147aaaedd4-LOC.arff;RAkELd;206.0;206.0;1.0;7.0;0.03398058252427184;67.0;0.32524271844660196;132.0;0.6407766990291263;64.0;0.3106796116504854;74.0;0.3592233009708738;59.0;0.28640776699029125;0.48659966499162477;0.7335858585858586;0.4576214405360134;0.6898989898989899;0.4431442928930366;0.668073593073593;
86;86_34014198f540fe0f148017b2e0afed1ef33bb30a-LOC.arff;BR;240.0;240.0;1.0;1.0;0.004166666666666667;72.0;0.3;167.0;0.6958333333333333;91.0;0.37916666666666665;73.0;0.30416666666666664;94.0;0.39166666666666666;0.5460251046025104;0.781437125748503;0.5295676429567643;0.7578842315369261;0.5108587368001595;0.7311092101511264;
86;86_34014198f540fe0f148017b2e0afed1ef33bb30a-LOC.arff;LP;240.0;240.0;1.0;0.0;0.0;125.0;0.5208333333333334;115.0;0.4791666666666667;38.0;0.15833333333333333;125.0;0.5208333333333334;48.0;0.2;0.30777777777777776;0.6423188405797101;0.3325694444444444;0.6940579710144927;0.30849867724867724;0.6438233264320221;
86;86_34014198f540fe0f148017b2e0afed1ef33bb30a-LOC.arff;RAkELd;240.0;240.0;1.0;25.0;0.10416666666666667;129.0;0.5375;86.0;0.35833333333333334;46.0;0.19166666666666668;154.0;0.6416666666666667;27.0;0.1125;0.30697674418604654;0.7674418604651163;0.217984496124031;0.5449612403100775;0.24411960132890367;0.6102990033222592;
87;87_3e1eb7278e5c8ad2a2dc7855b03075496f8c9322-LOC.arff;BR;68.0;68.0;1.0;0.0;0.0;55.0;0.8088235294117647;13.0;0.19117647058823528;0.0;0.0;55.0;0.8088235294117647;8.0;0.11764705882352941;0.09558823529411764;0.5;0.14950980392156862;0.782051282051282;0.1122549019607843;0.5871794871794871;
87;87_3e1eb7278e5c8ad2a2dc7855b03075496f8c9322-LOC.arff;LP;68.0;68.0;1.0;0.0;0.0;67.0;0.9852941176470589;1.0;0.014705882352941176;1.0;0.014705882352941176;67.0;0.9852941176470589;0.0;0.0;0.014705882352941176;1.0;0.004901960784313725;0.3333333333333333;0.007352941176470588;0.5;
87;87_3e1eb7278e5c8ad2a2dc7855b03075496f8c9322-LOC.arff;RAkELd;68.0;68.0;1.0;0.0;0.0;52.0;0.7647058823529411;16.0;0.23529411764705882;1.0;0.014705882352941176;52.0;0.7647058823529411;8.0;0.11764705882352941;0.0980392156862745;0.41666666666666663;0.16299019607843138;0.6927083333333334;0.10637254901960784;0.45208333333333334;
90;90_0de35212b89a2e229aa9b7cc8e73cef3c15671b2-LOC.arff;BR;81.0;81.0;1.0;81.0;1.0;0.0;0.0;0.0;0.0;0.0;0.0;81.0;1.0;0.0;0.0;0.0;0.0;0.0;0.0;0.0;0.0;
90;90_0de35212b89a2e229aa9b7cc8e73cef3c15671b2-LOC.arff;LP;81.0;81.0;1.0;0.0;0.0;21.0;0.25925925925925924;60.0;0.7407407407407407;60.0;0.7407407407407407;21.0;0.25925925925925924;52.0;0.6419753086419753;0.7407407407407407;1.0;0.691358024691358;0.9333333333333333;0.7078189300411523;0.9555555555555556;
90;90_0de35212b89a2e229aa9b7cc8e73cef3c15671b2-LOC.arff;RAkELd;81.0;81.0;1.0;81.0;1.0;0.0;0.0;0.0;0.0;0.0;0.0;81.0;1.0;0.0;0.0;0.0;0.0;0.0;0.0;0.0;0.0;
94;94_69f575891baa1bf137729b22345f2d8c4bd265d5-LOC.arff;BR;158.0;158.0;1.0;13.0;0.08227848101265822;78.0;0.4936708860759494;67.0;0.4240506329113924;31.0;0.1962025316455696;91.0;0.5759493670886076;37.0;0.23417721518987342;0.33563218390804594;0.72636815920398;0.35597701149425287;0.7703980099502488;0.33553366174055826;0.7261549395877754;
94;94_69f575891baa1bf137729b22345f2d8c4bd265d5-LOC.arff;LP;158.0;158.0;1.0;0.0;0.0;73.0;0.4620253164556962;85.0;0.5379746835443038;33.0;0.2088607594936709;73.0;0.4620253164556962;44.0;0.27848101265822783;0.35938818565400843;0.6680392156862744;0.3981012658227848;0.74;0.3641450673096243;0.6768814192343604;
94;94_69f575891baa1bf137729b22345f2d8c4bd265d5-LOC.arff;RAkELd;158.0;158.0;1.0;4.0;0.02531645569620253;75.0;0.47468354430379744;79.0;0.5;41.0;0.25949367088607594;79.0;0.5;37.0;0.23417721518987342;0.38636363636363635;0.7531645569620253;0.3616883116883117;0.7050632911392405;0.3580395794681509;0.697950572634117;
95;95_45f1b327dadc5d5b562989a10b03eea5d185c64a-LOC.arff;BR;271.0;271.0;1.0;0.0;0.0;165.0;0.6088560885608856;106.0;0.39114391143911437;3.0;0.01107011070110701;165.0;0.6088560885608856;25.0;0.09225092250922509;0.2047970479704797;0.5235849056603774;0.23013530135301352;0.5883647798742139;0.19734083055116267;0.504522312069482;
95;95_45f1b327dadc5d5b562989a10b03eea5d185c64a-LOC.arff;LP;271.0;271.0;1.0;0.0;0.0;148.0;0.5461254612546126;123.0;0.45387453874538747;102.0;0.3763837638376384;148.0;0.5461254612546126;34.0;0.12546125461254612;0.4151291512915129;0.9146341463414634;0.2920664206642067;0.6434959349593496;0.33456334563345635;0.7371273712737128;
95;95_45f1b327dadc5d5b562989a10b03eea5d185c64a-LOC.arff;RAkELd;271.0;271.0;1.0;0.0;0.0;139.0;0.5129151291512916;132.0;0.4870848708487085;15.0;0.055350553505535055;139.0;0.5129151291512916;36.0;0.13284132841328414;0.254920049200492;0.5233585858585859;0.27656826568265686;0.5678030303030304;0.23383705265624083;0.48007455507455504;
96;96_40ae2d7f4054d46863164655d2d345f31ea563a8-LOC.arff;BR;231.0;231.0;1.0;0.0;0.0;24.0;0.1038961038961039;207.0;0.8961038961038961;169.0;0.7316017316017316;24.0;0.1038961038961039;45.0;0.19480519480519481;0.8124098124098124;0.9066022544283413;0.47316017316017317;0.5280193236714976;0.5426716141001855;0.6055900621118012;
96;96_40ae2d7f4054d46863164655d2d345f31ea563a8-LOC.arff;LP;231.0;231.0;1.0;0.0;0.0;15.0;0.06493506493506493;216.0;0.935064935064935;118.0;0.5108225108225108;15.0;0.06493506493506493;78.0;0.33766233766233766;0.7088744588744589;0.7581018518518519;0.6379509379509379;0.6822530864197531;0.6233044733044732;0.6665895061728394;
96;96_40ae2d7f4054d46863164655d2d345f31ea563a8-LOC.arff;RAkELd;231.0;231.0;1.0;0.0;0.0;16.0;0.06926406926406926;215.0;0.9307359307359307;164.0;0.70995670995671;16.0;0.06926406926406926;56.0;0.24242424242424243;0.8080808080808081;0.8682170542635659;0.5145743145743146;0.5528682170542636;0.5649247577819007;0.6069656699889259;
105;105_8e0a9c9d4b56543d4831f5db223438409f16ec9f-LOC.arff;BR;8.0;8.0;1.0;0.0;0.0;8.0;1.0;0.0;0.0;0.0;0.0;8.0;1.0;0.0;0.0;0.0;0.0;0.0;0.0;0.0;0.0;
105;105_8e0a9c9d4b56543d4831f5db223438409f16ec9f-LOC.arff;LP;8.0;8.0;1.0;0.0;0.0;6.0;0.75;2.0;0.25;0.0;0.0;6.0;0.75;0.0;0.0;0.05;0.2;0.125;0.5;0.07142857142857144;0.28571428571428575;
105;105_8e0a9c9d4b56543d4831f5db223438409f16ec9f-LOC.arff;RAkELd;8.0;8.0;1.0;0.0;0.0;8.0;1.0;0.0;0.0;0.0;0.0;8.0;1.0;0.0;0.0;0.0;0.0;0.0;0.0;0.0;0.0;
106;106_9beb91f475006d702261b0afe2ca588009c417fe-LOC.arff;BR;415.0;415.0;1.0;28.0;0.06746987951807229;81.0;0.19518072289156627;306.0;0.7373493975903614;126.0;0.3036144578313253;109.0;0.26265060240963856;110.0;0.26506024096385544;0.5402670111972437;0.6832788671023965;0.5466838931955211;0.6913943355119826;0.5143021205036709;0.6504409171075838;
106;106_9beb91f475006d702261b0afe2ca588009c417fe-LOC.arff;LP;415.0;415.0;1.0;0.0;0.0;123.0;0.2963855421686747;292.0;0.7036144578313253;110.0;0.26506024096385544;123.0;0.2963855421686747;114.0;0.2746987951807229;0.4674698795180723;0.6643835616438356;0.4640562248995984;0.6595319634703196;0.42240390131956396;0.6003343118069145;
106;106_9beb91f475006d702261b0afe2ca588009c417fe-LOC.arff;RAkELd;415.0;415.0;1.0;0.0;0.0;143.0;0.344578313253012;272.0;0.655421686746988;153.0;0.3686746987951807;143.0;0.344578313253012;73.0;0.17590361445783131;0.5160642570281124;0.7873774509803921;0.3900401606425703;0.5950980392156863;0.41455918913750245;0.6325075863678805;
107;107_7fadfaa725eb44af2d806a6a3aa35b16ae371ff8-LOC.arff;BR;475.0;475.0;1.0;0.0;0.0;91.0;0.19157894736842104;384.0;0.8084210526315789;189.0;0.39789473684210525;91.0;0.19157894736842104;119.0;0.2505263157894737;0.6115438596491228;0.7564670138888889;0.5351478696741855;0.6619667658730158;0.5409423558897244;0.6691344246031746;
107;107_7fadfaa725eb44af2d806a6a3aa35b16ae371ff8-LOC.arff;LP;475.0;475.0;1.0;0.0;0.0;104.0;0.21894736842105264;371.0;0.7810526315789473;165.0;0.3473684210526316;104.0;0.21894736842105264;149.0;0.3136842105263158;0.5524561403508772;0.7073225516621744;0.5513934837092731;0.7059620074444871;0.5272104503683451;0.6749999027627059;
107;107_7fadfaa725eb44af2d806a6a3aa35b16ae371ff8-LOC.arff;RAkELd;475.0;475.0;1.0;55.0;0.11578947368421053;58.0;0.12210526315789473;362.0;0.7621052631578947;132.0;0.27789473684210525;113.0;0.23789473684210527;117.0;0.2463157894736842;0.5961507936507936;0.6916666666666667;0.5615362811791383;0.6515061825835307;0.5505461073318216;0.6387551521529422;
108;108_69720a40bf191c4c154feee060ac050397db4291-LOC.arff;BR;43.0;43.0;1.0;7.0;0.16279069767441862;16.0;0.37209302325581395;20.0;0.46511627906976744;11.0;0.2558139534883721;23.0;0.5348837209302325;4.0;0.09302325581395349;0.4305555555555556;0.775;0.33055555555555555;0.595;0.3251322751322751;0.5852380952380952;
108;108_69720a40bf191c4c154feee060ac050397db4291-LOC.arff;LP;43.0;43.0;1.0;0.0;0.0;21.0;0.4883720930232558;22.0;0.5116279069767442;11.0;0.2558139534883721;21.0;0.4883720930232558;5.0;0.11627906976744186;0.375968992248062;0.7348484848484849;0.28837209302325584;0.5636363636363636;0.3070874861572536;0.6002164502164503;
108;108_69720a40bf191c4c154feee060ac050397db4291-LOC.arff;RAkELd;43.0;43.0;1.0;8.0;0.18604651162790697;7.0;0.16279069767441862;28.0;0.6511627906976745;4.0;0.09302325581395349;15.0;0.3488372093023256;12.0;0.27906976744186046;0.40476190476190477;0.5059523809523809;0.5495238095238095;0.6869047619047619;0.40312925170068026;0.5039115646258503;
112;112_2ac838a86290cda81b832ef110afbc4056bcfc4f-LOC.arff;BR;309.0;309.0;1.0;34.0;0.11003236245954692;108.0;0.34951456310679613;167.0;0.540453074433657;1.0;0.003236245954692557;142.0;0.459546925566343;18.0;0.05825242718446602;0.2670909090909091;0.43982035928143715;0.2893679653679654;0.4765041345879669;0.26467318540045814;0.43583907775524544;
112;112_2ac838a86290cda81b832ef110afbc4056bcfc4f-LOC.arff;LP;309.0;309.0;1.0;0.0;0.0;76.0;0.2459546925566343;233.0;0.7540453074433657;91.0;0.29449838187702265;76.0;0.2459546925566343;86.0;0.2783171521035599;0.5148327939590076;0.682761087267525;0.515164123901988;0.6832004904966278;0.47570714075568443;0.6308734184270665;
112;112_2ac838a86290cda81b832ef110afbc4056bcfc4f-LOC.arff;RAkELd;309.0;309.0;1.0;124.0;0.40129449838187703;92.0;0.2977346278317152;93.0;0.30097087378640774;44.0;0.1423948220064725;216.0;0.6990291262135923;17.0;0.05501618122977346;0.381981981981982;0.7598566308243728;0.2419047619047619;0.4812083973374296;0.2614886314886315;0.5201655572623315;
115;115_0cc320cee1b10428c462ac68b0644004e3a69053-LOC.arff;BR;34.0;34.0;1.0;3.0;0.08823529411764706;14.0;0.4117647058823529;17.0;0.5;6.0;0.17647058823529413;17.0;0.5;4.0;0.11764705882352941;0.3225806451612903;0.5882352941176471;0.26344086021505375;0.48039215686274506;0.23440860215053763;0.42745098039215684;
115;115_0cc320cee1b10428c462ac68b0644004e3a69053-LOC.arff;LP;34.0;34.0;1.0;0.0;0.0;15.0;0.4411764705882353;19.0;0.5588235294117647;8.0;0.23529411764705882;15.0;0.4411764705882353;5.0;0.14705882352941177;0.36274509803921573;0.6491228070175439;0.34852941176470587;0.6236842105263157;0.3476890756302521;0.6221804511278195;
115;115_0cc320cee1b10428c462ac68b0644004e3a69053-LOC.arff;RAkELd;34.0;34.0;1.0;0.0;0.0;11.0;0.3235294117647059;23.0;0.6764705882352942;7.0;0.20588235294117646;11.0;0.3235294117647059;8.0;0.23529411764705882;0.3995098039215686;0.5905797101449275;0.4186274509803921;0.618840579710145;0.36526610644257707;0.5399585921325052;
117;117_f7cbe1b67fe1ef68e553f67da1d9cc3c0a16e9a9-LOC.arff;BR;204.0;204.0;1.0;0.0;0.0;62.0;0.30392156862745096;142.0;0.696078431372549;1.0;0.004901960784313725;62.0;0.30392156862745096;19.0;0.09313725490196079;0.3012254901960784;0.4327464788732394;0.36968954248366015;0.5311032863849766;0.32079053843759725;0.46085401296668904;
117;117_f7cbe1b67fe1ef68e553f67da1d9cc3c0a16e9a9-LOC.arff;LP;204.0;204.0;1.0;0.0;0.0;115.0;0.5637254901960784;89.0;0.4362745098039216;4.0;0.0196078431372549;115.0;0.5637254901960784;11.0;0.05392156862745098;0.17928921568627448;0.41095505617977524;0.223937908496732;0.5132958801498126;0.1901882975412387;0.43593722133047974;
117;117_f7cbe1b67fe1ef68e553f67da1d9cc3c0a16e9a9-LOC.arff;RAkELd;204.0;204.0;1.0;0.0;0.0;46.0;0.22549019607843138;158.0;0.7745098039215687;0.0;0.0;46.0;0.22549019607843138;27.0;0.1323529411764706;0.3034313725490196;0.39177215189873416;0.42148692810457516;0.5441983122362869;0.34141767818238405;0.4408177617038377;
120;120_5fb9be28bbfcdfad3bcec2788f55f87c685fae3b-LOC.arff;BR;85.0;85.0;1.0;29.0;0.3411764705882353;56.0;0.6588235294117647;0.0;0.0;0.0;0.0;85.0;1.0;0.0;0.0;0.0;0.0;0.0;0.0;0.0;0.0;
120;120_5fb9be28bbfcdfad3bcec2788f55f87c685fae3b-LOC.arff;LP;85.0;85.0;1.0;0.0;0.0;85.0;1.0;0.0;0.0;0.0;0.0;85.0;1.0;0.0;0.0;0.0;0.0;0.0;0.0;0.0;0.0;
120;120_5fb9be28bbfcdfad3bcec2788f55f87c685fae3b-LOC.arff;RAkELd;85.0;85.0;1.0;29.0;0.3411764705882353;56.0;0.6588235294117647;0.0;0.0;0.0;0.0;85.0;1.0;0.0;0.0;0.0;0.0;0.0;0.0;0.0;0.0;
123;123_d74a45886ca4f6bac539dced1606e18a0d9c10a1-LOC.arff;BR;5.0;5.0;1.0;0.0;0.0;0.0;0.0;5.0;1.0;0.0;0.0;0.0;0.0;5.0;1.0;0.25;0.25;1.0;1.0;0.4;0.4;
123;123_d74a45886ca4f6bac539dced1606e18a0d9c10a1-LOC.arff;LP;5.0;5.0;1.0;0.0;0.0;0.0;0.0;5.0;1.0;5.0;1.0;0.0;0.0;5.0;1.0;1.0;1.0;1.0;1.0;1.0;1.0;
123;123_d74a45886ca4f6bac539dced1606e18a0d9c10a1-LOC.arff;RAkELd;5.0;5.0;1.0;0.0;0.0;0.0;0.0;5.0;1.0;0.0;0.0;0.0;0.0;5.0;1.0;0.5;0.5;1.0;1.0;0.6666666666666666;0.6666666666666666;
124;124_dedd036e78209467b61c048a465b51035ad0e395-LOC.arff;BR;34.0;34.0;1.0;32.0;0.9411764705882353;0.0;0.0;2.0;0.058823529411764705;0.0;0.0;32.0;0.9411764705882353;1.0;0.029411764705882353;0.5;0.5;0.75;0.75;0.5833333333333333;0.5833333333333333;
124;124_dedd036e78209467b61c048a465b51035ad0e395-LOC.arff;LP;34.0;34.0;1.0;0.0;0.0;0.0;0.0;34.0;1.0;34.0;1.0;0.0;0.0;33.0;0.9705882352941176;1.0;1.0;0.9852941176470589;0.9852941176470589;0.9901960784313725;0.9901960784313725;
124;124_dedd036e78209467b61c048a465b51035ad0e395-LOC.arff;RAkELd;34.0;34.0;1.0;32.0;0.9411764705882353;2.0;0.058823529411764705;0.0;0.0;0.0;0.0;34.0;1.0;0.0;0.0;0.0;0.0;0.0;0.0;0.0;0.0;
125;125_c788062f4afa815da069ba62783435db249ca8f2-LOC.arff;BR;331.0;331.0;1.0;6.0;0.01812688821752266;3.0;0.00906344410876133;322.0;0.972809667673716;35.0;0.10574018126888217;9.0;0.027190332326283987;75.0;0.22658610271903323;0.5102564102564103;0.5150103519668737;0.5835567765567766;0.5889936409346347;0.5003709623709623;0.5050328036352881;
125;125_c788062f4afa815da069ba62783435db249ca8f2-LOC.arff;LP;331.0;331.0;1.0;0.0;0.0;9.0;0.027190332326283987;322.0;0.972809667673716;160.0;0.48338368580060426;9.0;0.027190332326283987;103.0;0.311178247734139;0.7036253776435045;0.7232919254658385;0.5791145158969933;0.5953009464655428;0.5636891138401713;0.579444399630735;
125;125_c788062f4afa815da069ba62783435db249ca8f2-LOC.arff;RAkELd;331.0;331.0;1.0;6.0;0.01812688821752266;3.0;0.00906344410876133;322.0;0.972809667673716;122.0;0.3685800604229607;9.0;0.027190332326283987;56.0;0.1691842900302115;0.6786666666666666;0.6849896480331262;0.552981684981685;0.5581336882579119;0.5601946941946941;0.5654138994201106;
127;127_71f987e0d06152d6f802b7e861fc362403762b10-LOC.arff;BR;407.0;407.0;1.0;0.0;0.0;36.0;0.08845208845208845;371.0;0.9115479115479116;202.0;0.4963144963144963;36.0;0.08845208845208845;93.0;0.2285012285012285;0.701883701883702;0.7699910152740342;0.5415701415701415;0.5941214221537672;0.5548163275436002;0.6086529523187205;
127;127_71f987e0d06152d6f802b7e861fc362403762b10-LOC.arff;LP;407.0;407.0;1.0;0.0;0.0;33.0;0.08108108108108109;374.0;0.918918918918919;200.0;0.4914004914004914;33.0;0.08108108108108109;123.0;0.3022113022113022;0.6965280215280216;0.7579863763687293;0.5545864045864046;0.6035204991087344;0.5554123190486827;0.6044192883765076;
127;127_71f987e0d06152d6f802b7e861fc362403762b10-LOC.arff;RAkELd;407.0;407.0;1.0;0.0;0.0;31.0;0.07616707616707617;376.0;0.9238329238329238;191.0;0.4692874692874693;31.0;0.07616707616707617;92.0;0.22604422604422605;0.6911957411957412;0.7481826241134751;0.5401251901251901;0.5846567882472138;0.5489594080503172;0.5942193592459549;
128;128_427e104c2d7f815f2f303213cf610fe8bd245c72-LOC.arff;BR;66.0;66.0;1.0;0.0;0.0;5.0;0.07575757575757576;61.0;0.9242424242424242;56.0;0.8484848484848485;5.0;0.07575757575757576;54.0;0.8181818181818182;0.8863636363636364;0.9590163934426229;0.8712121212121212;0.9426229508196722;0.8636363636363636;0.9344262295081968;
128;128_427e104c2d7f815f2f303213cf610fe8bd245c72-LOC.arff;LP;66.0;66.0;1.0;0.0;0.0;16.0;0.24242424242424243;50.0;0.7575757575757576;50.0;0.7575757575757576;16.0;0.24242424242424243;38.0;0.5757575757575758;0.7575757575757576;1.0;0.6666666666666666;0.88;0.696969696969697;0.92;
128;128_427e104c2d7f815f2f303213cf610fe8bd245c72-LOC.arff;RAkELd;66.0;66.0;1.0;0.0;0.0;5.0;0.07575757575757576;61.0;0.9242424242424242;0.0;0.0;5.0;0.07575757575757576;54.0;0.8181818181818182;0.4621212121212121;0.5;0.8712121212121212;0.9426229508196722;0.5959595959595959;0.6448087431693988;
131;131_2c66a92ba29d45f4f4db2c90d440f4e7a1d10f08-LOC.arff;BR;648.0;648.0;1.0;8.0;0.012345679012345678;187.0;0.28858024691358025;453.0;0.6990740740740741;197.0;0.30401234567901236;195.0;0.30092592592592593;90.0;0.1388888888888889;0.5054947916666667;0.7141648270787343;0.3827380952380952;0.5407337327867129;0.3986495535714286;0.5632134973194576;
131;131_2c66a92ba29d45f4f4db2c90d440f4e7a1d10f08-LOC.arff;LP;648.0;648.0;1.0;0.0;0.0;116.0;0.17901234567901234;532.0;0.8209876543209876;122.0;0.1882716049382716;116.0;0.17901234567901234;184.0;0.2839506172839506;0.4415895061728395;0.537875939849624;0.5389146090534979;0.656422305764411;0.43180440101736395;0.5259572403369396;
131;131_2c66a92ba29d45f4f4db2c90d440f4e7a1d10f08-LOC.arff;RAkELd;648.0;648.0;1.0;5.0;0.007716049382716049;175.0;0.2700617283950617;468.0;0.7222222222222222;154.0;0.23765432098765432;180.0;0.2777777777777778;118.0;0.18209876543209877;0.4812078797304303;0.6611467236467237;0.41748685477301345;0.5735983923483924;0.40938467097098513;0.5624665457998791;
139;139_b893fc56df181c0bd90303135564c28b90f3fb4d-LOC.arff;BR;112.0;112.0;1.0;51.0;0.45535714285714285;61.0;0.5446428571428571;0.0;0.0;0.0;0.0;112.0;1.0;0.0;0.0;0.0;0.0;0.0;0.0;0.0;0.0;
139;139_b893fc56df181c0bd90303135564c28b90f3fb4d-LOC.arff;LP;112.0;112.0;1.0;0.0;0.0;98.0;0.875;14.0;0.125;14.0;0.125;98.0;0.875;14.0;0.125;0.125;1.0;0.125;1.0;0.125;1.0;
139;139_b893fc56df181c0bd90303135564c28b90f3fb4d-LOC.arff;RAkELd;112.0;112.0;1.0;0.0;0.0;112.0;1.0;0.0;0.0;0.0;0.0;112.0;1.0;0.0;0.0;0.0;0.0;0.0;0.0;0.0;0.0;
141;141_5abbfbed6ab735ca92637637c76a4c3fe558eb42-LOC.arff;BR;26.0;26.0;1.0;0.0;0.0;15.0;0.5769230769230769;11.0;0.4230769230769231;0.0;0.0;15.0;0.5769230769230769;2.0;0.07692307692307693;0.21153846153846154;0.5;0.23076923076923078;0.5454545454545454;0.2128205128205128;0.503030303030303;
141;141_5abbfbed6ab735ca92637637c76a4c3fe558eb42-LOC.arff;LP;26.0;26.0;1.0;0.0;0.0;22.0;0.8461538461538461;4.0;0.15384615384615385;4.0;0.15384615384615385;22.0;0.8461538461538461;2.0;0.07692307692307693;0.15384615384615385;1.0;0.11538461538461539;0.75;0.1282051282051282;0.8333333333333333;
141;141_5abbfbed6ab735ca92637637c76a4c3fe558eb42-LOC.arff;RAkELd;26.0;26.0;1.0;0.0;0.0;14.0;0.5384615384615384;12.0;0.46153846153846156;0.0;0.0;14.0;0.5384615384615384;2.0;0.07692307692307693;0.19871794871794873;0.4305555555555556;0.25641025641025644;0.5555555555555556;0.21153846153846154;0.4583333333333333;
142;142_fea98ef906bd11fc42f3f0d272fd76015496201c-LOC.arff;BR;320.0;320.0;1.0;18.0;0.05625;131.0;0.409375;171.0;0.534375;82.0;0.25625;149.0;0.465625;0.0;0.0;0.42604856512141276;0.7524366471734892;0.20881031220435192;0.36877610693400165;0.25990558374664335;0.45901453971629413;
142;142_fea98ef906bd11fc42f3f0d272fd76015496201c-LOC.arff;LP;320.0;320.0;1.0;0.0;0.0;263.0;0.821875;57.0;0.178125;15.0;0.046875;263.0;0.821875;9.0;0.028125;0.10541666666666667;0.591812865497076;0.08484375;0.4763157894736842;0.08462346681096682;0.4750791119212172;
142;142_fea98ef906bd11fc42f3f0d272fd76015496201c-LOC.arff;RAkELd;320.0;320.0;1.0;0.0;0.0;85.0;0.265625;235.0;0.734375;0.0;0.0;85.0;0.265625;50.0;0.15625;0.33176339285714285;0.45176291793313067;0.41626860119047615;0.5668338399189462;0.337921626984127;0.46014859844647077;
143;143_e23e91c882cbfb52f47f5617e621459350f3fe38-LOC.arff;BR;15.0;15.0;1.0;1.0;0.06666666666666667;14.0;0.9333333333333333;0.0;0.0;0.0;0.0;15.0;1.0;0.0;0.0;0.0;0.0;0.0;0.0;0.0;0.0;
143;143_e23e91c882cbfb52f47f5617e621459350f3fe38-LOC.arff;LP;15.0;15.0;1.0;0.0;0.0;14.0;0.9333333333333333;1.0;0.06666666666666667;0.0;0.0;14.0;0.9333333333333333;0.0;0.0;0.02222222222222222;0.3333333333333333;0.02222222222222222;0.3333333333333333;0.02222222222222222;0.3333333333333333;
143;143_e23e91c882cbfb52f47f5617e621459350f3fe38-LOC.arff;RAkELd;15.0;15.0;1.0;1.0;0.06666666666666667;14.0;0.9333333333333333;0.0;0.0;0.0;0.0;15.0;1.0;0.0;0.0;0.0;0.0;0.0;0.0;0.0;0.0;
144;144_05fbbcf48a0710c29e67cfaf2d39a12b2d17ff04-LOC.arff;BR;49.0;49.0;1.0;0.0;0.0;22.0;0.4489795918367347;27.0;0.5510204081632653;15.0;0.30612244897959184;22.0;0.4489795918367347;20.0;0.40816326530612246;0.42857142857142855;0.7777777777777778;0.47959183673469385;0.8703703703703703;0.42176870748299317;0.7654320987654321;
144;144_05fbbcf48a0710c29e67cfaf2d39a12b2d17ff04-LOC.arff;LP;49.0;49.0;1.0;0.0;0.0;34.0;0.6938775510204082;15.0;0.30612244897959184;15.0;0.30612244897959184;34.0;0.6938775510204082;0.0;0.0;0.30612244897959184;1.0;0.15306122448979592;0.5;0.20408163265306123;0.6666666666666666;
144;144_05fbbcf48a0710c29e67cfaf2d39a12b2d17ff04-LOC.arff;RAkELd;49.0;49.0;1.0;0.0;0.0;34.0;0.6938775510204082;15.0;0.30612244897959184;15.0;0.30612244897959184;34.0;0.6938775510204082;0.0;0.0;0.30612244897959184;1.0;0.15306122448979592;0.5;0.20408163265306123;0.6666666666666666;
145;145_9e32bb6b85d9eb129437616a3ae3021865b76d56-LOC.arff;BR;408.0;408.0;1.0;85.0;0.20833333333333334;161.0;0.3946078431372549;162.0;0.39705882352941174;68.0;0.16666666666666666;246.0;0.6029411764705882;10.0;0.024509803921568627;0.36026831785345714;0.718312757201646;0.22210305174701458;0.44283509700176366;0.2616727957285233;0.5217303272858829;
145;145_9e32bb6b85d9eb129437616a3ae3021865b76d56-LOC.arff;LP;408.0;408.0;1.0;0.0;0.0;71.0;0.17401960784313725;337.0;0.8259803921568627;126.0;0.3088235294117647;71.0;0.17401960784313725;155.0;0.3799019607843137;0.5299719887955182;0.6416278083933871;0.575297619047619;0.6965027554048325;0.4984953227600286;0.6035195598993818;
145;145_9e32bb6b85d9eb129437616a3ae3021865b76d56-LOC.arff;RAkELd;408.0;408.0;1.0;182.0;0.44607843137254904;122.0;0.29901960784313725;104.0;0.2549019607843137;80.0;0.19607843137254902;304.0;0.7450980392156863;0.0;0.0;0.41224188790560473;0.8958333333333334;0.15547829751369574;0.3378663003663004;0.2186922959046853;0.4752351814851815;
146;146_91177058a0f52c25b501205a628e1f1e68b868d6-LOC.arff;BR;144.0;144.0;1.0;57.0;0.3958333333333333;57.0;0.3958333333333333;30.0;0.20833333333333334;18.0;0.125;114.0;0.7916666666666666;30.0;0.20833333333333334;0.27586206896551724;0.8;0.3448275862068966;1.0;0.2988505747126437;0.8666666666666667;
146;146_91177058a0f52c25b501205a628e1f1e68b868d6-LOC.arff;LP;144.0;144.0;1.0;0.0;0.0;126.0;0.875;18.0;0.125;18.0;0.125;126.0;0.875;18.0;0.125;0.125;1.0;0.125;1.0;0.125;1.0;
146;146_91177058a0f52c25b501205a628e1f1e68b868d6-LOC.arff;RAkELd;144.0;144.0;1.0;0.0;0.0;114.0;0.7916666666666666;30.0;0.20833333333333334;18.0;0.125;114.0;0.7916666666666666;30.0;0.20833333333333334;0.16666666666666666;0.8;0.20833333333333334;1.0;0.18055555555555555;0.8666666666666667;
147;147_01955f4f4df4579405a8bb1868f60af30e9a028b-LOC.arff;BR;101.0;101.0;1.0;75.0;0.7425742574257426;14.0;0.13861386138613863;12.0;0.1188118811881188;12.0;0.1188118811881188;89.0;0.8811881188118812;0.0;0.0;0.46153846153846156;1.0;0.23076923076923078;0.5;0.3076923076923077;0.6666666666666666;
147;147_01955f4f4df4579405a8bb1868f60af30e9a028b-LOC.arff;LP;101.0;101.0;1.0;0.0;0.0;101.0;1.0;0.0;0.0;0.0;0.0;101.0;1.0;0.0;0.0;0.0;0.0;0.0;0.0;0.0;0.0;
147;147_01955f4f4df4579405a8bb1868f60af30e9a028b-LOC.arff;RAkELd;101.0;101.0;1.0;0.0;0.0;73.0;0.7227722772277227;28.0;0.27722772277227725;28.0;0.27722772277227725;73.0;0.7227722772277227;2.0;0.019801980198019802;0.27722772277227725;1.0;0.1485148514851485;0.5357142857142857;0.1914191419141914;0.6904761904761905;
148;148_4cfd7fef412fb7e2bfb4e4cf6800400783e88901-LOC.arff;BR;103.0;103.0;1.0;0.0;0.0;4.0;0.038834951456310676;99.0;0.9611650485436893;99.0;0.9611650485436893;4.0;0.038834951456310676;73.0;0.7087378640776699;0.9611650485436893;1.0;0.8349514563106796;0.8686868686868687;0.8770226537216828;0.9124579124579124;
148;148_4cfd7fef412fb7e2bfb4e4cf6800400783e88901-LOC.arff;LP;103.0;103.0;1.0;0.0;0.0;4.0;0.038834951456310676;99.0;0.9611650485436893;99.0;0.9611650485436893;4.0;0.038834951456310676;73.0;0.7087378640776699;0.9611650485436893;1.0;0.8349514563106796;0.8686868686868687;0.8770226537216828;0.9124579124579124;
148;148_4cfd7fef412fb7e2bfb4e4cf6800400783e88901-LOC.arff;RAkELd;103.0;103.0;1.0;0.0;0.0;4.0;0.038834951456310676;99.0;0.9611650485436893;99.0;0.9611650485436893;4.0;0.038834951456310676;73.0;0.7087378640776699;0.9611650485436893;1.0;0.8349514563106796;0.8686868686868687;0.8770226537216828;0.9124579124579124;
151;151_87ad682eace7ceb5bc0034546f74f5be3a058ca9-LOC.arff;BR;678.0;678.0;1.0;168.0;0.24778761061946902;230.0;0.3392330383480826;280.0;0.41297935103244837;166.0;0.2448377581120944;398.0;0.5870206489675516;16.0;0.02359882005899705;0.43094771241830065;0.7849404761904761;0.20362978524743228;0.3708971088435374;0.2543775287892935;0.46333049886621314;
151;151_87ad682eace7ceb5bc0034546f74f5be3a058ca9-LOC.arff;LP;678.0;678.0;1.0;0.0;0.0;377.0;0.556047197640118;301.0;0.443952802359882;67.0;0.09882005899705015;377.0;0.556047197640118;87.0;0.12831858407079647;0.25004916420845624;0.5632336655592469;0.27748806012080346;0.6250395507040025;0.2390999118875225;0.5385705656469776;
151;151_87ad682eace7ceb5bc0034546f74f5be3a058ca9-LOC.arff;RAkELd;678.0;678.0;1.0;310.0;0.45722713864306785;146.0;0.2153392330383481;222.0;0.3274336283185841;93.0;0.13716814159292035;456.0;0.672566371681416;18.0;0.02654867256637168;0.4193840579710145;0.6951951951951952;0.2430285973084886;0.40285821535821537;0.28262163561076603;0.4684899184899185;
152;152_78a952ea672d71661caa3de4b643979e5c1d96db-LOC.arff;BR;797.0;797.0;1.0;291.0;0.36511919698870765;249.0;0.3124215809284818;257.0;0.3224592220828105;206.0;0.2584692597239649;540.0;0.6775407779171895;5.0;0.006273525721455458;0.4548418972332016;0.8955252918287938;0.19272068511198945;0.37944228274967573;0.2520744407108043;0.4963022062243852;
152;152_78a952ea672d71661caa3de4b643979e5c1d96db-LOC.arff;LP;797.0;797.0;1.0;0.0;0.0;259.0;0.32496863237139273;538.0;0.6750313676286073;252.0;0.3161856963613551;259.0;0.32496863237139273;191.0;0.2396486825595985;0.4768581585708311;0.7064237033103203;0.4336470096194061;0.6424101610904585;0.416677446351223;0.6172712355797858;
152;152_78a952ea672d71661caa3de4b643979e5c1d96db-LOC.arff;RAkELd;797.0;797.0;1.0;163.0;0.20451693851944794;222.0;0.27854454203262236;412.0;0.5169385194479298;181.0;0.22710163111668757;385.0;0.48306148055207027;85.0;0.10664993726474278;0.46703470031545746;0.7186893203883495;0.33678270992939763;0.5182530050855293;0.35102933344258264;0.5401762072878578;
153;153_935ceeb6394c6f854d84fbfe7502dae01b6f8367-LOC.arff;BR;710.0;710.0;1.0;138.0;0.19436619718309858;136.0;0.19154929577464788;436.0;0.6140845070422535;256.0;0.36056338028169016;274.0;0.38591549295774646;77.0;0.10845070422535211;0.5970571095571096;0.7832951070336391;0.3614406426906427;0.4741835954565312;0.4033855033855034;0.5292121741663026;
153;153_935ceeb6394c6f854d84fbfe7502dae01b6f8367-LOC.arff;LP;710.0;710.0;1.0;0.0;0.0;203.0;0.2859154929577465;507.0;0.7140845070422536;172.0;0.24225352112676057;203.0;0.2859154929577465;124.0;0.17464788732394365;0.4424983232729711;0.6196722081337466;0.39243460764587523;0.549563257255565;0.37095095827490193;0.5194776733238272;
153;153_935ceeb6394c6f854d84fbfe7502dae01b6f8367-LOC.arff;RAkELd;710.0;710.0;1.0;398.0;0.5605633802816902;183.0;0.2577464788732394;129.0;0.18169014084507043;80.0;0.11267605633802817;581.0;0.8183098591549296;2.0;0.0028169014084507044;0.328525641025641;0.7945736434108527;0.13752289377289378;0.33261351052048727;0.18203093203093204;0.4402608588655101;
155;155_956ca7cd27d99797b93148ef364d7fc34ac936f0-LOC.arff;BR;832.0;832.0;1.0;14.0;0.016826923076923076;306.0;0.36778846153846156;512.0;0.6153846153846154;203.0;0.2439903846153846;320.0;0.38461538461538464;25.0;0.030048076923076924;0.43357783211083945;0.6927083333333334;0.26325532658050993;0.4205915178571428;0.30169587950761545;0.4820063074945887;
155;155_956ca7cd27d99797b93148ef364d7fc34ac936f0-LOC.arff;LP;832.0;832.0;1.0;0.0;0.0;326.0;0.3918269230769231;506.0;0.6081730769230769;122.0;0.1466346153846154;326.0;0.3918269230769231;131.0;0.15745192307692307;0.33717376373626373;0.554404291360813;0.34491185897435894;0.5671277997364953;0.3248485889110889;0.5341383912530158;
155;155_956ca7cd27d99797b93148ef364d7fc34ac936f0-LOC.arff;RAkELd;832.0;832.0;1.0;178.0;0.21394230769230768;297.0;0.35697115384615385;357.0;0.42908653846153844;116.0;0.13942307692307693;475.0;0.5709134615384616;8.0;0.009615384615384616;0.35922528032619777;0.6580765639589169;0.2326725644386195;0.4262404961984794;0.2642923335583886;0.484165787527132;
156;156_0125cdcf18ce905b5de6cc0f490c93da1df1d1fc-LOC.arff;BR;246.0;246.0;1.0;17.0;0.06910569105691057;141.0;0.573170731707317;88.0;0.35772357723577236;7.0;0.028455284552845527;158.0;0.6422764227642277;0.0;0.0;0.21615720524017468;0.5625;0.13153982116864213;0.3423024891774892;0.1586677756983434;0.41289682539682543;
156;156_0125cdcf18ce905b5de6cc0f490c93da1df1d1fc-LOC.arff;LP;246.0;246.0;1.0;0.0;0.0;186.0;0.7560975609756098;60.0;0.24390243902439024;30.0;0.12195121951219512;186.0;0.7560975609756098;0.0;0.0;0.18292682926829268;0.75;0.0883855981416957;0.3623809523809524;0.1169054071493096;0.4793121693121693;
156;156_0125cdcf18ce905b5de6cc0f490c93da1df1d1fc-LOC.arff;RAkELd;246.0;246.0;1.0;17.0;0.06910569105691057;157.0;0.6382113821138211;72.0;0.2926829268292683;7.0;0.028455284552845527;174.0;0.7073170731707317;0.0;0.0;0.1804949053857351;0.5740740740740741;0.1137346641713454;0.361739417989418;0.13525681014763985;0.43019179894179893;
157;157_eca6766f586b0a38da97c6b21e4d4838e847c006-LOC.arff;BR;67.0;67.0;1.0;45.0;0.6716417910447762;7.0;0.1044776119402985;15.0;0.22388059701492538;15.0;0.22388059701492538;52.0;0.7761194029850746;3.0;0.04477611940298507;0.6818181818181818;1.0;0.4090909090909091;0.6;0.5;0.7333333333333333;
157;157_eca6766f586b0a38da97c6b21e4d4838e847c006-LOC.arff;LP;67.0;67.0;1.0;0.0;0.0;28.0;0.417910447761194;39.0;0.582089552238806;39.0;0.582089552238806;28.0;0.417910447761194;8.0;0.11940298507462686;0.582089552238806;1.0;0.35074626865671643;0.6025641025641025;0.4278606965174129;0.735042735042735;
157;157_eca6766f586b0a38da97c6b21e4d4838e847c006-LOC.arff;RAkELd;67.0;67.0;1.0;0.0;0.0;28.0;0.417910447761194;39.0;0.582089552238806;39.0;0.582089552238806;28.0;0.417910447761194;8.0;0.11940298507462686;0.582089552238806;1.0;0.35074626865671643;0.6025641025641025;0.4278606965174129;0.735042735042735;
158;158_b7261cb7d2fe73e24b9b2651e1070132de77bda2-LOC.arff;BR;357.0;357.0;1.0;67.0;0.1876750700280112;82.0;0.22969187675070027;208.0;0.5826330532212886;178.0;0.49859943977591037;149.0;0.4173669467787115;25.0;0.0700280112044818;0.6708620689655173;0.9353365384615385;0.34262725779967157;0.47770146520146517;0.42156913967258797;0.5877646658896659;
158;158_b7261cb7d2fe73e24b9b2651e1070132de77bda2-LOC.arff;LP;357.0;357.0;1.0;0.0;0.0;215.0;0.6022408963585434;142.0;0.39775910364145656;68.0;0.19047619047619047;215.0;0.6022408963585434;61.0;0.17086834733893558;0.29831932773109243;0.75;0.2849873282646392;0.7164822266934943;0.27950351857914885;0.7026954657236347;
158;158_b7261cb7d2fe73e24b9b2651e1070132de77bda2-LOC.arff;RAkELd;357.0;357.0;1.0;220.0;0.6162464985994398;10.0;0.028011204481792718;127.0;0.3557422969187675;89.0;0.24929971988795518;230.0;0.6442577030812325;14.0;0.0392156862745098;0.7980535279805352;0.8608923884514436;0.5004866180048662;0.5398950131233595;0.5814389989572472;0.6272215973003374;
161;161_1234c65895cdf69c37f097cfd4b398c89a2ca895-LOC.arff;BR;64.0;64.0;1.0;63.0;0.984375;1.0;0.015625;0.0;0.0;0.0;0.0;64.0;1.0;0.0;0.0;0.0;0.0;0.0;0.0;0.0;0.0;
161;161_1234c65895cdf69c37f097cfd4b398c89a2ca895-LOC.arff;LP;64.0;64.0;1.0;0.0;0.0;57.0;0.890625;7.0;0.109375;7.0;0.109375;57.0;0.890625;0.0;0.0;0.109375;1.0;0.0546875;0.5;0.07291666666666666;0.6666666666666666;
161;161_1234c65895cdf69c37f097cfd4b398c89a2ca895-LOC.arff;RAkELd;64.0;64.0;1.0;0.0;0.0;64.0;1.0;0.0;0.0;0.0;0.0;64.0;1.0;0.0;0.0;0.0;0.0;0.0;0.0;0.0;0.0;
162;162_3cc07f679c1ad20289d31cdd30837b6f0aebe2f8-LOC.arff;BR;51.0;51.0;1.0;23.0;0.45098039215686275;28.0;0.5490196078431373;0.0;0.0;0.0;0.0;51.0;1.0;0.0;0.0;0.0;0.0;0.0;0.0;0.0;0.0;
162;162_3cc07f679c1ad20289d31cdd30837b6f0aebe2f8-LOC.arff;LP;51.0;51.0;1.0;0.0;0.0;28.0;0.5490196078431373;23.0;0.45098039215686275;0.0;0.0;28.0;0.5490196078431373;23.0;0.45098039215686275;0.22549019607843138;0.5;0.45098039215686275;1.0;0.3006535947712418;0.6666666666666666;
162;162_3cc07f679c1ad20289d31cdd30837b6f0aebe2f8-LOC.arff;RAkELd;51.0;51.0;1.0;51.0;1.0;0.0;0.0;0.0;0.0;0.0;0.0;51.0;1.0;0.0;0.0;0.0;0.0;0.0;0.0;0.0;0.0;
163;163_58bbc0aa99753e917efe16aa0dd1149ecdbf6aa1-LOC.arff;BR;52.0;52.0;1.0;6.0;0.11538461538461539;17.0;0.3269230769230769;29.0;0.5576923076923077;24.0;0.46153846153846156;23.0;0.4423076923076923;23.0;0.4423076923076923;0.5760869565217391;0.9137931034482759;0.5652173913043478;0.896551724137931;0.5507246376811594;0.8735632183908045;
163;163_58bbc0aa99753e917efe16aa0dd1149ecdbf6aa1-LOC.arff;LP;52.0;52.0;1.0;0.0;0.0;16.0;0.3076923076923077;36.0;0.6923076923076923;24.0;0.46153846153846156;16.0;0.3076923076923077;31.0;0.5961538461538461;0.5769230769230769;0.8333333333333334;0.6442307692307693;0.9305555555555556;0.5833333333333333;0.8425925925925926;
163;163_58bbc0aa99753e917efe16aa0dd1149ecdbf6aa1-LOC.arff;RAkELd;52.0;52.0;1.0;7.0;0.1346153846153846;17.0;0.3269230769230769;28.0;0.5384615384615384;15.0;0.28846153846153844;24.0;0.46153846153846156;22.0;0.4230769230769231;0.4777777777777778;0.7678571428571429;0.5555555555555556;0.8928571428571429;0.4814814814814815;0.7738095238095238;
