commit;Dataset;NumOfInstances;NumOfLabels;Cardinality;MeanIR;CVIR;MaxIRLb;MinIRLb;MaxImR;MinImR;Scumble;
100;100_170d98a788cada7e6976fc7059fd48efa5f9433a-LOC.arff;611.0;25.0;2.0965630114566283;13.930570945880053;2.0190861112609237;119.5;1.0;304.5;1.5564853556485356;0.06689063033853017;
101;101_72233b62009781f52df97a7ed58f00f52764cd08-LOC.arff;611.0;25.0;2.0965630114566283;13.930570945880053;2.0190861112609237;119.5;1.0;304.5;1.5564853556485356;0.06689063033853017;
102;102_a6e82fc831ef68d087247d64e55a0859d3daa49b-LOC.arff;611.0;25.0;2.0965630114566283;13.930570945880053;2.0190861112609237;119.5;1.0;304.5;1.5564853556485356;0.06689063033853017;
103;103_bfa564b81a8445d867a1a502868547c08ae7ad6a-LOC.arff;611.0;25.0;2.0965630114566283;13.930570945880053;2.0190861112609237;119.5;1.0;304.5;1.5564853556485356;0.06689063033853017;
104;104_e18ad7e9d2fb3b34dff04bb3673d0936d28b6254-LOC.arff;611.0;25.0;2.0965630114566283;13.930570945880053;2.0190861112609237;119.5;1.0;304.5;1.5564853556485356;0.06689063033853017;
105;105_8e0a9c9d4b56543d4831f5db223438409f16ec9f-LOC.arff;611.0;25.0;2.0965630114566283;13.930570945880053;2.0190861112609237;119.5;1.0;304.5;1.5564853556485356;0.06689063033853017;
106;106_9beb91f475006d702261b0afe2ca588009c417fe-LOC.arff;611.0;25.0;2.0965630114566283;13.930570945880053;2.0190861112609237;119.5;1.0;304.5;1.5564853556485356;0.06689063033853017;
107;107_7fadfaa725eb44af2d806a6a3aa35b16ae371ff8-LOC.arff;632.0;25.0;2.180379746835443;13.66581543080952;2.0590669077154176;119.5;1.0;315.0;1.6443514644351465;0.06414477793200746;
108;108_69720a40bf191c4c154feee060ac050397db4291-LOC.arff;655.0;25.0;2.288549618320611;14.714420659649477;2.1313098509116277;133.0;1.0;326.5;1.462406015037594;0.0613332084729846;
109;109_e4772e1675fd680dd4fcc212da62430b052df737-LOC.arff;659.0;25.0;2.3019726858877085;7.991858872215325;0.9893616687042341;22.166666666666668;1.0;53.833333333333336;1.4736842105263157;0.06555020881314405;
10;10_dcc808185f4a3b2559d22e551919e792b2565ec1-LOC.arff;51.0;17.0;1.2745098039215685;4.256025641025641;0.9678548282427014;14.0;1.0;50.0;2.642857142857143;0.02654233588432462;
110;110_02053cbb9cd01f6f4f42bb91f47fd833d725632f-LOC.arff;659.0;25.0;2.3019726858877085;7.991858872215325;0.9893616687042341;22.166666666666668;1.0;53.916666666666664;1.4774436090225564;0.06555020881314405;
111;111_81e50e1ff31efbad335a3ecd78c36bca138985d5-LOC.arff;659.0;25.0;2.3019726858877085;7.991858872215325;0.9893616687042341;22.166666666666668;1.0;53.916666666666664;1.4774436090225564;0.06555020881314405;
112;112_2ac838a86290cda81b832ef110afbc4056bcfc4f-LOC.arff;659.0;25.0;2.3019726858877085;7.991858872215325;0.9893616687042341;22.166666666666668;1.0;53.916666666666664;1.4774436090225564;0.06555020881314405;
113;113_c77d143daee5b88418ea1b447708434f8d3241cc-LOC.arff;671.0;25.0;2.366616989567809;8.621661720262415;1.020109186927895;23.916666666666668;1.0;54.916666666666664;1.3379790940766552;0.06097239233336005;
114;114_6598311759d669d240aedb0ebcb5c3bb3d695172-LOC.arff;671.0;25.0;2.366616989567809;8.621661720262415;1.020109186927895;23.916666666666668;1.0;54.916666666666664;1.3379790940766552;0.06097239233336005;
115;115_0cc320cee1b10428c462ac68b0644004e3a69053-LOC.arff;671.0;25.0;2.366616989567809;8.621661720262415;1.020109186927895;23.916666666666668;1.0;54.916666666666664;1.3379790940766552;0.06097239233336005;
116;116_5d70c81ad2526adc9210c20dfeae9549761d83f9-LOC.arff;691.0;26.0;2.366136034732272;9.644688133929439;0.9969338809266871;26.09090909090909;1.0;61.81818181818182;1.4076655052264808;0.06742731825033141;
117;117_f7cbe1b67fe1ef68e553f67da1d9cc3c0a16e9a9-LOC.arff;691.0;26.0;2.366136034732272;9.644688133929439;0.9969338809266871;26.09090909090909;1.0;61.81818181818182;1.4076655052264808;0.06742731825033141;
118;118_db3c0e3caf046b10bc29ef8a051430ee7c7580c8-LOC.arff;712.0;26.0;2.4719101123595504;8.79010927125886;1.048599547121182;26.272727272727273;1.0;63.72727272727273;1.4636678200692042;0.07719661265776903;
119;119_7e073dec295fde04eea17388db5d67739243e4f9-LOC.arff;713.0;26.0;2.4712482468443198;8.780969306652068;1.049946786478559;26.272727272727273;1.0;63.81818181818182;1.467128027681661;0.07717996332914738;
11;11_9bf8b2fda3eb5feee5a8fa644dd2a559fea95fc5-LOC.arff;51.0;17.0;1.2745098039215685;4.256025641025641;0.9678548282427014;14.0;1.0;50.0;2.642857142857143;0.02654233588432462;
120;120_5fb9be28bbfcdfad3bcec2788f55f87c685fae3b-LOC.arff;713.0;26.0;2.4712482468443198;8.780969306652068;1.049946786478559;26.272727272727273;1.0;63.81818181818182;1.467128027681661;0.07717996332914738;
121;121_72f38ce783acc2de369b8ec92b10b2a2953baee9-LOC.arff;740.0;26.0;2.4283783783783783;8.19998173572958;1.061253701820577;26.272727272727273;1.0;66.27272727272727;1.560553633217993;0.07301191994680284;
122;122_0eb6624c8ccb165e8ae638ed07905380ceabedee-LOC.arff;740.0;26.0;2.4283783783783783;8.19998173572958;1.061253701820577;26.272727272727273;1.0;66.27272727272727;1.560553633217993;0.07301191994680284;
123;123_d74a45886ca4f6bac539dced1606e18a0d9c10a1-LOC.arff;740.0;26.0;2.4283783783783783;8.19998173572958;1.061253701820577;26.272727272727273;1.0;66.27272727272727;1.560553633217993;0.07301191994680284;
124;124_dedd036e78209467b61c048a465b51035ad0e395-LOC.arff;740.0;26.0;2.4283783783783783;8.19998173572958;1.061253701820577;26.272727272727273;1.0;66.27272727272727;1.560553633217993;0.07301191994680284;
125;125_c788062f4afa815da069ba62783435db249ca8f2-LOC.arff;752.0;26.0;2.4069148936170213;8.180382054816233;1.0651298074970252;26.272727272727273;1.0;67.36363636363636;1.602076124567474;0.07169799419343403;
126;126_50fad30df1cddaa9e292554f0b25957978d705c0-LOC.arff;767.0;26.0;2.444589308996089;8.937327509595853;1.0729153768638133;29.545454545454547;1.0;68.72727272727273;1.36;0.07319249468440128;
127;127_71f987e0d06152d6f802b7e861fc362403762b10-LOC.arff;767.0;26.0;2.4719687092568448;9.366228097976995;1.075021160183976;31.0;1.0;68.72727272727273;1.249266862170088;0.0757929506416159;
128;128_427e104c2d7f815f2f303213cf610fe8bd245c72-LOC.arff;776.0;26.0;2.4780927835051547;8.989193788610047;1.0436480186356596;31.181818181818183;1.0;69.54545454545455;1.2623906705539358;0.07694919332101811;
129;129_e5de23d6bf3268c5d1ed4474bd8395bce59bcb31-LOC.arff;779.0;26.0;2.472400513478819;8.978006573998176;1.0455367637992043;31.181818181818183;1.0;69.81818181818181;1.271137026239067;0.07679800025232117;
12;12_e46599f1f292d4b51ae368dbd3f46ea83a7bc0c1-LOC.arff;52.0;17.0;1.2692307692307692;4.248333333333333;0.9711756200574739;14.0;1.0;51.0;2.7142857142857144;0.026031906348087608;
130;130_3e118c808ac9ca1545eb333227cc1de39d7844d6-LOC.arff;779.0;26.0;2.472400513478819;8.978006573998176;1.0455367637992043;31.181818181818183;1.0;69.81818181818181;1.271137026239067;0.07679800025232117;
131;131_2c66a92ba29d45f4f4db2c90d440f4e7a1d10f08-LOC.arff;779.0;26.0;2.472400513478819;8.978006573998176;1.0455367637992043;31.181818181818183;1.0;69.81818181818181;1.271137026239067;0.07679800025232117;
132;132_d53162d4f53ccdb88f8f2ea9677329ad288e3dd8-LOC.arff;804.0;26.0;2.496268656716418;8.090282094672547;0.9932797169824659;24.571428571428573;1.0;56.42857142857143;1.3372093023255813;0.07843928933253673;
133;133_f3d5b2f4e0a0a86ad1f3413022d8007116f70d89-LOC.arff;804.0;26.0;2.496268656716418;8.090282094672547;0.9932797169824659;24.571428571428573;1.0;56.42857142857143;1.3372093023255813;0.07843928933253673;
134;134_86a93fe0d56ecb887a3addde720aa2724c9cecac-LOC.arff;804.0;26.0;2.496268656716418;8.090282094672547;0.9932797169824659;24.571428571428573;1.0;56.42857142857143;1.3372093023255813;0.07843928933253673;
135;135_6f2f4fabad02a38eea6a8d06152a70310c9ed222-LOC.arff;804.0;26.0;2.496268656716418;8.090282094672547;0.9932797169824659;24.571428571428573;1.0;56.42857142857143;1.3372093023255813;0.07843928933253673;
136;136_250e21e1000c14bf32395ce19df4ee68cc2b9695-LOC.arff;804.0;26.0;2.496268656716418;8.090282094672547;0.9932797169824659;24.571428571428573;1.0;56.42857142857143;1.3372093023255813;0.07843928933253673;
137;137_f37658f48055911f2ac31bc82c15bb6eaccf8228-LOC.arff;804.0;26.0;2.496268656716418;8.090282094672547;0.9932797169824659;24.571428571428573;1.0;56.42857142857143;1.3372093023255813;0.07843928933253673;
138;138_9c02503f01478acb3ca64655c7de1488e7eb9500-LOC.arff;804.0;26.0;2.496268656716418;8.090282094672547;0.9932797169824659;24.571428571428573;1.0;56.42857142857143;1.3372093023255813;0.07843928933253673;
139;139_b893fc56df181c0bd90303135564c28b90f3fb4d-LOC.arff;804.0;27.0;2.496268656716418;8.090282094672547;0.9932797169824659;24.571428571428573;1.0;56.42857142857143;1.3372093023255813;0.07843928933253673;
13;13_420d619c7e9e8286e44e5e61645b7385d1e07d4d-LOC.arff;52.0;17.0;1.2692307692307692;4.248333333333333;0.9711756200574739;14.0;1.0;51.0;2.7142857142857144;0.026031906348087608;
140;140_aa6c880b8cde7f425efd1b57a1a3eefd9bb39f39-LOC.arff;832.0;27.0;2.449519230769231;7.795910294478828;1.0126921826838617;24.571428571428573;1.0;58.42857142857143;1.4186046511627908;0.07621616600931085;
141;141_5abbfbed6ab735ca92637637c76a4c3fe558eb42-LOC.arff;832.0;27.0;2.449519230769231;7.795910294478828;1.0126921826838617;24.571428571428573;1.0;58.42857142857143;1.4186046511627908;0.07621616600931085;
142;142_fea98ef906bd11fc42f3f0d272fd76015496201c-LOC.arff;841.0;27.0;2.4387633769322234;7.765191712548271;1.0178733446891393;24.571428571428573;1.0;59.07142857142857;1.444767441860465;0.07508751308899028;
143;143_e23e91c882cbfb52f47f5617e621459350f3fe38-LOC.arff;841.0;27.0;2.4375743162901307;7.7654548422620415;1.017809399562242;24.571428571428573;1.0;59.07142857142857;1.444767441860465;0.0749937575317414;
144;144_05fbbcf48a0710c29e67cfaf2d39a12b2d17ff04-LOC.arff;843.0;27.0;2.435349940688019;7.760646297519808;1.018845326018933;24.571428571428573;1.0;59.214285714285715;1.4505813953488371;0.07446192062845598;
145;145_9e32bb6b85d9eb129437616a3ae3021865b76d56-LOC.arff;843.0;27.0;2.435349940688019;7.760646297519808;1.018845326018933;24.571428571428573;1.0;59.214285714285715;1.4505813953488371;0.07446192062845598;
146;146_91177058a0f52c25b501205a628e1f1e68b868d6-LOC.arff;843.0;27.0;2.4377224199288254;7.758871160606016;1.0192305971543527;24.571428571428573;1.0;59.214285714285715;1.4505813953488371;0.074422484575072;
147;147_01955f4f4df4579405a8bb1868f60af30e9a028b-LOC.arff;856.0;27.0;2.428738317757009;7.478836057399693;1.0415969930081876;24.571428571428573;1.0;60.07142857142857;1.4854651162790697;0.07204418097735447;
148;148_4cfd7fef412fb7e2bfb4e4cf6800400783e88901-LOC.arff;858.0;27.0;2.4254079254079253;7.474855819742479;1.042438650912768;24.571428571428573;1.0;60.285714285714285;1.494186046511628;0.07198036824897346;
149;149_a3862fc69053415592fdfb43a903d56e568b89c3-LOC.arff;864.0;27.0;2.4189814814814814;7.421240558113577;1.0507400886457987;24.571428571428573;1.0;60.642857142857146;1.5087209302325582;0.0712165907227332;
14;14_71e4840ffd0f918a662de8f6dfe57fc3e81a4313-LOC.arff;52.0;17.0;1.2692307692307692;4.248333333333333;0.9711756200574739;14.0;1.0;51.0;2.7142857142857144;0.026031906348087608;
150;150_b0d82c6c6964727870654875d8cd83ec82359b1e-LOC.arff;864.0;27.0;2.4189814814814814;7.421240558113577;1.0507400886457987;24.571428571428573;1.0;60.714285714285715;1.5116279069767442;0.0712165907227332;
151;151_87ad682eace7ceb5bc0034546f74f5be3a058ca9-LOC.arff;864.0;27.0;2.4189814814814814;7.421240558113577;1.0507400886457987;24.571428571428573;1.0;60.714285714285715;1.5116279069767442;0.0712165907227332;
152;152_78a952ea672d71661caa3de4b643979e5c1d96db-LOC.arff;953.0;27.0;2.373557187827912;7.339907991548803;1.0822637001772057;24.785714285714285;1.0;67.07142857142857;1.7463976945244957;0.07172987984350579;
153;153_935ceeb6394c6f854d84fbfe7502dae01b6f8367-LOC.arff;1062.0;27.0;2.3625235404896423;8.047821622862566;1.119684474314211;28.857142857142858;1.0;74.85714285714286;1.6287128712871286;0.07211009204005071;
154;154_049a6a9c591b20f413c2cd9bbf74ac8541079810-LOC.arff;1177.0;27.0;2.3610875106202207;8.120489119238233;1.091997498479752;29.466666666666665;1.0;77.46666666666667;1.66289592760181;0.0700415414226987;
155;155_956ca7cd27d99797b93148ef364d7fc34ac936f0-LOC.arff;1180.0;27.0;2.360169491525424;8.081048194177303;1.0923146442509408;29.466666666666665;1.0;77.66666666666667;1.669683257918552;0.07020107450643326;
156;156_0125cdcf18ce905b5de6cc0f490c93da1df1d1fc-LOC.arff;1335.0;27.0;2.2531835205992508;7.893626315706175;1.1484269018544722;31.0;1.0;87.93333333333334;1.8709677419354838;0.06807314850624176;
157;157_eca6766f586b0a38da97c6b21e4d4838e847c006-LOC.arff;1335.0;27.0;2.252434456928839;7.894377066456926;1.1482578460061765;31.0;1.0;88.0;1.8709677419354838;0.06815849134767281;
158;158_b7261cb7d2fe73e24b9b2651e1070132de77bda2-LOC.arff;1337.0;27.0;2.2520568436798802;7.871106718431676;1.1516519023004366;31.0;1.0;88.13333333333334;1.875268817204301;0.0680730742757599;
159;159_59f54c410a5e255a68d544f9d1aa81606a45fc59-LOC.arff;1337.0;27.0;2.2528047868362004;7.887338940360954;1.1518078484918235;31.066666666666666;1.0;88.13333333333334;1.8690987124463518;0.06798804740137418;
15;15_b593c06eeaba63b736925d47e3a522093724e6d4-LOC.arff;52.0;17.0;1.2692307692307692;4.248333333333333;0.9711756200574739;14.0;1.0;51.0;2.7142857142857144;0.026031906348087608;
160;160_cc550f709d9b780cf53321763cebc650060acb0c-LOC.arff;1337.0;27.0;2.2528047868362004;7.887338940360954;1.1518078484918235;31.066666666666666;1.0;88.13333333333334;1.8690987124463518;0.06798804740137418;
161;161_1234c65895cdf69c37f097cfd4b398c89a2ca895-LOC.arff;1337.0;27.0;2.2528047868362004;7.887338940360954;1.1518078484918235;31.066666666666666;1.0;88.13333333333334;1.8690987124463518;0.06798804740137418;
162;162_3cc07f679c1ad20289d31cdd30837b6f0aebe2f8-LOC.arff;1380.0;28.0;2.2268115942028985;7.874286588883803;1.1212347414779933;31.066666666666666;1.0;91.0;1.96137339055794;0.06687970807755393;
163;163_58bbc0aa99753e917efe16aa0dd1149ecdbf6aa1-LOC.arff;1392.0;28.0;2.2176724137931036;7.799233382096343;1.133071518790196;31.066666666666666;1.0;91.8;1.9871244635193133;0.06605237733243344;
164;164_71f05b720b3e19ded5c53c383cf4a576d745da52-LOC.arff;1392.0;28.0;2.2241379310344827;7.734348948790855;1.1423300315375984;31.066666666666666;1.0;91.73333333333333;1.9849785407725322;0.06578732947391336;
165;165_2590a4bd911dd12c5a704907e2917fbc35624646-LOC.arff;1392.0;28.0;2.2241379310344827;7.734348948790855;1.1423300315375984;31.066666666666666;1.0;91.8;1.9871244635193133;0.06578732947391336;
166;166_9d9778937f6a1e1b152c21849a6e7dc5afa2c2b4-LOC.arff;1392.0;28.0;2.2241379310344827;7.734348948790855;1.1423300315375984;31.066666666666666;1.0;91.8;1.9871244635193133;0.06578732947391336;
167;167_6eea3fa00b15b02e939339dfc7874c19f18be03f-LOC.arff;1392.0;28.0;2.2241379310344827;7.734348948790855;1.1423300315375984;31.066666666666666;1.0;91.8;1.9871244635193133;0.06578732947391336;
168;168_40b6557be8e6d315dc73e149376910a949f7289f-LOC.arff;1392.0;28.0;2.2241379310344827;7.734348948790855;1.1423300315375984;31.066666666666666;1.0;91.8;1.9871244635193133;0.06578732947391336;
169;169_c07cf0af303a742281ebd8c4d0f78ed21a60eadb-LOC.arff;1392.0;28.0;2.2241379310344827;7.734348948790855;1.1423300315375984;31.066666666666666;1.0;91.8;1.9871244635193133;0.06578732947391336;
16;16_35d08fb288b4c5ec581567ab2faa6f6c9dbc34ef-LOC.arff;52.0;17.0;1.2692307692307692;4.248333333333333;0.9711756200574739;14.0;1.0;51.0;2.7142857142857144;0.026031906348087608;
170;170_42a9dfb65b1ecd5fdef3b0a39873f0cde803e9da-LOC.arff;1392.0;28.0;2.2241379310344827;7.734348948790855;1.1423300315375984;31.066666666666666;1.0;91.8;1.9871244635193133;0.06578732947391336;
171;171_0ec1dc82ebccdbfde009a95d65197d1db01d4487-LOC.arff;1392.0;28.0;2.2241379310344827;7.734348948790855;1.1423300315375984;31.066666666666666;1.0;91.8;1.9871244635193133;0.06578732947391336;
172;172_c94851b1c2cb63622e4a15e10bdd4046e940c474-LOC.arff;1392.0;28.0;2.2241379310344827;7.734348948790855;1.1423300315375984;31.066666666666666;1.0;91.8;1.9871244635193133;0.06578732947391336;
173;173_666a6b98d07e89b089a0c0145c098c66eb3e84f0-LOC.arff;1392.0;28.0;2.2241379310344827;7.734348948790855;1.1423300315375984;31.066666666666666;1.0;91.8;1.9871244635193133;0.06578732947391336;
174;174_fc3b606c2b6111a9769dbc3698649e4360e29a52-LOC.arff;1392.0;28.0;2.2241379310344827;7.734348948790855;1.1423300315375984;31.066666666666666;1.0;91.8;1.9871244635193133;0.06578732947391336;
175;175_915f4e9ac62160fdc8e4654021a67a431b294ec2-LOC.arff;1392.0;28.0;2.2241379310344827;7.734348948790855;1.1423300315375984;31.066666666666666;1.0;91.8;1.9871244635193133;0.06578732947391336;
176;176_e607b678738c3de27d095bb378ebeeb4c3591b4e-LOC.arff;1392.0;28.0;2.2241379310344827;7.734348948790855;1.1423300315375984;31.066666666666666;1.0;91.8;1.9871244635193133;0.06578732947391336;
177;177_66f8e9e7f523f7dcb3dfeee8e21c08b92dee549f-LOC.arff;1392.0;28.0;2.2241379310344827;7.734348948790855;1.1423300315375984;31.066666666666666;1.0;91.8;1.9871244635193133;0.06578732947391336;
178;178_8926a6b2881ae4620fbbf4ff24fc69a40a3af024-LOC.arff;1392.0;28.0;2.2241379310344827;7.734348948790855;1.1423300315375984;31.066666666666666;1.0;91.8;1.9871244635193133;0.06578732947391336;
179;179_d063eab8beacae04aef71c5ed957516f6666f557-LOC.arff;1392.0;28.0;2.2241379310344827;7.734348948790855;1.1423300315375984;31.066666666666666;1.0;91.8;1.9871244635193133;0.06578732947391336;
17;17_da3e20a4618706b4fefe6668860120973f261174-LOC.arff;52.0;17.0;1.2692307692307692;4.248333333333333;0.9711756200574739;14.0;1.0;51.0;2.7142857142857144;0.026031906348087608;
180;180_fbec0bbf6af01582f51eaeb4624098c1468a1ed2-LOC.arff;1392.0;28.0;2.2241379310344827;7.734348948790855;1.1423300315375984;31.066666666666666;1.0;91.8;1.9871244635193133;0.06578732947391336;
181;181_9503f73e82fae8ccbf770a19f72fedc703da1a0c-LOC.arff;1392.0;28.0;2.2241379310344827;7.734348948790855;1.1423300315375984;31.066666666666666;1.0;91.8;1.9871244635193133;0.06578732947391336;
182;182_3e564b5a5da95f0d5e41fc6d87ed18c4b5ac2aff-LOC.arff;1392.0;28.0;2.2241379310344827;7.734348948790855;1.1423300315375984;31.066666666666666;1.0;91.8;1.9871244635193133;0.06578732947391336;
183;183_4b0751d2cbefc1598c76b5aaac09c4dd2ef7eb9b-LOC.arff;1392.0;28.0;2.2241379310344827;7.734348948790855;1.1423300315375984;31.066666666666666;1.0;91.8;1.9871244635193133;0.06578732947391336;
184;184_23b4032ee41933869556a5db464cf0787247523c-LOC.arff;1392.0;28.0;2.2241379310344827;7.734348948790855;1.1423300315375984;31.066666666666666;1.0;91.8;1.9871244635193133;0.06578732947391336;
185;185_0fd22a6e60b6168d87185c1b2b498b0dfd791be8-LOC.arff;1392.0;28.0;2.2241379310344827;7.734348948790855;1.1423300315375984;31.066666666666666;1.0;91.8;1.9871244635193133;0.06578732947391336;
186;186_d965bd5f872b97c886c1705be6785b696fdedf08-LOC.arff;1392.0;28.0;2.2241379310344827;7.734348948790855;1.1423300315375984;31.066666666666666;1.0;91.8;1.9871244635193133;0.06578732947391336;
187;187_b04dff9edd209467c76fd53134e66621e84b0fdd-LOC.arff;1392.0;28.0;2.2241379310344827;7.734348948790855;1.1423300315375984;31.066666666666666;1.0;91.8;1.9871244635193133;0.06578732947391336;
188;188_6764942e83ebe72fcd37078b0e87058539756e1d-LOC.arff;1392.0;28.0;2.2241379310344827;7.734348948790855;1.1423300315375984;31.066666666666666;1.0;91.8;1.9871244635193133;0.06578732947391336;
189;189_01130284dce1f40a654c6d8113a1d18c347e5c0b-LOC.arff;1392.0;28.0;2.2241379310344827;7.734348948790855;1.1423300315375984;31.066666666666666;1.0;91.8;1.9871244635193133;0.06578732947391336;
18;18_f9744676f5fc2b1cd17e1d529e834a1aa25baedb-LOC.arff;54.0;17.0;1.2592592592592593;4.840952380952381;0.976664248464968;16.0;1.0;53.0;2.375;0.025067761668528817;
190;190_b6c2515558cc3e51b5bdf748e66c7bdd5131a0a6-LOC.arff;1392.0;28.0;2.2241379310344827;7.734348948790855;1.1423300315375984;31.066666666666666;1.0;91.8;1.9871244635193133;0.06578732947391336;
191;191_88d631042c17c540e66208551c9c27d1cce26a0d-LOC.arff;1392.0;28.0;2.2241379310344827;7.734348948790855;1.1423300315375984;31.066666666666666;1.0;91.8;1.9871244635193133;0.06578732947391336;
192;192_3f73588db6d65e30fb577d79494d9a822b925040-LOC.arff;1392.0;28.0;2.2241379310344827;7.734348948790855;1.1423300315375984;31.066666666666666;1.0;91.8;1.9871244635193133;0.06578732947391336;
193;193_eec4954b22f6700e683baec40d2f8625839fa3e7-LOC.arff;1392.0;28.0;2.2241379310344827;7.734348948790855;1.1423300315375984;31.066666666666666;1.0;91.8;1.9871244635193133;0.06578732947391336;
194;194_20ce0ee1d289b40cd4287d92e230aa4598b86c91-LOC.arff;1392.0;28.0;2.2241379310344827;7.734348948790855;1.1423300315375984;31.066666666666666;1.0;91.8;1.9871244635193133;0.06578732947391336;
195;195_f369a167be6d5ae093b081dcf7097d6b28352296-LOC.arff;1392.0;28.0;2.2241379310344827;7.734348948790855;1.1423300315375984;31.066666666666666;1.0;91.8;1.9871244635193133;0.06578732947391336;
196;196_2900948421f8c8b19e99c8c0ef04e98c0a637eb1-LOC.arff;1392.0;28.0;2.2241379310344827;7.734348948790855;1.1423300315375984;31.066666666666666;1.0;91.8;1.9871244635193133;0.06578732947391336;
197;197_7c34dd9d7ea7e389aa0e79c0fccc8469e1889955-LOC.arff;1392.0;28.0;2.2241379310344827;7.734348948790855;1.1423300315375984;31.066666666666666;1.0;91.8;1.9871244635193133;0.06578732947391336;
198;198_cee6ec092e7024f829272df8c965ba2f22daf284-LOC.arff;1392.0;28.0;2.2241379310344827;7.734348948790855;1.1423300315375984;31.066666666666666;1.0;91.8;1.9871244635193133;0.06578732947391336;
199;199_7ec1c4f5ef0d9efdb6f3a8c6afdcc3bf654cede9-LOC.arff;1392.0;28.0;2.2241379310344827;7.734348948790855;1.1423300315375984;31.066666666666666;1.0;91.8;1.9871244635193133;0.06578732947391336;
19;19_8801d730480d660370094d13c6490c8ccd763ca8-LOC.arff;54.0;17.0;1.2592592592592593;4.840952380952381;0.976664248464968;16.0;1.0;53.0;2.375;0.025067761668528817;
200;200_9234c50e0d4156011884eb8d6f23ccf29c0085a5-LOC.arff;1392.0;28.0;2.2241379310344827;7.734348948790855;1.1423300315375984;31.066666666666666;1.0;91.8;1.9871244635193133;0.06578732947391336;
201;201_1673cd504058ee7a2c9064f8a7d5cf8da43e4aab-LOC.arff;1392.0;28.0;2.2241379310344827;7.734348948790855;1.1423300315375984;31.066666666666666;1.0;91.8;1.9871244635193133;0.06578732947391336;
202;202_477ba3df30a39c3e00bd6885adc9036f3be5985e-LOC.arff;1392.0;28.0;2.2241379310344827;7.734348948790855;1.1423300315375984;31.066666666666666;1.0;91.8;1.9871244635193133;0.06578732947391336;
203;203_6cc3825d0d204bf0e9db5aa9b0626fcdfa09a920-LOC.arff;1392.0;28.0;2.2241379310344827;7.734348948790855;1.1423300315375984;31.066666666666666;1.0;91.8;1.9871244635193133;0.06578732947391336;
204;204_4e95c383e25d4d04592b8e4edb912d263d356aa3-LOC.arff;1392.0;28.0;2.2241379310344827;7.734348948790855;1.1423300315375984;31.066666666666666;1.0;91.8;1.9871244635193133;0.06578732947391336;
205;205_a41fa6dcd8212675aab512b1ebb79da21ec9569d-LOC.arff;1392.0;28.0;2.2241379310344827;7.734348948790855;1.1423300315375984;31.066666666666666;1.0;91.8;1.9871244635193133;0.06578732947391336;
206;206_778fec0492cff9083ed1f9c778a34e255cbcd135-LOC.arff;1392.0;28.0;2.2241379310344827;7.734348948790855;1.1423300315375984;31.066666666666666;1.0;91.8;1.9871244635193133;0.06578732947391336;
207;207_a50576fc9efbd12b1984585332eef65eb9c07344-LOC.arff;1392.0;28.0;2.2241379310344827;7.734348948790855;1.1423300315375984;31.066666666666666;1.0;91.8;1.9871244635193133;0.06578732947391336;
208;208_e50186b77a54aad40df8bf94eb43f7023d70c7c0-LOC.arff;1392.0;28.0;2.2241379310344827;7.734348948790855;1.1423300315375984;31.066666666666666;1.0;91.8;1.9871244635193133;0.06578732947391336;
209;209_90482a6ef61518c1e65a9971396fa133a5b137c1-LOC.arff;1392.0;28.0;2.2241379310344827;7.734348948790855;1.1423300315375984;31.066666666666666;1.0;91.8;1.9871244635193133;0.06578732947391336;
20;20_efa08edd831faabee1ca5dae56561504f1435e16-LOC.arff;54.0;18.0;1.2592592592592593;4.840952380952381;0.976664248464968;16.0;1.0;53.0;2.375;0.025067761668528817;
210;210_1046838353fd071ad4145f682303d8ddf1867db9-LOC.arff;1392.0;28.0;2.2241379310344827;7.734348948790855;1.1423300315375984;31.066666666666666;1.0;91.8;1.9871244635193133;0.06578732947391336;
211;211_3a532d7651d86ce5dd648b541227ad269703d2b6-LOC.arff;1392.0;28.0;2.2241379310344827;7.734348948790855;1.1423300315375984;31.066666666666666;1.0;91.8;1.9871244635193133;0.06578732947391336;
212;212_230d2a1730965389fafe382165a114ae53baf03f-LOC.arff;1392.0;28.0;2.2241379310344827;7.734348948790855;1.1423300315375984;31.066666666666666;1.0;91.8;1.9871244635193133;0.06578732947391336;
213;213_175bbfa5710987fa8a876ed0f49f5b893a81f7b9-LOC.arff;1392.0;28.0;2.2241379310344827;7.734348948790855;1.1423300315375984;31.066666666666666;1.0;91.8;1.9871244635193133;0.06578732947391336;
214;214_35b1bf05389ba720056879b3bb363c6db59ab778-LOC.arff;1392.0;28.0;2.2241379310344827;7.734348948790855;1.1423300315375984;31.066666666666666;1.0;91.8;1.9871244635193133;0.06578732947391336;
215;215_8f1eec1a4b7e4923a68818f199a16b13ea1394f1-LOC.arff;1392.0;28.0;2.2241379310344827;7.734348948790855;1.1423300315375984;31.066666666666666;1.0;91.8;1.9871244635193133;0.06578732947391336;
216;216_dbe959e62578338d3415786b92f9ad02c7a88cb2-LOC.arff;1392.0;28.0;2.2241379310344827;7.734348948790855;1.1423300315375984;31.066666666666666;1.0;91.8;1.9871244635193133;0.06578732947391336;
217;217_cbcff5a221a4dc1099e8a30cda4655c2776ad715-LOC.arff;1392.0;28.0;2.2241379310344827;7.734348948790855;1.1423300315375984;31.066666666666666;1.0;91.8;1.9871244635193133;0.06578732947391336;
218;218_010dfdd9f9836a84dafae4be2f78ebd04c758d30-LOC.arff;1392.0;28.0;2.2241379310344827;7.734348948790855;1.1423300315375984;31.066666666666666;1.0;91.8;1.9871244635193133;0.06578732947391336;
219;219_db5bb2758a8fcd93d3fa9f2f29ee282ce46c69b1-LOC.arff;1392.0;28.0;2.2241379310344827;7.734348948790855;1.1423300315375984;31.066666666666666;1.0;91.8;1.9871244635193133;0.06578732947391336;
21;21_8d49b1b769e91918c2902738fd11b4761acedd83-LOC.arff;88.0;18.0;1.1818181818181819;8.818181818181818;1.0658672651917023;32.0;1.0;87.0;1.75;0.016643616928528282;
220;220_2d33f89deaa75df7a893eedffb1e6b04801abb4e-LOC.arff;1392.0;28.0;2.2241379310344827;7.734348948790855;1.1423300315375984;31.066666666666666;1.0;91.8;1.9871244635193133;0.06578732947391336;
221;221_e25483850a7dd9e669737aefe8484fed54c82d5e-LOC.arff;1392.0;28.0;2.2241379310344827;7.734348948790855;1.1423300315375984;31.066666666666666;1.0;91.8;1.9871244635193133;0.06578732947391336;
222;222_3df671b62fb4fefe041b1fe71e4a0256448d0682-LOC.arff;1392.0;28.0;2.2241379310344827;7.734348948790855;1.1423300315375984;31.066666666666666;1.0;91.8;1.9871244635193133;0.06578732947391336;
223;223_4d14de288c56929f61ababda4a60280c7a2038e1-LOC.arff;1392.0;28.0;2.2241379310344827;7.734348948790855;1.1423300315375984;31.066666666666666;1.0;91.8;1.9871244635193133;0.06578732947391336;
224;224_ef77e63e557696430fbd087781c109ce494db529-LOC.arff;1392.0;28.0;2.2241379310344827;7.734348948790855;1.1423300315375984;31.066666666666666;1.0;91.8;1.9871244635193133;0.06578732947391336;
225;225_ad9eb556a3b5eb7d4db6c1c3535a47ccf7a61e57-LOC.arff;1392.0;28.0;2.2241379310344827;7.734348948790855;1.1423300315375984;31.066666666666666;1.0;91.8;1.9871244635193133;0.06578732947391336;
226;226_a6b5bc9a8bd3d8c5a9e280c076b39cbd5fbf106a-LOC.arff;1392.0;28.0;2.2241379310344827;7.734348948790855;1.1423300315375984;31.066666666666666;1.0;91.8;1.9871244635193133;0.06578732947391336;
227;227_701a690ab9e6b6763287ec5c3c1fefc11070d813-LOC.arff;1392.0;28.0;2.2241379310344827;7.734348948790855;1.1423300315375984;31.066666666666666;1.0;91.8;1.9871244635193133;0.06578732947391336;
228;228_58f2b3d1ba978aa0ca1eee2672051798cf72c13f-LOC.arff;1392.0;28.0;2.2241379310344827;7.734348948790855;1.1423300315375984;31.066666666666666;1.0;91.8;1.9871244635193133;0.06578732947391336;
229;229_b1310d4b3d59f9507f8b031792f360f616437936-LOC.arff;1392.0;28.0;2.2241379310344827;7.734348948790855;1.1423300315375984;31.066666666666666;1.0;91.8;1.9871244635193133;0.06578732947391336;
22;22_9743ef139b7225a371f3bd6fb2a01eafb66fbd1b-LOC.arff;88.0;18.0;1.1818181818181819;8.818181818181818;1.0658672651917023;32.0;1.0;87.0;1.75;0.016643616928528282;
230;230_5de46c73ce9554be7ff4ef79990e7a65a818ef9a-LOC.arff;1392.0;28.0;2.2241379310344827;7.734348948790855;1.1423300315375984;31.066666666666666;1.0;91.8;1.9871244635193133;0.06578732947391336;
231;231_d5455c15e2f3d04f7d2e708ea048a1de3f056638-LOC.arff;1392.0;28.0;2.2241379310344827;7.734348948790855;1.1423300315375984;31.066666666666666;1.0;91.8;1.9871244635193133;0.06578732947391336;
232;232_b8ff44977cf4ecb759677ed7aab970cfa60d2bb9-LOC.arff;1392.0;28.0;2.2241379310344827;7.734348948790855;1.1423300315375984;31.066666666666666;1.0;91.8;1.9871244635193133;0.06578732947391336;
233;233_1598b39dd859782cdb6b756dfcc36a1cc319bb8c-LOC.arff;1392.0;28.0;2.2241379310344827;7.734348948790855;1.1423300315375984;31.066666666666666;1.0;91.8;1.9871244635193133;0.06578732947391336;
234;234_2b254fd86121e3667c3d4a7ab2a7619185c41dc7-LOC.arff;1392.0;28.0;2.2241379310344827;7.734348948790855;1.1423300315375984;31.066666666666666;1.0;91.8;1.9871244635193133;0.06578732947391336;
235;235_cc2e3c15a514e55872d7dc5660b5eb95badaa8c7-LOC.arff;1392.0;28.0;2.2241379310344827;7.734348948790855;1.1423300315375984;31.066666666666666;1.0;91.8;1.9871244635193133;0.06578732947391336;
236;236_2b501450ac5848264b2d09262750d2cf6c563c5b-LOC.arff;1392.0;28.0;2.2241379310344827;7.734348948790855;1.1423300315375984;31.066666666666666;1.0;91.8;1.9871244635193133;0.06578732947391336;
237;237_242c675700b5118b5795c9424048e31e6838d460-LOC.arff;1392.0;28.0;2.2241379310344827;7.734348948790855;1.1423300315375984;31.066666666666666;1.0;91.8;1.9871244635193133;0.06578732947391336;
238;238_9d80b71b39475febc15a28b826fce0ec76162d16-LOC.arff;1392.0;28.0;2.2241379310344827;7.734348948790855;1.1423300315375984;31.066666666666666;1.0;91.8;1.9871244635193133;0.06578732947391336;
239;239_8e26ce9d59f1e5c4212b2d7dd97b3355c0a0a38b-LOC.arff;1392.0;28.0;2.2241379310344827;7.734348948790855;1.1423300315375984;31.066666666666666;1.0;91.8;1.9871244635193133;0.06578732947391336;
23;23_4f57eee97180fe5ef954ac03ad1a32834996949f-LOC.arff;88.0;18.0;1.1818181818181819;8.818181818181818;1.0658672651917023;32.0;1.0;87.0;1.75;0.016643616928528282;
240;240_91a8ae2629ec0fe493fe82b14349210d82b6c238-LOC.arff;1392.0;28.0;2.2241379310344827;7.734348948790855;1.1423300315375984;31.066666666666666;1.0;91.8;1.9871244635193133;0.06578732947391336;
241;241_61faea2db9561546d1dfe3096389c377e11f7fd8-LOC.arff;1392.0;28.0;2.2241379310344827;7.734348948790855;1.1423300315375984;31.066666666666666;1.0;91.8;1.9871244635193133;0.06578732947391336;
242;242_148b54e36c4b4e13ef80fb40fb9137e085c3a7fb-LOC.arff;1392.0;28.0;2.2241379310344827;7.734348948790855;1.1423300315375984;31.066666666666666;1.0;91.8;1.9871244635193133;0.06578732947391336;
243;243_7b48bbe11a9d82fbd42d580c6c95797e14ffee94-LOC.arff;1392.0;28.0;2.2241379310344827;7.734348948790855;1.1423300315375984;31.066666666666666;1.0;91.8;1.9871244635193133;0.06578732947391336;
244;244_5729bd72d6586cb3ce5c7a43f0b4029c1a3585a4-LOC.arff;1392.0;28.0;2.2241379310344827;7.734348948790855;1.1423300315375984;31.066666666666666;1.0;91.8;1.9871244635193133;0.06578732947391336;
245;245_e30b50617544f9e8dccba6ec8a9afbc5d2e7f7d6-LOC.arff;1392.0;28.0;2.2241379310344827;7.734348948790855;1.1423300315375984;31.066666666666666;1.0;91.8;1.9871244635193133;0.06578732947391336;
246;246_d9beb97881382e735017fa958feadd344a08711f-LOC.arff;1392.0;28.0;2.2241379310344827;7.734348948790855;1.1423300315375984;31.066666666666666;1.0;91.8;1.9871244635193133;0.06578732947391336;
247;247_71cf53746f719f496047ea7d58e4d69628c6bdb8-LOC.arff;1392.0;28.0;2.2241379310344827;7.734348948790855;1.1423300315375984;31.066666666666666;1.0;91.8;1.9871244635193133;0.06578732947391336;
248;248_acdd9b5eb12be3bf029cff9dcd507e2f4d06f6d4-LOC.arff;1392.0;28.0;2.2241379310344827;7.734348948790855;1.1423300315375984;31.066666666666666;1.0;91.8;1.9871244635193133;0.06578732947391336;
249;249_e07152b920a69a0f34437d56b7ee6cc5c04d740e-LOC.arff;1392.0;28.0;2.2241379310344827;7.734348948790855;1.1423300315375984;31.066666666666666;1.0;91.8;1.9871244635193133;0.06578732947391336;
24;24_d8b4a77b6f37179a265b120bdfbd8c44f7e66b80-LOC.arff;88.0;18.0;1.1818181818181819;8.818181818181818;1.0658672651917023;32.0;1.0;87.0;1.75;0.016643616928528282;
250;250_a35558e40daf69734c9f9df51e8d335663dc9837-LOC.arff;1392.0;28.0;2.2241379310344827;7.734348948790855;1.1423300315375984;31.066666666666666;1.0;91.8;1.9871244635193133;0.06578732947391336;
251;251_81ab8701360e3b6091d8fcbff194263e483ff927-LOC.arff;1392.0;28.0;2.2241379310344827;7.734348948790855;1.1423300315375984;31.066666666666666;1.0;91.8;1.9871244635193133;0.06578732947391336;
252;252_fb8a2ef16312c5ae4cfdd54837052a01a6d344fb-LOC.arff;1392.0;28.0;2.2241379310344827;7.734348948790855;1.1423300315375984;31.066666666666666;1.0;91.8;1.9871244635193133;0.06578732947391336;
253;253_39687b437b60804fec47f130c596b44749da0fd9-LOC.arff;1392.0;28.0;2.2241379310344827;7.734348948790855;1.1423300315375984;31.066666666666666;1.0;91.8;1.9871244635193133;0.06578732947391336;
254;254_4ba4ac12920ff076e18e64b5edd385b8279b6355-LOC.arff;1392.0;28.0;2.2241379310344827;7.734348948790855;1.1423300315375984;31.066666666666666;1.0;91.8;1.9871244635193133;0.06578732947391336;
255;255_cea3d903afb06e7745cd08b5603b2dd29c211220-LOC.arff;1392.0;28.0;2.2241379310344827;7.734348948790855;1.1423300315375984;31.066666666666666;1.0;91.8;1.9871244635193133;0.06578732947391336;
256;256_05948656f103253c6a5e8f0d060f2632c62969ca-LOC.arff;1392.0;28.0;2.2241379310344827;7.734348948790855;1.1423300315375984;31.066666666666666;1.0;91.8;1.9871244635193133;0.06578732947391336;
257;257_c5a4961b3d6a05c9208db2842b5535b102e35c0c-LOC.arff;1392.0;28.0;2.2241379310344827;7.734348948790855;1.1423300315375984;31.066666666666666;1.0;91.8;1.9871244635193133;0.06578732947391336;
258;258_b47c61955749d6c5605fb7919d75a7c6dab4b6c0-LOC.arff;1392.0;28.0;2.2241379310344827;7.734348948790855;1.1423300315375984;31.066666666666666;1.0;91.8;1.9871244635193133;0.06578732947391336;
259;259_fbef6d868a2d3491f7fde266c00e967197a86660-LOC.arff;1392.0;28.0;2.2241379310344827;7.734348948790855;1.1423300315375984;31.066666666666666;1.0;91.8;1.9871244635193133;0.06578732947391336;
25;25_c88e9263cfc690e031f9d275cac6f7d3e308925b-LOC.arff;94.0;20.0;1.2340425531914894;8.616605616605616;1.00919877476313;32.0;1.0;93.0;1.9375;0.022246809710074596;
260;260_2b3993c18f01f08f4cbe0f87319755e35db1e8df-LOC.arff;1392.0;28.0;2.2241379310344827;7.734348948790855;1.1423300315375984;31.066666666666666;1.0;91.8;1.9871244635193133;0.06578732947391336;
261;261_17addfc933a7cac2bd208aec7a876f0ed374160a-LOC.arff;1392.0;28.0;2.2241379310344827;7.734348948790855;1.1423300315375984;31.066666666666666;1.0;91.8;1.9871244635193133;0.06578732947391336;
262;262_65da94f666d8e46620fee65be1d47c9202a04e50-LOC.arff;1392.0;28.0;2.2241379310344827;7.734348948790855;1.1423300315375984;31.066666666666666;1.0;91.8;1.9871244635193133;0.06578732947391336;
263;263_1081e039faa657d0e2f85519baa47eafc5c37be8-LOC.arff;1392.0;28.0;2.2241379310344827;7.734348948790855;1.1423300315375984;31.066666666666666;1.0;91.8;1.9871244635193133;0.06578732947391336;
264;264_31a0cc241310eb51c2f81f108f5b0c4bf9e695ab-LOC.arff;1392.0;28.0;2.2241379310344827;7.734348948790855;1.1423300315375984;31.066666666666666;1.0;91.8;1.9871244635193133;0.06578732947391336;
265;265_109d2c349a0956ab53497a39a9af74e65c0ebcf4-LOC.arff;1392.0;28.0;2.2241379310344827;7.734348948790855;1.1423300315375984;31.066666666666666;1.0;91.8;1.9871244635193133;0.06578732947391336;
266;266_5e5d1af6c9d5c1b013b59c8af7571eab8f74419c-LOC.arff;1392.0;28.0;2.2241379310344827;7.734348948790855;1.1423300315375984;31.066666666666666;1.0;91.8;1.9871244635193133;0.06578732947391336;
267;267_df37f7845e52d076dc3cf6158bd6935f1ff27ba3-LOC.arff;1392.0;28.0;2.2241379310344827;7.734348948790855;1.1423300315375984;31.066666666666666;1.0;91.8;1.9871244635193133;0.06578732947391336;
268;268_88a039cbea94801bc922a5d998b6f1105fc73389-LOC.arff;1392.0;28.0;2.2241379310344827;7.734348948790855;1.1423300315375984;31.066666666666666;1.0;91.8;1.9871244635193133;0.06578732947391336;
269;269_ec55b65152f5819d45ff0ae320ea98b6fedfde21-LOC.arff;1392.0;28.0;2.2241379310344827;7.734348948790855;1.1423300315375984;31.066666666666666;1.0;91.8;1.9871244635193133;0.06578732947391336;
26;26_c08cee7c12d3545a415abab5742a6f5767fe1af1-LOC.arff;94.0;20.0;1.2340425531914894;8.616605616605616;1.00919877476313;32.0;1.0;93.0;1.9375;0.022246809710074596;
27;27_f52b9ad0bd610b8ffcab0e2dfbeb1eb9e63d83b0-LOC.arff;94.0;20.0;1.2340425531914894;8.616605616605616;1.00919877476313;32.0;1.0;93.0;1.9375;0.022246809710074596;
28;28_a5825e0cdf7d13bf805c366ee1facb67da3363e3-LOC.arff;94.0;20.0;1.2340425531914894;8.616605616605616;1.00919877476313;32.0;1.0;93.0;1.9375;0.022246809710074596;
29;29_4e2d4bf3ba8d393c0161924911a21570ba25d7a0-LOC.arff;94.0;20.0;1.2340425531914894;8.616605616605616;1.00919877476313;32.0;1.0;93.0;1.9375;0.022246809710074596;
30;30_ab8d7e7e99dce24a5499641314192b64a62bd045-LOC.arff;109.0;22.0;1.4128440366972477;7.959113307327593;1.1633748406338773;37.0;1.0;108.0;1.945945945945946;0.03170376306676788;
31;31_746ef129fab6c2ec90fa3356a637c38e7aa460a7-LOC.arff;172.0;22.0;1.7151162790697674;13.330737704918032;1.4026404519386675;72.0;1.0;171.0;1.3888888888888888;0.051779672742867926;
32;32_4d2d83d6e983d3f26d07b2b4ed7a61b9c7105af9-LOC.arff;190.0;22.0;1.7052631578947368;14.02017431972789;1.4545437711894895;78.0;1.0;189.0;1.435897435897436;0.046881706640525975;
33;33_bbd6e6f494e1048b3baa7e2b3754e43712b0992c-LOC.arff;190.0;22.0;1.7052631578947368;14.02017431972789;1.4545437711894895;78.0;1.0;189.0;1.435897435897436;0.046881706640525975;
34;34_190bf329327d4eb2b4bc056e8bd21f9044762a62-LOC.arff;190.0;22.0;1.7052631578947368;14.02017431972789;1.4545437711894895;78.0;1.0;189.0;1.435897435897436;0.046881706640525975;
35;35_dee77251d9611aedb7a0fb9bb6110bb6983e577e-LOC.arff;190.0;22.0;1.7052631578947368;14.02017431972789;1.4545437711894895;78.0;1.0;189.0;1.435897435897436;0.046881706640525975;
36;36_b6692245017252a92aa9f7894e33db12a574c136-LOC.arff;190.0;22.0;1.7052631578947368;14.02017431972789;1.4545437711894895;78.0;1.0;189.0;1.435897435897436;0.046881706640525975;
37;37_a6f39393b82fcb801d316dedd94a191091db6ad5-LOC.arff;190.0;22.0;1.7052631578947368;14.02017431972789;1.4545437711894895;78.0;1.0;189.0;1.435897435897436;0.046881706640525975;
38;38_221ffe4bc78da4f67660463ce90efb762e1e4dbc-LOC.arff;190.0;22.0;1.7052631578947368;14.02017431972789;1.4545437711894895;78.0;1.0;189.0;1.435897435897436;0.046881706640525975;
39;39_8b1f7e8cf42523fa177eef78cae189393d8909bb-LOC.arff;190.0;22.0;1.7052631578947368;14.02017431972789;1.4545437711894895;78.0;1.0;189.0;1.435897435897436;0.046881706640525975;
40;40_4a99f9ffea0f6f9a7ef3305190a689b6fc50926a-LOC.arff;190.0;22.0;1.7052631578947368;14.02017431972789;1.4545437711894895;78.0;1.0;189.0;1.435897435897436;0.046881706640525975;
41;41_1cf2456ea97de350c3357bf716b63cd238b1153e-LOC.arff;190.0;22.0;1.7052631578947368;14.02017431972789;1.4545437711894895;78.0;1.0;189.0;1.435897435897436;0.046881706640525975;
42;42_286c6514eb31d39cb10129c0c9678923c4bf49b9-LOC.arff;190.0;22.0;1.7052631578947368;14.02017431972789;1.4545437711894895;78.0;1.0;189.0;1.435897435897436;0.046881706640525975;
43;43_7a3323ac27fe7073d64409d0d72f91152545d80c-LOC.arff;190.0;22.0;1.7052631578947368;14.02017431972789;1.4545437711894895;78.0;1.0;189.0;1.435897435897436;0.046881706640525975;
44;44_1aea8dfe79af04efaa11c279578f12bc10c2e3fc-LOC.arff;190.0;22.0;1.7052631578947368;14.02017431972789;1.4545437711894895;78.0;1.0;189.0;1.435897435897436;0.046881706640525975;
45;45_781eb7264f2754004b5073f41c908a05693a5515-LOC.arff;190.0;22.0;1.7052631578947368;14.02017431972789;1.4545437711894895;78.0;1.0;189.0;1.435897435897436;0.046881706640525975;
46;46_0b8dd9dc6033b1155378977f10d881b602c0425e-LOC.arff;190.0;22.0;1.7052631578947368;14.02017431972789;1.4545437711894895;78.0;1.0;189.0;1.435897435897436;0.046881706640525975;
47;47_5cfd31e4828489d82d4bbe335865b8b993632a1b-LOC.arff;195.0;22.0;1.6923076923076923;13.527677029204286;1.4923166522089633;78.0;1.0;194.0;1.5;0.047388442483492645;
48;48_794650939a51f20a13e6d97c0c87727e8ba2f47c-LOC.arff;196.0;22.0;1.6887755102040816;13.513015375068948;1.4944866065108593;78.0;1.0;195.0;1.5128205128205128;0.04736429605096779;
49;49_1d37f289fa37df08f4b321aa31980e08a1b3623c-LOC.arff;196.0;22.0;1.6887755102040816;13.513015375068948;1.4944866065108593;78.0;1.0;195.0;1.5128205128205128;0.04736429605096779;
50;50_7d889067b2c2113bd011f1386a6b8c12e453f650-LOC.arff;196.0;22.0;1.6887755102040816;13.513015375068948;1.4944866065108593;78.0;1.0;195.0;1.5128205128205128;0.04736429605096779;
51;51_dbafc437af6c2f4219f7294b50b1be51a8d0c729-LOC.arff;196.0;22.0;1.6887755102040816;13.513015375068948;1.4944866065108593;78.0;1.0;195.0;1.5128205128205128;0.04736429605096779;
52;52_21339b2f9739c5d801601cfc2a2c997196389e69-LOC.arff;196.0;22.0;1.6887755102040816;13.513015375068948;1.4944866065108593;78.0;1.0;195.0;1.5128205128205128;0.04736429605096779;
53;53_3844b6bd98df06f8bcb8ca905eae8e4b83d29fd6-LOC.arff;204.0;22.0;1.661764705882353;13.433423538334253;1.506538622677321;78.0;1.0;203.0;1.6153846153846154;0.04700601511098682;
54;54_f12128dcfa9a723a013f5bdbe6ee3d17099b6d71-LOC.arff;204.0;22.0;1.661764705882353;13.433423538334253;1.506538622677321;78.0;1.0;203.0;1.6153846153846154;0.04700601511098682;
55;55_cbc0de4f9ad2930d2b879b642f72e59416f9e977-LOC.arff;230.0;22.0;1.6521739130434783;14.650473617417804;1.5967881519969813;90.0;1.0;229.0;1.5555555555555556;0.04288716378025727;
56;56_c00230d2d951700183e6b614fbc19889e2519360-LOC.arff;282.0;22.0;1.6312056737588652;17.33747368702726;1.6768073650060449;111.0;1.0;281.0;1.5405405405405406;0.04120763800805308;
57;57_7f0c85eae897fbcd687f55d915507c322ceb7cae-LOC.arff;282.0;22.0;1.6312056737588652;17.33747368702726;1.6768073650060449;111.0;1.0;281.0;1.5405405405405406;0.04120763800805308;
58;58_0a3d36c57cc9defe930071eb0f3d7ac33223e116-LOC.arff;297.0;22.0;1.6363636363636365;17.138638274013893;1.7967678573804484;118.0;1.0;296.0;1.5169491525423728;0.047652745123960775;
59;59_d407796e499262d2063bdb8bdf556fe237daca75-LOC.arff;327.0;22.0;1.672782874617737;18.81709059915105;1.8946847730756515;136.0;1.0;326.0;1.4044117647058822;0.05080417554991827;
60;60_ea84a429dcfa6bcdd8646eb8583a5315bd25d714-LOC.arff;327.0;22.0;1.6972477064220184;18.89103695301665;1.902518864716824;137.0;1.0;326.0;1.3868613138686132;0.04846126779885246;
61;61_8d334511af2494a5fa8a6db40f5de66e9a1f23bd-LOC.arff;327.0;22.0;1.6972477064220184;18.89103695301665;1.902518864716824;137.0;1.0;326.0;1.3868613138686132;0.04846126779885246;
62;62_6fb26410e33b9aae4de58f33132efd09f4cd992c-LOC.arff;327.0;22.0;1.6972477064220184;18.89103695301665;1.902518864716824;137.0;1.0;326.0;1.3868613138686132;0.04846126779885246;
63;63_12dcc99d75cd3cd9d8efb7d316656e4d19bc8d52-LOC.arff;330.0;22.0;1.687878787878788;17.430025109339564;2.0062816626669973;136.0;1.0;329.0;1.4264705882352942;0.0463535478407822;
64;64_b33605b07445d3258df8229a1e786dc5b4ab4a06-LOC.arff;332.0;22.0;1.6867469879518073;16.998478175119526;2.066105879276972;137.0;1.0;331.0;1.4233576642335766;0.04618422447936476;
65;65_a40b2b29bb20a3c1ec25b73360d6712cdb97cd98-LOC.arff;354.0;22.0;1.6440677966101696;16.42699182276943;2.145958087197634;137.0;1.0;353.0;1.583941605839416;0.04441656838639018;
66;66_333c82d71c0a5a9acc88bdf7a2c3dca2368842c0-LOC.arff;360.0;22.0;1.636111111111111;16.165675711641622;2.1816442095617847;137.0;1.0;359.0;1.6277372262773722;0.04303343216980456;
67;67_35a2e788ba2020b545bc456b3eeb002997bd445c-LOC.arff;360.0;22.0;1.636111111111111;16.165675711641622;2.1816442095617847;137.0;1.0;359.0;1.6277372262773722;0.04303343216980456;
68;68_e041ff570250275045c01f6d4a87b9a73f92f416-LOC.arff;360.0;22.0;1.636111111111111;16.165675711641622;2.1816442095617847;137.0;1.0;359.0;1.6277372262773722;0.04303343216980456;
69;69_5b6d5707ee06cf659ff4d3d7e71241e532fcfeb2-LOC.arff;363.0;22.0;1.6308539944903582;16.154597544525718;2.1834229170834503;137.0;1.0;362.0;1.6496350364963503;0.04256396439857217;
6;6_a2639bb105f4bb1bb2f839da8e08b4b93334b4aa-LOC.arff;45.0;16.0;1.3111111111111111;4.469658119658119;0.9642636449795021;14.0;1.0;44.0;2.2142857142857144;0.030081314002234568;
70;70_c4ade34b0c9b55328fad8c3294289e3a086aa0d2-LOC.arff;364.0;22.0;1.629120879120879;16.125984344859887;2.187769940848652;137.0;1.0;363.0;1.6569343065693432;0.042447030430444226;
71;71_55fefc50a452222a65ad710429548b2b671fea98-LOC.arff;364.0;22.0;1.629120879120879;16.125984344859887;2.187769940848652;137.0;1.0;363.0;1.6569343065693432;0.042447030430444226;
72;72_7c1e94baf7fe997ec54d51e9f5cf95c5de8f6da2-LOC.arff;364.0;22.0;1.629120879120879;16.125984344859887;2.187769940848652;137.0;1.0;363.0;1.6569343065693432;0.042447030430444226;
73;73_8a3c454a69cae9a9953a747013f3870b6e1874cb-LOC.arff;364.0;22.0;1.629120879120879;16.125984344859887;2.187769940848652;137.0;1.0;363.0;1.6569343065693432;0.042447030430444226;
74;74_e7a5107639d2bfb4a7530a5982719f14376b8bc2-LOC.arff;364.0;22.0;1.629120879120879;16.125984344859887;2.187769940848652;137.0;1.0;363.0;1.6569343065693432;0.042447030430444226;
75;75_13ec2a47ff332e9c1a1c642068d26a7fae43e5cb-LOC.arff;364.0;22.0;1.629120879120879;16.125984344859887;2.187769940848652;137.0;1.0;363.0;1.6569343065693432;0.042447030430444226;
76;76_3955fd03aad3b9ea6cc6e8fc5c6e421f9c90d79d-LOC.arff;376.0;22.0;1.6090425531914894;16.071944505270118;2.1964738335186467;137.0;1.0;375.0;1.7445255474452555;0.04208576809776105;
77;77_d9d81ba61b4b3897a898e54fdd7867898f222550-LOC.arff;380.0;23.0;1.605263157894737;15.98485338553252;2.2093545331199382;137.0;1.0;379.0;1.7737226277372262;0.042223748183498486;
78;78_c5d04b9750c4053c726bd4950d1c78bedb75f8e7-LOC.arff;381.0;24.0;1.643044619422572;15.49002982649702;2.200477890822613;137.0;1.0;380.0;1.781021897810219;0.05105402490151295;
79;79_04c38c3d1120e0d8b9741e41bd62cbdfa3109a65-LOC.arff;382.0;24.0;1.6413612565445026;15.48726717273618;2.2009439029261975;137.0;1.0;381.0;1.7883211678832116;0.0509992323941482;
7;7_7a7c87aedb9974d4b1f84ca4ab80dba640d0e0d4-LOC.arff;45.0;16.0;1.3111111111111111;4.469658119658119;0.9642636449795021;14.0;1.0;44.0;2.2142857142857144;0.030081314002234568;
80;80_3e1f7782b8b8f1d2b8ddabc9cbeeaa7d9c199e5f-LOC.arff;438.0;24.0;1.7397260273972603;15.675600574119702;2.4294417281190817;152.0;1.0;437.0;1.881578947368421;0.04434599722434955;
81;81_e316290ea16a2bff350a5e0a481e408c38272e12-LOC.arff;475.0;24.0;1.8273684210526315;11.546111313348772;1.8346688559822901;85.0;1.0;236.5;1.7941176470588236;0.04689367802266939;
82;82_4f6a8c5831459ebfd4d552f8766037a94723f21b-LOC.arff;483.0;24.0;1.813664596273292;7.292080967213166;0.9770107689414398;21.25;1.0;59.375;1.8411764705882352;0.04512290286716129;
83;83_73532e34ce3061f98657eb2ef02af7e4258c825b-LOC.arff;546.0;24.0;1.7619047619047619;6.326537064793905;1.003742610469019;20.22222222222222;1.0;59.666666666666664;2.0;0.04047953811195818;
84;84_264c64c4477fb0495b91d93c4fedee8d1452e9f7-LOC.arff;561.0;24.0;1.7914438502673797;6.5386788531624624;1.0343533566870033;21.444444444444443;1.0;61.333333333333336;1.9067357512953367;0.040111282810228785;
85;85_f13f5ee8af1d30ba46330b284421a0147aaaedd4-LOC.arff;561.0;24.0;1.7914438502673797;6.5386788531624624;1.0343533566870033;21.444444444444443;1.0;61.333333333333336;1.9067357512953367;0.040111282810228785;
86;86_34014198f540fe0f148017b2e0afed1ef33bb30a-LOC.arff;572.0;24.0;1.7972027972027973;6.75639910945117;1.0395063842186356;22.22222222222222;1.0;62.55555555555556;1.86;0.04123036065076824;
87;87_3e1eb7278e5c8ad2a2dc7855b03075496f8c9322-LOC.arff;580.0;24.0;1.7948275862068965;6.370747160808232;0.9832583169163507;20.0;1.0;57.0;1.9;0.04158012906327245;
88;88_a81a7d43a451b7d49b57efd6b7bd527f9783a1d6-LOC.arff;582.0;24.0;1.7920962199312716;6.369169158165077;0.9837066446404141;20.0;1.0;57.1;1.905;0.04155754152803761;
89;89_779b9e5356d18d44ee602524b666f20fcc6c4374-LOC.arff;582.0;24.0;1.7920962199312716;6.369169158165077;0.9837066446404141;20.0;1.0;57.2;1.91;0.04155754152803761;
8;8_a37474667deb9819b2f5f2978215de3d62a8a706-LOC.arff;51.0;17.0;1.2745098039215685;4.256025641025641;0.9678548282427014;14.0;1.0;50.0;2.642857142857143;0.02654233588432462;
90;90_0de35212b89a2e229aa9b7cc8e73cef3c15671b2-LOC.arff;582.0;24.0;1.7920962199312716;6.369169158165077;0.9837066446404141;20.0;1.0;57.2;1.91;0.04155754152803761;
91;91_b9c6cee467494ef9597fc52c1661fa30cba3ec47-LOC.arff;585.0;24.0;1.7880341880341881;12.217790956218682;1.9789961349001428;100.0;1.0;291.5;1.925;0.04139936766700412;
92;92_fd0688a610f15907c2b65af51091358e989a7be3-LOC.arff;585.0;24.0;1.7880341880341881;12.217790956218682;1.9789961349001428;100.0;1.0;291.5;1.925;0.04139936766700412;
93;93_d42148258bf02188cad0286a6ed212d4dcd658f9-LOC.arff;585.0;24.0;1.7880341880341881;12.217790956218682;1.9789961349001428;100.0;1.0;291.5;1.925;0.04139936766700412;
94;94_69f575891baa1bf137729b22345f2d8c4bd265d5-LOC.arff;585.0;24.0;1.7880341880341881;12.217790956218682;1.9789961349001428;100.0;1.0;291.5;1.925;0.04139936766700412;
95;95_45f1b327dadc5d5b562989a10b03eea5d185c64a-LOC.arff;592.0;24.0;1.7787162162162162;12.212950819035363;1.979967977597223;100.0;1.0;295.0;1.96;0.04135402651873237;
96;96_40ae2d7f4054d46863164655d2d345f31ea563a8-LOC.arff;609.0;24.0;1.9638752052545156;12.513249608708843;2.0046736609385936;103.5;1.0;303.5;1.9420289855072463;0.0471273063856928;
97;97_f1eabe4741d7789e41c57775baf4277a158350c6-LOC.arff;611.0;25.0;2.0736497545008183;13.472893381200647;2.017511852236415;115.5;1.0;304.5;1.645021645021645;0.06445655498721004;
98;98_2d984d5fbed961761d5d321311811269b0535040-LOC.arff;611.0;25.0;2.0965630114566283;13.930570945880053;2.0190861112609237;119.5;1.0;304.5;1.5564853556485356;0.06689063033853017;
99;99_c9feef2377765abac24110990a465281f5fb12b2-LOC.arff;611.0;25.0;2.0965630114566283;13.930570945880053;2.0190861112609237;119.5;1.0;304.5;1.5564853556485356;0.06689063033853017;
9;9_505d9849c03f0ec1bd7a8ad4273bcae2b2d600d4-LOC.arff;51.0;17.0;1.2745098039215685;4.256025641025641;0.9678548282427014;14.0;1.0;50.0;2.642857142857143;0.02654233588432462;
