commit;DataSet;Classifier;TotalInstances;InstancesWithRankedLabels;PercentageOfInstancesWithRankedLabels;InstancesWithPrecisionNull;PercentageOfInstancesWithPrecisionNull;InstancesWithPrecisionZero;PercentageOfInstancesWithPrecisionZero;InstancesWithPrecisionNonZero;PercentageOfInstancesWithPrecisionNonZero;InstancesWithPrecisionOne;PercentageOfInstancesWithPrecisionOne;InstancesWithRecallZero;PercentageOfInstancesWithRecallZero;InstancesWithRecallOne;PercentageOfInstancesWithRecallOne;AveragePrecisionForAllNonNullPrecision;AveragePrecisionForNonZeroPrecision;AverageRecallForAllNonNullPrecision;AverageRecallForAllNonZeroPrecision;AverageFScoreForAllNonNullPrecision;AverageFScoreForAllNonZeroPrecision;
6;6_0024a26ccf47264343b65e8429fdd756a3250f64-LOC.arff;BR;34.0;34.0;1.0;0.0;0.0;0.0;0.0;34.0;1.0;34.0;1.0;0.0;0.0;25.0;0.7352941176470589;1.0;1.0;0.8676470588235294;0.8676470588235294;0.9117647058823529;0.9117647058823529;
6;6_0024a26ccf47264343b65e8429fdd756a3250f64-LOC.arff;LP;34.0;34.0;1.0;0.0;0.0;0.0;0.0;34.0;1.0;34.0;1.0;0.0;0.0;25.0;0.7352941176470589;1.0;1.0;0.8676470588235294;0.8676470588235294;0.9117647058823529;0.9117647058823529;
6;6_0024a26ccf47264343b65e8429fdd756a3250f64-LOC.arff;RAkELd;34.0;34.0;1.0;0.0;0.0;0.0;0.0;34.0;1.0;34.0;1.0;0.0;0.0;25.0;0.7352941176470589;1.0;1.0;0.8676470588235294;0.8676470588235294;0.9117647058823529;0.9117647058823529;
7;7_b5f6482dcec6e78744167b177b61a41b2f0eb4bc-LOC.arff;BR;40.0;40.0;1.0;0.0;0.0;0.0;0.0;40.0;1.0;40.0;1.0;0.0;0.0;31.0;0.775;1.0;1.0;0.8875;0.8875;0.925;0.925;
7;7_b5f6482dcec6e78744167b177b61a41b2f0eb4bc-LOC.arff;LP;40.0;40.0;1.0;0.0;0.0;0.0;0.0;40.0;1.0;40.0;1.0;0.0;0.0;31.0;0.775;1.0;1.0;0.8875;0.8875;0.925;0.925;
7;7_b5f6482dcec6e78744167b177b61a41b2f0eb4bc-LOC.arff;RAkELd;40.0;40.0;1.0;0.0;0.0;0.0;0.0;40.0;1.0;40.0;1.0;0.0;0.0;31.0;0.775;1.0;1.0;0.8875;0.8875;0.925;0.925;
12;12_0b1423c303c6d7eef7d9f8f04666dd1a1a529bb7-LOC.arff;BR;133.0;133.0;1.0;0.0;0.0;11.0;0.08270676691729323;122.0;0.9172932330827067;122.0;0.9172932330827067;11.0;0.08270676691729323;85.0;0.6390977443609023;0.9172932330827067;1.0;0.7781954887218046;0.8483606557377049;0.8245614035087719;0.8989071038251366;
12;12_0b1423c303c6d7eef7d9f8f04666dd1a1a529bb7-LOC.arff;LP;133.0;133.0;1.0;0.0;0.0;11.0;0.08270676691729323;122.0;0.9172932330827067;122.0;0.9172932330827067;11.0;0.08270676691729323;85.0;0.6390977443609023;0.9172932330827067;1.0;0.7781954887218046;0.8483606557377049;0.8245614035087719;0.8989071038251366;
12;12_0b1423c303c6d7eef7d9f8f04666dd1a1a529bb7-LOC.arff;RAkELd;133.0;133.0;1.0;0.0;0.0;11.0;0.08270676691729323;122.0;0.9172932330827067;122.0;0.9172932330827067;11.0;0.08270676691729323;85.0;0.6390977443609023;0.9172932330827067;1.0;0.7781954887218046;0.8483606557377049;0.8245614035087719;0.8989071038251366;
13;13_094afe7c1065d5663628b389f27687a5f465abb8-LOC.arff;BR;530.0;530.0;1.0;0.0;0.0;397.0;0.7490566037735849;133.0;0.2509433962264151;133.0;0.2509433962264151;397.0;0.7490566037735849;86.0;0.16226415094339622;0.2509433962264151;1.0;0.2050314465408805;0.8170426065162908;0.219811320754717;0.8759398496240601;
13;13_094afe7c1065d5663628b389f27687a5f465abb8-LOC.arff;LP;530.0;530.0;1.0;0.0;0.0;397.0;0.7490566037735849;133.0;0.2509433962264151;133.0;0.2509433962264151;397.0;0.7490566037735849;86.0;0.16226415094339622;0.2509433962264151;1.0;0.2050314465408805;0.8170426065162908;0.219811320754717;0.8759398496240601;
13;13_094afe7c1065d5663628b389f27687a5f465abb8-LOC.arff;RAkELd;530.0;530.0;1.0;0.0;0.0;397.0;0.7490566037735849;133.0;0.2509433962264151;133.0;0.2509433962264151;397.0;0.7490566037735849;86.0;0.16226415094339622;0.2509433962264151;1.0;0.2050314465408805;0.8170426065162908;0.219811320754717;0.8759398496240601;
14;14_bf879ceaa9685648adba645cadc6ce5aaa5fac85-LOC.arff;BR;135.0;135.0;1.0;0.0;0.0;115.0;0.8518518518518519;20.0;0.14814814814814814;20.0;0.14814814814814814;115.0;0.8518518518518519;0.0;0.0;0.14814814814814814;1.0;0.0728395061728395;0.4916666666666667;0.09753086419753086;0.6583333333333333;
14;14_bf879ceaa9685648adba645cadc6ce5aaa5fac85-LOC.arff;LP;135.0;135.0;1.0;0.0;0.0;0.0;0.0;135.0;1.0;135.0;1.0;0.0;0.0;86.0;0.6370370370370371;1.0;1.0;0.808641975308642;0.808641975308642;0.8688888888888888;0.8688888888888888;
14;14_bf879ceaa9685648adba645cadc6ce5aaa5fac85-LOC.arff;RAkELd;135.0;135.0;1.0;135.0;1.0;0.0;0.0;0.0;0.0;0.0;0.0;135.0;1.0;0.0;0.0;0.0;0.0;0.0;0.0;0.0;0.0;
16;16_d7c4f0780b41507ae6a40cc46efb59c526e58437-LOC.arff;BR;140.0;140.0;1.0;0.0;0.0;0.0;0.0;140.0;1.0;140.0;1.0;0.0;0.0;89.0;0.6357142857142857;1.0;1.0;0.8083333333333333;0.8083333333333333;0.8688095238095238;0.8688095238095238;
16;16_d7c4f0780b41507ae6a40cc46efb59c526e58437-LOC.arff;LP;140.0;140.0;1.0;0.0;0.0;0.0;0.0;140.0;1.0;140.0;1.0;0.0;0.0;89.0;0.6357142857142857;1.0;1.0;0.8083333333333333;0.8083333333333333;0.8688095238095238;0.8688095238095238;
16;16_d7c4f0780b41507ae6a40cc46efb59c526e58437-LOC.arff;RAkELd;140.0;140.0;1.0;0.0;0.0;0.0;0.0;140.0;1.0;140.0;1.0;0.0;0.0;89.0;0.6357142857142857;1.0;1.0;0.8083333333333333;0.8083333333333333;0.8688095238095238;0.8688095238095238;
17;17_d15f01e1b45119838900da53128c619ebe93895d-LOC.arff;BR;221.0;221.0;1.0;221.0;1.0;0.0;0.0;0.0;0.0;0.0;0.0;221.0;1.0;0.0;0.0;0.0;0.0;0.0;0.0;0.0;0.0;
17;17_d15f01e1b45119838900da53128c619ebe93895d-LOC.arff;LP;221.0;221.0;1.0;0.0;0.0;221.0;1.0;0.0;0.0;0.0;0.0;221.0;1.0;0.0;0.0;0.0;0.0;0.0;0.0;0.0;0.0;
17;17_d15f01e1b45119838900da53128c619ebe93895d-LOC.arff;RAkELd;221.0;221.0;1.0;221.0;1.0;0.0;0.0;0.0;0.0;0.0;0.0;221.0;1.0;0.0;0.0;0.0;0.0;0.0;0.0;0.0;0.0;
18;18_00674af3a82e6b6b517a12ae3e77803df4f4892d-LOC.arff;BR;3242.0;3242.0;1.0;0.0;0.0;2903.0;0.8954349167180753;339.0;0.10456508328192474;0.0;0.0;2903.0;0.8954349167180753;339.0;0.10456508328192474;0.05228254164096237;0.5;0.10456508328192474;1.0;0.06971005552128316;0.6666666666666666;
18;18_00674af3a82e6b6b517a12ae3e77803df4f4892d-LOC.arff;LP;3242.0;3242.0;1.0;0.0;0.0;2879.0;0.8880320789636027;363.0;0.11196792103639729;363.0;0.11196792103639729;2879.0;0.8880320789636027;363.0;0.11196792103639729;0.11196792103639729;1.0;0.11196792103639729;1.0;0.11196792103639729;1.0;
18;18_00674af3a82e6b6b517a12ae3e77803df4f4892d-LOC.arff;RAkELd;3242.0;3242.0;1.0;0.0;0.0;2903.0;0.8954349167180753;339.0;0.10456508328192474;0.0;0.0;2903.0;0.8954349167180753;339.0;0.10456508328192474;0.05228254164096237;0.5;0.10456508328192474;1.0;0.06971005552128316;0.6666666666666666;
19;19_40e80816235739064fcc7fd74228c9c225387caf-LOC.arff;BR;7.0;7.0;1.0;0.0;0.0;2.0;0.2857142857142857;5.0;0.7142857142857143;0.0;0.0;2.0;0.2857142857142857;2.0;0.2857142857142857;0.35714285714285715;0.5;0.5;0.7;0.4047619047619047;0.5666666666666667;
19;19_40e80816235739064fcc7fd74228c9c225387caf-LOC.arff;LP;7.0;7.0;1.0;0.0;0.0;7.0;1.0;0.0;0.0;0.0;0.0;7.0;1.0;0.0;0.0;0.0;0.0;0.0;0.0;0.0;0.0;
19;19_40e80816235739064fcc7fd74228c9c225387caf-LOC.arff;RAkELd;7.0;7.0;1.0;0.0;0.0;7.0;1.0;0.0;0.0;0.0;0.0;7.0;1.0;0.0;0.0;0.0;0.0;0.0;0.0;0.0;0.0;
20;20_8bcdb9f5f062fe68d90e31752453e1d662b3f0e2-LOC.arff;BR;7.0;7.0;1.0;0.0;0.0;2.0;0.2857142857142857;5.0;0.7142857142857143;5.0;0.7142857142857143;2.0;0.2857142857142857;2.0;0.2857142857142857;0.7142857142857143;1.0;0.5;0.7;0.5714285714285714;0.8;
20;20_8bcdb9f5f062fe68d90e31752453e1d662b3f0e2-LOC.arff;LP;7.0;7.0;1.0;0.0;0.0;1.0;0.14285714285714285;6.0;0.8571428571428571;3.0;0.42857142857142855;1.0;0.14285714285714285;6.0;0.8571428571428571;0.6428571428571429;0.75;0.8571428571428571;1.0;0.7142857142857143;0.8333333333333334;
20;20_8bcdb9f5f062fe68d90e31752453e1d662b3f0e2-LOC.arff;RAkELd;7.0;7.0;1.0;0.0;0.0;2.0;0.2857142857142857;5.0;0.7142857142857143;5.0;0.7142857142857143;2.0;0.2857142857142857;2.0;0.2857142857142857;0.7142857142857143;1.0;0.5;0.7;0.5714285714285714;0.8;
22;22_ea86a5e10f7b8c0b2e0e0bf97a1fc95dbac4ae89-LOC.arff;BR;215.0;215.0;1.0;0.0;0.0;6.0;0.027906976744186046;209.0;0.9720930232558139;207.0;0.9627906976744186;6.0;0.027906976744186046;122.0;0.5674418604651162;0.9674418604651163;0.9952153110047847;0.7446511627906977;0.7660287081339713;0.807906976744186;0.8311004784688995;
22;22_ea86a5e10f7b8c0b2e0e0bf97a1fc95dbac4ae89-LOC.arff;LP;215.0;215.0;1.0;0.0;0.0;6.0;0.027906976744186046;209.0;0.9720930232558139;207.0;0.9627906976744186;6.0;0.027906976744186046;122.0;0.5674418604651162;0.9674418604651163;0.9952153110047847;0.7446511627906977;0.7660287081339713;0.807906976744186;0.8311004784688995;
22;22_ea86a5e10f7b8c0b2e0e0bf97a1fc95dbac4ae89-LOC.arff;RAkELd;215.0;215.0;1.0;0.0;0.0;6.0;0.027906976744186046;209.0;0.9720930232558139;209.0;0.9720930232558139;6.0;0.027906976744186046;122.0;0.5674418604651162;0.9720930232558139;1.0;0.7446511627906977;0.7660287081339713;0.8110077519379846;0.8342902711323764;
23;23_04d3b5537f7c23adf7ea362a8492d21114aa6a2e-LOC.arff;BR;230.0;230.0;1.0;0.0;0.0;18.0;0.0782608695652174;212.0;0.9217391304347826;89.0;0.3869565217391304;18.0;0.0782608695652174;170.0;0.7391304347826086;0.6304347826086957;0.6839622641509434;0.8420289855072464;0.9135220125786163;0.6789544513457557;0.7366015274034142;
23;23_04d3b5537f7c23adf7ea362a8492d21114aa6a2e-LOC.arff;LP;230.0;230.0;1.0;0.0;0.0;18.0;0.0782608695652174;212.0;0.9217391304347826;131.0;0.5695652173913044;18.0;0.0782608695652174;151.0;0.6565217391304348;0.7318840579710145;0.7940251572327044;0.7808695652173913;0.8471698113207546;0.6963146997929607;0.7554357592093441;
23;23_04d3b5537f7c23adf7ea362a8492d21114aa6a2e-LOC.arff;RAkELd;230.0;230.0;1.0;0.0;0.0;18.0;0.0782608695652174;212.0;0.9217391304347826;89.0;0.3869565217391304;18.0;0.0782608695652174;170.0;0.7391304347826086;0.6289855072463768;0.6823899371069182;0.8420289855072464;0.9135220125786163;0.6775051759834368;0.735029200359389;
24;24_2e8e8878e55f1455155e43590afbaa1ed21e8e3f-LOC.arff;BR;230.0;230.0;1.0;0.0;0.0;18.0;0.0782608695652174;212.0;0.9217391304347826;210.0;0.9130434782608695;18.0;0.0782608695652174;120.0;0.5217391304347826;0.9173913043478261;0.9952830188679245;0.6915942028985507;0.750314465408805;0.7539958592132505;0.8180143755615454;
24;24_2e8e8878e55f1455155e43590afbaa1ed21e8e3f-LOC.arff;LP;230.0;230.0;1.0;0.0;0.0;17.0;0.07391304347826087;213.0;0.9260869565217391;80.0;0.34782608695652173;17.0;0.07391304347826087;166.0;0.7217391304347827;0.6108695652173913;0.6596244131455399;0.8340579710144927;0.9006259780907668;0.662287784679089;0.7151464341605187;
24;24_2e8e8878e55f1455155e43590afbaa1ed21e8e3f-LOC.arff;RAkELd;230.0;230.0;1.0;0.0;0.0;18.0;0.0782608695652174;212.0;0.9217391304347826;210.0;0.9130434782608695;18.0;0.0782608695652174;120.0;0.5217391304347826;0.9173913043478261;0.9952830188679245;0.6915942028985507;0.750314465408805;0.7539958592132505;0.8180143755615454;
25;25_0b82465168e53a16d573610bb30495d70bd050b8-LOC.arff;BR;203.0;203.0;1.0;0.0;0.0;0.0;0.0;203.0;1.0;200.0;0.9852216748768473;0.0;0.0;115.0;0.5665024630541872;0.9926108374384236;0.9926108374384236;0.7673234811165847;0.7673234811165847;0.8359840487919306;0.8359840487919306;
25;25_0b82465168e53a16d573610bb30495d70bd050b8-LOC.arff;LP;203.0;203.0;1.0;0.0;0.0;0.0;0.0;203.0;1.0;203.0;1.0;0.0;0.0;115.0;0.5665024630541872;1.0;1.0;0.7499178981937602;0.7499178981937602;0.8206192821956368;0.8206192821956368;
25;25_0b82465168e53a16d573610bb30495d70bd050b8-LOC.arff;RAkELd;203.0;203.0;1.0;0.0;0.0;0.0;0.0;203.0;1.0;200.0;0.9852216748768473;0.0;0.0;115.0;0.5665024630541872;0.9926108374384236;0.9926108374384236;0.7673234811165847;0.7673234811165847;0.8359840487919306;0.8359840487919306;
27;27_e8092898b1c4db328a2f5d247fe06603f586f924-LOC.arff;BR;23.0;23.0;1.0;0.0;0.0;23.0;1.0;0.0;0.0;0.0;0.0;23.0;1.0;0.0;0.0;0.0;0.0;0.0;0.0;0.0;0.0;
27;27_e8092898b1c4db328a2f5d247fe06603f586f924-LOC.arff;LP;23.0;23.0;1.0;0.0;0.0;23.0;1.0;0.0;0.0;0.0;0.0;23.0;1.0;0.0;0.0;0.0;0.0;0.0;0.0;0.0;0.0;
27;27_e8092898b1c4db328a2f5d247fe06603f586f924-LOC.arff;RAkELd;23.0;23.0;1.0;0.0;0.0;23.0;1.0;0.0;0.0;0.0;0.0;23.0;1.0;0.0;0.0;0.0;0.0;0.0;0.0;0.0;0.0;
29;29_1740a83e11c678c8621e6497350db13cd3d2426e-LOC.arff;BR;3.0;3.0;1.0;0.0;0.0;3.0;1.0;0.0;0.0;0.0;0.0;3.0;1.0;0.0;0.0;0.0;0.0;0.0;0.0;0.0;0.0;
29;29_1740a83e11c678c8621e6497350db13cd3d2426e-LOC.arff;LP;3.0;3.0;1.0;0.0;0.0;3.0;1.0;0.0;0.0;0.0;0.0;3.0;1.0;0.0;0.0;0.0;0.0;0.0;0.0;0.0;0.0;
29;29_1740a83e11c678c8621e6497350db13cd3d2426e-LOC.arff;RAkELd;3.0;3.0;1.0;3.0;1.0;0.0;0.0;0.0;0.0;0.0;0.0;3.0;1.0;0.0;0.0;0.0;0.0;0.0;0.0;0.0;0.0;
30;30_900e0c9bf23f7df6a2057af4b2c1f166e55e9163-LOC.arff;BR;288.0;288.0;1.0;236.0;0.8194444444444444;45.0;0.15625;7.0;0.024305555555555556;0.0;0.0;281.0;0.9756944444444444;3.0;0.010416666666666666;0.0673076923076923;0.5;0.09615384615384616;0.7142857142857143;0.07692307692307693;0.5714285714285714;
30;30_900e0c9bf23f7df6a2057af4b2c1f166e55e9163-LOC.arff;LP;288.0;288.0;1.0;0.0;0.0;245.0;0.8506944444444444;43.0;0.14930555555555555;6.0;0.020833333333333332;245.0;0.8506944444444444;43.0;0.14930555555555555;0.08506944444444445;0.5697674418604651;0.14930555555555555;1.0;0.10648148148148147;0.7131782945736433;
30;30_900e0c9bf23f7df6a2057af4b2c1f166e55e9163-LOC.arff;RAkELd;288.0;288.0;1.0;236.0;0.8194444444444444;45.0;0.15625;7.0;0.024305555555555556;0.0;0.0;281.0;0.9756944444444444;3.0;0.010416666666666666;0.0673076923076923;0.5;0.09615384615384616;0.7142857142857143;0.07692307692307693;0.5714285714285714;
31;31_1d171e9e52012c8129dfec2b7f2640e696678f2e-LOC.arff;BR;33.0;33.0;1.0;0.0;0.0;33.0;1.0;0.0;0.0;0.0;0.0;33.0;1.0;0.0;0.0;0.0;0.0;0.0;0.0;0.0;0.0;
31;31_1d171e9e52012c8129dfec2b7f2640e696678f2e-LOC.arff;LP;33.0;33.0;1.0;0.0;0.0;33.0;1.0;0.0;0.0;0.0;0.0;33.0;1.0;0.0;0.0;0.0;0.0;0.0;0.0;0.0;0.0;
31;31_1d171e9e52012c8129dfec2b7f2640e696678f2e-LOC.arff;RAkELd;33.0;33.0;1.0;33.0;1.0;0.0;0.0;0.0;0.0;0.0;0.0;33.0;1.0;0.0;0.0;0.0;0.0;0.0;0.0;0.0;0.0;
32;32_79d1bfb5c02793c88f554002e04b5263d81703b7-LOC.arff;BR;212.0;212.0;1.0;3.0;0.014150943396226415;0.0;0.0;209.0;0.9858490566037735;206.0;0.9716981132075472;3.0;0.014150943396226415;92.0;0.4339622641509434;0.9920255183413078;0.9920255183413078;0.6720095693779904;0.6720095693779904;0.7583048530416951;0.7583048530416951;
32;32_79d1bfb5c02793c88f554002e04b5263d81703b7-LOC.arff;LP;212.0;212.0;1.0;0.0;0.0;3.0;0.014150943396226415;209.0;0.9858490566037735;144.0;0.6792452830188679;3.0;0.014150943396226415;112.0;0.5283018867924528;0.8117138364779874;0.8233652312599682;0.7386006289308177;0.7492025518341309;0.7081985624438455;0.7183640920483026;
32;32_79d1bfb5c02793c88f554002e04b5263d81703b7-LOC.arff;RAkELd;212.0;212.0;1.0;3.0;0.014150943396226415;0.0;0.0;209.0;0.9858490566037735;204.0;0.9622641509433962;3.0;0.014150943396226415;96.0;0.4528301886792453;0.9880382775119617;0.9880382775119617;0.7089314194577352;0.7089314194577352;0.7901344269765322;0.7901344269765322;
33;33_87aaf0f70a22686d2107efa01cfa19bba542c386-LOC.arff;BR;523.0;523.0;1.0;523.0;1.0;0.0;0.0;0.0;0.0;0.0;0.0;523.0;1.0;0.0;0.0;0.0;0.0;0.0;0.0;0.0;0.0;
33;33_87aaf0f70a22686d2107efa01cfa19bba542c386-LOC.arff;LP;523.0;523.0;1.0;0.0;0.0;481.0;0.9196940726577438;42.0;0.08030592734225621;23.0;0.04397705544933078;481.0;0.9196940726577438;5.0;0.009560229445506692;0.058795411089866155;0.7321428571428571;0.03718929254302103;0.46309523809523806;0.0393775228383259;0.49034391534391536;
33;33_87aaf0f70a22686d2107efa01cfa19bba542c386-LOC.arff;RAkELd;523.0;523.0;1.0;523.0;1.0;0.0;0.0;0.0;0.0;0.0;0.0;523.0;1.0;0.0;0.0;0.0;0.0;0.0;0.0;0.0;0.0;
35;35_5cf349a24a610d7223c5bc88193c07c713818028-LOC.arff;BR;212.0;212.0;1.0;152.0;0.7169811320754716;48.0;0.22641509433962265;12.0;0.05660377358490566;12.0;0.05660377358490566;200.0;0.9433962264150944;0.0;0.0;0.2;1.0;0.05527777777777777;0.27638888888888885;0.08531746031746032;0.4265873015873016;
35;35_5cf349a24a610d7223c5bc88193c07c713818028-LOC.arff;LP;212.0;212.0;1.0;0.0;0.0;182.0;0.8584905660377359;30.0;0.14150943396226415;30.0;0.14150943396226415;182.0;0.8584905660377359;0.0;0.0;0.14150943396226415;1.0;0.04866352201257861;0.34388888888888886;0.07100179694519317;0.5017460317460317;
35;35_5cf349a24a610d7223c5bc88193c07c713818028-LOC.arff;RAkELd;212.0;212.0;1.0;153.0;0.7216981132075472;48.0;0.22641509433962265;11.0;0.05188679245283019;11.0;0.05188679245283019;201.0;0.9481132075471698;0.0;0.0;0.1864406779661017;1.0;0.04774011299435028;0.25606060606060604;0.0754640839386602;0.40476190476190477;
38;38_fc0064e525288baec961db28c6c4d07f3206f145-LOC.arff;BR;212.0;212.0;1.0;0.0;0.0;0.0;0.0;212.0;1.0;74.0;0.3490566037735849;0.0;0.0;132.0;0.6226415094339622;0.6273584905660378;0.6273584905660378;0.8135220125786163;0.8135220125786163;0.6602201257861635;0.6602201257861635;
38;38_fc0064e525288baec961db28c6c4d07f3206f145-LOC.arff;LP;212.0;212.0;1.0;0.0;0.0;0.0;0.0;212.0;1.0;69.0;0.32547169811320753;0.0;0.0;127.0;0.5990566037735849;0.6540880503144654;0.6540880503144654;0.76312893081761;0.76312893081761;0.6717093441150045;0.6717093441150045;
38;38_fc0064e525288baec961db28c6c4d07f3206f145-LOC.arff;RAkELd;212.0;212.0;1.0;0.0;0.0;0.0;0.0;212.0;1.0;77.0;0.3632075471698113;0.0;0.0;102.0;0.4811320754716981;0.6729559748427673;0.6729559748427673;0.7091981132075471;0.7091981132075471;0.6326145552560646;0.6326145552560646;
39;39_d3bfffcb6eabe886eb8c1a11bcdc66a1f680a882-LOC.arff;BR;212.0;212.0;1.0;0.0;0.0;0.0;0.0;212.0;1.0;75.0;0.35377358490566035;0.0;0.0;134.0;0.6320754716981132;0.6320754716981132;0.6320754716981132;0.8202044025157232;0.8202044025157232;0.6655435759209345;0.6655435759209345;
39;39_d3bfffcb6eabe886eb8c1a11bcdc66a1f680a882-LOC.arff;LP;212.0;212.0;1.0;0.0;0.0;0.0;0.0;212.0;1.0;56.0;0.2641509433962264;0.0;0.0;144.0;0.6792452830188679;0.5605345911949685;0.5605345911949685;0.8380503144654088;0.8380503144654088;0.6255428271937706;0.6255428271937706;
39;39_d3bfffcb6eabe886eb8c1a11bcdc66a1f680a882-LOC.arff;RAkELd;212.0;212.0;1.0;0.0;0.0;0.0;0.0;212.0;1.0;75.0;0.35377358490566035;0.0;0.0;132.0;0.6226415094339622;0.6320754716981132;0.6320754716981132;0.8166666666666667;0.8166666666666667;0.6624887690925426;0.6624887690925426;
44;44_977fd2b2c736047814d4fa51ebad91ad454cc4c9-LOC.arff;BR;83.0;83.0;1.0;7.0;0.08433734939759036;1.0;0.012048192771084338;75.0;0.9036144578313253;75.0;0.9036144578313253;8.0;0.0963855421686747;24.0;0.2891566265060241;0.9868421052631579;1.0;0.5953947368421053;0.6033333333333334;0.706578947368421;0.716;
44;44_977fd2b2c736047814d4fa51ebad91ad454cc4c9-LOC.arff;LP;83.0;83.0;1.0;0.0;0.0;8.0;0.0963855421686747;75.0;0.9036144578313253;75.0;0.9036144578313253;8.0;0.0963855421686747;24.0;0.2891566265060241;0.9036144578313253;1.0;0.5451807228915663;0.6033333333333334;0.6469879518072289;0.716;
44;44_977fd2b2c736047814d4fa51ebad91ad454cc4c9-LOC.arff;RAkELd;83.0;83.0;1.0;0.0;0.0;31.0;0.37349397590361444;52.0;0.6265060240963856;52.0;0.6265060240963856;31.0;0.37349397590361444;4.0;0.04819277108433735;0.6265060240963856;1.0;0.286144578313253;0.4567307692307692;0.38192771084337346;0.6096153846153846;
45;45_72ace55e6ae964a5984a13e09492d1d92295f098-LOC.arff;BR;70.0;70.0;1.0;43.0;0.6142857142857143;4.0;0.05714285714285714;23.0;0.32857142857142857;18.0;0.2571428571428571;47.0;0.6714285714285714;18.0;0.2571428571428571;0.7592592592592593;0.8913043478260869;0.7592592592592593;0.8913043478260869;0.7407407407407407;0.8695652173913043;
45;45_72ace55e6ae964a5984a13e09492d1d92295f098-LOC.arff;LP;70.0;70.0;1.0;0.0;0.0;5.0;0.07142857142857142;65.0;0.9285714285714286;57.0;0.8142857142857143;5.0;0.07142857142857142;56.0;0.8;0.8714285714285714;0.9384615384615385;0.8642857142857143;0.9307692307692308;0.8476190476190476;0.9128205128205129;
45;45_72ace55e6ae964a5984a13e09492d1d92295f098-LOC.arff;RAkELd;70.0;70.0;1.0;43.0;0.6142857142857143;4.0;0.05714285714285714;23.0;0.32857142857142857;18.0;0.2571428571428571;47.0;0.6714285714285714;18.0;0.2571428571428571;0.7592592592592593;0.8913043478260869;0.7592592592592593;0.8913043478260869;0.7407407407407407;0.8695652173913043;
46;46_7b70caab7c4bdc45490d83730b62c5c2ea31e98e-LOC.arff;BR;168.0;168.0;1.0;168.0;1.0;0.0;0.0;0.0;0.0;0.0;0.0;168.0;1.0;0.0;0.0;0.0;0.0;0.0;0.0;0.0;0.0;
46;46_7b70caab7c4bdc45490d83730b62c5c2ea31e98e-LOC.arff;LP;168.0;168.0;1.0;0.0;0.0;146.0;0.8690476190476191;22.0;0.13095238095238096;22.0;0.13095238095238096;146.0;0.8690476190476191;18.0;0.10714285714285714;0.13095238095238096;1.0;0.11904761904761904;0.9090909090909091;0.12301587301587302;0.9393939393939394;
46;46_7b70caab7c4bdc45490d83730b62c5c2ea31e98e-LOC.arff;RAkELd;168.0;168.0;1.0;0.0;0.0;146.0;0.8690476190476191;22.0;0.13095238095238096;22.0;0.13095238095238096;146.0;0.8690476190476191;18.0;0.10714285714285714;0.13095238095238096;1.0;0.11904761904761904;0.9090909090909091;0.12301587301587302;0.9393939393939394;
47;47_ab154d55927776add58c878f7de94e82b07bee1c-LOC.arff;BR;246.0;246.0;1.0;55.0;0.22357723577235772;16.0;0.06504065040650407;175.0;0.7113821138211383;73.0;0.2967479674796748;71.0;0.2886178861788618;38.0;0.15447154471544716;0.6378708551483421;0.6961904761904761;0.5510471204188482;0.6014285714285714;0.5594490152081775;0.6105986394557823;
47;47_ab154d55927776add58c878f7de94e82b07bee1c-LOC.arff;LP;246.0;246.0;1.0;0.0;0.0;16.0;0.06504065040650407;230.0;0.9349593495934959;68.0;0.2764227642276423;16.0;0.06504065040650407;57.0;0.23170731707317074;0.5772357723577236;0.6173913043478261;0.5794715447154472;0.6197826086956523;0.543776616337592;0.5816045548654245;
47;47_ab154d55927776add58c878f7de94e82b07bee1c-LOC.arff;RAkELd;246.0;246.0;1.0;55.0;0.22357723577235772;16.0;0.06504065040650407;175.0;0.7113821138211383;73.0;0.2967479674796748;71.0;0.2886178861788618;38.0;0.15447154471544716;0.6378708551483421;0.6961904761904761;0.5510471204188482;0.6014285714285714;0.5594490152081775;0.6105986394557823;
48;48_27361e7cd08d895cfa8930c9e114997fdfe995ec-LOC.arff;BR;46.0;46.0;1.0;0.0;0.0;46.0;1.0;0.0;0.0;0.0;0.0;46.0;1.0;0.0;0.0;0.0;0.0;0.0;0.0;0.0;0.0;
48;48_27361e7cd08d895cfa8930c9e114997fdfe995ec-LOC.arff;LP;46.0;46.0;1.0;0.0;0.0;41.0;0.8913043478260869;5.0;0.10869565217391304;5.0;0.10869565217391304;41.0;0.8913043478260869;5.0;0.10869565217391304;0.10869565217391304;1.0;0.10869565217391304;1.0;0.10869565217391304;1.0;
48;48_27361e7cd08d895cfa8930c9e114997fdfe995ec-LOC.arff;RAkELd;46.0;46.0;1.0;0.0;0.0;46.0;1.0;0.0;0.0;0.0;0.0;46.0;1.0;0.0;0.0;0.0;0.0;0.0;0.0;0.0;0.0;
49;49_ba8a53a40fa0adaa947b536639bab998cc872feb-LOC.arff;BR;347.0;347.0;1.0;272.0;0.7838616714697406;72.0;0.207492795389049;3.0;0.008645533141210375;3.0;0.008645533141210375;344.0;0.9913544668587896;0.0;0.0;0.04;1.0;0.02;0.5;0.02666666666666667;0.6666666666666666;
49;49_ba8a53a40fa0adaa947b536639bab998cc872feb-LOC.arff;LP;347.0;347.0;1.0;0.0;0.0;118.0;0.3400576368876081;229.0;0.659942363112392;72.0;0.207492795389049;118.0;0.3400576368876081;71.0;0.20461095100864554;0.42267050912584053;0.6404657933042213;0.41532180595581175;0.629330422125182;0.39981702575362515;0.6058362791987246;
49;49_ba8a53a40fa0adaa947b536639bab998cc872feb-LOC.arff;RAkELd;347.0;347.0;1.0;241.0;0.6945244956772334;103.0;0.2968299711815562;3.0;0.008645533141210375;3.0;0.008645533141210375;344.0;0.9913544668587896;0.0;0.0;0.02830188679245283;1.0;0.014150943396226415;0.5;0.018867924528301886;0.6666666666666666;
51;51_e9adfa27b5c65f53c3f71e4348ccb51e7950c935-LOC.arff;BR;63.0;63.0;1.0;0.0;0.0;32.0;0.5079365079365079;31.0;0.49206349206349204;31.0;0.49206349206349204;32.0;0.5079365079365079;0.0;0.0;0.49206349206349204;1.0;0.19047619047619047;0.3870967741935484;0.27195767195767195;0.5526881720430107;
51;51_e9adfa27b5c65f53c3f71e4348ccb51e7950c935-LOC.arff;LP;63.0;63.0;1.0;0.0;0.0;27.0;0.42857142857142855;36.0;0.5714285714285714;31.0;0.49206349206349204;27.0;0.42857142857142855;14.0;0.2222222222222222;0.5317460317460317;0.9305555555555556;0.4444444444444444;0.7777777777777778;0.47195767195767196;0.825925925925926;
51;51_e9adfa27b5c65f53c3f71e4348ccb51e7950c935-LOC.arff;RAkELd;63.0;63.0;1.0;0.0;0.0;32.0;0.5079365079365079;31.0;0.49206349206349204;31.0;0.49206349206349204;32.0;0.5079365079365079;0.0;0.0;0.49206349206349204;1.0;0.19047619047619047;0.3870967741935484;0.27195767195767195;0.5526881720430107;
52;52_ff592b056ad492632a810e6c77a7d063b6ce05e3-LOC.arff;BR;49.0;49.0;1.0;41.0;0.8367346938775511;8.0;0.16326530612244897;0.0;0.0;0.0;0.0;49.0;1.0;0.0;0.0;0.0;0.0;0.0;0.0;0.0;0.0;
52;52_ff592b056ad492632a810e6c77a7d063b6ce05e3-LOC.arff;LP;49.0;49.0;1.0;0.0;0.0;49.0;1.0;0.0;0.0;0.0;0.0;49.0;1.0;0.0;0.0;0.0;0.0;0.0;0.0;0.0;0.0;
52;52_ff592b056ad492632a810e6c77a7d063b6ce05e3-LOC.arff;RAkELd;49.0;49.0;1.0;41.0;0.8367346938775511;8.0;0.16326530612244897;0.0;0.0;0.0;0.0;49.0;1.0;0.0;0.0;0.0;0.0;0.0;0.0;0.0;0.0;
53;53_9980ceb4a37ec1d2cae99b73ceae146ef7340e88-LOC.arff;BR;249.0;249.0;1.0;15.0;0.060240963855421686;15.0;0.060240963855421686;219.0;0.8795180722891566;153.0;0.6144578313253012;30.0;0.12048192771084337;84.0;0.3373493975903614;0.8112535612535613;0.8668188736681888;0.6433760683760684;0.6874429223744293;0.6746133496133496;0.7208197434224831;
53;53_9980ceb4a37ec1d2cae99b73ceae146ef7340e88-LOC.arff;LP;249.0;249.0;1.0;0.0;0.0;36.0;0.14457831325301204;213.0;0.8554216867469879;35.0;0.14056224899598393;36.0;0.14457831325301204;83.0;0.3333333333333333;0.4924364123159304;0.5756651017214397;0.5693440428380186;0.6655712050078246;0.4975648626251036;0.5816603323645577;
53;53_9980ceb4a37ec1d2cae99b73ceae146ef7340e88-LOC.arff;RAkELd;249.0;249.0;1.0;131.0;0.5261044176706827;79.0;0.3172690763052209;39.0;0.1566265060240964;32.0;0.1285140562248996;210.0;0.8433734939759037;0.0;0.0;0.3008474576271186;0.9102564102564102;0.12033898305084745;0.3641025641025641;0.16779661016949154;0.5076923076923077;
54;54_c57906b627bf7245578522ab50e9d35e9c6bc96b-LOC.arff;BR;213.0;213.0;1.0;0.0;0.0;121.0;0.568075117370892;92.0;0.431924882629108;83.0;0.38967136150234744;121.0;0.568075117370892;1.0;0.004694835680751174;0.4107981220657277;0.9510869565217391;0.12793427230046947;0.296195652173913;0.19120277218868767;0.442675983436853;
54;54_c57906b627bf7245578522ab50e9d35e9c6bc96b-LOC.arff;LP;213.0;213.0;1.0;0.0;0.0;213.0;1.0;0.0;0.0;0.0;0.0;213.0;1.0;0.0;0.0;0.0;0.0;0.0;0.0;0.0;0.0;
54;54_c57906b627bf7245578522ab50e9d35e9c6bc96b-LOC.arff;RAkELd;213.0;213.0;1.0;0.0;0.0;121.0;0.568075117370892;92.0;0.431924882629108;83.0;0.38967136150234744;121.0;0.568075117370892;1.0;0.004694835680751174;0.4107981220657277;0.9510869565217391;0.12793427230046947;0.296195652173913;0.19120277218868767;0.442675983436853;
56;56_02b9eceead9903beb9e1cf7d48f05fc2de8a8e8a-LOC.arff;BR;264.0;264.0;1.0;0.0;0.0;0.0;0.0;264.0;1.0;23.0;0.08712121212121213;0.0;0.0;154.0;0.5833333333333334;0.6082702020202021;0.6082702020202021;0.8567730880230879;0.8567730880230879;0.6881294000612183;0.6881294000612183;
56;56_02b9eceead9903beb9e1cf7d48f05fc2de8a8e8a-LOC.arff;LP;264.0;264.0;1.0;0.0;0.0;25.0;0.0946969696969697;239.0;0.9053030303030303;26.0;0.09848484848484848;25.0;0.0946969696969697;53.0;0.20075757575757575;0.45170454545454547;0.4989539748953975;0.5565205627705628;0.6147340107591154;0.4653630460448642;0.5140411889365865;
56;56_02b9eceead9903beb9e1cf7d48f05fc2de8a8e8a-LOC.arff;RAkELd;264.0;264.0;1.0;0.0;0.0;2.0;0.007575757575757576;262.0;0.9924242424242424;26.0;0.09848484848484848;2.0;0.007575757575757576;22.0;0.08333333333333333;0.5328282828282828;0.5368956743002544;0.5708784271284271;0.5752362777171937;0.5314454064454064;0.5355022416091118;
57;57_a9c7da06e398101517acc5b7a07e8dcb544df294-LOC.arff;BR;280.0;280.0;1.0;0.0;0.0;6.0;0.02142857142857143;274.0;0.9785714285714285;218.0;0.7785714285714286;6.0;0.02142857142857143;116.0;0.4142857142857143;0.8952380952380952;0.9148418491484185;0.6761054421768707;0.6909106708376781;0.727687074829932;0.7436218282933611;
57;57_a9c7da06e398101517acc5b7a07e8dcb544df294-LOC.arff;LP;280.0;280.0;1.0;0.0;0.0;0.0;0.0;280.0;1.0;110.0;0.39285714285714285;0.0;0.0;151.0;0.5392857142857143;0.68546768707483;0.68546768707483;0.7792942176870749;0.7792942176870749;0.681105957534529;0.681105957534529;
57;57_a9c7da06e398101517acc5b7a07e8dcb544df294-LOC.arff;RAkELd;280.0;280.0;1.0;0.0;0.0;1.0;0.0035714285714285713;279.0;0.9964285714285714;217.0;0.775;1.0;0.0035714285714285713;98.0;0.35;0.8916666666666666;0.8948626045400239;0.6673299319727891;0.6697217955282471;0.7383304988662132;0.7409768447402856;
58;58_65934eee9c6ae792c708bc1cea9996c8a5df67f5-LOC.arff;BR;494.0;494.0;1.0;37.0;0.07489878542510121;387.0;0.7834008097165992;70.0;0.1417004048582996;69.0;0.1396761133603239;424.0;0.8582995951417004;0.0;0.0;0.15171407731582784;0.9904761904761904;0.04493591747421069;0.2933673469387755;0.06734396165468376;0.4396598639455782;
58;58_65934eee9c6ae792c708bc1cea9996c8a5df67f5-LOC.arff;LP;494.0;494.0;1.0;0.0;0.0;155.0;0.31376518218623484;339.0;0.6862348178137652;75.0;0.15182186234817813;155.0;0.31376518218623484;51.0;0.10323886639676114;0.4035087719298246;0.5880039331366765;0.3649026412184307;0.5317460317460317;0.3672755606966133;0.5352039144074542;
58;58_65934eee9c6ae792c708bc1cea9996c8a5df67f5-LOC.arff;RAkELd;494.0;494.0;1.0;492.0;0.9959514170040485;2.0;0.004048582995951417;0.0;0.0;0.0;0.0;494.0;1.0;0.0;0.0;0.0;0.0;0.0;0.0;0.0;0.0;
59;59_ac82411c73e43d6b4730c865c38301d355e0fa35-LOC.arff;BR;287.0;287.0;1.0;250.0;0.8710801393728222;24.0;0.08362369337979095;13.0;0.04529616724738676;13.0;0.04529616724738676;274.0;0.9547038327526133;0.0;0.0;0.35135135135135137;1.0;0.12027027027027028;0.3423076923076923;0.17657657657657658;0.5025641025641026;
59;59_ac82411c73e43d6b4730c865c38301d355e0fa35-LOC.arff;LP;287.0;287.0;1.0;0.0;0.0;2.0;0.006968641114982578;285.0;0.9930313588850174;111.0;0.3867595818815331;2.0;0.006968641114982578;103.0;0.3588850174216028;0.6881533101045296;0.6929824561403509;0.6854737016757922;0.6902840434419382;0.6465184447762845;0.6510554163185742;
59;59_ac82411c73e43d6b4730c865c38301d355e0fa35-LOC.arff;RAkELd;287.0;287.0;1.0;74.0;0.2578397212543554;76.0;0.26480836236933797;137.0;0.47735191637630664;106.0;0.3693379790940767;150.0;0.5226480836236934;0.0;0.0;0.5719874804381846;0.889294403892944;0.19875922199865861;0.30901981230448383;0.2814218645204561;0.43753910323253387;
60;60_1d0452f10ce6d067836e483e3512c4099b4ca524-LOC.arff;BR;287.0;287.0;1.0;0.0;0.0;1.0;0.003484320557491289;286.0;0.9965156794425087;111.0;0.3867595818815331;1.0;0.003484320557491289;84.0;0.2926829268292683;0.6837979094076655;0.6861888111888111;0.6242906918865108;0.6264735264735265;0.6302665781759859;0.6324703074703075;
60;60_1d0452f10ce6d067836e483e3512c4099b4ca524-LOC.arff;LP;287.0;287.0;1.0;0.0;0.0;1.0;0.003484320557491289;286.0;0.9965156794425087;91.0;0.3170731707317073;1.0;0.003484320557491289;102.0;0.3554006968641115;0.6389165422266467;0.6411505161505161;0.634245893479343;0.6364635364635365;0.6078037719152701;0.6099289599289599;
60;60_1d0452f10ce6d067836e483e3512c4099b4ca524-LOC.arff;RAkELd;287.0;287.0;1.0;0.0;0.0;1.0;0.003484320557491289;286.0;0.9965156794425087;114.0;0.397212543554007;1.0;0.003484320557491289;84.0;0.2926829268292683;0.6936701509872242;0.6960955710955711;0.6163680106188817;0.6185231435231435;0.6265637962502074;0.6287545787545787;
62;62_2643ae93d69b4171acb18bf9994b12076b4f2496-LOC.arff;BR;230.0;230.0;1.0;1.0;0.004347826086956522;229.0;0.9956521739130435;0.0;0.0;0.0;0.0;230.0;1.0;0.0;0.0;0.0;0.0;0.0;0.0;0.0;0.0;
62;62_2643ae93d69b4171acb18bf9994b12076b4f2496-LOC.arff;LP;230.0;230.0;1.0;0.0;0.0;193.0;0.8391304347826087;37.0;0.1608695652173913;11.0;0.04782608695652174;193.0;0.8391304347826087;31.0;0.13478260869565217;0.1036231884057971;0.6441441441441441;0.14782608695652175;0.918918918918919;0.11840579710144927;0.7360360360360361;
62;62_2643ae93d69b4171acb18bf9994b12076b4f2496-LOC.arff;RAkELd;230.0;230.0;1.0;36.0;0.1565217391304348;71.0;0.30869565217391304;123.0;0.5347826086956522;123.0;0.5347826086956522;107.0;0.4652173913043478;37.0;0.1608695652173913;0.634020618556701;1.0;0.3848797250859107;0.6070460704607047;0.4587628865979381;0.7235772357723578;
63;63_331e82dcd3d7eaf9f76dbec8759f2f730335fea3-LOC.arff;BR;304.0;304.0;1.0;1.0;0.003289473684210526;137.0;0.4506578947368421;166.0;0.5460526315789473;28.0;0.09210526315789473;138.0;0.45394736842105265;6.0;0.019736842105263157;0.3146314631463146;0.57429718875502;0.20752003771805752;0.3787865748709122;0.23586358635863586;0.43052208835341366;
63;63_331e82dcd3d7eaf9f76dbec8759f2f730335fea3-LOC.arff;LP;304.0;304.0;1.0;0.0;0.0;278.0;0.9144736842105263;26.0;0.08552631578947369;26.0;0.08552631578947369;278.0;0.9144736842105263;0.0;0.0;0.08552631578947369;1.0;0.021412907268170425;0.25036630036630036;0.03370144110275689;0.39404761904761904;
63;63_331e82dcd3d7eaf9f76dbec8759f2f730335fea3-LOC.arff;RAkELd;304.0;304.0;1.0;0.0;0.0;182.0;0.5986842105263158;122.0;0.40131578947368424;24.0;0.07894736842105263;182.0;0.5986842105263158;0.0;0.0;0.24013157894736842;0.5983606557377049;0.12164003759398496;0.3031030444964871;0.15836466165413535;0.39461358313817335;
64;64_95126c09c0ffbea8f15ba74105f403d8c36683cf-LOC.arff;BR;311.0;311.0;1.0;0.0;0.0;1.0;0.003215434083601286;310.0;0.9967845659163987;0.0;0.0;1.0;0.003215434083601286;85.0;0.2733118971061093;0.4679069055274843;0.4694162826420891;0.603047006583984;0.6049923195084485;0.5058487957201784;0.5074805660289532;
64;64_95126c09c0ffbea8f15ba74105f403d8c36683cf-LOC.arff;LP;311.0;311.0;1.0;0.0;0.0;1.0;0.003215434083601286;310.0;0.9967845659163987;118.0;0.37942122186495175;1.0;0.003215434083601286;95.0;0.3054662379421222;0.6644694533762058;0.6666129032258065;0.6236717194916551;0.6256835637480799;0.6235798499464095;0.6255913978494624;
64;64_95126c09c0ffbea8f15ba74105f403d8c36683cf-LOC.arff;RAkELd;311.0;311.0;1.0;0.0;0.0;1.0;0.003215434083601286;310.0;0.9967845659163987;122.0;0.39228295819935693;1.0;0.003215434083601286;83.0;0.26688102893890675;0.687566988210075;0.6897849462365592;0.6007962027254632;0.6027342549923195;0.6131756239473282;0.6151536098310292;
65;65_5fd41ae872d51961a7f3e60ba9b6a7cba85d61f7-LOC.arff;BR;335.0;335.0;1.0;0.0;0.0;38.0;0.11343283582089553;297.0;0.8865671641791045;2.0;0.005970149253731343;38.0;0.11343283582089553;64.0;0.191044776119403;0.39452736318407955;0.4450056116722783;0.5146481876332623;0.5804954304954304;0.4311367405397256;0.4862990171070979;
65;65_5fd41ae872d51961a7f3e60ba9b6a7cba85d61f7-LOC.arff;LP;335.0;335.0;1.0;0.0;0.0;36.0;0.10746268656716418;299.0;0.8925373134328358;91.0;0.2716417910447761;36.0;0.10746268656716418;74.0;0.2208955223880597;0.5556218905472636;0.6225195094760312;0.5248400852878464;0.5880315336837075;0.5166785122009003;0.5788872962786007;
65;65_5fd41ae872d51961a7f3e60ba9b6a7cba85d61f7-LOC.arff;RAkELd;335.0;335.0;1.0;1.0;0.0029850746268656717;37.0;0.11044776119402985;297.0;0.8865671641791045;74.0;0.2208955223880597;38.0;0.11343283582089553;61.0;0.18208955223880596;0.5451596806387226;0.6130751964085298;0.490590248075278;0.5517075517075517;0.4943802870449577;0.5559697504141948;
66;66_805d37f77b25fba70c05518cda4edd1c349b7f04-LOC.arff;BR;287.0;287.0;1.0;0.0;0.0;1.0;0.003484320557491289;286.0;0.9965156794425087;125.0;0.4355400696864111;1.0;0.003484320557491289;96.0;0.3344947735191638;0.7273519163763066;0.7298951048951049;0.6660776505724241;0.6684065934065934;0.6604944416791106;0.6628038628038628;
66;66_805d37f77b25fba70c05518cda4edd1c349b7f04-LOC.arff;LP;287.0;287.0;1.0;0.0;0.0;1.0;0.003484320557491289;286.0;0.9965156794425087;93.0;0.3240418118466899;1.0;0.003484320557491289;80.0;0.2787456445993031;0.6252613240418118;0.6274475524475525;0.5994607599137216;0.6015567765567765;0.5853824456611912;0.5874292374292374;
66;66_805d37f77b25fba70c05518cda4edd1c349b7f04-LOC.arff;RAkELd;287.0;287.0;1.0;0.0;0.0;1.0;0.003484320557491289;286.0;0.9965156794425087;133.0;0.4634146341463415;1.0;0.003484320557491289;94.0;0.32752613240418116;0.7407084785133566;0.7432983682983684;0.6634644101543056;0.6657842157842158;0.6636220341795255;0.6659423909423909;
67;67_46f80e82d947dcb928abdfe96ee1e2f48ea82de5-LOC.arff;BR;287.0;287.0;1.0;0.0;0.0;1.0;0.003484320557491289;286.0;0.9965156794425087;204.0;0.710801393728223;1.0;0.003484320557491289;73.0;0.25435540069686413;0.8751451800232287;0.8782051282051282;0.6046125767380123;0.6067266067266067;0.6721402677848671;0.6744904085813177;
67;67_46f80e82d947dcb928abdfe96ee1e2f48ea82de5-LOC.arff;LP;287.0;287.0;1.0;0.0;0.0;4.0;0.013937282229965157;283.0;0.9860627177700348;83.0;0.289198606271777;4.0;0.013937282229965157;79.0;0.27526132404181186;0.6319976771196283;0.6409305064782096;0.6089347934295669;0.6175416456335184;0.5955754659587412;0.6039934937461439;
67;67_46f80e82d947dcb928abdfe96ee1e2f48ea82de5-LOC.arff;RAkELd;287.0;287.0;1.0;0.0;0.0;1.0;0.003484320557491289;286.0;0.9965156794425087;80.0;0.2787456445993031;1.0;0.003484320557491289;75.0;0.2613240418118467;0.6594076655052264;0.6617132867132867;0.6436950389912063;0.6459457209457209;0.6280681378242354;0.6302641802641803;
69;69_5df5727e939de26c828041ea7083a07c72f475da-LOC.arff;BR;287.0;287.0;1.0;0.0;0.0;1.0;0.003484320557491289;286.0;0.9965156794425087;5.0;0.017421602787456445;1.0;0.003484320557491289;73.0;0.25435540069686413;0.5129002820640451;0.5146936396936397;0.6206985233117638;0.6228687978687979;0.5408525272636772;0.5427436200163474;
69;69_5df5727e939de26c828041ea7083a07c72f475da-LOC.arff;LP;287.0;287.0;1.0;0.0;0.0;1.0;0.003484320557491289;286.0;0.9965156794425087;125.0;0.4355400696864111;1.0;0.003484320557491289;98.0;0.34146341463414637;0.721602787456446;0.7241258741258741;0.6582047453127592;0.6605061605061605;0.6533515845362535;0.6556360306360306;
69;69_5df5727e939de26c828041ea7083a07c72f475da-LOC.arff;RAkELd;287.0;287.0;1.0;0.0;0.0;1.0;0.003484320557491289;286.0;0.9965156794425087;130.0;0.4529616724738676;1.0;0.003484320557491289;82.0;0.2857142857142857;0.7332171893147503;0.7357808857808857;0.6332171893147502;0.6354312354312354;0.6381626116817755;0.6403939494848586;
70;70_edb5ea7efa555b59f17655e20e93d9e93499d5d8-LOC.arff;BR;287.0;287.0;1.0;0.0;0.0;0.0;0.0;287.0;1.0;12.0;0.041811846689895474;0.0;0.0;72.0;0.2508710801393728;0.4876306620209059;0.4876306620209059;0.6195453791272606;0.6195453791272606;0.5250320527324012;0.5250320527324012;
70;70_edb5ea7efa555b59f17655e20e93d9e93499d5d8-LOC.arff;LP;287.0;287.0;1.0;0.0;0.0;0.0;0.0;287.0;1.0;151.0;0.5261324041811847;0.0;0.0;74.0;0.2578397212543554;0.7534843205574913;0.7534843205574913;0.6081549693047951;0.6081549693047951;0.64847077042199;0.64847077042199;
70;70_edb5ea7efa555b59f17655e20e93d9e93499d5d8-LOC.arff;RAkELd;287.0;287.0;1.0;0.0;0.0;0.0;0.0;287.0;1.0;38.0;0.13240418118466898;0.0;0.0;57.0;0.1986062717770035;0.5557491289198606;0.5557491289198606;0.6079973452795752;0.6079973452795752;0.5594350674490047;0.5594350674490047;
71;71_e7dca8614be5cac516c0d7989a28abdf21d412d8-LOC.arff;BR;302.0;302.0;1.0;0.0;0.0;0.0;0.0;302.0;1.0;183.0;0.6059602649006622;0.0;0.0;89.0;0.2947019867549669;0.817991169977925;0.817991169977925;0.6212235887732577;0.6212235887732577;0.6588104316581137;0.6588104316581137;
71;71_e7dca8614be5cac516c0d7989a28abdf21d412d8-LOC.arff;LP;302.0;302.0;1.0;0.0;0.0;1.0;0.0033112582781456954;301.0;0.9966887417218543;80.0;0.26490066225165565;1.0;0.0033112582781456954;96.0;0.31788079470198677;0.6439451277199622;0.6460844803037493;0.6399243140964995;0.6420503084954913;0.6033533060023126;0.6053578020355429;
71;71_e7dca8614be5cac516c0d7989a28abdf21d412d8-LOC.arff;RAkELd;302.0;302.0;1.0;0.0;0.0;0.0;0.0;302.0;1.0;183.0;0.6059602649006622;0.0;0.0;101.0;0.3344370860927152;0.8167770419426048;0.8167770419426048;0.647603279722485;0.647603279722485;0.6770046730311631;0.6770046730311631;
72;72_e63e224a33011f2aa302ee435acc066af8a87ddb-LOC.arff;BR;302.0;302.0;1.0;0.0;0.0;0.0;0.0;302.0;1.0;19.0;0.06291390728476821;0.0;0.0;65.0;0.2152317880794702;0.5606512141280353;0.5606512141280353;0.5994165878271839;0.5994165878271839;0.5538789025543992;0.5538789025543992;
72;72_e63e224a33011f2aa302ee435acc066af8a87ddb-LOC.arff;LP;302.0;302.0;1.0;0.0;0.0;302.0;1.0;0.0;0.0;0.0;0.0;302.0;1.0;0.0;0.0;0.0;0.0;0.0;0.0;0.0;0.0;
72;72_e63e224a33011f2aa302ee435acc066af8a87ddb-LOC.arff;RAkELd;302.0;302.0;1.0;0.0;0.0;0.0;0.0;302.0;1.0;92.0;0.304635761589404;0.0;0.0;81.0;0.2682119205298013;0.6560706401766004;0.6560706401766004;0.6285398927783034;0.6285398927783034;0.6048686964249878;0.6048686964249878;
73;73_b15902d3b5131d1ddfc4d52ce99a54827ece5d53-LOC.arff;BR;302.0;302.0;1.0;0.0;0.0;0.0;0.0;302.0;1.0;221.0;0.7317880794701986;0.0;0.0;59.0;0.19536423841059603;0.8810706401766004;0.8810706401766004;0.5062283191422264;0.5062283191422264;0.5829259960054661;0.5829259960054661;
73;73_b15902d3b5131d1ddfc4d52ce99a54827ece5d53-LOC.arff;LP;302.0;302.0;1.0;0.0;0.0;0.0;0.0;302.0;1.0;111.0;0.3675496688741722;0.0;0.0;80.0;0.26490066225165565;0.657008830022075;0.657008830022075;0.5823951434878587;0.5823951434878587;0.5875643855776307;0.5875643855776307;
73;73_b15902d3b5131d1ddfc4d52ce99a54827ece5d53-LOC.arff;RAkELd;302.0;302.0;1.0;0.0;0.0;0.0;0.0;302.0;1.0;60.0;0.1986754966887417;0.0;0.0;66.0;0.2185430463576159;0.5741169977924945;0.5741169977924945;0.554139072847682;0.554139072847682;0.5398954062861347;0.5398954062861347;
75;75_ff69e0a772c71226be7d6000c5096c0a850e3a62-LOC.arff;BR;64.0;64.0;1.0;0.0;0.0;64.0;1.0;0.0;0.0;0.0;0.0;64.0;1.0;0.0;0.0;0.0;0.0;0.0;0.0;0.0;0.0;
75;75_ff69e0a772c71226be7d6000c5096c0a850e3a62-LOC.arff;LP;64.0;64.0;1.0;0.0;0.0;64.0;1.0;0.0;0.0;0.0;0.0;64.0;1.0;0.0;0.0;0.0;0.0;0.0;0.0;0.0;0.0;
75;75_ff69e0a772c71226be7d6000c5096c0a850e3a62-LOC.arff;RAkELd;64.0;64.0;1.0;0.0;0.0;64.0;1.0;0.0;0.0;0.0;0.0;64.0;1.0;0.0;0.0;0.0;0.0;0.0;0.0;0.0;0.0;
79;79_9d90220537583b98b726dab13e3c553d676d631e-LOC.arff;BR;302.0;302.0;1.0;131.0;0.4337748344370861;70.0;0.23178807947019867;101.0;0.3344370860927152;96.0;0.31788079470198677;201.0;0.6655629139072847;0.0;0.0;0.5760233918128655;0.9752475247524752;0.16386800334168755;0.27743988684582743;0.251387728580711;0.4256168473990256;
79;79_9d90220537583b98b726dab13e3c553d676d631e-LOC.arff;LP;302.0;302.0;1.0;0.0;0.0;0.0;0.0;302.0;1.0;169.0;0.5596026490066225;0.0;0.0;141.0;0.46688741721854304;0.8049668874172186;0.8049668874172186;0.7655707978555661;0.7655707978555661;0.7602082060691333;0.7602082060691333;
79;79_9d90220537583b98b726dab13e3c553d676d631e-LOC.arff;RAkELd;302.0;302.0;1.0;122.0;0.40397350993377484;75.0;0.24834437086092714;105.0;0.347682119205298;102.0;0.33774834437086093;197.0;0.652317880794702;0.0;0.0;0.575;0.9857142857142858;0.15882275132275134;0.2722675736961451;0.24548500881834218;0.42083144368858655;
82;82_8a08b8e07e0bd84c1778eca7f3f32fafff5c3af5-LOC.arff;BR;302.0;302.0;1.0;0.0;0.0;1.0;0.0033112582781456954;301.0;0.9966887417218543;0.0;0.0;1.0;0.0033112582781456954;129.0;0.4271523178807947;0.5314490696941029;0.5332146812213258;0.744362976978871;0.7468359436797974;0.5944427904692805;0.5964176834608728;
82;82_8a08b8e07e0bd84c1778eca7f3f32fafff5c3af5-LOC.arff;LP;302.0;302.0;1.0;0.0;0.0;0.0;0.0;302.0;1.0;79.0;0.26158940397350994;0.0;0.0;106.0;0.3509933774834437;0.6139151687164932;0.6139151687164932;0.6324503311258278;0.6324503311258278;0.5851249008533776;0.5851249008533776;
82;82_8a08b8e07e0bd84c1778eca7f3f32fafff5c3af5-LOC.arff;RAkELd;302.0;302.0;1.0;0.0;0.0;1.0;0.0033112582781456954;301.0;0.9966887417218543;82.0;0.271523178807947;1.0;0.0033112582781456954;101.0;0.3344370860927152;0.6389072847682119;0.6410299003322258;0.6840665405234941;0.6863391868375257;0.6208391865676633;0.6229017752273566;
84;84_537b5c155dd0e35080528bcaba088d0d177aa2bd-LOC.arff;BR;241.0;241.0;1.0;0.0;0.0;86.0;0.35684647302904565;155.0;0.6431535269709544;0.0;0.0;86.0;0.35684647302904565;0.0;0.0;0.25656984785615494;0.3989247311827957;0.273325429756965;0.4249769585253456;0.2577104776274901;0.4006982265046781;
84;84_537b5c155dd0e35080528bcaba088d0d177aa2bd-LOC.arff;LP;241.0;241.0;1.0;0.0;0.0;241.0;1.0;0.0;0.0;0.0;0.0;241.0;1.0;0.0;0.0;0.0;0.0;0.0;0.0;0.0;0.0;
84;84_537b5c155dd0e35080528bcaba088d0d177aa2bd-LOC.arff;RAkELd;241.0;241.0;1.0;0.0;0.0;86.0;0.35684647302904565;155.0;0.6431535269709544;4.0;0.016597510373443983;86.0;0.35684647302904565;0.0;0.0;0.3499308437067773;0.5440860215053763;0.273325429756965;0.4249769585253456;0.29816900480800895;0.46360471070148485;
86;86_2a6afee83292e5b741cb99ca4b7b30b7acfe7529-LOC.arff;BR;64.0;64.0;1.0;0.0;0.0;4.0;0.0625;60.0;0.9375;43.0;0.671875;4.0;0.0625;0.0;0.0;0.8046875;0.8583333333333333;0.32317708333333334;0.3447222222222222;0.44568452380952384;0.47539682539682543;
86;86_2a6afee83292e5b741cb99ca4b7b30b7acfe7529-LOC.arff;LP;64.0;64.0;1.0;0.0;0.0;0.0;0.0;64.0;1.0;61.0;0.953125;0.0;0.0;16.0;0.25;0.9765625;0.9765625;0.6684895833333333;0.6684895833333333;0.7750744047619048;0.7750744047619048;
86;86_2a6afee83292e5b741cb99ca4b7b30b7acfe7529-LOC.arff;RAkELd;64.0;64.0;1.0;45.0;0.703125;19.0;0.296875;0.0;0.0;0.0;0.0;64.0;1.0;0.0;0.0;0.0;0.0;0.0;0.0;0.0;0.0;
87;87_953d830bba02eb71376c51ccee2c5599bf976df5-LOC.arff;BR;197.0;197.0;1.0;0.0;0.0;1.0;0.005076142131979695;196.0;0.9949238578680203;91.0;0.4619289340101523;1.0;0.005076142131979695;78.0;0.39593908629441626;0.7696277495769882;0.7735544217687075;0.7651075658689872;0.769011175898931;0.7425897847217645;0.746378508113202;
87;87_953d830bba02eb71376c51ccee2c5599bf976df5-LOC.arff;LP;197.0;197.0;1.0;0.0;0.0;1.0;0.005076142131979695;196.0;0.9949238578680203;70.0;0.3553299492385787;1.0;0.005076142131979695;84.0;0.4263959390862944;0.6985738457819676;0.7021379980563655;0.7499516557892192;0.7537779397473274;0.6985449406769204;0.7021089454762924;
87;87_953d830bba02eb71376c51ccee2c5599bf976df5-LOC.arff;RAkELd;197.0;197.0;1.0;0.0;0.0;1.0;0.005076142131979695;196.0;0.9949238578680203;86.0;0.4365482233502538;1.0;0.005076142131979695;98.0;0.49746192893401014;0.7654822335025381;0.7693877551020408;0.808605269518975;0.8127308066083576;0.7576394276901891;0.7615049349743227;
89;89_7a2d1f5aeb85225a7d71e8b95982e36c5fb17722-LOC.arff;BR;6.0;6.0;1.0;0.0;0.0;6.0;1.0;0.0;0.0;0.0;0.0;6.0;1.0;0.0;0.0;0.0;0.0;0.0;0.0;0.0;0.0;
89;89_7a2d1f5aeb85225a7d71e8b95982e36c5fb17722-LOC.arff;LP;6.0;6.0;1.0;0.0;0.0;6.0;1.0;0.0;0.0;0.0;0.0;6.0;1.0;0.0;0.0;0.0;0.0;0.0;0.0;0.0;0.0;
89;89_7a2d1f5aeb85225a7d71e8b95982e36c5fb17722-LOC.arff;RAkELd;6.0;6.0;1.0;0.0;0.0;6.0;1.0;0.0;0.0;0.0;0.0;6.0;1.0;0.0;0.0;0.0;0.0;0.0;0.0;0.0;0.0;
90;90_5ad1d19384ba3ea8a1e6c33babc63de1d28acf31-LOC.arff;BR;302.0;302.0;1.0;3.0;0.009933774834437087;0.0;0.0;299.0;0.9900662251655629;39.0;0.1291390728476821;3.0;0.009933774834437087;68.0;0.2251655629139073;0.6086956521739131;0.6086956521739131;0.5894091415830546;0.5894091415830546;0.5717125869299782;0.5717125869299782;
90;90_5ad1d19384ba3ea8a1e6c33babc63de1d28acf31-LOC.arff;LP;302.0;302.0;1.0;0.0;0.0;0.0;0.0;302.0;1.0;23.0;0.076158940397351;0.0;0.0;123.0;0.40728476821192056;0.4737701040681173;0.4737701040681173;0.7225480920845159;0.7225480920845159;0.5395924899236157;0.5395924899236157;
90;90_5ad1d19384ba3ea8a1e6c33babc63de1d28acf31-LOC.arff;RAkELd;302.0;302.0;1.0;0.0;0.0;3.0;0.009933774834437087;299.0;0.9900662251655629;252.0;0.8344370860927153;3.0;0.009933774834437087;68.0;0.2251655629139073;0.9144591611479029;0.923634336677815;0.542068748029013;0.5475075648988693;0.6366498475769998;0.6430376386898126;
94;94_915ef2d4a136df67f468917c725d032919e189d4-LOC.arff;BR;302.0;302.0;1.0;0.0;0.0;0.0;0.0;302.0;1.0;156.0;0.5165562913907285;0.0;0.0;72.0;0.23841059602649006;0.7437086092715232;0.7437086092715232;0.5860138757489751;0.5860138757489751;0.6194786082203301;0.6194786082203301;
94;94_915ef2d4a136df67f468917c725d032919e189d4-LOC.arff;LP;302.0;302.0;1.0;0.0;0.0;0.0;0.0;302.0;1.0;77.0;0.25496688741721857;0.0;0.0;84.0;0.2781456953642384;0.6000630715862504;0.6000630715862504;0.6123383790602334;0.6123383790602334;0.5760722169662568;0.5760722169662568;
94;94_915ef2d4a136df67f468917c725d032919e189d4-LOC.arff;RAkELd;302.0;302.0;1.0;0.0;0.0;0.0;0.0;302.0;1.0;135.0;0.4470198675496689;0.0;0.0;68.0;0.2251655629139073;0.7229580573951435;0.7229580573951435;0.5887732576474298;0.5887732576474298;0.6153894670450962;0.6153894670450962;
100;100_6dba34ab0ed5b5f89b70ebe71086200606319bd8-LOC.arff;BR;459.0;459.0;1.0;0.0;0.0;157.0;0.3420479302832244;302.0;0.6579520697167756;106.0;0.23093681917211328;157.0;0.3420479302832244;112.0;0.2440087145969499;0.4301016702977487;0.6536975717439293;0.4588339039319432;0.6973667612740461;0.4200589775753174;0.6384340089638102;
100;100_6dba34ab0ed5b5f89b70ebe71086200606319bd8-LOC.arff;LP;459.0;459.0;1.0;0.0;0.0;55.0;0.11982570806100218;404.0;0.8801742919389978;150.0;0.32679738562091504;55.0;0.11982570806100218;129.0;0.28104575163398693;0.6041446208112874;0.6863920320603488;0.5858439672165162;0.6655999528524281;0.5663760229119706;0.643481669595531;
100;100_6dba34ab0ed5b5f89b70ebe71086200606319bd8-LOC.arff;RAkELd;459.0;459.0;1.0;0.0;0.0;135.0;0.29411764705882354;324.0;0.7058823529411765;116.0;0.25272331154684097;135.0;0.29411764705882354;102.0;0.2222222222222222;0.4737109658678286;0.6710905349794238;0.4516806722689075;0.6398809523809523;0.4298698154907305;0.6089822386118682;
104;104_d8e7e2f72e28d2df29f3f8b23215419e21b0727b-LOC.arff;BR;128.0;128.0;1.0;0.0;0.0;128.0;1.0;0.0;0.0;0.0;0.0;128.0;1.0;0.0;0.0;0.0;0.0;0.0;0.0;0.0;0.0;
104;104_d8e7e2f72e28d2df29f3f8b23215419e21b0727b-LOC.arff;LP;128.0;128.0;1.0;0.0;0.0;0.0;0.0;128.0;1.0;117.0;0.9140625;0.0;0.0;90.0;0.703125;0.95703125;0.95703125;0.8932291666666666;0.8932291666666666;0.90703125;0.90703125;
104;104_d8e7e2f72e28d2df29f3f8b23215419e21b0727b-LOC.arff;RAkELd;128.0;128.0;1.0;0.0;0.0;0.0;0.0;128.0;1.0;0.0;0.0;0.0;0.0;39.0;0.3046875;0.37760416666666663;0.37760416666666663;0.6106770833333334;0.6106770833333334;0.45546875;0.45546875;
105;105_cd2268f10a88de393a565c887c8891c7f7979a97-LOC.arff;BR;12.0;12.0;1.0;0.0;0.0;0.0;0.0;12.0;1.0;12.0;1.0;0.0;0.0;5.0;0.4166666666666667;1.0;1.0;0.7083333333333334;0.7083333333333334;0.8055555555555555;0.8055555555555555;
105;105_cd2268f10a88de393a565c887c8891c7f7979a97-LOC.arff;LP;12.0;12.0;1.0;0.0;0.0;0.0;0.0;12.0;1.0;12.0;1.0;0.0;0.0;5.0;0.4166666666666667;1.0;1.0;0.7083333333333334;0.7083333333333334;0.8055555555555555;0.8055555555555555;
105;105_cd2268f10a88de393a565c887c8891c7f7979a97-LOC.arff;RAkELd;12.0;12.0;1.0;0.0;0.0;0.0;0.0;12.0;1.0;12.0;1.0;0.0;0.0;5.0;0.4166666666666667;1.0;1.0;0.7083333333333334;0.7083333333333334;0.8055555555555555;0.8055555555555555;
106;106_b21d5193f25e3e388ddc3787aba7f0086a1abad7-LOC.arff;BR;459.0;459.0;1.0;3.0;0.006535947712418301;49.0;0.10675381263616558;407.0;0.8867102396514162;216.0;0.47058823529411764;52.0;0.11328976034858387;127.0;0.2766884531590414;0.7142596073517127;0.8002515502515503;0.5974624060150375;0.6693927693927694;0.6194177046150731;0.6939913349004259;
106;106_b21d5193f25e3e388ddc3787aba7f0086a1abad7-LOC.arff;LP;459.0;459.0;1.0;0.0;0.0;46.0;0.10021786492374728;413.0;0.8997821350762527;146.0;0.31808278867102396;46.0;0.10021786492374728;157.0;0.3420479302832244;0.6273057371096586;0.6971751412429379;0.6276688453159042;0.6975786924939468;0.5999036427141002;0.6667209975926682;
106;106_b21d5193f25e3e388ddc3787aba7f0086a1abad7-LOC.arff;RAkELd;459.0;459.0;1.0;3.0;0.006535947712418301;49.0;0.10675381263616558;407.0;0.8867102396514162;169.0;0.3681917211328976;52.0;0.11328976034858387;134.0;0.29193899782135074;0.6492011278195489;0.7273604773604774;0.6137113617376775;0.6875979875979875;0.5991202754360649;0.6712502348865985;
107;107_eeb4f029dbaa8f12350f631441303832fc14fc9e-LOC.arff;BR;12.0;12.0;1.0;0.0;0.0;0.0;0.0;12.0;1.0;7.0;0.5833333333333334;0.0;0.0;5.0;0.4166666666666667;0.7916666666666666;0.7916666666666666;0.7083333333333334;0.7083333333333334;0.7361111111111112;0.7361111111111112;
107;107_eeb4f029dbaa8f12350f631441303832fc14fc9e-LOC.arff;LP;12.0;12.0;1.0;0.0;0.0;5.0;0.4166666666666667;7.0;0.5833333333333334;2.0;0.16666666666666666;5.0;0.4166666666666667;7.0;0.5833333333333334;0.375;0.6428571428571429;0.5833333333333334;1.0;0.4444444444444444;0.7619047619047619;
107;107_eeb4f029dbaa8f12350f631441303832fc14fc9e-LOC.arff;RAkELd;12.0;12.0;1.0;0.0;0.0;0.0;0.0;12.0;1.0;8.0;0.6666666666666666;0.0;0.0;5.0;0.4166666666666667;0.8333333333333334;0.8333333333333334;0.7083333333333334;0.7083333333333334;0.75;0.75;
109;109_379ea642e181ee072a80d361dfb043e7f3318103-LOC.arff;BR;132.0;132.0;1.0;0.0;0.0;0.0;0.0;132.0;1.0;0.0;0.0;0.0;0.0;94.0;0.7121212121212122;0.4311868686868687;0.4311868686868687;0.8964646464646464;0.8964646464646464;0.5690836940836941;0.5690836940836941;
109;109_379ea642e181ee072a80d361dfb043e7f3318103-LOC.arff;LP;132.0;132.0;1.0;0.0;0.0;0.0;0.0;132.0;1.0;93.0;0.7045454545454546;0.0;0.0;124.0;0.9393939393939394;0.8787878787878788;0.8787878787878788;0.9722222222222223;0.9722222222222223;0.904040404040404;0.904040404040404;
109;109_379ea642e181ee072a80d361dfb043e7f3318103-LOC.arff;RAkELd;132.0;132.0;1.0;0.0;0.0;0.0;0.0;132.0;1.0;0.0;0.0;0.0;0.0;94.0;0.7121212121212122;0.4071969696969697;0.4071969696969697;0.8964646464646464;0.8964646464646464;0.5415584415584416;0.5415584415584416;
110;110_924bab1a031101634ba350cd8daf1c5a2e08430a-LOC.arff;BR;27.0;27.0;1.0;0.0;0.0;27.0;1.0;0.0;0.0;0.0;0.0;27.0;1.0;0.0;0.0;0.0;0.0;0.0;0.0;0.0;0.0;
110;110_924bab1a031101634ba350cd8daf1c5a2e08430a-LOC.arff;LP;27.0;27.0;1.0;0.0;0.0;27.0;1.0;0.0;0.0;0.0;0.0;27.0;1.0;0.0;0.0;0.0;0.0;0.0;0.0;0.0;0.0;
110;110_924bab1a031101634ba350cd8daf1c5a2e08430a-LOC.arff;RAkELd;27.0;27.0;1.0;0.0;0.0;27.0;1.0;0.0;0.0;0.0;0.0;27.0;1.0;0.0;0.0;0.0;0.0;0.0;0.0;0.0;0.0;
111;111_959d82e81e3a8185992a4c8edeff171fed9f01ca-LOC.arff;BR;27.0;27.0;1.0;0.0;0.0;9.0;0.3333333333333333;18.0;0.6666666666666666;18.0;0.6666666666666666;9.0;0.3333333333333333;8.0;0.2962962962962963;0.6666666666666666;1.0;0.48148148148148145;0.7222222222222222;0.5432098765432098;0.8148148148148148;
111;111_959d82e81e3a8185992a4c8edeff171fed9f01ca-LOC.arff;LP;27.0;27.0;1.0;0.0;0.0;9.0;0.3333333333333333;18.0;0.6666666666666666;18.0;0.6666666666666666;9.0;0.3333333333333333;8.0;0.2962962962962963;0.6666666666666666;1.0;0.48148148148148145;0.7222222222222222;0.5432098765432098;0.8148148148148148;
111;111_959d82e81e3a8185992a4c8edeff171fed9f01ca-LOC.arff;RAkELd;27.0;27.0;1.0;0.0;0.0;9.0;0.3333333333333333;18.0;0.6666666666666666;18.0;0.6666666666666666;9.0;0.3333333333333333;8.0;0.2962962962962963;0.6666666666666666;1.0;0.48148148148148145;0.7222222222222222;0.5432098765432098;0.8148148148148148;
114;114_0db97b9c7f4cb26e4a767c9aa2a4b8be4007e209-LOC.arff;BR;302.0;302.0;1.0;0.0;0.0;0.0;0.0;302.0;1.0;38.0;0.12582781456953643;0.0;0.0;79.0;0.26158940397350994;0.5816225165562914;0.5816225165562914;0.6328445285398928;0.6328445285398928;0.5645337002952897;0.5645337002952897;
114;114_0db97b9c7f4cb26e4a767c9aa2a4b8be4007e209-LOC.arff;LP;302.0;302.0;1.0;0.0;0.0;299.0;0.9900662251655629;3.0;0.009933774834437087;3.0;0.009933774834437087;299.0;0.9900662251655629;0.0;0.0;0.009933774834437087;1.0;0.003421633554083885;0.3444444444444444;0.004966887417218543;0.5;
114;114_0db97b9c7f4cb26e4a767c9aa2a4b8be4007e209-LOC.arff;RAkELd;302.0;302.0;1.0;0.0;0.0;0.0;0.0;302.0;1.0;50.0;0.16556291390728478;0.0;0.0;75.0;0.24834437086092714;0.6283112582781457;0.6283112582781457;0.6183853673919899;0.6183853673919899;0.5962630085146642;0.5962630085146642;
116;116_0e0e4945d8ad060aa50552a0b27369c18442c2d0-LOC.arff;BR;53.0;53.0;1.0;0.0;0.0;53.0;1.0;0.0;0.0;0.0;0.0;53.0;1.0;0.0;0.0;0.0;0.0;0.0;0.0;0.0;0.0;
116;116_0e0e4945d8ad060aa50552a0b27369c18442c2d0-LOC.arff;LP;53.0;53.0;1.0;0.0;0.0;53.0;1.0;0.0;0.0;0.0;0.0;53.0;1.0;0.0;0.0;0.0;0.0;0.0;0.0;0.0;0.0;
116;116_0e0e4945d8ad060aa50552a0b27369c18442c2d0-LOC.arff;RAkELd;53.0;53.0;1.0;0.0;0.0;53.0;1.0;0.0;0.0;0.0;0.0;53.0;1.0;0.0;0.0;0.0;0.0;0.0;0.0;0.0;0.0;
118;118_6ac9b2e7614766a38276d143592ba0b6e8f31271-LOC.arff;BR;102.0;102.0;1.0;0.0;0.0;102.0;1.0;0.0;0.0;0.0;0.0;102.0;1.0;0.0;0.0;0.0;0.0;0.0;0.0;0.0;0.0;
118;118_6ac9b2e7614766a38276d143592ba0b6e8f31271-LOC.arff;LP;102.0;102.0;1.0;0.0;0.0;101.0;0.9901960784313726;1.0;0.00980392156862745;1.0;0.00980392156862745;101.0;0.9901960784313726;1.0;0.00980392156862745;0.00980392156862745;1.0;0.00980392156862745;1.0;0.00980392156862745;1.0;
118;118_6ac9b2e7614766a38276d143592ba0b6e8f31271-LOC.arff;RAkELd;102.0;102.0;1.0;1.0;0.00980392156862745;101.0;0.9901960784313726;0.0;0.0;0.0;0.0;102.0;1.0;0.0;0.0;0.0;0.0;0.0;0.0;0.0;0.0;
119;119_cdf0bd4e635508ba622e0a333ddf5ffbde90cfa3-LOC.arff;BR;102.0;102.0;1.0;101.0;0.9901960784313726;1.0;0.00980392156862745;0.0;0.0;0.0;0.0;102.0;1.0;0.0;0.0;0.0;0.0;0.0;0.0;0.0;0.0;
119;119_cdf0bd4e635508ba622e0a333ddf5ffbde90cfa3-LOC.arff;LP;102.0;102.0;1.0;0.0;0.0;1.0;0.00980392156862745;101.0;0.9901960784313726;86.0;0.8431372549019608;1.0;0.00980392156862745;72.0;0.7058823529411765;0.9166666666666666;0.9257425742574258;0.8594771241830066;0.867986798679868;0.8578431372549019;0.8663366336633663;
119;119_cdf0bd4e635508ba622e0a333ddf5ffbde90cfa3-LOC.arff;RAkELd;102.0;102.0;1.0;101.0;0.9901960784313726;1.0;0.00980392156862745;0.0;0.0;0.0;0.0;102.0;1.0;0.0;0.0;0.0;0.0;0.0;0.0;0.0;0.0;
120;120_235051253a504fa6f4866bda604f2612df7aad0e-LOC.arff;BR;5.0;5.0;1.0;0.0;0.0;1.0;0.2;4.0;0.8;0.0;0.0;1.0;0.2;3.0;0.6;0.4;0.5;0.7;0.875;0.5;0.625;
120;120_235051253a504fa6f4866bda604f2612df7aad0e-LOC.arff;LP;5.0;5.0;1.0;0.0;0.0;0.0;0.0;5.0;1.0;5.0;1.0;0.0;0.0;4.0;0.8;1.0;1.0;0.9;0.9;0.9333333333333332;0.9333333333333332;
120;120_235051253a504fa6f4866bda604f2612df7aad0e-LOC.arff;RAkELd;5.0;5.0;1.0;0.0;0.0;1.0;0.2;4.0;0.8;0.0;0.0;1.0;0.2;3.0;0.6;0.4;0.5;0.7;0.875;0.5;0.625;
121;121_27654bfe697ee08a83f4f39567357827ef77fd1f-LOC.arff;BR;5.0;5.0;1.0;0.0;0.0;1.0;0.2;4.0;0.8;0.0;0.0;1.0;0.2;3.0;0.6;0.4;0.5;0.7;0.875;0.5;0.625;
121;121_27654bfe697ee08a83f4f39567357827ef77fd1f-LOC.arff;LP;5.0;5.0;1.0;0.0;0.0;1.0;0.2;4.0;0.8;4.0;0.8;1.0;0.2;3.0;0.6;0.8;1.0;0.7;0.875;0.7333333333333333;0.9166666666666666;
121;121_27654bfe697ee08a83f4f39567357827ef77fd1f-LOC.arff;RAkELd;5.0;5.0;1.0;0.0;0.0;1.0;0.2;4.0;0.8;0.0;0.0;1.0;0.2;3.0;0.6;0.4;0.5;0.7;0.875;0.5;0.625;
124;124_57e163e98999b45b9fff814dfee20d2ea01947f1-LOC.arff;BR;5.0;5.0;1.0;2.0;0.4;1.0;0.2;2.0;0.4;0.0;0.0;3.0;0.6;1.0;0.2;0.3333333333333333;0.5;0.5;0.75;0.38888888888888884;0.5833333333333333;
124;124_57e163e98999b45b9fff814dfee20d2ea01947f1-LOC.arff;LP;5.0;5.0;1.0;0.0;0.0;1.0;0.2;4.0;0.8;4.0;0.8;1.0;0.2;3.0;0.6;0.8;1.0;0.7;0.875;0.7333333333333333;0.9166666666666666;
124;124_57e163e98999b45b9fff814dfee20d2ea01947f1-LOC.arff;RAkELd;5.0;5.0;1.0;2.0;0.4;1.0;0.2;2.0;0.4;0.0;0.0;3.0;0.6;1.0;0.2;0.3333333333333333;0.5;0.5;0.75;0.38888888888888884;0.5833333333333333;
125;125_a6823a84e18f7738cafe309c21b55a110ea51d6d-LOC.arff;BR;13.0;13.0;1.0;0.0;0.0;0.0;0.0;13.0;1.0;0.0;0.0;0.0;0.0;5.0;0.38461538461538464;0.3333333333333333;0.3333333333333333;0.6923076923076923;0.6923076923076923;0.43846153846153846;0.43846153846153846;
125;125_a6823a84e18f7738cafe309c21b55a110ea51d6d-LOC.arff;LP;13.0;13.0;1.0;0.0;0.0;0.0;0.0;13.0;1.0;13.0;1.0;0.0;0.0;10.0;0.7692307692307693;1.0;1.0;0.8846153846153846;0.8846153846153846;0.9230769230769231;0.9230769230769231;
125;125_a6823a84e18f7738cafe309c21b55a110ea51d6d-LOC.arff;RAkELd;13.0;13.0;1.0;0.0;0.0;0.0;0.0;13.0;1.0;0.0;0.0;0.0;0.0;5.0;0.38461538461538464;0.5;0.5;0.6923076923076923;0.6923076923076923;0.5641025641025641;0.5641025641025641;
127;127_191f36b4933be2686a51dd62dbe532ee90f38ab5-LOC.arff;BR;303.0;303.0;1.0;0.0;0.0;0.0;0.0;303.0;1.0;0.0;0.0;0.0;0.0;116.0;0.38283828382838286;0.4223872387238724;0.4223872387238724;0.7301115825868302;0.7301115825868302;0.5194304595294694;0.5194304595294694;
127;127_191f36b4933be2686a51dd62dbe532ee90f38ab5-LOC.arff;LP;303.0;303.0;1.0;0.0;0.0;1.0;0.0033003300330033004;302.0;0.9966996699669967;104.0;0.3432343234323432;1.0;0.0033003300330033004;81.0;0.26732673267326734;0.6802608832311803;0.6825134027120782;0.6224972497249726;0.6245584988962473;0.6224012877478224;0.624462219164206;
127;127_191f36b4933be2686a51dd62dbe532ee90f38ab5-LOC.arff;RAkELd;303.0;303.0;1.0;0.0;0.0;1.0;0.0033003300330033004;302.0;0.9966996699669967;3.0;0.009900990099009901;1.0;0.0033003300330033004;61.0;0.20132013201320131;0.4478547854785478;0.44933774834437085;0.5937372308659438;0.5957032481866918;0.49553693464584553;0.4971777854228185;
129;129_4d6a5c29df87270b13c6ec7b5adb58c1aa29e3a8-LOC.arff;BR;312.0;312.0;1.0;28.0;0.08974358974358974;70.0;0.22435897435897437;214.0;0.6858974358974359;123.0;0.3942307692307692;98.0;0.3141025641025641;0.0;0.0;0.5933098591549296;0.7873831775700935;0.3129946344735077;0.41537605696484203;0.3973088531187123;0.5272696929238986;
129;129_4d6a5c29df87270b13c6ec7b5adb58c1aa29e3a8-LOC.arff;LP;312.0;312.0;1.0;0.0;0.0;14.0;0.04487179487179487;298.0;0.9551282051282052;155.0;0.4967948717948718;14.0;0.04487179487179487;123.0;0.3942307692307692;0.7284569597069598;0.762679769894535;0.6724130036630037;0.7040028763183126;0.6709421810383349;0.7024629546441626;
129;129_4d6a5c29df87270b13c6ec7b5adb58c1aa29e3a8-LOC.arff;RAkELd;312.0;312.0;1.0;15.0;0.04807692307692308;71.0;0.22756410256410256;226.0;0.7243589743589743;118.0;0.3782051282051282;86.0;0.27564102564102566;0.0;0.0;0.5754769921436588;0.756268436578171;0.33519320185986856;0.4404972608512432;0.4083409856137129;0.5366251005631537;
