commit;DataSet;Classifier;TotalInstances;InstancesWithRankedLabels;PercentageOfInstancesWithRankedLabels;InstancesWithPrecisionNull;PercentageOfInstancesWithPrecisionNull;InstancesWithPrecisionZero;PercentageOfInstancesWithPrecisionZero;InstancesWithPrecisionNonZero;PercentageOfInstancesWithPrecisionNonZero;InstancesWithPrecisionOne;PercentageOfInstancesWithPrecisionOne;InstancesWithRecallZero;PercentageOfInstancesWithRecallZero;InstancesWithRecallOne;PercentageOfInstancesWithRecallOne;AveragePrecisionForAllNonNullPrecision;AveragePrecisionForNonZeroPrecision;AverageRecallForAllNonNullPrecision;AverageRecallForAllNonZeroPrecision;AverageFScoreForAllNonNullPrecision;AverageFScoreForAllNonZeroPrecision;
6;6_0024a26ccf47264343b65e8429fdd756a3250f64-LOC.arff;BR;34.0;34.0;1.0;0.0;0.0;0.0;0.0;34.0;1.0;34.0;1.0;0.0;0.0;25.0;0.7352941176470589;1.0;1.0;0.8676470588235294;0.8676470588235294;0.9117647058823529;0.9117647058823529;
6;6_0024a26ccf47264343b65e8429fdd756a3250f64-LOC.arff;LP;34.0;34.0;1.0;0.0;0.0;0.0;0.0;34.0;1.0;34.0;1.0;0.0;0.0;25.0;0.7352941176470589;1.0;1.0;0.8676470588235294;0.8676470588235294;0.9117647058823529;0.9117647058823529;
6;6_0024a26ccf47264343b65e8429fdd756a3250f64-LOC.arff;RAkELd;34.0;34.0;1.0;0.0;0.0;0.0;0.0;34.0;1.0;34.0;1.0;0.0;0.0;25.0;0.7352941176470589;1.0;1.0;0.8676470588235294;0.8676470588235294;0.9117647058823529;0.9117647058823529;
7;7_b5f6482dcec6e78744167b177b61a41b2f0eb4bc-LOC.arff;BR;40.0;40.0;1.0;0.0;0.0;0.0;0.0;40.0;1.0;40.0;1.0;0.0;0.0;31.0;0.775;1.0;1.0;0.8875;0.8875;0.925;0.925;
7;7_b5f6482dcec6e78744167b177b61a41b2f0eb4bc-LOC.arff;LP;40.0;40.0;1.0;0.0;0.0;0.0;0.0;40.0;1.0;40.0;1.0;0.0;0.0;31.0;0.775;1.0;1.0;0.8875;0.8875;0.925;0.925;
7;7_b5f6482dcec6e78744167b177b61a41b2f0eb4bc-LOC.arff;RAkELd;40.0;40.0;1.0;0.0;0.0;0.0;0.0;40.0;1.0;40.0;1.0;0.0;0.0;31.0;0.775;1.0;1.0;0.8875;0.8875;0.925;0.925;
12;12_0b1423c303c6d7eef7d9f8f04666dd1a1a529bb7-LOC.arff;BR;133.0;133.0;1.0;0.0;0.0;11.0;0.08270676691729323;122.0;0.9172932330827067;122.0;0.9172932330827067;11.0;0.08270676691729323;85.0;0.6390977443609023;0.9172932330827067;1.0;0.7781954887218046;0.8483606557377049;0.8245614035087719;0.8989071038251366;
12;12_0b1423c303c6d7eef7d9f8f04666dd1a1a529bb7-LOC.arff;LP;133.0;133.0;1.0;0.0;0.0;11.0;0.08270676691729323;122.0;0.9172932330827067;122.0;0.9172932330827067;11.0;0.08270676691729323;85.0;0.6390977443609023;0.9172932330827067;1.0;0.7781954887218046;0.8483606557377049;0.8245614035087719;0.8989071038251366;
12;12_0b1423c303c6d7eef7d9f8f04666dd1a1a529bb7-LOC.arff;RAkELd;133.0;133.0;1.0;0.0;0.0;11.0;0.08270676691729323;122.0;0.9172932330827067;122.0;0.9172932330827067;11.0;0.08270676691729323;85.0;0.6390977443609023;0.9172932330827067;1.0;0.7781954887218046;0.8483606557377049;0.8245614035087719;0.8989071038251366;
13;13_094afe7c1065d5663628b389f27687a5f465abb8-LOC.arff;BR;530.0;530.0;1.0;0.0;0.0;397.0;0.7490566037735849;133.0;0.2509433962264151;133.0;0.2509433962264151;397.0;0.7490566037735849;86.0;0.16226415094339622;0.2509433962264151;1.0;0.2050314465408805;0.8170426065162908;0.219811320754717;0.8759398496240601;
13;13_094afe7c1065d5663628b389f27687a5f465abb8-LOC.arff;LP;530.0;530.0;1.0;0.0;0.0;397.0;0.7490566037735849;133.0;0.2509433962264151;133.0;0.2509433962264151;397.0;0.7490566037735849;86.0;0.16226415094339622;0.2509433962264151;1.0;0.2050314465408805;0.8170426065162908;0.219811320754717;0.8759398496240601;
13;13_094afe7c1065d5663628b389f27687a5f465abb8-LOC.arff;RAkELd;530.0;530.0;1.0;0.0;0.0;397.0;0.7490566037735849;133.0;0.2509433962264151;133.0;0.2509433962264151;397.0;0.7490566037735849;86.0;0.16226415094339622;0.2509433962264151;1.0;0.2050314465408805;0.8170426065162908;0.219811320754717;0.8759398496240601;
14;14_bf879ceaa9685648adba645cadc6ce5aaa5fac85-LOC.arff;BR;135.0;135.0;1.0;0.0;0.0;0.0;0.0;135.0;1.0;135.0;1.0;0.0;0.0;86.0;0.6370370370370371;1.0;1.0;0.808641975308642;0.808641975308642;0.8688888888888888;0.8688888888888888;
14;14_bf879ceaa9685648adba645cadc6ce5aaa5fac85-LOC.arff;LP;135.0;135.0;1.0;0.0;0.0;0.0;0.0;135.0;1.0;135.0;1.0;0.0;0.0;86.0;0.6370370370370371;1.0;1.0;0.808641975308642;0.808641975308642;0.8688888888888888;0.8688888888888888;
14;14_bf879ceaa9685648adba645cadc6ce5aaa5fac85-LOC.arff;RAkELd;135.0;135.0;1.0;0.0;0.0;0.0;0.0;135.0;1.0;135.0;1.0;0.0;0.0;86.0;0.6370370370370371;1.0;1.0;0.808641975308642;0.808641975308642;0.8688888888888888;0.8688888888888888;
16;16_d7c4f0780b41507ae6a40cc46efb59c526e58437-LOC.arff;BR;140.0;140.0;1.0;0.0;0.0;0.0;0.0;140.0;1.0;140.0;1.0;0.0;0.0;89.0;0.6357142857142857;1.0;1.0;0.8083333333333333;0.8083333333333333;0.8688095238095238;0.8688095238095238;
16;16_d7c4f0780b41507ae6a40cc46efb59c526e58437-LOC.arff;LP;140.0;140.0;1.0;0.0;0.0;0.0;0.0;140.0;1.0;140.0;1.0;0.0;0.0;89.0;0.6357142857142857;1.0;1.0;0.8083333333333333;0.8083333333333333;0.8688095238095238;0.8688095238095238;
16;16_d7c4f0780b41507ae6a40cc46efb59c526e58437-LOC.arff;RAkELd;140.0;140.0;1.0;0.0;0.0;0.0;0.0;140.0;1.0;140.0;1.0;0.0;0.0;89.0;0.6357142857142857;1.0;1.0;0.8083333333333333;0.8083333333333333;0.8688095238095238;0.8688095238095238;
17;17_d15f01e1b45119838900da53128c619ebe93895d-LOC.arff;BR;221.0;221.0;1.0;221.0;1.0;0.0;0.0;0.0;0.0;0.0;0.0;221.0;1.0;0.0;0.0;0.0;0.0;0.0;0.0;0.0;0.0;
17;17_d15f01e1b45119838900da53128c619ebe93895d-LOC.arff;LP;221.0;221.0;1.0;0.0;0.0;221.0;1.0;0.0;0.0;0.0;0.0;221.0;1.0;0.0;0.0;0.0;0.0;0.0;0.0;0.0;0.0;
17;17_d15f01e1b45119838900da53128c619ebe93895d-LOC.arff;RAkELd;221.0;221.0;1.0;221.0;1.0;0.0;0.0;0.0;0.0;0.0;0.0;221.0;1.0;0.0;0.0;0.0;0.0;0.0;0.0;0.0;0.0;
18;18_00674af3a82e6b6b517a12ae3e77803df4f4892d-LOC.arff;BR;3242.0;3242.0;1.0;0.0;0.0;2903.0;0.8954349167180753;339.0;0.10456508328192474;0.0;0.0;2903.0;0.8954349167180753;339.0;0.10456508328192474;0.05228254164096237;0.5;0.10456508328192474;1.0;0.06971005552128316;0.6666666666666666;
18;18_00674af3a82e6b6b517a12ae3e77803df4f4892d-LOC.arff;LP;3242.0;3242.0;1.0;0.0;0.0;2879.0;0.8880320789636027;363.0;0.11196792103639729;363.0;0.11196792103639729;2879.0;0.8880320789636027;363.0;0.11196792103639729;0.11196792103639729;1.0;0.11196792103639729;1.0;0.11196792103639729;1.0;
18;18_00674af3a82e6b6b517a12ae3e77803df4f4892d-LOC.arff;RAkELd;3242.0;3242.0;1.0;0.0;0.0;2903.0;0.8954349167180753;339.0;0.10456508328192474;0.0;0.0;2903.0;0.8954349167180753;339.0;0.10456508328192474;0.05228254164096237;0.5;0.10456508328192474;1.0;0.06971005552128316;0.6666666666666666;
19;19_40e80816235739064fcc7fd74228c9c225387caf-LOC.arff;BR;7.0;7.0;1.0;0.0;0.0;2.0;0.2857142857142857;5.0;0.7142857142857143;0.0;0.0;2.0;0.2857142857142857;2.0;0.2857142857142857;0.35714285714285715;0.5;0.5;0.7;0.4047619047619047;0.5666666666666667;
19;19_40e80816235739064fcc7fd74228c9c225387caf-LOC.arff;LP;7.0;7.0;1.0;0.0;0.0;7.0;1.0;0.0;0.0;0.0;0.0;7.0;1.0;0.0;0.0;0.0;0.0;0.0;0.0;0.0;0.0;
19;19_40e80816235739064fcc7fd74228c9c225387caf-LOC.arff;RAkELd;7.0;7.0;1.0;0.0;0.0;7.0;1.0;0.0;0.0;0.0;0.0;7.0;1.0;0.0;0.0;0.0;0.0;0.0;0.0;0.0;0.0;
20;20_8bcdb9f5f062fe68d90e31752453e1d662b3f0e2-LOC.arff;BR;7.0;7.0;1.0;0.0;0.0;2.0;0.2857142857142857;5.0;0.7142857142857143;5.0;0.7142857142857143;2.0;0.2857142857142857;2.0;0.2857142857142857;0.7142857142857143;1.0;0.5;0.7;0.5714285714285714;0.8;
20;20_8bcdb9f5f062fe68d90e31752453e1d662b3f0e2-LOC.arff;LP;7.0;7.0;1.0;0.0;0.0;1.0;0.14285714285714285;6.0;0.8571428571428571;3.0;0.42857142857142855;1.0;0.14285714285714285;6.0;0.8571428571428571;0.6428571428571429;0.75;0.8571428571428571;1.0;0.7142857142857143;0.8333333333333334;
20;20_8bcdb9f5f062fe68d90e31752453e1d662b3f0e2-LOC.arff;RAkELd;7.0;7.0;1.0;0.0;0.0;2.0;0.2857142857142857;5.0;0.7142857142857143;5.0;0.7142857142857143;2.0;0.2857142857142857;2.0;0.2857142857142857;0.7142857142857143;1.0;0.5;0.7;0.5714285714285714;0.8;
22;22_ea86a5e10f7b8c0b2e0e0bf97a1fc95dbac4ae89-LOC.arff;BR;215.0;215.0;1.0;0.0;0.0;6.0;0.027906976744186046;209.0;0.9720930232558139;209.0;0.9720930232558139;6.0;0.027906976744186046;122.0;0.5674418604651162;0.9720930232558139;1.0;0.7446511627906977;0.7660287081339713;0.8110077519379846;0.8342902711323764;
22;22_ea86a5e10f7b8c0b2e0e0bf97a1fc95dbac4ae89-LOC.arff;LP;215.0;215.0;1.0;0.0;0.0;6.0;0.027906976744186046;209.0;0.9720930232558139;209.0;0.9720930232558139;6.0;0.027906976744186046;122.0;0.5674418604651162;0.9720930232558139;1.0;0.7446511627906977;0.7660287081339713;0.8110077519379846;0.8342902711323764;
22;22_ea86a5e10f7b8c0b2e0e0bf97a1fc95dbac4ae89-LOC.arff;RAkELd;215.0;215.0;1.0;0.0;0.0;6.0;0.027906976744186046;209.0;0.9720930232558139;209.0;0.9720930232558139;6.0;0.027906976744186046;122.0;0.5674418604651162;0.9720930232558139;1.0;0.7446511627906977;0.7660287081339713;0.8110077519379846;0.8342902711323764;
23;23_04d3b5537f7c23adf7ea362a8492d21114aa6a2e-LOC.arff;BR;230.0;230.0;1.0;0.0;0.0;18.0;0.0782608695652174;212.0;0.9217391304347826;212.0;0.9217391304347826;18.0;0.0782608695652174;124.0;0.5391304347826087;0.9217391304347826;1.0;0.702463768115942;0.7621069182389937;0.7648654244306418;0.829806828391734;
23;23_04d3b5537f7c23adf7ea362a8492d21114aa6a2e-LOC.arff;LP;230.0;230.0;1.0;0.0;0.0;18.0;0.0782608695652174;212.0;0.9217391304347826;212.0;0.9217391304347826;18.0;0.0782608695652174;124.0;0.5391304347826087;0.9217391304347826;1.0;0.702463768115942;0.7621069182389937;0.7648654244306418;0.829806828391734;
23;23_04d3b5537f7c23adf7ea362a8492d21114aa6a2e-LOC.arff;RAkELd;230.0;230.0;1.0;0.0;0.0;18.0;0.0782608695652174;212.0;0.9217391304347826;212.0;0.9217391304347826;18.0;0.0782608695652174;124.0;0.5391304347826087;0.9217391304347826;1.0;0.702463768115942;0.7621069182389937;0.7648654244306418;0.829806828391734;
24;24_2e8e8878e55f1455155e43590afbaa1ed21e8e3f-LOC.arff;BR;230.0;230.0;1.0;0.0;0.0;18.0;0.0782608695652174;212.0;0.9217391304347826;212.0;0.9217391304347826;18.0;0.0782608695652174;120.0;0.5217391304347826;0.9217391304347826;1.0;0.6915942028985507;0.750314465408805;0.7568944099378883;0.8211590296495958;
24;24_2e8e8878e55f1455155e43590afbaa1ed21e8e3f-LOC.arff;LP;230.0;230.0;1.0;0.0;0.0;18.0;0.0782608695652174;212.0;0.9217391304347826;212.0;0.9217391304347826;18.0;0.0782608695652174;120.0;0.5217391304347826;0.9217391304347826;1.0;0.6915942028985507;0.750314465408805;0.7568944099378883;0.8211590296495958;
24;24_2e8e8878e55f1455155e43590afbaa1ed21e8e3f-LOC.arff;RAkELd;230.0;230.0;1.0;0.0;0.0;18.0;0.0782608695652174;212.0;0.9217391304347826;212.0;0.9217391304347826;18.0;0.0782608695652174;120.0;0.5217391304347826;0.9217391304347826;1.0;0.6915942028985507;0.750314465408805;0.7568944099378883;0.8211590296495958;
25;25_0b82465168e53a16d573610bb30495d70bd050b8-LOC.arff;BR;203.0;203.0;1.0;0.0;0.0;0.0;0.0;203.0;1.0;203.0;1.0;0.0;0.0;115.0;0.5665024630541872;1.0;1.0;0.7499178981937602;0.7499178981937602;0.8206192821956368;0.8206192821956368;
25;25_0b82465168e53a16d573610bb30495d70bd050b8-LOC.arff;LP;203.0;203.0;1.0;0.0;0.0;0.0;0.0;203.0;1.0;203.0;1.0;0.0;0.0;115.0;0.5665024630541872;1.0;1.0;0.7499178981937602;0.7499178981937602;0.8206192821956368;0.8206192821956368;
25;25_0b82465168e53a16d573610bb30495d70bd050b8-LOC.arff;RAkELd;203.0;203.0;1.0;0.0;0.0;0.0;0.0;203.0;1.0;203.0;1.0;0.0;0.0;115.0;0.5665024630541872;1.0;1.0;0.7499178981937602;0.7499178981937602;0.8206192821956368;0.8206192821956368;
27;27_e8092898b1c4db328a2f5d247fe06603f586f924-LOC.arff;BR;23.0;23.0;1.0;0.0;0.0;23.0;1.0;0.0;0.0;0.0;0.0;23.0;1.0;0.0;0.0;0.0;0.0;0.0;0.0;0.0;0.0;
27;27_e8092898b1c4db328a2f5d247fe06603f586f924-LOC.arff;LP;23.0;23.0;1.0;0.0;0.0;23.0;1.0;0.0;0.0;0.0;0.0;23.0;1.0;0.0;0.0;0.0;0.0;0.0;0.0;0.0;0.0;
27;27_e8092898b1c4db328a2f5d247fe06603f586f924-LOC.arff;RAkELd;23.0;23.0;1.0;7.0;0.30434782608695654;16.0;0.6956521739130435;0.0;0.0;0.0;0.0;23.0;1.0;0.0;0.0;0.0;0.0;0.0;0.0;0.0;0.0;
29;29_1740a83e11c678c8621e6497350db13cd3d2426e-LOC.arff;BR;3.0;3.0;1.0;0.0;0.0;3.0;1.0;0.0;0.0;0.0;0.0;3.0;1.0;0.0;0.0;0.0;0.0;0.0;0.0;0.0;0.0;
29;29_1740a83e11c678c8621e6497350db13cd3d2426e-LOC.arff;LP;3.0;3.0;1.0;0.0;0.0;3.0;1.0;0.0;0.0;0.0;0.0;3.0;1.0;0.0;0.0;0.0;0.0;0.0;0.0;0.0;0.0;
29;29_1740a83e11c678c8621e6497350db13cd3d2426e-LOC.arff;RAkELd;3.0;3.0;1.0;0.0;0.0;3.0;1.0;0.0;0.0;0.0;0.0;3.0;1.0;0.0;0.0;0.0;0.0;0.0;0.0;0.0;0.0;
30;30_900e0c9bf23f7df6a2057af4b2c1f166e55e9163-LOC.arff;BR;288.0;288.0;1.0;236.0;0.8194444444444444;52.0;0.18055555555555555;0.0;0.0;0.0;0.0;288.0;1.0;0.0;0.0;0.0;0.0;0.0;0.0;0.0;0.0;
30;30_900e0c9bf23f7df6a2057af4b2c1f166e55e9163-LOC.arff;LP;288.0;288.0;1.0;0.0;0.0;288.0;1.0;0.0;0.0;0.0;0.0;288.0;1.0;0.0;0.0;0.0;0.0;0.0;0.0;0.0;0.0;
30;30_900e0c9bf23f7df6a2057af4b2c1f166e55e9163-LOC.arff;RAkELd;288.0;288.0;1.0;236.0;0.8194444444444444;52.0;0.18055555555555555;0.0;0.0;0.0;0.0;288.0;1.0;0.0;0.0;0.0;0.0;0.0;0.0;0.0;0.0;
31;31_1d171e9e52012c8129dfec2b7f2640e696678f2e-LOC.arff;BR;33.0;33.0;1.0;0.0;0.0;33.0;1.0;0.0;0.0;0.0;0.0;33.0;1.0;0.0;0.0;0.0;0.0;0.0;0.0;0.0;0.0;
31;31_1d171e9e52012c8129dfec2b7f2640e696678f2e-LOC.arff;LP;33.0;33.0;1.0;0.0;0.0;33.0;1.0;0.0;0.0;0.0;0.0;33.0;1.0;0.0;0.0;0.0;0.0;0.0;0.0;0.0;0.0;
31;31_1d171e9e52012c8129dfec2b7f2640e696678f2e-LOC.arff;RAkELd;33.0;33.0;1.0;0.0;0.0;33.0;1.0;0.0;0.0;0.0;0.0;33.0;1.0;0.0;0.0;0.0;0.0;0.0;0.0;0.0;0.0;
32;32_79d1bfb5c02793c88f554002e04b5263d81703b7-LOC.arff;BR;212.0;212.0;1.0;3.0;0.014150943396226415;0.0;0.0;209.0;0.9858490566037735;208.0;0.9811320754716981;3.0;0.014150943396226415;82.0;0.3867924528301887;0.9976076555023924;0.9976076555023924;0.6754385964912281;0.6754385964912281;0.7733880154932787;0.7733880154932787;
32;32_79d1bfb5c02793c88f554002e04b5263d81703b7-LOC.arff;LP;212.0;212.0;1.0;0.0;0.0;3.0;0.014150943396226415;209.0;0.9858490566037735;188.0;0.8867924528301887;3.0;0.014150943396226415;93.0;0.4386792452830189;0.9481132075471698;0.9617224880382775;0.691430817610063;0.7013556618819777;0.765251572327044;0.7762360446570973;
32;32_79d1bfb5c02793c88f554002e04b5263d81703b7-LOC.arff;RAkELd;212.0;212.0;1.0;3.0;0.014150943396226415;0.0;0.0;209.0;0.9858490566037735;204.0;0.9622641509433962;3.0;0.014150943396226415;88.0;0.41509433962264153;0.9880382775119617;0.9880382775119617;0.689792663476874;0.689792663476874;0.7789701526543632;0.7789701526543632;
33;33_87aaf0f70a22686d2107efa01cfa19bba542c386-LOC.arff;BR;523.0;523.0;1.0;498.0;0.9521988527724665;1.0;0.0019120458891013384;24.0;0.045889101338432124;24.0;0.045889101338432124;499.0;0.9541108986615678;0.0;0.0;0.96;1.0;0.30866666666666664;0.3215277777777778;0.46;0.4791666666666667;
33;33_87aaf0f70a22686d2107efa01cfa19bba542c386-LOC.arff;LP;523.0;523.0;1.0;0.0;0.0;481.0;0.9196940726577438;42.0;0.08030592734225621;23.0;0.04397705544933078;481.0;0.9196940726577438;5.0;0.009560229445506692;0.058795411089866155;0.7321428571428571;0.03718929254302103;0.46309523809523806;0.0393775228383259;0.49034391534391536;
33;33_87aaf0f70a22686d2107efa01cfa19bba542c386-LOC.arff;RAkELd;523.0;523.0;1.0;523.0;1.0;0.0;0.0;0.0;0.0;0.0;0.0;523.0;1.0;0.0;0.0;0.0;0.0;0.0;0.0;0.0;0.0;
35;35_5cf349a24a610d7223c5bc88193c07c713818028-LOC.arff;BR;212.0;212.0;1.0;177.0;0.8349056603773585;1.0;0.0047169811320754715;34.0;0.16037735849056603;34.0;0.16037735849056603;178.0;0.839622641509434;0.0;0.0;0.9714285714285714;1.0;0.34904761904761905;0.3593137254901961;0.5047619047619047;0.5196078431372549;
35;35_5cf349a24a610d7223c5bc88193c07c713818028-LOC.arff;LP;212.0;212.0;1.0;0.0;0.0;176.0;0.8301886792452831;36.0;0.16981132075471697;26.0;0.12264150943396226;176.0;0.8301886792452831;0.0;0.0;0.1391509433962264;0.8194444444444444;0.059433962264150944;0.35;0.07727987421383647;0.4550925925925926;
35;35_5cf349a24a610d7223c5bc88193c07c713818028-LOC.arff;RAkELd;212.0;212.0;1.0;187.0;0.8820754716981132;1.0;0.0047169811320754715;24.0;0.11320754716981132;24.0;0.11320754716981132;188.0;0.8867924528301887;0.0;0.0;0.96;1.0;0.30866666666666664;0.3215277777777778;0.46;0.4791666666666667;
38;38_fc0064e525288baec961db28c6c4d07f3206f145-LOC.arff;BR;212.0;212.0;1.0;0.0;0.0;0.0;0.0;212.0;1.0;211.0;0.9952830188679245;0.0;0.0;85.0;0.4009433962264151;0.9976415094339622;0.9976415094339622;0.6816037735849056;0.6816037735849056;0.7776954177897574;0.7776954177897574;
38;38_fc0064e525288baec961db28c6c4d07f3206f145-LOC.arff;LP;212.0;212.0;1.0;0.0;0.0;0.0;0.0;212.0;1.0;195.0;0.9198113207547169;0.0;0.0;92.0;0.4339622641509434;0.9716981132075472;0.9716981132075472;0.6992924528301887;0.6992924528301887;0.7795597484276728;0.7795597484276728;
38;38_fc0064e525288baec961db28c6c4d07f3206f145-LOC.arff;RAkELd;212.0;212.0;1.0;0.0;0.0;0.0;0.0;212.0;1.0;211.0;0.9952830188679245;0.0;0.0;87.0;0.41037735849056606;0.9976415094339622;0.9976415094339622;0.6878930817610064;0.6878930817610064;0.7822551662174304;0.7822551662174304;
39;39_d3bfffcb6eabe886eb8c1a11bcdc66a1f680a882-LOC.arff;BR;212.0;212.0;1.0;0.0;0.0;0.0;0.0;212.0;1.0;211.0;0.9952830188679245;0.0;0.0;85.0;0.4009433962264151;0.9976415094339622;0.9976415094339622;0.6831761006289309;0.6831761006289309;0.7791105121293801;0.7791105121293801;
39;39_d3bfffcb6eabe886eb8c1a11bcdc66a1f680a882-LOC.arff;LP;212.0;212.0;1.0;0.0;0.0;0.0;0.0;212.0;1.0;195.0;0.9198113207547169;0.0;0.0;90.0;0.42452830188679247;0.9716981132075472;0.9716981132075472;0.6945754716981132;0.6945754716981132;0.7764150943396226;0.7764150943396226;
39;39_d3bfffcb6eabe886eb8c1a11bcdc66a1f680a882-LOC.arff;RAkELd;212.0;212.0;1.0;0.0;0.0;0.0;0.0;212.0;1.0;211.0;0.9952830188679245;0.0;0.0;85.0;0.4009433962264151;0.9976415094339622;0.9976415094339622;0.6831761006289309;0.6831761006289309;0.7791105121293801;0.7791105121293801;
44;44_977fd2b2c736047814d4fa51ebad91ad454cc4c9-LOC.arff;BR;83.0;83.0;1.0;0.0;0.0;8.0;0.0963855421686747;75.0;0.9036144578313253;0.0;0.0;8.0;0.0963855421686747;24.0;0.2891566265060241;0.45180722891566266;0.5;0.5451807228915663;0.6033333333333334;0.4686746987951807;0.5186666666666666;
44;44_977fd2b2c736047814d4fa51ebad91ad454cc4c9-LOC.arff;LP;83.0;83.0;1.0;0.0;0.0;4.0;0.04819277108433735;79.0;0.9518072289156626;79.0;0.9518072289156626;4.0;0.04819277108433735;28.0;0.3373493975903614;0.9518072289156626;1.0;0.5933734939759037;0.6234177215189873;0.6951807228915663;0.730379746835443;
44;44_977fd2b2c736047814d4fa51ebad91ad454cc4c9-LOC.arff;RAkELd;83.0;83.0;1.0;0.0;0.0;8.0;0.0963855421686747;75.0;0.9036144578313253;0.0;0.0;8.0;0.0963855421686747;24.0;0.2891566265060241;0.45180722891566266;0.5;0.5451807228915663;0.6033333333333334;0.4686746987951807;0.5186666666666666;
45;45_72ace55e6ae964a5984a13e09492d1d92295f098-LOC.arff;BR;70.0;70.0;1.0;70.0;1.0;0.0;0.0;0.0;0.0;0.0;0.0;70.0;1.0;0.0;0.0;0.0;0.0;0.0;0.0;0.0;0.0;
45;45_72ace55e6ae964a5984a13e09492d1d92295f098-LOC.arff;LP;70.0;70.0;1.0;0.0;0.0;58.0;0.8285714285714286;12.0;0.17142857142857143;12.0;0.17142857142857143;58.0;0.8285714285714286;10.0;0.14285714285714285;0.17142857142857143;1.0;0.15714285714285714;0.9166666666666666;0.16190476190476188;0.9444444444444443;
45;45_72ace55e6ae964a5984a13e09492d1d92295f098-LOC.arff;RAkELd;70.0;70.0;1.0;58.0;0.8285714285714286;0.0;0.0;12.0;0.17142857142857143;12.0;0.17142857142857143;58.0;0.8285714285714286;10.0;0.14285714285714285;1.0;1.0;0.9166666666666666;0.9166666666666666;0.9444444444444443;0.9444444444444443;
46;46_7b70caab7c4bdc45490d83730b62c5c2ea31e98e-LOC.arff;BR;168.0;168.0;1.0;168.0;1.0;0.0;0.0;0.0;0.0;0.0;0.0;168.0;1.0;0.0;0.0;0.0;0.0;0.0;0.0;0.0;0.0;
46;46_7b70caab7c4bdc45490d83730b62c5c2ea31e98e-LOC.arff;LP;168.0;168.0;1.0;0.0;0.0;146.0;0.8690476190476191;22.0;0.13095238095238096;22.0;0.13095238095238096;146.0;0.8690476190476191;18.0;0.10714285714285714;0.13095238095238096;1.0;0.11904761904761904;0.9090909090909091;0.12301587301587302;0.9393939393939394;
46;46_7b70caab7c4bdc45490d83730b62c5c2ea31e98e-LOC.arff;RAkELd;168.0;168.0;1.0;0.0;0.0;146.0;0.8690476190476191;22.0;0.13095238095238096;22.0;0.13095238095238096;146.0;0.8690476190476191;18.0;0.10714285714285714;0.13095238095238096;1.0;0.11904761904761904;0.9090909090909091;0.12301587301587302;0.9393939393939394;
47;47_ab154d55927776add58c878f7de94e82b07bee1c-LOC.arff;BR;246.0;246.0;1.0;0.0;0.0;20.0;0.08130081300813008;226.0;0.9186991869918699;181.0;0.7357723577235772;20.0;0.08130081300813008;31.0;0.12601626016260162;0.8245257452574526;0.8974926253687316;0.46693766937669373;0.5082595870206489;0.5583430120015486;0.6077538980193847;
47;47_ab154d55927776add58c878f7de94e82b07bee1c-LOC.arff;LP;246.0;246.0;1.0;0.0;0.0;12.0;0.04878048780487805;234.0;0.9512195121951219;148.0;0.6016260162601627;12.0;0.04878048780487805;35.0;0.14227642276422764;0.7682926829268293;0.8076923076923077;0.5201219512195122;0.5467948717948719;0.5753387533875338;0.6048433048433048;
47;47_ab154d55927776add58c878f7de94e82b07bee1c-LOC.arff;RAkELd;246.0;246.0;1.0;0.0;0.0;13.0;0.052845528455284556;233.0;0.9471544715447154;172.0;0.6991869918699187;13.0;0.052845528455284556;38.0;0.15447154471544716;0.8204607046070461;0.8662374821173104;0.5154471544715447;0.544206008583691;0.59351529229578;0.6266298794195789;
48;48_27361e7cd08d895cfa8930c9e114997fdfe995ec-LOC.arff;BR;46.0;46.0;1.0;0.0;0.0;46.0;1.0;0.0;0.0;0.0;0.0;46.0;1.0;0.0;0.0;0.0;0.0;0.0;0.0;0.0;0.0;
48;48_27361e7cd08d895cfa8930c9e114997fdfe995ec-LOC.arff;LP;46.0;46.0;1.0;0.0;0.0;46.0;1.0;0.0;0.0;0.0;0.0;46.0;1.0;0.0;0.0;0.0;0.0;0.0;0.0;0.0;0.0;
48;48_27361e7cd08d895cfa8930c9e114997fdfe995ec-LOC.arff;RAkELd;46.0;46.0;1.0;0.0;0.0;46.0;1.0;0.0;0.0;0.0;0.0;46.0;1.0;0.0;0.0;0.0;0.0;0.0;0.0;0.0;0.0;
49;49_ba8a53a40fa0adaa947b536639bab998cc872feb-LOC.arff;BR;347.0;347.0;1.0;291.0;0.8386167146974063;56.0;0.16138328530259366;0.0;0.0;0.0;0.0;347.0;1.0;0.0;0.0;0.0;0.0;0.0;0.0;0.0;0.0;
49;49_ba8a53a40fa0adaa947b536639bab998cc872feb-LOC.arff;LP;347.0;347.0;1.0;0.0;0.0;132.0;0.3804034582132565;215.0;0.6195965417867435;150.0;0.4322766570605187;132.0;0.3804034582132565;94.0;0.27089337175792505;0.5273775216138329;0.8511627906976744;0.4509125840537944;0.7277519379844961;0.47146974063400576;0.7609302325581395;
49;49_ba8a53a40fa0adaa947b536639bab998cc872feb-LOC.arff;RAkELd;347.0;347.0;1.0;177.0;0.5100864553314121;167.0;0.4812680115273775;3.0;0.008645533141210375;3.0;0.008645533141210375;344.0;0.9913544668587896;0.0;0.0;0.01764705882352941;1.0;0.008823529411764706;0.5;0.011764705882352941;0.6666666666666666;
51;51_e9adfa27b5c65f53c3f71e4348ccb51e7950c935-LOC.arff;BR;63.0;63.0;1.0;63.0;1.0;0.0;0.0;0.0;0.0;0.0;0.0;63.0;1.0;0.0;0.0;0.0;0.0;0.0;0.0;0.0;0.0;
51;51_e9adfa27b5c65f53c3f71e4348ccb51e7950c935-LOC.arff;LP;63.0;63.0;1.0;0.0;0.0;63.0;1.0;0.0;0.0;0.0;0.0;63.0;1.0;0.0;0.0;0.0;0.0;0.0;0.0;0.0;0.0;
51;51_e9adfa27b5c65f53c3f71e4348ccb51e7950c935-LOC.arff;RAkELd;63.0;63.0;1.0;63.0;1.0;0.0;0.0;0.0;0.0;0.0;0.0;63.0;1.0;0.0;0.0;0.0;0.0;0.0;0.0;0.0;0.0;
52;52_ff592b056ad492632a810e6c77a7d063b6ce05e3-LOC.arff;BR;49.0;49.0;1.0;0.0;0.0;49.0;1.0;0.0;0.0;0.0;0.0;49.0;1.0;0.0;0.0;0.0;0.0;0.0;0.0;0.0;0.0;
52;52_ff592b056ad492632a810e6c77a7d063b6ce05e3-LOC.arff;LP;49.0;49.0;1.0;0.0;0.0;49.0;1.0;0.0;0.0;0.0;0.0;49.0;1.0;0.0;0.0;0.0;0.0;0.0;0.0;0.0;0.0;
52;52_ff592b056ad492632a810e6c77a7d063b6ce05e3-LOC.arff;RAkELd;49.0;49.0;1.0;49.0;1.0;0.0;0.0;0.0;0.0;0.0;0.0;49.0;1.0;0.0;0.0;0.0;0.0;0.0;0.0;0.0;0.0;
53;53_9980ceb4a37ec1d2cae99b73ceae146ef7340e88-LOC.arff;BR;249.0;249.0;1.0;0.0;0.0;7.0;0.028112449799196786;242.0;0.9718875502008032;156.0;0.6265060240963856;7.0;0.028112449799196786;97.0;0.3895582329317269;0.8165997322623829;0.8402203856749312;0.7143239625167336;0.7349862258953168;0.7357684707082298;0.7570510297783025;
53;53_9980ceb4a37ec1d2cae99b73ceae146ef7340e88-LOC.arff;LP;249.0;249.0;1.0;0.0;0.0;44.0;0.17670682730923695;205.0;0.8232931726907631;150.0;0.6024096385542169;44.0;0.17670682730923695;93.0;0.37349397590361444;0.714859437751004;0.8682926829268293;0.6061579651941098;0.7362601626016261;0.6347293937655383;0.7709639953542392;
53;53_9980ceb4a37ec1d2cae99b73ceae146ef7340e88-LOC.arff;RAkELd;249.0;249.0;1.0;116.0;0.46586345381526106;53.0;0.21285140562248997;80.0;0.321285140562249;80.0;0.321285140562249;169.0;0.678714859437751;6.0;0.024096385542168676;0.6015037593984962;1.0;0.22268170426065162;0.37020833333333336;0.30948800572860724;0.5145238095238096;
54;54_c57906b627bf7245578522ab50e9d35e9c6bc96b-LOC.arff;BR;213.0;213.0;1.0;1.0;0.004694835680751174;120.0;0.5633802816901409;92.0;0.431924882629108;91.0;0.4272300469483568;121.0;0.568075117370892;1.0;0.004694835680751174;0.43160377358490565;0.9945652173913043;0.12853773584905662;0.296195652173913;0.19493486073674754;0.4491977225672878;
54;54_c57906b627bf7245578522ab50e9d35e9c6bc96b-LOC.arff;LP;213.0;213.0;1.0;0.0;0.0;213.0;1.0;0.0;0.0;0.0;0.0;213.0;1.0;0.0;0.0;0.0;0.0;0.0;0.0;0.0;0.0;
54;54_c57906b627bf7245578522ab50e9d35e9c6bc96b-LOC.arff;RAkELd;213.0;213.0;1.0;1.0;0.004694835680751174;120.0;0.5633802816901409;92.0;0.431924882629108;91.0;0.4272300469483568;121.0;0.568075117370892;1.0;0.004694835680751174;0.43160377358490565;0.9945652173913043;0.12853773584905662;0.296195652173913;0.19493486073674754;0.4491977225672878;
56;56_02b9eceead9903beb9e1cf7d48f05fc2de8a8e8a-LOC.arff;BR;264.0;264.0;1.0;0.0;0.0;0.0;0.0;264.0;1.0;0.0;0.0;0.0;0.0;124.0;0.4696969696969697;0.5886994949494949;0.5886994949494949;0.7628607503607503;0.7628607503607503;0.6455756154619791;0.6455756154619791;
56;56_02b9eceead9903beb9e1cf7d48f05fc2de8a8e8a-LOC.arff;LP;264.0;264.0;1.0;0.0;0.0;0.0;0.0;264.0;1.0;175.0;0.6628787878787878;0.0;0.0;123.0;0.4659090909090909;0.8317550505050505;0.8317550505050505;0.73495670995671;0.73495670995671;0.754985187371551;0.754985187371551;
56;56_02b9eceead9903beb9e1cf7d48f05fc2de8a8e8a-LOC.arff;RAkELd;264.0;264.0;1.0;0.0;0.0;0.0;0.0;264.0;1.0;0.0;0.0;0.0;0.0;124.0;0.4696969696969697;0.5886994949494949;0.5886994949494949;0.7628607503607503;0.7628607503607503;0.6455756154619791;0.6455756154619791;
57;57_a9c7da06e398101517acc5b7a07e8dcb544df294-LOC.arff;BR;280.0;280.0;1.0;0.0;0.0;0.0;0.0;280.0;1.0;185.0;0.6607142857142857;0.0;0.0;120.0;0.42857142857142855;0.8607142857142858;0.8607142857142858;0.7387925170068027;0.7387925170068027;0.7686989795918368;0.7686989795918368;
57;57_a9c7da06e398101517acc5b7a07e8dcb544df294-LOC.arff;LP;280.0;280.0;1.0;0.0;0.0;0.0;0.0;280.0;1.0;203.0;0.725;0.0;0.0;117.0;0.41785714285714287;0.8648809523809523;0.8648809523809523;0.7067942176870748;0.7067942176870748;0.7521910430839002;0.7521910430839002;
57;57_a9c7da06e398101517acc5b7a07e8dcb544df294-LOC.arff;RAkELd;280.0;280.0;1.0;0.0;0.0;0.0;0.0;280.0;1.0;185.0;0.6607142857142857;0.0;0.0;120.0;0.42857142857142855;0.8607142857142858;0.8607142857142858;0.7387925170068027;0.7387925170068027;0.7686989795918368;0.7686989795918368;
58;58_65934eee9c6ae792c708bc1cea9996c8a5df67f5-LOC.arff;BR;494.0;494.0;1.0;467.0;0.9453441295546559;27.0;0.05465587044534413;0.0;0.0;0.0;0.0;494.0;1.0;0.0;0.0;0.0;0.0;0.0;0.0;0.0;0.0;
58;58_65934eee9c6ae792c708bc1cea9996c8a5df67f5-LOC.arff;LP;494.0;494.0;1.0;0.0;0.0;155.0;0.31376518218623484;339.0;0.6862348178137652;264.0;0.5344129554655871;155.0;0.31376518218623484;123.0;0.24898785425101214;0.6076248313090419;0.8854473942969519;0.468734335839599;0.6830523949992976;0.5116316432105906;0.7455635154750199;
58;58_65934eee9c6ae792c708bc1cea9996c8a5df67f5-LOC.arff;RAkELd;494.0;494.0;1.0;450.0;0.9109311740890689;43.0;0.08704453441295547;1.0;0.0020242914979757085;1.0;0.0020242914979757085;493.0;0.9979757085020243;0.0;0.0;0.022727272727272728;1.0;0.005681818181818182;0.25;0.009090909090909092;0.4;
59;59_ac82411c73e43d6b4730c865c38301d355e0fa35-LOC.arff;BR;287.0;287.0;1.0;287.0;1.0;0.0;0.0;0.0;0.0;0.0;0.0;287.0;1.0;0.0;0.0;0.0;0.0;0.0;0.0;0.0;0.0;
59;59_ac82411c73e43d6b4730c865c38301d355e0fa35-LOC.arff;LP;287.0;287.0;1.0;0.0;0.0;0.0;0.0;287.0;1.0;185.0;0.6445993031358885;0.0;0.0;122.0;0.4250871080139373;0.8336236933797909;0.8336236933797909;0.7331840053094408;0.7331840053094408;0.7560007742934572;0.7560007742934572;
59;59_ac82411c73e43d6b4730c865c38301d355e0fa35-LOC.arff;RAkELd;287.0;287.0;1.0;203.0;0.7073170731707317;27.0;0.09407665505226481;57.0;0.1986062717770035;57.0;0.1986062717770035;230.0;0.8013937282229965;0.0;0.0;0.6785714285714286;1.0;0.18058390022675738;0.26612364243943193;0.2824829931972789;0.4162907268170426;
60;60_1d0452f10ce6d067836e483e3512c4099b4ca524-LOC.arff;BR;287.0;287.0;1.0;0.0;0.0;0.0;0.0;287.0;1.0;214.0;0.7456445993031359;0.0;0.0;108.0;0.37630662020905925;0.8934959349593496;0.8934959349593496;0.7028123444499751;0.7028123444499751;0.7561473369835738;0.7561473369835738;
60;60_1d0452f10ce6d067836e483e3512c4099b4ca524-LOC.arff;LP;287.0;287.0;1.0;0.0;0.0;0.0;0.0;287.0;1.0;185.0;0.6445993031358885;0.0;0.0;123.0;0.42857142857142855;0.839430894308943;0.839430894308943;0.7221005475360875;0.7221005475360875;0.7535368618992313;0.7535368618992313;
60;60_1d0452f10ce6d067836e483e3512c4099b4ca524-LOC.arff;RAkELd;287.0;287.0;1.0;0.0;0.0;0.0;0.0;287.0;1.0;214.0;0.7456445993031359;0.0;0.0;108.0;0.37630662020905925;0.8934959349593496;0.8934959349593496;0.7028123444499751;0.7028123444499751;0.7561473369835738;0.7561473369835738;
62;62_2643ae93d69b4171acb18bf9994b12076b4f2496-LOC.arff;BR;230.0;230.0;1.0;34.0;0.14782608695652175;196.0;0.8521739130434782;0.0;0.0;0.0;0.0;230.0;1.0;0.0;0.0;0.0;0.0;0.0;0.0;0.0;0.0;
62;62_2643ae93d69b4171acb18bf9994b12076b4f2496-LOC.arff;LP;230.0;230.0;1.0;0.0;0.0;230.0;1.0;0.0;0.0;0.0;0.0;230.0;1.0;0.0;0.0;0.0;0.0;0.0;0.0;0.0;0.0;
62;62_2643ae93d69b4171acb18bf9994b12076b4f2496-LOC.arff;RAkELd;230.0;230.0;1.0;107.0;0.4652173913043478;123.0;0.5347826086956522;0.0;0.0;0.0;0.0;230.0;1.0;0.0;0.0;0.0;0.0;0.0;0.0;0.0;0.0;
63;63_331e82dcd3d7eaf9f76dbec8759f2f730335fea3-LOC.arff;BR;304.0;304.0;1.0;236.0;0.7763157894736842;17.0;0.05592105263157895;51.0;0.16776315789473684;51.0;0.16776315789473684;253.0;0.8322368421052632;0.0;0.0;0.75;1.0;0.2044467787114846;0.2725957049486461;0.3182773109243697;0.42436974789915966;
63;63_331e82dcd3d7eaf9f76dbec8759f2f730335fea3-LOC.arff;LP;304.0;304.0;1.0;0.0;0.0;279.0;0.9177631578947368;25.0;0.08223684210526316;25.0;0.08223684210526316;279.0;0.9177631578947368;0.0;0.0;0.08223684210526316;1.0;0.019768170426065164;0.2403809523809524;0.03150845864661654;0.3831428571428572;
63;63_331e82dcd3d7eaf9f76dbec8759f2f730335fea3-LOC.arff;RAkELd;304.0;304.0;1.0;236.0;0.7763157894736842;17.0;0.05592105263157895;51.0;0.16776315789473684;51.0;0.16776315789473684;253.0;0.8322368421052632;0.0;0.0;0.75;1.0;0.2044467787114846;0.2725957049486461;0.3182773109243697;0.42436974789915966;
64;64_95126c09c0ffbea8f15ba74105f403d8c36683cf-LOC.arff;BR;311.0;311.0;1.0;0.0;0.0;1.0;0.003215434083601286;310.0;0.9967845659163987;57.0;0.1832797427652733;1.0;0.003215434083601286;121.0;0.3890675241157556;0.6816720257234726;0.6838709677419355;0.691448476496708;0.6936789554531491;0.6435953471323246;0.6456714611553321;
64;64_95126c09c0ffbea8f15ba74105f403d8c36683cf-LOC.arff;LP;311.0;311.0;1.0;0.0;0.0;24.0;0.07717041800643087;287.0;0.9228295819935691;198.0;0.6366559485530546;24.0;0.07717041800643087;116.0;0.3729903536977492;0.7901546470678303;0.8562302969968475;0.6458429030776298;0.6998506719761075;0.6894273465013014;0.7470798075327693;
64;64_95126c09c0ffbea8f15ba74105f403d8c36683cf-LOC.arff;RAkELd;311.0;311.0;1.0;0.0;0.0;1.0;0.003215434083601286;310.0;0.9967845659163987;57.0;0.1832797427652733;1.0;0.003215434083601286;121.0;0.3890675241157556;0.6816720257234726;0.6838709677419355;0.691448476496708;0.6936789554531491;0.6435953471323246;0.6456714611553321;
65;65_5fd41ae872d51961a7f3e60ba9b6a7cba85d61f7-LOC.arff;BR;335.0;335.0;1.0;0.0;0.0;35.0;0.1044776119402985;300.0;0.8955223880597015;54.0;0.16119402985074627;35.0;0.1044776119402985;110.0;0.3283582089552239;0.6141791044776119;0.6858333333333333;0.6085785358919686;0.679579365079365;0.5732889664232949;0.6401726791726792;
65;65_5fd41ae872d51961a7f3e60ba9b6a7cba85d61f7-LOC.arff;LP;335.0;335.0;1.0;0.0;0.0;48.0;0.14328358208955225;287.0;0.8567164179104477;199.0;0.5940298507462687;48.0;0.14328358208955225;116.0;0.34626865671641793;0.7343283582089553;0.8571428571428571;0.5957924662402274;0.6954371992699518;0.6377398720682302;0.7444001991040319;
65;65_5fd41ae872d51961a7f3e60ba9b6a7cba85d61f7-LOC.arff;RAkELd;335.0;335.0;1.0;0.0;0.0;35.0;0.1044776119402985;300.0;0.8955223880597015;79.0;0.23582089552238805;35.0;0.1044776119402985;110.0;0.3283582089552239;0.6465174129353233;0.7219444444444444;0.6085785358919686;0.679579365079365;0.5893941547672891;0.6581568061568062;
66;66_805d37f77b25fba70c05518cda4edd1c349b7f04-LOC.arff;BR;287.0;287.0;1.0;0.0;0.0;0.0;0.0;287.0;1.0;55.0;0.1916376306620209;0.0;0.0;114.0;0.397212543554007;0.6945412311265969;0.6945412311265969;0.7288949726231957;0.7288949726231957;0.6856056835150912;0.6856056835150912;
66;66_805d37f77b25fba70c05518cda4edd1c349b7f04-LOC.arff;LP;287.0;287.0;1.0;0.0;0.0;0.0;0.0;287.0;1.0;197.0;0.686411149825784;0.0;0.0;116.0;0.40418118466898956;0.8548199767711964;0.8548199767711964;0.6954371992699518;0.6954371992699518;0.7430064708810353;0.7430064708810353;
66;66_805d37f77b25fba70c05518cda4edd1c349b7f04-LOC.arff;RAkELd;287.0;287.0;1.0;0.0;0.0;0.0;0.0;287.0;1.0;236.0;0.8222996515679443;0.0;0.0;103.0;0.3588850174216028;0.9210220673635308;0.9210220673635308;0.67551850008296;0.67551850008296;0.7465239754438361;0.7465239754438361;
67;67_46f80e82d947dcb928abdfe96ee1e2f48ea82de5-LOC.arff;BR;287.0;287.0;1.0;1.0;0.003484320557491289;0.0;0.0;286.0;0.9965156794425087;0.0;0.0;1.0;0.003484320557491289;101.0;0.3519163763066202;0.6057692307692307;0.6057692307692307;0.6905844155844156;0.6905844155844156;0.6266998153361789;0.6266998153361789;
67;67_46f80e82d947dcb928abdfe96ee1e2f48ea82de5-LOC.arff;LP;287.0;287.0;1.0;0.0;0.0;1.0;0.003484320557491289;286.0;0.9965156794425087;196.0;0.6829268292682927;1.0;0.003484320557491289;114.0;0.397212543554007;0.8507549361207898;0.8537296037296037;0.6907914385266302;0.6932067932067932;0.7388252862120458;0.7414085914085914;
67;67_46f80e82d947dcb928abdfe96ee1e2f48ea82de5-LOC.arff;RAkELd;287.0;287.0;1.0;0.0;0.0;0.0;0.0;287.0;1.0;1.0;0.003484320557491289;0.0;0.0;101.0;0.3519163763066202;0.6065621370499419;0.6065621370499419;0.6890492782478845;0.6890492782478845;0.6256776324720575;0.6256776324720575;
69;69_5df5727e939de26c828041ea7083a07c72f475da-LOC.arff;BR;287.0;287.0;1.0;0.0;0.0;0.0;0.0;287.0;1.0;0.0;0.0;0.0;0.0;100.0;0.34843205574912894;0.48914053426248544;0.48914053426248544;0.6714534594325535;0.6714534594325535;0.542955437903173;0.542955437903173;
69;69_5df5727e939de26c828041ea7083a07c72f475da-LOC.arff;LP;287.0;287.0;1.0;0.0;0.0;1.0;0.003484320557491289;286.0;0.9965156794425087;196.0;0.6829268292682927;1.0;0.003484320557491289;113.0;0.39372822299651566;0.8501742160278746;0.8531468531468531;0.6890492782478845;0.6914585414585415;0.7377799900447983;0.7403596403596403;
69;69_5df5727e939de26c828041ea7083a07c72f475da-LOC.arff;RAkELd;287.0;287.0;1.0;0.0;0.0;0.0;0.0;287.0;1.0;0.0;0.0;0.0;0.0;100.0;0.34843205574912894;0.4885598141695703;0.4885598141695703;0.670292019246723;0.670292019246723;0.5420262857545087;0.5420262857545087;
70;70_edb5ea7efa555b59f17655e20e93d9e93499d5d8-LOC.arff;BR;287.0;287.0;1.0;0.0;0.0;0.0;0.0;287.0;1.0;52.0;0.18118466898954705;0.0;0.0;95.0;0.3310104529616725;0.6901858304297328;0.6901858304297328;0.6594989215198274;0.6594989215198274;0.6344263943567079;0.6344263943567079;
70;70_edb5ea7efa555b59f17655e20e93d9e93499d5d8-LOC.arff;LP;287.0;287.0;1.0;0.0;0.0;0.0;0.0;287.0;1.0;201.0;0.7003484320557491;0.0;0.0;107.0;0.37282229965156793;0.8594657375145179;0.8594657375145179;0.678372324539572;0.678372324539572;0.7346413362092804;0.7346413362092804;
70;70_edb5ea7efa555b59f17655e20e93d9e93499d5d8-LOC.arff;RAkELd;287.0;287.0;1.0;0.0;0.0;0.0;0.0;287.0;1.0;52.0;0.18118466898954705;0.0;0.0;95.0;0.3310104529616725;0.6901858304297328;0.6901858304297328;0.6594989215198274;0.6594989215198274;0.6344263943567079;0.6344263943567079;
71;71_e7dca8614be5cac516c0d7989a28abdf21d412d8-LOC.arff;BR;302.0;302.0;1.0;0.0;0.0;0.0;0.0;302.0;1.0;217.0;0.7185430463576159;0.0;0.0;103.0;0.34105960264900664;0.8681015452538632;0.8681015452538632;0.6710580258593504;0.6710580258593504;0.7284505413644486;0.7284505413644486;
71;71_e7dca8614be5cac516c0d7989a28abdf21d412d8-LOC.arff;LP;302.0;302.0;1.0;0.0;0.0;1.0;0.0033112582781456954;301.0;0.9966887417218543;201.0;0.6655629139072847;1.0;0.0033112582781456954;105.0;0.347682119205298;0.8349889624724062;0.8377630121816168;0.6663670766319773;0.6685809207403891;0.71146851676653;0.7138321995464852;
71;71_e7dca8614be5cac516c0d7989a28abdf21d412d8-LOC.arff;RAkELd;302.0;302.0;1.0;0.0;0.0;0.0;0.0;302.0;1.0;217.0;0.7185430463576159;0.0;0.0;103.0;0.34105960264900664;0.8678256070640176;0.8678256070640176;0.6710580258593504;0.6710580258593504;0.7283322821402292;0.7283322821402292;
72;72_e63e224a33011f2aa302ee435acc066af8a87ddb-LOC.arff;BR;302.0;302.0;1.0;0.0;0.0;0.0;0.0;302.0;1.0;13.0;0.04304635761589404;0.0;0.0;104.0;0.3443708609271523;0.6181015452538631;0.6181015452538631;0.6542257962787764;0.6542257962787764;0.6108681421595329;0.6108681421595329;
72;72_e63e224a33011f2aa302ee435acc066af8a87ddb-LOC.arff;LP;302.0;302.0;1.0;0.0;0.0;302.0;1.0;0.0;0.0;0.0;0.0;302.0;1.0;0.0;0.0;0.0;0.0;0.0;0.0;0.0;0.0;
72;72_e63e224a33011f2aa302ee435acc066af8a87ddb-LOC.arff;RAkELd;302.0;302.0;1.0;0.0;0.0;0.0;0.0;302.0;1.0;255.0;0.8443708609271523;0.0;0.0;102.0;0.33774834437086093;0.9288079470198676;0.9288079470198676;0.6408703878902554;0.6408703878902554;0.7241301377062966;0.7241301377062966;
73;73_b15902d3b5131d1ddfc4d52ce99a54827ece5d53-LOC.arff;BR;302.0;302.0;1.0;0.0;0.0;0.0;0.0;302.0;1.0;253.0;0.8377483443708609;0.0;0.0;102.0;0.33774834437086093;0.9271523178807947;0.9271523178807947;0.6398454746136865;0.6398454746136865;0.720697992221171;0.720697992221171;
73;73_b15902d3b5131d1ddfc4d52ce99a54827ece5d53-LOC.arff;LP;302.0;302.0;1.0;0.0;0.0;0.0;0.0;302.0;1.0;233.0;0.7715231788079471;0.0;0.0;105.0;0.347682119205298;0.8896247240618103;0.8896247240618103;0.6520971302428257;0.6520971302428257;0.7178860506675075;0.7178860506675075;
73;73_b15902d3b5131d1ddfc4d52ce99a54827ece5d53-LOC.arff;RAkELd;302.0;302.0;1.0;0.0;0.0;0.0;0.0;302.0;1.0;253.0;0.8377483443708609;0.0;0.0;102.0;0.33774834437086093;0.9271523178807947;0.9271523178807947;0.6398454746136865;0.6398454746136865;0.720697992221171;0.720697992221171;
75;75_ff69e0a772c71226be7d6000c5096c0a850e3a62-LOC.arff;BR;64.0;64.0;1.0;0.0;0.0;64.0;1.0;0.0;0.0;0.0;0.0;64.0;1.0;0.0;0.0;0.0;0.0;0.0;0.0;0.0;0.0;
75;75_ff69e0a772c71226be7d6000c5096c0a850e3a62-LOC.arff;LP;64.0;64.0;1.0;0.0;0.0;64.0;1.0;0.0;0.0;0.0;0.0;64.0;1.0;0.0;0.0;0.0;0.0;0.0;0.0;0.0;0.0;
75;75_ff69e0a772c71226be7d6000c5096c0a850e3a62-LOC.arff;RAkELd;64.0;64.0;1.0;0.0;0.0;64.0;1.0;0.0;0.0;0.0;0.0;64.0;1.0;0.0;0.0;0.0;0.0;0.0;0.0;0.0;0.0;
79;79_9d90220537583b98b726dab13e3c553d676d631e-LOC.arff;BR;302.0;302.0;1.0;36.0;0.11920529801324503;127.0;0.4205298013245033;139.0;0.4602649006622517;139.0;0.4602649006622517;163.0;0.5397350993377483;0.0;0.0;0.5225563909774437;1.0;0.13688686000716074;0.2619561493662213;0.21492123165055496;0.41128811236724905;
79;79_9d90220537583b98b726dab13e3c553d676d631e-LOC.arff;LP;302.0;302.0;1.0;0.0;0.0;0.0;0.0;302.0;1.0;238.0;0.7880794701986755;0.0;0.0;99.0;0.32781456953642385;0.8945916114790288;0.8945916114790288;0.6395380006307159;0.6395380006307159;0.711644591611479;0.711644591611479;
79;79_9d90220537583b98b726dab13e3c553d676d631e-LOC.arff;RAkELd;302.0;302.0;1.0;36.0;0.11920529801324503;127.0;0.4205298013245033;139.0;0.4602649006622517;139.0;0.4602649006622517;163.0;0.5397350993377483;0.0;0.0;0.5225563909774437;1.0;0.13688686000716074;0.2619561493662213;0.21492123165055496;0.41128811236724905;
82;82_8a08b8e07e0bd84c1778eca7f3f32fafff5c3af5-LOC.arff;BR;302.0;302.0;1.0;0.0;0.0;0.0;0.0;302.0;1.0;32.0;0.10596026490066225;0.0;0.0;123.0;0.40728476821192056;0.625;0.625;0.7194339325134027;0.7194339325134027;0.6372182085758245;0.6372182085758245;
82;82_8a08b8e07e0bd84c1778eca7f3f32fafff5c3af5-LOC.arff;LP;302.0;302.0;1.0;0.0;0.0;0.0;0.0;302.0;1.0;258.0;0.8543046357615894;0.0;0.0;97.0;0.3211920529801324;0.9315673289183223;0.9315673289183223;0.6286660359508042;0.6286660359508042;0.7153736991485335;0.7153736991485335;
82;82_8a08b8e07e0bd84c1778eca7f3f32fafff5c3af5-LOC.arff;RAkELd;302.0;302.0;1.0;0.0;0.0;0.0;0.0;302.0;1.0;32.0;0.10596026490066225;0.0;0.0;123.0;0.40728476821192056;0.625;0.625;0.7194339325134027;0.7194339325134027;0.6372182085758245;0.6372182085758245;
84;84_537b5c155dd0e35080528bcaba088d0d177aa2bd-LOC.arff;BR;241.0;241.0;1.0;0.0;0.0;133.0;0.5518672199170125;108.0;0.44813278008298757;0.0;0.0;133.0;0.5518672199170125;0.0;0.0;0.14937759336099585;0.3333333333333333;0.11785220312191266;0.26298500881834214;0.12982941447671736;0.2897119341563786;
84;84_537b5c155dd0e35080528bcaba088d0d177aa2bd-LOC.arff;LP;241.0;241.0;1.0;0.0;0.0;241.0;1.0;0.0;0.0;0.0;0.0;241.0;1.0;0.0;0.0;0.0;0.0;0.0;0.0;0.0;0.0;
84;84_537b5c155dd0e35080528bcaba088d0d177aa2bd-LOC.arff;RAkELd;241.0;241.0;1.0;12.0;0.04979253112033195;121.0;0.5020746887966805;108.0;0.44813278008298757;108.0;0.44813278008298757;133.0;0.5518672199170125;0.0;0.0;0.47161572052401746;1.0;0.12402786442087751;0.26298500881834214;0.194531087544188;0.41247795414462085;
86;86_2a6afee83292e5b741cb99ca4b7b30b7acfe7529-LOC.arff;BR;64.0;64.0;1.0;0.0;0.0;3.0;0.046875;61.0;0.953125;60.0;0.9375;3.0;0.046875;0.0;0.0;0.9453125;0.9918032786885246;0.32708333333333334;0.34316939890710385;0.47760416666666666;0.5010928961748634;
86;86_2a6afee83292e5b741cb99ca4b7b30b7acfe7529-LOC.arff;LP;64.0;64.0;1.0;0.0;0.0;0.0;0.0;64.0;1.0;61.0;0.953125;0.0;0.0;16.0;0.25;0.9765625;0.9765625;0.6684895833333333;0.6684895833333333;0.7750744047619048;0.7750744047619048;
86;86_2a6afee83292e5b741cb99ca4b7b30b7acfe7529-LOC.arff;RAkELd;64.0;64.0;1.0;63.0;0.984375;0.0;0.0;1.0;0.015625;0.0;0.0;63.0;0.984375;0.0;0.0;0.5;0.5;0.25;0.25;0.3333333333333333;0.3333333333333333;
87;87_953d830bba02eb71376c51ccee2c5599bf976df5-LOC.arff;BR;197.0;197.0;1.0;0.0;0.0;0.0;0.0;197.0;1.0;112.0;0.5685279187817259;0.0;0.0;78.0;0.39593908629441626;0.8392554991539763;0.8392554991539763;0.7361614696640078;0.7361614696640078;0.7522963500120861;0.7522963500120861;
87;87_953d830bba02eb71376c51ccee2c5599bf976df5-LOC.arff;LP;197.0;197.0;1.0;0.0;0.0;1.0;0.005076142131979695;196.0;0.9949238578680203;150.0;0.7614213197969543;1.0;0.005076142131979695;60.0;0.30456852791878175;0.8773265651438241;0.8818027210884354;0.6434251873338168;0.6467079689018465;0.7177302393038434;0.7213921282798834;
87;87_953d830bba02eb71376c51ccee2c5599bf976df5-LOC.arff;RAkELd;197.0;197.0;1.0;0.0;0.0;0.0;0.0;197.0;1.0;112.0;0.5685279187817259;0.0;0.0;78.0;0.39593908629441626;0.838409475465313;0.838409475465313;0.7361614696640078;0.7361614696640078;0.7519579405366207;0.7519579405366207;
89;89_7a2d1f5aeb85225a7d71e8b95982e36c5fb17722-LOC.arff;BR;6.0;6.0;1.0;0.0;0.0;6.0;1.0;0.0;0.0;0.0;0.0;6.0;1.0;0.0;0.0;0.0;0.0;0.0;0.0;0.0;0.0;
89;89_7a2d1f5aeb85225a7d71e8b95982e36c5fb17722-LOC.arff;LP;6.0;6.0;1.0;0.0;0.0;6.0;1.0;0.0;0.0;0.0;0.0;6.0;1.0;0.0;0.0;0.0;0.0;0.0;0.0;0.0;0.0;
89;89_7a2d1f5aeb85225a7d71e8b95982e36c5fb17722-LOC.arff;RAkELd;6.0;6.0;1.0;0.0;0.0;6.0;1.0;0.0;0.0;0.0;0.0;6.0;1.0;0.0;0.0;0.0;0.0;0.0;0.0;0.0;0.0;
90;90_5ad1d19384ba3ea8a1e6c33babc63de1d28acf31-LOC.arff;BR;302.0;302.0;1.0;0.0;0.0;0.0;0.0;302.0;1.0;214.0;0.7086092715231788;0.0;0.0;94.0;0.31125827814569534;0.8625827814569537;0.8625827814569537;0.6548880479344055;0.6548880479344055;0.7171686113739094;0.7171686113739094;
90;90_5ad1d19384ba3ea8a1e6c33babc63de1d28acf31-LOC.arff;LP;302.0;302.0;1.0;0.0;0.0;0.0;0.0;302.0;1.0;203.0;0.6721854304635762;0.0;0.0;98.0;0.32450331125827814;0.825055187637969;0.825055187637969;0.6426285083569852;0.6426285083569852;0.6906443813728582;0.6906443813728582;
90;90_5ad1d19384ba3ea8a1e6c33babc63de1d28acf31-LOC.arff;RAkELd;302.0;302.0;1.0;0.0;0.0;0.0;0.0;302.0;1.0;214.0;0.7086092715231788;0.0;0.0;94.0;0.31125827814569534;0.8625827814569537;0.8625827814569537;0.6543361715547146;0.6543361715547146;0.7166167349942184;0.7166167349942184;
94;94_915ef2d4a136df67f468917c725d032919e189d4-LOC.arff;BR;302.0;302.0;1.0;0.0;0.0;0.0;0.0;302.0;1.0;223.0;0.7384105960264901;0.0;0.0;96.0;0.31788079470198677;0.8774834437086093;0.8774834437086093;0.6467754651529486;0.6467754651529486;0.7149768737517083;0.7149768737517083;
94;94_915ef2d4a136df67f468917c725d032919e189d4-LOC.arff;LP;302.0;302.0;1.0;0.0;0.0;0.0;0.0;302.0;1.0;198.0;0.6556291390728477;0.0;0.0;113.0;0.3741721854304636;0.8280905077262694;0.8280905077262694;0.6875039419741407;0.6875039419741407;0.7187927047198571;0.7187927047198571;
94;94_915ef2d4a136df67f468917c725d032919e189d4-LOC.arff;RAkELd;302.0;302.0;1.0;0.0;0.0;0.0;0.0;302.0;1.0;251.0;0.8311258278145696;0.0;0.0;96.0;0.31788079470198677;0.9216335540838851;0.9216335540838851;0.6278145695364238;0.6278145695364238;0.7095895090928204;0.7095895090928204;
100;100_6dba34ab0ed5b5f89b70ebe71086200606319bd8-LOC.arff;BR;459.0;459.0;1.0;0.0;0.0;157.0;0.3420479302832244;302.0;0.6579520697167756;69.0;0.1503267973856209;157.0;0.3420479302832244;75.0;0.16339869281045752;0.45461147421931736;0.6909492273730684;0.3861811391223156;0.5869441816461685;0.38983469931182346;0.5924971092189635;
100;100_6dba34ab0ed5b5f89b70ebe71086200606319bd8-LOC.arff;LP;459.0;459.0;1.0;0.0;0.0;55.0;0.11982570806100218;404.0;0.8801742919389978;282.0;0.6143790849673203;55.0;0.11982570806100218;139.0;0.3028322440087146;0.7474582425562817;0.8492161716171617;0.6044143583359269;0.6866984912776992;0.641413355465643;0.7287344805909163;
100;100_6dba34ab0ed5b5f89b70ebe71086200606319bd8-LOC.arff;RAkELd;459.0;459.0;1.0;0.0;0.0;157.0;0.3420479302832244;302.0;0.6579520697167756;69.0;0.1503267973856209;157.0;0.3420479302832244;75.0;0.16339869281045752;0.4477124183006536;0.6804635761589404;0.3866168689698101;0.5876064333017975;0.3862658643704396;0.5870729528014297;
104;104_d8e7e2f72e28d2df29f3f8b23215419e21b0727b-LOC.arff;BR;128.0;128.0;1.0;34.0;0.265625;11.0;0.0859375;83.0;0.6484375;83.0;0.6484375;45.0;0.3515625;0.0;0.0;0.8829787234042553;1.0;0.38475177304964536;0.4357429718875502;0.5319148936170213;0.6024096385542169;
104;104_d8e7e2f72e28d2df29f3f8b23215419e21b0727b-LOC.arff;LP;128.0;128.0;1.0;0.0;0.0;0.0;0.0;128.0;1.0;117.0;0.9140625;0.0;0.0;90.0;0.703125;0.95703125;0.95703125;0.8932291666666666;0.8932291666666666;0.90703125;0.90703125;
104;104_d8e7e2f72e28d2df29f3f8b23215419e21b0727b-LOC.arff;RAkELd;128.0;128.0;1.0;0.0;0.0;0.0;0.0;128.0;1.0;117.0;0.9140625;0.0;0.0;90.0;0.703125;0.95703125;0.95703125;0.8932291666666666;0.8932291666666666;0.90703125;0.90703125;
105;105_cd2268f10a88de393a565c887c8891c7f7979a97-LOC.arff;BR;12.0;12.0;1.0;0.0;0.0;0.0;0.0;12.0;1.0;12.0;1.0;0.0;0.0;5.0;0.4166666666666667;1.0;1.0;0.7083333333333334;0.7083333333333334;0.8055555555555555;0.8055555555555555;
105;105_cd2268f10a88de393a565c887c8891c7f7979a97-LOC.arff;LP;12.0;12.0;1.0;0.0;0.0;0.0;0.0;12.0;1.0;12.0;1.0;0.0;0.0;5.0;0.4166666666666667;1.0;1.0;0.7083333333333334;0.7083333333333334;0.8055555555555555;0.8055555555555555;
105;105_cd2268f10a88de393a565c887c8891c7f7979a97-LOC.arff;RAkELd;12.0;12.0;1.0;0.0;0.0;0.0;0.0;12.0;1.0;12.0;1.0;0.0;0.0;5.0;0.4166666666666667;1.0;1.0;0.7083333333333334;0.7083333333333334;0.8055555555555555;0.8055555555555555;
106;106_b21d5193f25e3e388ddc3787aba7f0086a1abad7-LOC.arff;BR;459.0;459.0;1.0;0.0;0.0;55.0;0.11982570806100218;404.0;0.8801742919389978;242.0;0.5272331154684096;55.0;0.11982570806100218;142.0;0.3093681917211329;0.7289397240377632;0.8281765676567656;0.6126776636580558;0.696086751532296;0.6367309886917729;0.7234146628948609;
106;106_b21d5193f25e3e388ddc3787aba7f0086a1abad7-LOC.arff;LP;459.0;459.0;1.0;0.0;0.0;52.0;0.11328976034858387;407.0;0.8867102396514162;227.0;0.49455337690631807;52.0;0.11328976034858387;172.0;0.3747276688453159;0.7067901234567902;0.7970925470925472;0.6380744890548812;0.7195975195975196;0.6403292181069958;0.7221403221403221;
106;106_b21d5193f25e3e388ddc3787aba7f0086a1abad7-LOC.arff;RAkELd;459.0;459.0;1.0;0.0;0.0;55.0;0.11982570806100218;404.0;0.8801742919389978;252.0;0.5490196078431373;55.0;0.11982570806100218;142.0;0.3093681917211329;0.7367465504720407;0.8370462046204621;0.6117698931424421;0.6950553983969825;0.6398485320053948;0.726956624233852;
107;107_eeb4f029dbaa8f12350f631441303832fc14fc9e-LOC.arff;BR;12.0;12.0;1.0;7.0;0.5833333333333334;5.0;0.4166666666666667;0.0;0.0;0.0;0.0;12.0;1.0;0.0;0.0;0.0;0.0;0.0;0.0;0.0;0.0;
107;107_eeb4f029dbaa8f12350f631441303832fc14fc9e-LOC.arff;LP;12.0;12.0;1.0;0.0;0.0;5.0;0.4166666666666667;7.0;0.5833333333333334;2.0;0.16666666666666666;5.0;0.4166666666666667;7.0;0.5833333333333334;0.375;0.6428571428571429;0.5833333333333334;1.0;0.4444444444444444;0.7619047619047619;
107;107_eeb4f029dbaa8f12350f631441303832fc14fc9e-LOC.arff;RAkELd;12.0;12.0;1.0;7.0;0.5833333333333334;5.0;0.4166666666666667;0.0;0.0;0.0;0.0;12.0;1.0;0.0;0.0;0.0;0.0;0.0;0.0;0.0;0.0;
109;109_379ea642e181ee072a80d361dfb043e7f3318103-LOC.arff;BR;132.0;132.0;1.0;0.0;0.0;0.0;0.0;132.0;1.0;0.0;0.0;0.0;0.0;94.0;0.7121212121212122;0.4311868686868687;0.4311868686868687;0.8964646464646464;0.8964646464646464;0.5690836940836941;0.5690836940836941;
109;109_379ea642e181ee072a80d361dfb043e7f3318103-LOC.arff;LP;132.0;132.0;1.0;0.0;0.0;0.0;0.0;132.0;1.0;93.0;0.7045454545454546;0.0;0.0;124.0;0.9393939393939394;0.8787878787878788;0.8787878787878788;0.9722222222222223;0.9722222222222223;0.904040404040404;0.904040404040404;
109;109_379ea642e181ee072a80d361dfb043e7f3318103-LOC.arff;RAkELd;132.0;132.0;1.0;0.0;0.0;0.0;0.0;132.0;1.0;0.0;0.0;0.0;0.0;94.0;0.7121212121212122;0.4311868686868687;0.4311868686868687;0.8964646464646464;0.8964646464646464;0.5690836940836941;0.5690836940836941;
110;110_924bab1a031101634ba350cd8daf1c5a2e08430a-LOC.arff;BR;27.0;27.0;1.0;0.0;0.0;27.0;1.0;0.0;0.0;0.0;0.0;27.0;1.0;0.0;0.0;0.0;0.0;0.0;0.0;0.0;0.0;
110;110_924bab1a031101634ba350cd8daf1c5a2e08430a-LOC.arff;LP;27.0;27.0;1.0;0.0;0.0;27.0;1.0;0.0;0.0;0.0;0.0;27.0;1.0;0.0;0.0;0.0;0.0;0.0;0.0;0.0;0.0;
110;110_924bab1a031101634ba350cd8daf1c5a2e08430a-LOC.arff;RAkELd;27.0;27.0;1.0;0.0;0.0;27.0;1.0;0.0;0.0;0.0;0.0;27.0;1.0;0.0;0.0;0.0;0.0;0.0;0.0;0.0;0.0;
111;111_959d82e81e3a8185992a4c8edeff171fed9f01ca-LOC.arff;BR;27.0;27.0;1.0;0.0;0.0;9.0;0.3333333333333333;18.0;0.6666666666666666;18.0;0.6666666666666666;9.0;0.3333333333333333;8.0;0.2962962962962963;0.6666666666666666;1.0;0.48148148148148145;0.7222222222222222;0.5432098765432098;0.8148148148148148;
111;111_959d82e81e3a8185992a4c8edeff171fed9f01ca-LOC.arff;LP;27.0;27.0;1.0;0.0;0.0;9.0;0.3333333333333333;18.0;0.6666666666666666;18.0;0.6666666666666666;9.0;0.3333333333333333;8.0;0.2962962962962963;0.6666666666666666;1.0;0.48148148148148145;0.7222222222222222;0.5432098765432098;0.8148148148148148;
111;111_959d82e81e3a8185992a4c8edeff171fed9f01ca-LOC.arff;RAkELd;27.0;27.0;1.0;0.0;0.0;9.0;0.3333333333333333;18.0;0.6666666666666666;18.0;0.6666666666666666;9.0;0.3333333333333333;8.0;0.2962962962962963;0.6666666666666666;1.0;0.48148148148148145;0.7222222222222222;0.5432098765432098;0.8148148148148148;
114;114_0db97b9c7f4cb26e4a767c9aa2a4b8be4007e209-LOC.arff;BR;302.0;302.0;1.0;0.0;0.0;0.0;0.0;302.0;1.0;161.0;0.5331125827814569;0.0;0.0;113.0;0.3741721854304636;0.804635761589404;0.804635761589404;0.7017187007253232;0.7017187007253232;0.7172500788394828;0.7172500788394828;
114;114_0db97b9c7f4cb26e4a767c9aa2a4b8be4007e209-LOC.arff;LP;302.0;302.0;1.0;0.0;0.0;299.0;0.9900662251655629;3.0;0.009933774834437087;3.0;0.009933774834437087;299.0;0.9900662251655629;0.0;0.0;0.009933774834437087;1.0;0.003421633554083885;0.3444444444444444;0.004966887417218543;0.5;
114;114_0db97b9c7f4cb26e4a767c9aa2a4b8be4007e209-LOC.arff;RAkELd;302.0;302.0;1.0;0.0;0.0;0.0;0.0;302.0;1.0;171.0;0.5662251655629139;0.0;0.0;113.0;0.3741721854304636;0.815673289183223;0.815673289183223;0.7003390097760959;0.7003390097760959;0.7215547146010722;0.7215547146010722;
116;116_0e0e4945d8ad060aa50552a0b27369c18442c2d0-LOC.arff;BR;53.0;53.0;1.0;0.0;0.0;53.0;1.0;0.0;0.0;0.0;0.0;53.0;1.0;0.0;0.0;0.0;0.0;0.0;0.0;0.0;0.0;
116;116_0e0e4945d8ad060aa50552a0b27369c18442c2d0-LOC.arff;LP;53.0;53.0;1.0;0.0;0.0;53.0;1.0;0.0;0.0;0.0;0.0;53.0;1.0;0.0;0.0;0.0;0.0;0.0;0.0;0.0;0.0;
116;116_0e0e4945d8ad060aa50552a0b27369c18442c2d0-LOC.arff;RAkELd;53.0;53.0;1.0;0.0;0.0;53.0;1.0;0.0;0.0;0.0;0.0;53.0;1.0;0.0;0.0;0.0;0.0;0.0;0.0;0.0;0.0;
118;118_6ac9b2e7614766a38276d143592ba0b6e8f31271-LOC.arff;BR;102.0;102.0;1.0;0.0;0.0;102.0;1.0;0.0;0.0;0.0;0.0;102.0;1.0;0.0;0.0;0.0;0.0;0.0;0.0;0.0;0.0;
118;118_6ac9b2e7614766a38276d143592ba0b6e8f31271-LOC.arff;LP;102.0;102.0;1.0;0.0;0.0;102.0;1.0;0.0;0.0;0.0;0.0;102.0;1.0;0.0;0.0;0.0;0.0;0.0;0.0;0.0;0.0;
118;118_6ac9b2e7614766a38276d143592ba0b6e8f31271-LOC.arff;RAkELd;102.0;102.0;1.0;10.0;0.09803921568627451;92.0;0.9019607843137255;0.0;0.0;0.0;0.0;102.0;1.0;0.0;0.0;0.0;0.0;0.0;0.0;0.0;0.0;
119;119_cdf0bd4e635508ba622e0a333ddf5ffbde90cfa3-LOC.arff;BR;102.0;102.0;1.0;102.0;1.0;0.0;0.0;0.0;0.0;0.0;0.0;102.0;1.0;0.0;0.0;0.0;0.0;0.0;0.0;0.0;0.0;
119;119_cdf0bd4e635508ba622e0a333ddf5ffbde90cfa3-LOC.arff;LP;102.0;102.0;1.0;0.0;0.0;102.0;1.0;0.0;0.0;0.0;0.0;102.0;1.0;0.0;0.0;0.0;0.0;0.0;0.0;0.0;0.0;
119;119_cdf0bd4e635508ba622e0a333ddf5ffbde90cfa3-LOC.arff;RAkELd;102.0;102.0;1.0;102.0;1.0;0.0;0.0;0.0;0.0;0.0;0.0;102.0;1.0;0.0;0.0;0.0;0.0;0.0;0.0;0.0;0.0;
120;120_235051253a504fa6f4866bda604f2612df7aad0e-LOC.arff;BR;5.0;5.0;1.0;0.0;0.0;0.0;0.0;5.0;1.0;0.0;0.0;0.0;0.0;4.0;0.8;0.3333333333333333;0.3333333333333333;0.9;0.9;0.48;0.48;
120;120_235051253a504fa6f4866bda604f2612df7aad0e-LOC.arff;LP;5.0;5.0;1.0;0.0;0.0;5.0;1.0;0.0;0.0;0.0;0.0;5.0;1.0;0.0;0.0;0.0;0.0;0.0;0.0;0.0;0.0;
120;120_235051253a504fa6f4866bda604f2612df7aad0e-LOC.arff;RAkELd;5.0;5.0;1.0;0.0;0.0;0.0;0.0;5.0;1.0;0.0;0.0;0.0;0.0;4.0;0.8;0.5;0.5;0.9;0.9;0.6333333333333333;0.6333333333333333;
121;121_27654bfe697ee08a83f4f39567357827ef77fd1f-LOC.arff;BR;5.0;5.0;1.0;0.0;0.0;0.0;0.0;5.0;1.0;0.0;0.0;0.0;0.0;4.0;0.8;0.3333333333333333;0.3333333333333333;0.9;0.9;0.48;0.48;
121;121_27654bfe697ee08a83f4f39567357827ef77fd1f-LOC.arff;LP;5.0;5.0;1.0;0.0;0.0;5.0;1.0;0.0;0.0;0.0;0.0;5.0;1.0;0.0;0.0;0.0;0.0;0.0;0.0;0.0;0.0;
121;121_27654bfe697ee08a83f4f39567357827ef77fd1f-LOC.arff;RAkELd;5.0;5.0;1.0;0.0;0.0;0.0;0.0;5.0;1.0;0.0;0.0;0.0;0.0;4.0;0.8;0.5;0.5;0.9;0.9;0.6333333333333333;0.6333333333333333;
124;124_57e163e98999b45b9fff814dfee20d2ea01947f1-LOC.arff;BR;5.0;5.0;1.0;0.0;0.0;0.0;0.0;5.0;1.0;5.0;1.0;0.0;0.0;3.0;0.6;1.0;1.0;0.8;0.8;0.8666666666666666;0.8666666666666666;
124;124_57e163e98999b45b9fff814dfee20d2ea01947f1-LOC.arff;LP;5.0;5.0;1.0;0.0;0.0;0.0;0.0;5.0;1.0;5.0;1.0;0.0;0.0;3.0;0.6;1.0;1.0;0.8;0.8;0.8666666666666666;0.8666666666666666;
124;124_57e163e98999b45b9fff814dfee20d2ea01947f1-LOC.arff;RAkELd;5.0;5.0;1.0;0.0;0.0;0.0;0.0;5.0;1.0;5.0;1.0;0.0;0.0;3.0;0.6;1.0;1.0;0.8;0.8;0.8666666666666666;0.8666666666666666;
125;125_a6823a84e18f7738cafe309c21b55a110ea51d6d-LOC.arff;BR;13.0;13.0;1.0;0.0;0.0;0.0;0.0;13.0;1.0;0.0;0.0;0.0;0.0;10.0;0.7692307692307693;0.46153846153846156;0.46153846153846156;0.8846153846153846;0.8846153846153846;0.5923076923076923;0.5923076923076923;
125;125_a6823a84e18f7738cafe309c21b55a110ea51d6d-LOC.arff;LP;13.0;13.0;1.0;0.0;0.0;13.0;1.0;0.0;0.0;0.0;0.0;13.0;1.0;0.0;0.0;0.0;0.0;0.0;0.0;0.0;0.0;
125;125_a6823a84e18f7738cafe309c21b55a110ea51d6d-LOC.arff;RAkELd;13.0;13.0;1.0;0.0;0.0;0.0;0.0;13.0;1.0;0.0;0.0;0.0;0.0;5.0;0.38461538461538464;0.3333333333333333;0.3333333333333333;0.6923076923076923;0.6923076923076923;0.43846153846153846;0.43846153846153846;
127;127_191f36b4933be2686a51dd62dbe532ee90f38ab5-LOC.arff;BR;303.0;303.0;1.0;0.0;0.0;0.0;0.0;303.0;1.0;100.0;0.33003300330033003;0.0;0.0;99.0;0.32673267326732675;0.7092959295929593;0.7092959295929593;0.6754203991827754;0.6754203991827754;0.6673910248167674;0.6673910248167674;
127;127_191f36b4933be2686a51dd62dbe532ee90f38ab5-LOC.arff;LP;303.0;303.0;1.0;0.0;0.0;1.0;0.0033003300330033004;302.0;0.9966996699669967;198.0;0.6534653465346535;1.0;0.0033003300330033004;99.0;0.32673267326732675;0.827007700770077;0.8297461368653422;0.6625176803394625;0.6647114474929045;0.707014510974907;0.7093556186271418;
127;127_191f36b4933be2686a51dd62dbe532ee90f38ab5-LOC.arff;RAkELd;303.0;303.0;1.0;0.0;0.0;0.0;0.0;303.0;1.0;163.0;0.5379537953795379;0.0;0.0;99.0;0.32673267326732675;0.8058305830583058;0.8058305830583058;0.6754203991827754;0.6754203991827754;0.7008329404369008;0.7008329404369008;
129;129_4d6a5c29df87270b13c6ec7b5adb58c1aa29e3a8-LOC.arff;BR;312.0;312.0;1.0;25.0;0.08012820512820513;141.0;0.4519230769230769;146.0;0.46794871794871795;146.0;0.46794871794871795;166.0;0.532051282051282;0.0;0.0;0.5087108013937283;1.0;0.13105193296830928;0.25761578604044355;0.20641280902604944;0.4057566862361383;
129;129_4d6a5c29df87270b13c6ec7b5adb58c1aa29e3a8-LOC.arff;LP;312.0;312.0;1.0;0.0;0.0;14.0;0.04487179487179487;298.0;0.9551282051282052;203.0;0.6506410256410257;14.0;0.04487179487179487;93.0;0.2980769230769231;0.8047008547008547;0.8425055928411633;0.6173916361416362;0.6463966123362097;0.6696962759462759;0.7011585170981144;
129;129_4d6a5c29df87270b13c6ec7b5adb58c1aa29e3a8-LOC.arff;RAkELd;312.0;312.0;1.0;25.0;0.08012820512820513;141.0;0.4519230769230769;146.0;0.46794871794871795;146.0;0.46794871794871795;166.0;0.532051282051282;0.0;0.0;0.5087108013937283;1.0;0.13105193296830928;0.25761578604044355;0.20641280902604944;0.4057566862361383;
