commit;DataSet;Classifier;TotalInstances;InstancesWithRankedLabels;PercentageOfInstancesWithRankedLabels;InstancesWithPrecisionNull;PercentageOfInstancesWithPrecisionNull;InstancesWithPrecisionZero;PercentageOfInstancesWithPrecisionZero;InstancesWithPrecisionNonZero;PercentageOfInstancesWithPrecisionNonZero;InstancesWithPrecisionOne;PercentageOfInstancesWithPrecisionOne;InstancesWithRecallZero;PercentageOfInstancesWithRecallZero;InstancesWithRecallOne;PercentageOfInstancesWithRecallOne;AveragePrecisionForAllNonNullPrecision;AveragePrecisionForNonZeroPrecision;AverageRecallForAllNonNullPrecision;AverageRecallForAllNonZeroPrecision;AverageFScoreForAllNonNullPrecision;AverageFScoreForAllNonZeroPrecision;
13;13_d5d0e5ae9860139e5e5dc1b43a352f4dd288f118-FRAGMENT.arff;BR;1.0;1.0;1.0;0.0;0.0;1.0;1.0;0.0;0.0;0.0;0.0;1.0;1.0;0.0;0.0;0.0;0.0;0.0;0.0;0.0;0.0;
13;13_d5d0e5ae9860139e5e5dc1b43a352f4dd288f118-FRAGMENT.arff;LP;1.0;1.0;1.0;0.0;0.0;1.0;1.0;0.0;0.0;0.0;0.0;1.0;1.0;0.0;0.0;0.0;0.0;0.0;0.0;0.0;0.0;
13;13_d5d0e5ae9860139e5e5dc1b43a352f4dd288f118-FRAGMENT.arff;RAkELd;1.0;1.0;1.0;0.0;0.0;1.0;1.0;0.0;0.0;0.0;0.0;1.0;1.0;0.0;0.0;0.0;0.0;0.0;0.0;0.0;0.0;
18;18_9c01146cc3688b8fcadf62cf9f2007f30b590207-FRAGMENT.arff;BR;7.0;7.0;1.0;0.0;0.0;7.0;1.0;0.0;0.0;0.0;0.0;7.0;1.0;0.0;0.0;0.0;0.0;0.0;0.0;0.0;0.0;
18;18_9c01146cc3688b8fcadf62cf9f2007f30b590207-FRAGMENT.arff;LP;7.0;7.0;1.0;0.0;0.0;7.0;1.0;0.0;0.0;0.0;0.0;7.0;1.0;0.0;0.0;0.0;0.0;0.0;0.0;0.0;0.0;
18;18_9c01146cc3688b8fcadf62cf9f2007f30b590207-FRAGMENT.arff;RAkELd;7.0;7.0;1.0;0.0;0.0;7.0;1.0;0.0;0.0;0.0;0.0;7.0;1.0;0.0;0.0;0.0;0.0;0.0;0.0;0.0;0.0;
28;28_f6bf996a7d4bfeb2cfeab84896eb0631fbf88e4f-FRAGMENT.arff;BR;1.0;1.0;1.0;1.0;1.0;0.0;0.0;0.0;0.0;0.0;0.0;1.0;1.0;0.0;0.0;0.0;0.0;0.0;0.0;0.0;0.0;
28;28_f6bf996a7d4bfeb2cfeab84896eb0631fbf88e4f-FRAGMENT.arff;LP;1.0;1.0;1.0;0.0;0.0;1.0;1.0;0.0;0.0;0.0;0.0;1.0;1.0;0.0;0.0;0.0;0.0;0.0;0.0;0.0;0.0;
28;28_f6bf996a7d4bfeb2cfeab84896eb0631fbf88e4f-FRAGMENT.arff;RAkELd;1.0;1.0;1.0;1.0;1.0;0.0;0.0;0.0;0.0;0.0;0.0;1.0;1.0;0.0;0.0;0.0;0.0;0.0;0.0;0.0;0.0;
29;29_00bd8afd45be85194beddfb00e9637f136798350-FRAGMENT.arff;BR;2.0;2.0;1.0;2.0;1.0;0.0;0.0;0.0;0.0;0.0;0.0;2.0;1.0;0.0;0.0;0.0;0.0;0.0;0.0;0.0;0.0;
29;29_00bd8afd45be85194beddfb00e9637f136798350-FRAGMENT.arff;LP;2.0;2.0;1.0;0.0;0.0;2.0;1.0;0.0;0.0;0.0;0.0;2.0;1.0;0.0;0.0;0.0;0.0;0.0;0.0;0.0;0.0;
29;29_00bd8afd45be85194beddfb00e9637f136798350-FRAGMENT.arff;RAkELd;2.0;2.0;1.0;2.0;1.0;0.0;0.0;0.0;0.0;0.0;0.0;2.0;1.0;0.0;0.0;0.0;0.0;0.0;0.0;0.0;0.0;
30;30_93ed28c22e1489c938896d31e8a74124d2660605-FRAGMENT.arff;BR;5.0;5.0;1.0;0.0;0.0;5.0;1.0;0.0;0.0;0.0;0.0;5.0;1.0;0.0;0.0;0.0;0.0;0.0;0.0;0.0;0.0;
30;30_93ed28c22e1489c938896d31e8a74124d2660605-FRAGMENT.arff;LP;5.0;5.0;1.0;0.0;0.0;5.0;1.0;0.0;0.0;0.0;0.0;5.0;1.0;0.0;0.0;0.0;0.0;0.0;0.0;0.0;0.0;
30;30_93ed28c22e1489c938896d31e8a74124d2660605-FRAGMENT.arff;RAkELd;5.0;5.0;1.0;0.0;0.0;5.0;1.0;0.0;0.0;0.0;0.0;5.0;1.0;0.0;0.0;0.0;0.0;0.0;0.0;0.0;0.0;
33;33_dd1c4bef414299c4ed1ad521dbb88e36a1a92055-FRAGMENT.arff;BR;5.0;5.0;1.0;5.0;1.0;0.0;0.0;0.0;0.0;0.0;0.0;5.0;1.0;0.0;0.0;0.0;0.0;0.0;0.0;0.0;0.0;
33;33_dd1c4bef414299c4ed1ad521dbb88e36a1a92055-FRAGMENT.arff;LP;5.0;5.0;1.0;0.0;0.0;5.0;1.0;0.0;0.0;0.0;0.0;5.0;1.0;0.0;0.0;0.0;0.0;0.0;0.0;0.0;0.0;
33;33_dd1c4bef414299c4ed1ad521dbb88e36a1a92055-FRAGMENT.arff;RAkELd;5.0;5.0;1.0;5.0;1.0;0.0;0.0;0.0;0.0;0.0;0.0;5.0;1.0;0.0;0.0;0.0;0.0;0.0;0.0;0.0;0.0;
43;43_4c6e5b2f5ae5056ae7ff37002a96e87d4bd8c05b-FRAGMENT.arff;BR;1.0;1.0;1.0;1.0;1.0;0.0;0.0;0.0;0.0;0.0;0.0;1.0;1.0;0.0;0.0;0.0;0.0;0.0;0.0;0.0;0.0;
43;43_4c6e5b2f5ae5056ae7ff37002a96e87d4bd8c05b-FRAGMENT.arff;LP;1.0;1.0;1.0;0.0;0.0;1.0;1.0;0.0;0.0;0.0;0.0;1.0;1.0;0.0;0.0;0.0;0.0;0.0;0.0;0.0;0.0;
43;43_4c6e5b2f5ae5056ae7ff37002a96e87d4bd8c05b-FRAGMENT.arff;RAkELd;1.0;1.0;1.0;0.0;0.0;1.0;1.0;0.0;0.0;0.0;0.0;1.0;1.0;0.0;0.0;0.0;0.0;0.0;0.0;0.0;0.0;
46;46_d45c541fdbf7ce30d8c70adc75f0fe575b9fcf60-FRAGMENT.arff;BR;3.0;3.0;1.0;3.0;1.0;0.0;0.0;0.0;0.0;0.0;0.0;3.0;1.0;0.0;0.0;0.0;0.0;0.0;0.0;0.0;0.0;
46;46_d45c541fdbf7ce30d8c70adc75f0fe575b9fcf60-FRAGMENT.arff;LP;3.0;3.0;1.0;0.0;0.0;3.0;1.0;0.0;0.0;0.0;0.0;3.0;1.0;0.0;0.0;0.0;0.0;0.0;0.0;0.0;0.0;
46;46_d45c541fdbf7ce30d8c70adc75f0fe575b9fcf60-FRAGMENT.arff;RAkELd;3.0;3.0;1.0;3.0;1.0;0.0;0.0;0.0;0.0;0.0;0.0;3.0;1.0;0.0;0.0;0.0;0.0;0.0;0.0;0.0;0.0;
48;48_cb0eb5e198c692b57ce60602a6c0d72f5e4a7b32-FRAGMENT.arff;BR;1.0;1.0;1.0;1.0;1.0;0.0;0.0;0.0;0.0;0.0;0.0;1.0;1.0;0.0;0.0;0.0;0.0;0.0;0.0;0.0;0.0;
48;48_cb0eb5e198c692b57ce60602a6c0d72f5e4a7b32-FRAGMENT.arff;LP;1.0;1.0;1.0;0.0;0.0;1.0;1.0;0.0;0.0;0.0;0.0;1.0;1.0;0.0;0.0;0.0;0.0;0.0;0.0;0.0;0.0;
48;48_cb0eb5e198c692b57ce60602a6c0d72f5e4a7b32-FRAGMENT.arff;RAkELd;1.0;1.0;1.0;1.0;1.0;0.0;0.0;0.0;0.0;0.0;0.0;1.0;1.0;0.0;0.0;0.0;0.0;0.0;0.0;0.0;0.0;
50;50_02ee066b1e5d40034311d3358084a56dfa7026c4-FRAGMENT.arff;BR;1.0;1.0;1.0;1.0;1.0;0.0;0.0;0.0;0.0;0.0;0.0;1.0;1.0;0.0;0.0;0.0;0.0;0.0;0.0;0.0;0.0;
50;50_02ee066b1e5d40034311d3358084a56dfa7026c4-FRAGMENT.arff;LP;1.0;1.0;1.0;0.0;0.0;1.0;1.0;0.0;0.0;0.0;0.0;1.0;1.0;0.0;0.0;0.0;0.0;0.0;0.0;0.0;0.0;
50;50_02ee066b1e5d40034311d3358084a56dfa7026c4-FRAGMENT.arff;RAkELd;1.0;1.0;1.0;1.0;1.0;0.0;0.0;0.0;0.0;0.0;0.0;1.0;1.0;0.0;0.0;0.0;0.0;0.0;0.0;0.0;0.0;
52;52_304819fbc19deb73be718f79a991e4a803022b96-FRAGMENT.arff;BR;3.0;3.0;1.0;0.0;0.0;3.0;1.0;0.0;0.0;0.0;0.0;3.0;1.0;0.0;0.0;0.0;0.0;0.0;0.0;0.0;0.0;
52;52_304819fbc19deb73be718f79a991e4a803022b96-FRAGMENT.arff;LP;3.0;3.0;1.0;0.0;0.0;3.0;1.0;0.0;0.0;0.0;0.0;3.0;1.0;0.0;0.0;0.0;0.0;0.0;0.0;0.0;0.0;
52;52_304819fbc19deb73be718f79a991e4a803022b96-FRAGMENT.arff;RAkELd;3.0;3.0;1.0;0.0;0.0;3.0;1.0;0.0;0.0;0.0;0.0;3.0;1.0;0.0;0.0;0.0;0.0;0.0;0.0;0.0;0.0;
57;57_e2ebb7c648a848fc09312c429f6339c382682ebb-FRAGMENT.arff;BR;5.0;5.0;1.0;0.0;0.0;5.0;1.0;0.0;0.0;0.0;0.0;5.0;1.0;0.0;0.0;0.0;0.0;0.0;0.0;0.0;0.0;
57;57_e2ebb7c648a848fc09312c429f6339c382682ebb-FRAGMENT.arff;LP;5.0;5.0;1.0;0.0;0.0;5.0;1.0;0.0;0.0;0.0;0.0;5.0;1.0;0.0;0.0;0.0;0.0;0.0;0.0;0.0;0.0;
57;57_e2ebb7c648a848fc09312c429f6339c382682ebb-FRAGMENT.arff;RAkELd;5.0;5.0;1.0;0.0;0.0;5.0;1.0;0.0;0.0;0.0;0.0;5.0;1.0;0.0;0.0;0.0;0.0;0.0;0.0;0.0;0.0;
58;58_7d391e7498c159790b9d12f34e813cc802fa45ac-FRAGMENT.arff;BR;8.0;8.0;1.0;0.0;0.0;8.0;1.0;0.0;0.0;0.0;0.0;8.0;1.0;0.0;0.0;0.0;0.0;0.0;0.0;0.0;0.0;
58;58_7d391e7498c159790b9d12f34e813cc802fa45ac-FRAGMENT.arff;LP;8.0;8.0;1.0;0.0;0.0;8.0;1.0;0.0;0.0;0.0;0.0;8.0;1.0;0.0;0.0;0.0;0.0;0.0;0.0;0.0;0.0;
58;58_7d391e7498c159790b9d12f34e813cc802fa45ac-FRAGMENT.arff;RAkELd;8.0;8.0;1.0;0.0;0.0;8.0;1.0;0.0;0.0;0.0;0.0;8.0;1.0;0.0;0.0;0.0;0.0;0.0;0.0;0.0;0.0;
60;60_5c8921a353832c216a14b874ac02156ed185de9c-FRAGMENT.arff;BR;1.0;1.0;1.0;1.0;1.0;0.0;0.0;0.0;0.0;0.0;0.0;1.0;1.0;0.0;0.0;0.0;0.0;0.0;0.0;0.0;0.0;
60;60_5c8921a353832c216a14b874ac02156ed185de9c-FRAGMENT.arff;LP;1.0;1.0;1.0;0.0;0.0;1.0;1.0;0.0;0.0;0.0;0.0;1.0;1.0;0.0;0.0;0.0;0.0;0.0;0.0;0.0;0.0;
60;60_5c8921a353832c216a14b874ac02156ed185de9c-FRAGMENT.arff;RAkELd;1.0;1.0;1.0;1.0;1.0;0.0;0.0;0.0;0.0;0.0;0.0;1.0;1.0;0.0;0.0;0.0;0.0;0.0;0.0;0.0;0.0;
62;62_47ca9f47c109e4e4abd6915ff51dad1f1bcad661-FRAGMENT.arff;BR;2.0;2.0;1.0;2.0;1.0;0.0;0.0;0.0;0.0;0.0;0.0;2.0;1.0;0.0;0.0;0.0;0.0;0.0;0.0;0.0;0.0;
62;62_47ca9f47c109e4e4abd6915ff51dad1f1bcad661-FRAGMENT.arff;LP;2.0;2.0;1.0;0.0;0.0;2.0;1.0;0.0;0.0;0.0;0.0;2.0;1.0;0.0;0.0;0.0;0.0;0.0;0.0;0.0;0.0;
62;62_47ca9f47c109e4e4abd6915ff51dad1f1bcad661-FRAGMENT.arff;RAkELd;2.0;2.0;1.0;2.0;1.0;0.0;0.0;0.0;0.0;0.0;0.0;2.0;1.0;0.0;0.0;0.0;0.0;0.0;0.0;0.0;0.0;
70;70_0ad5e0462afc0de4d76e557707f4f6cb903a266b-FRAGMENT.arff;BR;1.0;1.0;1.0;1.0;1.0;0.0;0.0;0.0;0.0;0.0;0.0;1.0;1.0;0.0;0.0;0.0;0.0;0.0;0.0;0.0;0.0;
70;70_0ad5e0462afc0de4d76e557707f4f6cb903a266b-FRAGMENT.arff;LP;1.0;1.0;1.0;0.0;0.0;1.0;1.0;0.0;0.0;0.0;0.0;1.0;1.0;0.0;0.0;0.0;0.0;0.0;0.0;0.0;0.0;
70;70_0ad5e0462afc0de4d76e557707f4f6cb903a266b-FRAGMENT.arff;RAkELd;1.0;1.0;1.0;1.0;1.0;0.0;0.0;0.0;0.0;0.0;0.0;1.0;1.0;0.0;0.0;0.0;0.0;0.0;0.0;0.0;0.0;
75;75_010cceb24fc82a9d43289b076c928e50d12913e9-FRAGMENT.arff;BR;3.0;3.0;1.0;3.0;1.0;0.0;0.0;0.0;0.0;0.0;0.0;3.0;1.0;0.0;0.0;0.0;0.0;0.0;0.0;0.0;0.0;
75;75_010cceb24fc82a9d43289b076c928e50d12913e9-FRAGMENT.arff;LP;3.0;3.0;1.0;0.0;0.0;3.0;1.0;0.0;0.0;0.0;0.0;3.0;1.0;0.0;0.0;0.0;0.0;0.0;0.0;0.0;0.0;
75;75_010cceb24fc82a9d43289b076c928e50d12913e9-FRAGMENT.arff;RAkELd;3.0;3.0;1.0;3.0;1.0;0.0;0.0;0.0;0.0;0.0;0.0;3.0;1.0;0.0;0.0;0.0;0.0;0.0;0.0;0.0;0.0;
81;81_f94e24632aadae446484c6d8b51b120131f5afc1-FRAGMENT.arff;BR;2.0;2.0;1.0;2.0;1.0;0.0;0.0;0.0;0.0;0.0;0.0;2.0;1.0;0.0;0.0;0.0;0.0;0.0;0.0;0.0;0.0;
81;81_f94e24632aadae446484c6d8b51b120131f5afc1-FRAGMENT.arff;LP;2.0;2.0;1.0;0.0;0.0;2.0;1.0;0.0;0.0;0.0;0.0;2.0;1.0;0.0;0.0;0.0;0.0;0.0;0.0;0.0;0.0;
81;81_f94e24632aadae446484c6d8b51b120131f5afc1-FRAGMENT.arff;RAkELd;2.0;2.0;1.0;0.0;0.0;2.0;1.0;0.0;0.0;0.0;0.0;2.0;1.0;0.0;0.0;0.0;0.0;0.0;0.0;0.0;0.0;
82;82_25c3438edc12719ad9c9df8975108dfc8de0792c-FRAGMENT.arff;BR;1.0;1.0;1.0;1.0;1.0;0.0;0.0;0.0;0.0;0.0;0.0;1.0;1.0;0.0;0.0;0.0;0.0;0.0;0.0;0.0;0.0;
82;82_25c3438edc12719ad9c9df8975108dfc8de0792c-FRAGMENT.arff;LP;1.0;1.0;1.0;0.0;0.0;1.0;1.0;0.0;0.0;0.0;0.0;1.0;1.0;0.0;0.0;0.0;0.0;0.0;0.0;0.0;0.0;
82;82_25c3438edc12719ad9c9df8975108dfc8de0792c-FRAGMENT.arff;RAkELd;1.0;1.0;1.0;1.0;1.0;0.0;0.0;0.0;0.0;0.0;0.0;1.0;1.0;0.0;0.0;0.0;0.0;0.0;0.0;0.0;0.0;
93;93_51c56763d267cfd3d2016eff243959ace415df47-FRAGMENT.arff;BR;5.0;5.0;1.0;1.0;0.2;4.0;0.8;0.0;0.0;0.0;0.0;5.0;1.0;0.0;0.0;0.0;0.0;0.0;0.0;0.0;0.0;
93;93_51c56763d267cfd3d2016eff243959ace415df47-FRAGMENT.arff;LP;5.0;5.0;1.0;0.0;0.0;5.0;1.0;0.0;0.0;0.0;0.0;5.0;1.0;0.0;0.0;0.0;0.0;0.0;0.0;0.0;0.0;
93;93_51c56763d267cfd3d2016eff243959ace415df47-FRAGMENT.arff;RAkELd;5.0;5.0;1.0;1.0;0.2;4.0;0.8;0.0;0.0;0.0;0.0;5.0;1.0;0.0;0.0;0.0;0.0;0.0;0.0;0.0;0.0;
97;97_2b57726f7934d9ee1ccb19bbb5abb2bf01d9153c-FRAGMENT.arff;BR;3.0;3.0;1.0;3.0;1.0;0.0;0.0;0.0;0.0;0.0;0.0;3.0;1.0;0.0;0.0;0.0;0.0;0.0;0.0;0.0;0.0;
97;97_2b57726f7934d9ee1ccb19bbb5abb2bf01d9153c-FRAGMENT.arff;LP;3.0;3.0;1.0;0.0;0.0;3.0;1.0;0.0;0.0;0.0;0.0;3.0;1.0;0.0;0.0;0.0;0.0;0.0;0.0;0.0;0.0;
97;97_2b57726f7934d9ee1ccb19bbb5abb2bf01d9153c-FRAGMENT.arff;RAkELd;3.0;3.0;1.0;3.0;1.0;0.0;0.0;0.0;0.0;0.0;0.0;3.0;1.0;0.0;0.0;0.0;0.0;0.0;0.0;0.0;0.0;
99;99_f3af85706152f7ed475251b916fc57b1790c4e41-FRAGMENT.arff;BR;1.0;1.0;1.0;1.0;1.0;0.0;0.0;0.0;0.0;0.0;0.0;1.0;1.0;0.0;0.0;0.0;0.0;0.0;0.0;0.0;0.0;
99;99_f3af85706152f7ed475251b916fc57b1790c4e41-FRAGMENT.arff;LP;1.0;1.0;1.0;0.0;0.0;1.0;1.0;0.0;0.0;0.0;0.0;1.0;1.0;0.0;0.0;0.0;0.0;0.0;0.0;0.0;0.0;
99;99_f3af85706152f7ed475251b916fc57b1790c4e41-FRAGMENT.arff;RAkELd;1.0;1.0;1.0;1.0;1.0;0.0;0.0;0.0;0.0;0.0;0.0;1.0;1.0;0.0;0.0;0.0;0.0;0.0;0.0;0.0;0.0;
103;103_26b530cf19618fc08603a25417524d4428a10a1b-FRAGMENT.arff;BR;2.0;2.0;1.0;0.0;0.0;2.0;1.0;0.0;0.0;0.0;0.0;2.0;1.0;0.0;0.0;0.0;0.0;0.0;0.0;0.0;0.0;
103;103_26b530cf19618fc08603a25417524d4428a10a1b-FRAGMENT.arff;LP;2.0;2.0;1.0;0.0;0.0;2.0;1.0;0.0;0.0;0.0;0.0;2.0;1.0;0.0;0.0;0.0;0.0;0.0;0.0;0.0;0.0;
103;103_26b530cf19618fc08603a25417524d4428a10a1b-FRAGMENT.arff;RAkELd;2.0;2.0;1.0;0.0;0.0;2.0;1.0;0.0;0.0;0.0;0.0;2.0;1.0;0.0;0.0;0.0;0.0;0.0;0.0;0.0;0.0;
104;104_5d6b0dbf7f752c9dcb02506d2fb070e9c5f17f10-FRAGMENT.arff;BR;8.0;8.0;1.0;0.0;0.0;8.0;1.0;0.0;0.0;0.0;0.0;8.0;1.0;0.0;0.0;0.0;0.0;0.0;0.0;0.0;0.0;
104;104_5d6b0dbf7f752c9dcb02506d2fb070e9c5f17f10-FRAGMENT.arff;LP;8.0;8.0;1.0;0.0;0.0;8.0;1.0;0.0;0.0;0.0;0.0;8.0;1.0;0.0;0.0;0.0;0.0;0.0;0.0;0.0;0.0;
104;104_5d6b0dbf7f752c9dcb02506d2fb070e9c5f17f10-FRAGMENT.arff;RAkELd;8.0;8.0;1.0;0.0;0.0;8.0;1.0;0.0;0.0;0.0;0.0;8.0;1.0;0.0;0.0;0.0;0.0;0.0;0.0;0.0;0.0;
105;105_cd79484caaf9c1fb956a22bcf9ac73e32b4470b6-FRAGMENT.arff;BR;12.0;12.0;1.0;0.0;0.0;12.0;1.0;0.0;0.0;0.0;0.0;12.0;1.0;0.0;0.0;0.0;0.0;0.0;0.0;0.0;0.0;
105;105_cd79484caaf9c1fb956a22bcf9ac73e32b4470b6-FRAGMENT.arff;LP;12.0;12.0;1.0;0.0;0.0;12.0;1.0;0.0;0.0;0.0;0.0;12.0;1.0;0.0;0.0;0.0;0.0;0.0;0.0;0.0;0.0;
105;105_cd79484caaf9c1fb956a22bcf9ac73e32b4470b6-FRAGMENT.arff;RAkELd;12.0;12.0;1.0;0.0;0.0;12.0;1.0;0.0;0.0;0.0;0.0;12.0;1.0;0.0;0.0;0.0;0.0;0.0;0.0;0.0;0.0;
106;106_253839ab2e7c55e2ca990769f3dd03fadc3ffde2-FRAGMENT.arff;BR;3.0;3.0;1.0;3.0;1.0;0.0;0.0;0.0;0.0;0.0;0.0;3.0;1.0;0.0;0.0;0.0;0.0;0.0;0.0;0.0;0.0;
106;106_253839ab2e7c55e2ca990769f3dd03fadc3ffde2-FRAGMENT.arff;LP;3.0;3.0;1.0;0.0;0.0;3.0;1.0;0.0;0.0;0.0;0.0;3.0;1.0;0.0;0.0;0.0;0.0;0.0;0.0;0.0;0.0;
106;106_253839ab2e7c55e2ca990769f3dd03fadc3ffde2-FRAGMENT.arff;RAkELd;3.0;3.0;1.0;3.0;1.0;0.0;0.0;0.0;0.0;0.0;0.0;3.0;1.0;0.0;0.0;0.0;0.0;0.0;0.0;0.0;0.0;
110;110_08e898dcab65a9ee8a3bf367e9eaf8d45e5ee42f-FRAGMENT.arff;BR;2.0;2.0;1.0;2.0;1.0;0.0;0.0;0.0;0.0;0.0;0.0;2.0;1.0;0.0;0.0;0.0;0.0;0.0;0.0;0.0;0.0;
110;110_08e898dcab65a9ee8a3bf367e9eaf8d45e5ee42f-FRAGMENT.arff;LP;2.0;2.0;1.0;0.0;0.0;2.0;1.0;0.0;0.0;0.0;0.0;2.0;1.0;0.0;0.0;0.0;0.0;0.0;0.0;0.0;0.0;
110;110_08e898dcab65a9ee8a3bf367e9eaf8d45e5ee42f-FRAGMENT.arff;RAkELd;2.0;2.0;1.0;2.0;1.0;0.0;0.0;0.0;0.0;0.0;0.0;2.0;1.0;0.0;0.0;0.0;0.0;0.0;0.0;0.0;0.0;
112;112_47cc1b5c956bf7c54d8f8b04880e6e8bb1b847a5-FRAGMENT.arff;BR;1.0;1.0;1.0;1.0;1.0;0.0;0.0;0.0;0.0;0.0;0.0;1.0;1.0;0.0;0.0;0.0;0.0;0.0;0.0;0.0;0.0;
112;112_47cc1b5c956bf7c54d8f8b04880e6e8bb1b847a5-FRAGMENT.arff;LP;1.0;1.0;1.0;0.0;0.0;1.0;1.0;0.0;0.0;0.0;0.0;1.0;1.0;0.0;0.0;0.0;0.0;0.0;0.0;0.0;0.0;
112;112_47cc1b5c956bf7c54d8f8b04880e6e8bb1b847a5-FRAGMENT.arff;RAkELd;1.0;1.0;1.0;1.0;1.0;0.0;0.0;0.0;0.0;0.0;0.0;1.0;1.0;0.0;0.0;0.0;0.0;0.0;0.0;0.0;0.0;
113;113_44854e5b60aa6690a1eec54dd04ea8217568445f-FRAGMENT.arff;BR;3.0;3.0;1.0;0.0;0.0;3.0;1.0;0.0;0.0;0.0;0.0;3.0;1.0;0.0;0.0;0.0;0.0;0.0;0.0;0.0;0.0;
113;113_44854e5b60aa6690a1eec54dd04ea8217568445f-FRAGMENT.arff;LP;3.0;3.0;1.0;0.0;0.0;3.0;1.0;0.0;0.0;0.0;0.0;3.0;1.0;0.0;0.0;0.0;0.0;0.0;0.0;0.0;0.0;
113;113_44854e5b60aa6690a1eec54dd04ea8217568445f-FRAGMENT.arff;RAkELd;3.0;3.0;1.0;1.0;0.3333333333333333;2.0;0.6666666666666666;0.0;0.0;0.0;0.0;3.0;1.0;0.0;0.0;0.0;0.0;0.0;0.0;0.0;0.0;
114;114_a7f8bf60bc8c5b8370dfad5d695440be3ae08b91-FRAGMENT.arff;BR;5.0;5.0;1.0;2.0;0.4;3.0;0.6;0.0;0.0;0.0;0.0;5.0;1.0;0.0;0.0;0.0;0.0;0.0;0.0;0.0;0.0;
114;114_a7f8bf60bc8c5b8370dfad5d695440be3ae08b91-FRAGMENT.arff;LP;5.0;5.0;1.0;0.0;0.0;5.0;1.0;0.0;0.0;0.0;0.0;5.0;1.0;0.0;0.0;0.0;0.0;0.0;0.0;0.0;0.0;
114;114_a7f8bf60bc8c5b8370dfad5d695440be3ae08b91-FRAGMENT.arff;RAkELd;5.0;5.0;1.0;2.0;0.4;3.0;0.6;0.0;0.0;0.0;0.0;5.0;1.0;0.0;0.0;0.0;0.0;0.0;0.0;0.0;0.0;
116;116_bf5747f3c7386b6dc7e8c5753e9fff36ebcf935a-FRAGMENT.arff;BR;5.0;5.0;1.0;5.0;1.0;0.0;0.0;0.0;0.0;0.0;0.0;5.0;1.0;0.0;0.0;0.0;0.0;0.0;0.0;0.0;0.0;
116;116_bf5747f3c7386b6dc7e8c5753e9fff36ebcf935a-FRAGMENT.arff;LP;5.0;5.0;1.0;0.0;0.0;5.0;1.0;0.0;0.0;0.0;0.0;5.0;1.0;0.0;0.0;0.0;0.0;0.0;0.0;0.0;0.0;
116;116_bf5747f3c7386b6dc7e8c5753e9fff36ebcf935a-FRAGMENT.arff;RAkELd;5.0;5.0;1.0;5.0;1.0;0.0;0.0;0.0;0.0;0.0;0.0;5.0;1.0;0.0;0.0;0.0;0.0;0.0;0.0;0.0;0.0;
118;118_c8548a4cb8c0db415cb1ba31cebb174dd8db9658-FRAGMENT.arff;BR;2.0;2.0;1.0;2.0;1.0;0.0;0.0;0.0;0.0;0.0;0.0;2.0;1.0;0.0;0.0;0.0;0.0;0.0;0.0;0.0;0.0;
118;118_c8548a4cb8c0db415cb1ba31cebb174dd8db9658-FRAGMENT.arff;LP;2.0;2.0;1.0;0.0;0.0;2.0;1.0;0.0;0.0;0.0;0.0;2.0;1.0;0.0;0.0;0.0;0.0;0.0;0.0;0.0;0.0;
118;118_c8548a4cb8c0db415cb1ba31cebb174dd8db9658-FRAGMENT.arff;RAkELd;2.0;2.0;1.0;2.0;1.0;0.0;0.0;0.0;0.0;0.0;0.0;2.0;1.0;0.0;0.0;0.0;0.0;0.0;0.0;0.0;0.0;
119;119_23bded8568a0eac403b2b4cb845569bf1fddbf8f-FRAGMENT.arff;BR;5.0;5.0;1.0;1.0;0.2;4.0;0.8;0.0;0.0;0.0;0.0;5.0;1.0;0.0;0.0;0.0;0.0;0.0;0.0;0.0;0.0;
119;119_23bded8568a0eac403b2b4cb845569bf1fddbf8f-FRAGMENT.arff;LP;5.0;5.0;1.0;0.0;0.0;5.0;1.0;0.0;0.0;0.0;0.0;5.0;1.0;0.0;0.0;0.0;0.0;0.0;0.0;0.0;0.0;
119;119_23bded8568a0eac403b2b4cb845569bf1fddbf8f-FRAGMENT.arff;RAkELd;5.0;5.0;1.0;1.0;0.2;4.0;0.8;0.0;0.0;0.0;0.0;5.0;1.0;0.0;0.0;0.0;0.0;0.0;0.0;0.0;0.0;
122;122_71556e444e7f607c3c7a0a5b3b7936e0fc4a25d2-FRAGMENT.arff;BR;7.0;7.0;1.0;2.0;0.2857142857142857;5.0;0.7142857142857143;0.0;0.0;0.0;0.0;7.0;1.0;0.0;0.0;0.0;0.0;0.0;0.0;0.0;0.0;
122;122_71556e444e7f607c3c7a0a5b3b7936e0fc4a25d2-FRAGMENT.arff;LP;7.0;7.0;1.0;0.0;0.0;7.0;1.0;0.0;0.0;0.0;0.0;7.0;1.0;0.0;0.0;0.0;0.0;0.0;0.0;0.0;0.0;
122;122_71556e444e7f607c3c7a0a5b3b7936e0fc4a25d2-FRAGMENT.arff;RAkELd;7.0;7.0;1.0;2.0;0.2857142857142857;5.0;0.7142857142857143;0.0;0.0;0.0;0.0;7.0;1.0;0.0;0.0;0.0;0.0;0.0;0.0;0.0;0.0;
123;123_9ccf038555eba2891b6eec37d668189827ab4e70-FRAGMENT.arff;BR;2.0;2.0;1.0;2.0;1.0;0.0;0.0;0.0;0.0;0.0;0.0;2.0;1.0;0.0;0.0;0.0;0.0;0.0;0.0;0.0;0.0;
123;123_9ccf038555eba2891b6eec37d668189827ab4e70-FRAGMENT.arff;LP;2.0;2.0;1.0;0.0;0.0;2.0;1.0;0.0;0.0;0.0;0.0;2.0;1.0;0.0;0.0;0.0;0.0;0.0;0.0;0.0;0.0;
123;123_9ccf038555eba2891b6eec37d668189827ab4e70-FRAGMENT.arff;RAkELd;2.0;2.0;1.0;2.0;1.0;0.0;0.0;0.0;0.0;0.0;0.0;2.0;1.0;0.0;0.0;0.0;0.0;0.0;0.0;0.0;0.0;
130;130_45106ed76f9cdc9d1589b2802eb19ab54919c87d-FRAGMENT.arff;BR;15.0;15.0;1.0;0.0;0.0;15.0;1.0;0.0;0.0;0.0;0.0;15.0;1.0;0.0;0.0;0.0;0.0;0.0;0.0;0.0;0.0;
130;130_45106ed76f9cdc9d1589b2802eb19ab54919c87d-FRAGMENT.arff;LP;15.0;15.0;1.0;0.0;0.0;15.0;1.0;0.0;0.0;0.0;0.0;15.0;1.0;0.0;0.0;0.0;0.0;0.0;0.0;0.0;0.0;
130;130_45106ed76f9cdc9d1589b2802eb19ab54919c87d-FRAGMENT.arff;RAkELd;15.0;15.0;1.0;0.0;0.0;15.0;1.0;0.0;0.0;0.0;0.0;15.0;1.0;0.0;0.0;0.0;0.0;0.0;0.0;0.0;0.0;
131;131_e332e9f9b143ad17df21ef912004469f3e4fa940-FRAGMENT.arff;BR;2.0;2.0;1.0;2.0;1.0;0.0;0.0;0.0;0.0;0.0;0.0;2.0;1.0;0.0;0.0;0.0;0.0;0.0;0.0;0.0;0.0;
131;131_e332e9f9b143ad17df21ef912004469f3e4fa940-FRAGMENT.arff;LP;2.0;2.0;1.0;0.0;0.0;2.0;1.0;0.0;0.0;0.0;0.0;2.0;1.0;0.0;0.0;0.0;0.0;0.0;0.0;0.0;0.0;
131;131_e332e9f9b143ad17df21ef912004469f3e4fa940-FRAGMENT.arff;RAkELd;2.0;2.0;1.0;2.0;1.0;0.0;0.0;0.0;0.0;0.0;0.0;2.0;1.0;0.0;0.0;0.0;0.0;0.0;0.0;0.0;0.0;
132;132_21897206d6bea04514168c8ee2b397b251891703-FRAGMENT.arff;BR;1.0;1.0;1.0;1.0;1.0;0.0;0.0;0.0;0.0;0.0;0.0;1.0;1.0;0.0;0.0;0.0;0.0;0.0;0.0;0.0;0.0;
132;132_21897206d6bea04514168c8ee2b397b251891703-FRAGMENT.arff;LP;1.0;1.0;1.0;0.0;0.0;1.0;1.0;0.0;0.0;0.0;0.0;1.0;1.0;0.0;0.0;0.0;0.0;0.0;0.0;0.0;0.0;
132;132_21897206d6bea04514168c8ee2b397b251891703-FRAGMENT.arff;RAkELd;1.0;1.0;1.0;1.0;1.0;0.0;0.0;0.0;0.0;0.0;0.0;1.0;1.0;0.0;0.0;0.0;0.0;0.0;0.0;0.0;0.0;
133;133_eed925f6fd6ba29f48c1d9430199eb3a133a1718-FRAGMENT.arff;BR;1.0;1.0;1.0;0.0;0.0;1.0;1.0;0.0;0.0;0.0;0.0;1.0;1.0;0.0;0.0;0.0;0.0;0.0;0.0;0.0;0.0;
133;133_eed925f6fd6ba29f48c1d9430199eb3a133a1718-FRAGMENT.arff;LP;1.0;1.0;1.0;0.0;0.0;1.0;1.0;0.0;0.0;0.0;0.0;1.0;1.0;0.0;0.0;0.0;0.0;0.0;0.0;0.0;0.0;
133;133_eed925f6fd6ba29f48c1d9430199eb3a133a1718-FRAGMENT.arff;RAkELd;1.0;1.0;1.0;0.0;0.0;1.0;1.0;0.0;0.0;0.0;0.0;1.0;1.0;0.0;0.0;0.0;0.0;0.0;0.0;0.0;0.0;
141;141_1cba78c084f25b4702ff8d3bf5685a07f646d590-FRAGMENT.arff;BR;8.0;8.0;1.0;0.0;0.0;8.0;1.0;0.0;0.0;0.0;0.0;8.0;1.0;0.0;0.0;0.0;0.0;0.0;0.0;0.0;0.0;
141;141_1cba78c084f25b4702ff8d3bf5685a07f646d590-FRAGMENT.arff;LP;8.0;8.0;1.0;0.0;0.0;8.0;1.0;0.0;0.0;0.0;0.0;8.0;1.0;0.0;0.0;0.0;0.0;0.0;0.0;0.0;0.0;
141;141_1cba78c084f25b4702ff8d3bf5685a07f646d590-FRAGMENT.arff;RAkELd;8.0;8.0;1.0;0.0;0.0;8.0;1.0;0.0;0.0;0.0;0.0;8.0;1.0;0.0;0.0;0.0;0.0;0.0;0.0;0.0;0.0;
142;142_0280ab38969b3c6269755d7bd2cf1ab323685e30-FRAGMENT.arff;BR;10.0;10.0;1.0;10.0;1.0;0.0;0.0;0.0;0.0;0.0;0.0;10.0;1.0;0.0;0.0;0.0;0.0;0.0;0.0;0.0;0.0;
142;142_0280ab38969b3c6269755d7bd2cf1ab323685e30-FRAGMENT.arff;LP;10.0;10.0;1.0;0.0;0.0;10.0;1.0;0.0;0.0;0.0;0.0;10.0;1.0;0.0;0.0;0.0;0.0;0.0;0.0;0.0;0.0;
142;142_0280ab38969b3c6269755d7bd2cf1ab323685e30-FRAGMENT.arff;RAkELd;10.0;10.0;1.0;10.0;1.0;0.0;0.0;0.0;0.0;0.0;0.0;10.0;1.0;0.0;0.0;0.0;0.0;0.0;0.0;0.0;0.0;
144;144_cca9e429d7679036e56d37c26938abd78813e864-FRAGMENT.arff;BR;1.0;1.0;1.0;1.0;1.0;0.0;0.0;0.0;0.0;0.0;0.0;1.0;1.0;0.0;0.0;0.0;0.0;0.0;0.0;0.0;0.0;
144;144_cca9e429d7679036e56d37c26938abd78813e864-FRAGMENT.arff;LP;1.0;1.0;1.0;0.0;0.0;1.0;1.0;0.0;0.0;0.0;0.0;1.0;1.0;0.0;0.0;0.0;0.0;0.0;0.0;0.0;0.0;
144;144_cca9e429d7679036e56d37c26938abd78813e864-FRAGMENT.arff;RAkELd;1.0;1.0;1.0;1.0;1.0;0.0;0.0;0.0;0.0;0.0;0.0;1.0;1.0;0.0;0.0;0.0;0.0;0.0;0.0;0.0;0.0;
146;146_2474f804ebd37486ad8f83690c6cf189fa95053c-FRAGMENT.arff;BR;3.0;3.0;1.0;0.0;0.0;3.0;1.0;0.0;0.0;0.0;0.0;3.0;1.0;0.0;0.0;0.0;0.0;0.0;0.0;0.0;0.0;
146;146_2474f804ebd37486ad8f83690c6cf189fa95053c-FRAGMENT.arff;LP;3.0;3.0;1.0;0.0;0.0;3.0;1.0;0.0;0.0;0.0;0.0;3.0;1.0;0.0;0.0;0.0;0.0;0.0;0.0;0.0;0.0;
146;146_2474f804ebd37486ad8f83690c6cf189fa95053c-FRAGMENT.arff;RAkELd;3.0;3.0;1.0;0.0;0.0;3.0;1.0;0.0;0.0;0.0;0.0;3.0;1.0;0.0;0.0;0.0;0.0;0.0;0.0;0.0;0.0;
