commit;DataSet;Classifier;TotalInstances;InstancesWithRankedLabels;PercentageOfInstancesWithRankedLabels;InstancesWithPrecisionNull;PercentageOfInstancesWithPrecisionNull;InstancesWithPrecisionZero;PercentageOfInstancesWithPrecisionZero;InstancesWithPrecisionNonZero;PercentageOfInstancesWithPrecisionNonZero;InstancesWithPrecisionOne;PercentageOfInstancesWithPrecisionOne;InstancesWithRecallZero;PercentageOfInstancesWithRecallZero;InstancesWithRecallOne;PercentageOfInstancesWithRecallOne;AveragePrecisionForAllNonNullPrecision;AveragePrecisionForNonZeroPrecision;AverageRecallForAllNonNullPrecision;AverageRecallForAllNonZeroPrecision;AverageFScoreForAllNonNullPrecision;AverageFScoreForAllNonZeroPrecision;
13;13_d5d0e5ae9860139e5e5dc1b43a352f4dd288f118-LOC.arff;BR;10.0;10.0;1.0;0.0;0.0;0.0;0.0;10.0;1.0;10.0;1.0;0.0;0.0;10.0;1.0;1.0;1.0;1.0;1.0;1.0;1.0;
13;13_d5d0e5ae9860139e5e5dc1b43a352f4dd288f118-LOC.arff;LP;10.0;10.0;1.0;0.0;0.0;0.0;0.0;10.0;1.0;10.0;1.0;0.0;0.0;10.0;1.0;1.0;1.0;1.0;1.0;1.0;1.0;
13;13_d5d0e5ae9860139e5e5dc1b43a352f4dd288f118-LOC.arff;RAkELd;10.0;10.0;1.0;0.0;0.0;0.0;0.0;10.0;1.0;10.0;1.0;0.0;0.0;10.0;1.0;1.0;1.0;1.0;1.0;1.0;1.0;
18;18_9c01146cc3688b8fcadf62cf9f2007f30b590207-LOC.arff;BR;17.0;17.0;1.0;0.0;0.0;17.0;1.0;0.0;0.0;0.0;0.0;17.0;1.0;0.0;0.0;0.0;0.0;0.0;0.0;0.0;0.0;
18;18_9c01146cc3688b8fcadf62cf9f2007f30b590207-LOC.arff;LP;17.0;17.0;1.0;0.0;0.0;17.0;1.0;0.0;0.0;0.0;0.0;17.0;1.0;0.0;0.0;0.0;0.0;0.0;0.0;0.0;0.0;
18;18_9c01146cc3688b8fcadf62cf9f2007f30b590207-LOC.arff;RAkELd;17.0;17.0;1.0;0.0;0.0;17.0;1.0;0.0;0.0;0.0;0.0;17.0;1.0;0.0;0.0;0.0;0.0;0.0;0.0;0.0;0.0;
28;28_f6bf996a7d4bfeb2cfeab84896eb0631fbf88e4f-LOC.arff;BR;1.0;1.0;1.0;1.0;1.0;0.0;0.0;0.0;0.0;0.0;0.0;1.0;1.0;0.0;0.0;0.0;0.0;0.0;0.0;0.0;0.0;
28;28_f6bf996a7d4bfeb2cfeab84896eb0631fbf88e4f-LOC.arff;LP;1.0;1.0;1.0;0.0;0.0;1.0;1.0;0.0;0.0;0.0;0.0;1.0;1.0;0.0;0.0;0.0;0.0;0.0;0.0;0.0;0.0;
28;28_f6bf996a7d4bfeb2cfeab84896eb0631fbf88e4f-LOC.arff;RAkELd;1.0;1.0;1.0;1.0;1.0;0.0;0.0;0.0;0.0;0.0;0.0;1.0;1.0;0.0;0.0;0.0;0.0;0.0;0.0;0.0;0.0;
29;29_00bd8afd45be85194beddfb00e9637f136798350-LOC.arff;BR;23.0;23.0;1.0;23.0;1.0;0.0;0.0;0.0;0.0;0.0;0.0;23.0;1.0;0.0;0.0;0.0;0.0;0.0;0.0;0.0;0.0;
29;29_00bd8afd45be85194beddfb00e9637f136798350-LOC.arff;LP;23.0;23.0;1.0;0.0;0.0;23.0;1.0;0.0;0.0;0.0;0.0;23.0;1.0;0.0;0.0;0.0;0.0;0.0;0.0;0.0;0.0;
29;29_00bd8afd45be85194beddfb00e9637f136798350-LOC.arff;RAkELd;23.0;23.0;1.0;23.0;1.0;0.0;0.0;0.0;0.0;0.0;0.0;23.0;1.0;0.0;0.0;0.0;0.0;0.0;0.0;0.0;0.0;
30;30_93ed28c22e1489c938896d31e8a74124d2660605-LOC.arff;BR;38.0;38.0;1.0;0.0;0.0;19.0;0.5;19.0;0.5;19.0;0.5;19.0;0.5;19.0;0.5;0.5;1.0;0.5;1.0;0.5;1.0;
30;30_93ed28c22e1489c938896d31e8a74124d2660605-LOC.arff;LP;38.0;38.0;1.0;0.0;0.0;38.0;1.0;0.0;0.0;0.0;0.0;38.0;1.0;0.0;0.0;0.0;0.0;0.0;0.0;0.0;0.0;
30;30_93ed28c22e1489c938896d31e8a74124d2660605-LOC.arff;RAkELd;38.0;38.0;1.0;0.0;0.0;19.0;0.5;19.0;0.5;19.0;0.5;19.0;0.5;19.0;0.5;0.5;1.0;0.5;1.0;0.5;1.0;
33;33_dd1c4bef414299c4ed1ad521dbb88e36a1a92055-LOC.arff;BR;10.0;10.0;1.0;8.0;0.8;2.0;0.2;0.0;0.0;0.0;0.0;10.0;1.0;0.0;0.0;0.0;0.0;0.0;0.0;0.0;0.0;
33;33_dd1c4bef414299c4ed1ad521dbb88e36a1a92055-LOC.arff;LP;10.0;10.0;1.0;0.0;0.0;10.0;1.0;0.0;0.0;0.0;0.0;10.0;1.0;0.0;0.0;0.0;0.0;0.0;0.0;0.0;0.0;
33;33_dd1c4bef414299c4ed1ad521dbb88e36a1a92055-LOC.arff;RAkELd;10.0;10.0;1.0;8.0;0.8;2.0;0.2;0.0;0.0;0.0;0.0;10.0;1.0;0.0;0.0;0.0;0.0;0.0;0.0;0.0;0.0;
46;46_d45c541fdbf7ce30d8c70adc75f0fe575b9fcf60-LOC.arff;BR;2.0;2.0;1.0;2.0;1.0;0.0;0.0;0.0;0.0;0.0;0.0;2.0;1.0;0.0;0.0;0.0;0.0;0.0;0.0;0.0;0.0;
46;46_d45c541fdbf7ce30d8c70adc75f0fe575b9fcf60-LOC.arff;LP;2.0;2.0;1.0;0.0;0.0;2.0;1.0;0.0;0.0;0.0;0.0;2.0;1.0;0.0;0.0;0.0;0.0;0.0;0.0;0.0;0.0;
46;46_d45c541fdbf7ce30d8c70adc75f0fe575b9fcf60-LOC.arff;RAkELd;2.0;2.0;1.0;2.0;1.0;0.0;0.0;0.0;0.0;0.0;0.0;2.0;1.0;0.0;0.0;0.0;0.0;0.0;0.0;0.0;0.0;
48;48_cb0eb5e198c692b57ce60602a6c0d72f5e4a7b32-LOC.arff;BR;2.0;2.0;1.0;0.0;0.0;2.0;1.0;0.0;0.0;0.0;0.0;2.0;1.0;0.0;0.0;0.0;0.0;0.0;0.0;0.0;0.0;
48;48_cb0eb5e198c692b57ce60602a6c0d72f5e4a7b32-LOC.arff;LP;2.0;2.0;1.0;0.0;0.0;2.0;1.0;0.0;0.0;0.0;0.0;2.0;1.0;0.0;0.0;0.0;0.0;0.0;0.0;0.0;0.0;
48;48_cb0eb5e198c692b57ce60602a6c0d72f5e4a7b32-LOC.arff;RAkELd;2.0;2.0;1.0;0.0;0.0;2.0;1.0;0.0;0.0;0.0;0.0;2.0;1.0;0.0;0.0;0.0;0.0;0.0;0.0;0.0;0.0;
50;50_02ee066b1e5d40034311d3358084a56dfa7026c4-LOC.arff;BR;2.0;2.0;1.0;0.0;0.0;0.0;0.0;2.0;1.0;2.0;1.0;0.0;0.0;2.0;1.0;1.0;1.0;1.0;1.0;1.0;1.0;
50;50_02ee066b1e5d40034311d3358084a56dfa7026c4-LOC.arff;LP;2.0;2.0;1.0;0.0;0.0;0.0;0.0;2.0;1.0;2.0;1.0;0.0;0.0;2.0;1.0;1.0;1.0;1.0;1.0;1.0;1.0;
50;50_02ee066b1e5d40034311d3358084a56dfa7026c4-LOC.arff;RAkELd;2.0;2.0;1.0;0.0;0.0;0.0;0.0;2.0;1.0;2.0;1.0;0.0;0.0;2.0;1.0;1.0;1.0;1.0;1.0;1.0;1.0;
52;52_304819fbc19deb73be718f79a991e4a803022b96-LOC.arff;BR;4.0;4.0;1.0;4.0;1.0;0.0;0.0;0.0;0.0;0.0;0.0;4.0;1.0;0.0;0.0;0.0;0.0;0.0;0.0;0.0;0.0;
52;52_304819fbc19deb73be718f79a991e4a803022b96-LOC.arff;LP;4.0;4.0;1.0;0.0;0.0;0.0;0.0;4.0;1.0;4.0;1.0;0.0;0.0;4.0;1.0;1.0;1.0;1.0;1.0;1.0;1.0;
52;52_304819fbc19deb73be718f79a991e4a803022b96-LOC.arff;RAkELd;4.0;4.0;1.0;4.0;1.0;0.0;0.0;0.0;0.0;0.0;0.0;4.0;1.0;0.0;0.0;0.0;0.0;0.0;0.0;0.0;0.0;
57;57_e2ebb7c648a848fc09312c429f6339c382682ebb-LOC.arff;BR;23.0;23.0;1.0;0.0;0.0;4.0;0.17391304347826086;19.0;0.8260869565217391;18.0;0.782608695652174;4.0;0.17391304347826086;19.0;0.8260869565217391;0.8043478260869565;0.9736842105263158;0.8260869565217391;1.0;0.8115942028985508;0.9824561403508772;
57;57_e2ebb7c648a848fc09312c429f6339c382682ebb-LOC.arff;LP;23.0;23.0;1.0;0.0;0.0;20.0;0.8695652173913043;3.0;0.13043478260869565;3.0;0.13043478260869565;20.0;0.8695652173913043;3.0;0.13043478260869565;0.13043478260869565;1.0;0.13043478260869565;1.0;0.13043478260869565;1.0;
57;57_e2ebb7c648a848fc09312c429f6339c382682ebb-LOC.arff;RAkELd;23.0;23.0;1.0;0.0;0.0;0.0;0.0;23.0;1.0;0.0;0.0;0.0;0.0;23.0;1.0;0.4927536231884058;0.4927536231884058;1.0;1.0;0.6594202898550724;0.6594202898550724;
58;58_7d391e7498c159790b9d12f34e813cc802fa45ac-LOC.arff;BR;25.0;25.0;1.0;0.0;0.0;5.0;0.2;20.0;0.8;20.0;0.8;5.0;0.2;14.0;0.56;0.8;1.0;0.68;0.85;0.72;0.9;
58;58_7d391e7498c159790b9d12f34e813cc802fa45ac-LOC.arff;LP;25.0;25.0;1.0;0.0;0.0;5.0;0.2;20.0;0.8;20.0;0.8;5.0;0.2;14.0;0.56;0.8;1.0;0.68;0.85;0.72;0.9;
58;58_7d391e7498c159790b9d12f34e813cc802fa45ac-LOC.arff;RAkELd;25.0;25.0;1.0;0.0;0.0;5.0;0.2;20.0;0.8;20.0;0.8;5.0;0.2;14.0;0.56;0.8;1.0;0.68;0.85;0.72;0.9;
60;60_5c8921a353832c216a14b874ac02156ed185de9c-LOC.arff;BR;4.0;4.0;1.0;0.0;0.0;0.0;0.0;4.0;1.0;4.0;1.0;0.0;0.0;4.0;1.0;1.0;1.0;1.0;1.0;1.0;1.0;
60;60_5c8921a353832c216a14b874ac02156ed185de9c-LOC.arff;LP;4.0;4.0;1.0;0.0;0.0;0.0;0.0;4.0;1.0;4.0;1.0;0.0;0.0;4.0;1.0;1.0;1.0;1.0;1.0;1.0;1.0;
60;60_5c8921a353832c216a14b874ac02156ed185de9c-LOC.arff;RAkELd;4.0;4.0;1.0;0.0;0.0;0.0;0.0;4.0;1.0;4.0;1.0;0.0;0.0;4.0;1.0;1.0;1.0;1.0;1.0;1.0;1.0;
62;62_47ca9f47c109e4e4abd6915ff51dad1f1bcad661-LOC.arff;BR;19.0;19.0;1.0;19.0;1.0;0.0;0.0;0.0;0.0;0.0;0.0;19.0;1.0;0.0;0.0;0.0;0.0;0.0;0.0;0.0;0.0;
62;62_47ca9f47c109e4e4abd6915ff51dad1f1bcad661-LOC.arff;LP;19.0;19.0;1.0;0.0;0.0;19.0;1.0;0.0;0.0;0.0;0.0;19.0;1.0;0.0;0.0;0.0;0.0;0.0;0.0;0.0;0.0;
62;62_47ca9f47c109e4e4abd6915ff51dad1f1bcad661-LOC.arff;RAkELd;19.0;19.0;1.0;19.0;1.0;0.0;0.0;0.0;0.0;0.0;0.0;19.0;1.0;0.0;0.0;0.0;0.0;0.0;0.0;0.0;0.0;
70;70_0ad5e0462afc0de4d76e557707f4f6cb903a266b-LOC.arff;BR;4.0;4.0;1.0;0.0;0.0;4.0;1.0;0.0;0.0;0.0;0.0;4.0;1.0;0.0;0.0;0.0;0.0;0.0;0.0;0.0;0.0;
70;70_0ad5e0462afc0de4d76e557707f4f6cb903a266b-LOC.arff;LP;4.0;4.0;1.0;0.0;0.0;4.0;1.0;0.0;0.0;0.0;0.0;4.0;1.0;0.0;0.0;0.0;0.0;0.0;0.0;0.0;0.0;
70;70_0ad5e0462afc0de4d76e557707f4f6cb903a266b-LOC.arff;RAkELd;4.0;4.0;1.0;0.0;0.0;4.0;1.0;0.0;0.0;0.0;0.0;4.0;1.0;0.0;0.0;0.0;0.0;0.0;0.0;0.0;0.0;
75;75_010cceb24fc82a9d43289b076c928e50d12913e9-LOC.arff;BR;11.0;11.0;1.0;0.0;0.0;11.0;1.0;0.0;0.0;0.0;0.0;11.0;1.0;0.0;0.0;0.0;0.0;0.0;0.0;0.0;0.0;
75;75_010cceb24fc82a9d43289b076c928e50d12913e9-LOC.arff;LP;11.0;11.0;1.0;0.0;0.0;11.0;1.0;0.0;0.0;0.0;0.0;11.0;1.0;0.0;0.0;0.0;0.0;0.0;0.0;0.0;0.0;
75;75_010cceb24fc82a9d43289b076c928e50d12913e9-LOC.arff;RAkELd;11.0;11.0;1.0;0.0;0.0;11.0;1.0;0.0;0.0;0.0;0.0;11.0;1.0;0.0;0.0;0.0;0.0;0.0;0.0;0.0;0.0;
81;81_f94e24632aadae446484c6d8b51b120131f5afc1-LOC.arff;BR;4.0;4.0;1.0;0.0;0.0;4.0;1.0;0.0;0.0;0.0;0.0;4.0;1.0;0.0;0.0;0.0;0.0;0.0;0.0;0.0;0.0;
81;81_f94e24632aadae446484c6d8b51b120131f5afc1-LOC.arff;LP;4.0;4.0;1.0;0.0;0.0;4.0;1.0;0.0;0.0;0.0;0.0;4.0;1.0;0.0;0.0;0.0;0.0;0.0;0.0;0.0;0.0;
81;81_f94e24632aadae446484c6d8b51b120131f5afc1-LOC.arff;RAkELd;4.0;4.0;1.0;0.0;0.0;4.0;1.0;0.0;0.0;0.0;0.0;4.0;1.0;0.0;0.0;0.0;0.0;0.0;0.0;0.0;0.0;
82;82_25c3438edc12719ad9c9df8975108dfc8de0792c-LOC.arff;BR;5.0;5.0;1.0;5.0;1.0;0.0;0.0;0.0;0.0;0.0;0.0;5.0;1.0;0.0;0.0;0.0;0.0;0.0;0.0;0.0;0.0;
82;82_25c3438edc12719ad9c9df8975108dfc8de0792c-LOC.arff;LP;5.0;5.0;1.0;0.0;0.0;5.0;1.0;0.0;0.0;0.0;0.0;5.0;1.0;0.0;0.0;0.0;0.0;0.0;0.0;0.0;0.0;
82;82_25c3438edc12719ad9c9df8975108dfc8de0792c-LOC.arff;RAkELd;5.0;5.0;1.0;5.0;1.0;0.0;0.0;0.0;0.0;0.0;0.0;5.0;1.0;0.0;0.0;0.0;0.0;0.0;0.0;0.0;0.0;
93;93_51c56763d267cfd3d2016eff243959ace415df47-LOC.arff;BR;24.0;24.0;1.0;19.0;0.7916666666666666;5.0;0.20833333333333334;0.0;0.0;0.0;0.0;24.0;1.0;0.0;0.0;0.0;0.0;0.0;0.0;0.0;0.0;
93;93_51c56763d267cfd3d2016eff243959ace415df47-LOC.arff;LP;24.0;24.0;1.0;0.0;0.0;24.0;1.0;0.0;0.0;0.0;0.0;24.0;1.0;0.0;0.0;0.0;0.0;0.0;0.0;0.0;0.0;
93;93_51c56763d267cfd3d2016eff243959ace415df47-LOC.arff;RAkELd;24.0;24.0;1.0;15.0;0.625;9.0;0.375;0.0;0.0;0.0;0.0;24.0;1.0;0.0;0.0;0.0;0.0;0.0;0.0;0.0;0.0;
97;97_2b57726f7934d9ee1ccb19bbb5abb2bf01d9153c-LOC.arff;BR;13.0;13.0;1.0;8.0;0.6153846153846154;0.0;0.0;5.0;0.38461538461538464;5.0;0.38461538461538464;8.0;0.6153846153846154;5.0;0.38461538461538464;1.0;1.0;1.0;1.0;1.0;1.0;
97;97_2b57726f7934d9ee1ccb19bbb5abb2bf01d9153c-LOC.arff;LP;13.0;13.0;1.0;0.0;0.0;0.0;0.0;13.0;1.0;13.0;1.0;0.0;0.0;13.0;1.0;1.0;1.0;1.0;1.0;1.0;1.0;
97;97_2b57726f7934d9ee1ccb19bbb5abb2bf01d9153c-LOC.arff;RAkELd;13.0;13.0;1.0;8.0;0.6153846153846154;0.0;0.0;5.0;0.38461538461538464;5.0;0.38461538461538464;8.0;0.6153846153846154;5.0;0.38461538461538464;1.0;1.0;1.0;1.0;1.0;1.0;
99;99_f3af85706152f7ed475251b916fc57b1790c4e41-LOC.arff;BR;9.0;9.0;1.0;0.0;0.0;0.0;0.0;9.0;1.0;9.0;1.0;0.0;0.0;9.0;1.0;1.0;1.0;1.0;1.0;1.0;1.0;
99;99_f3af85706152f7ed475251b916fc57b1790c4e41-LOC.arff;LP;9.0;9.0;1.0;0.0;0.0;9.0;1.0;0.0;0.0;0.0;0.0;9.0;1.0;0.0;0.0;0.0;0.0;0.0;0.0;0.0;0.0;
99;99_f3af85706152f7ed475251b916fc57b1790c4e41-LOC.arff;RAkELd;9.0;9.0;1.0;0.0;0.0;0.0;0.0;9.0;1.0;9.0;1.0;0.0;0.0;9.0;1.0;1.0;1.0;1.0;1.0;1.0;1.0;
103;103_26b530cf19618fc08603a25417524d4428a10a1b-LOC.arff;BR;8.0;8.0;1.0;0.0;0.0;0.0;0.0;8.0;1.0;8.0;1.0;0.0;0.0;8.0;1.0;1.0;1.0;1.0;1.0;1.0;1.0;
103;103_26b530cf19618fc08603a25417524d4428a10a1b-LOC.arff;LP;8.0;8.0;1.0;0.0;0.0;2.0;0.25;6.0;0.75;6.0;0.75;2.0;0.25;6.0;0.75;0.75;1.0;0.75;1.0;0.75;1.0;
103;103_26b530cf19618fc08603a25417524d4428a10a1b-LOC.arff;RAkELd;8.0;8.0;1.0;0.0;0.0;0.0;0.0;8.0;1.0;8.0;1.0;0.0;0.0;8.0;1.0;1.0;1.0;1.0;1.0;1.0;1.0;
104;104_5d6b0dbf7f752c9dcb02506d2fb070e9c5f17f10-LOC.arff;BR;48.0;48.0;1.0;28.0;0.5833333333333334;18.0;0.375;2.0;0.041666666666666664;0.0;0.0;46.0;0.9583333333333334;2.0;0.041666666666666664;0.05;0.5;0.1;1.0;0.06666666666666667;0.6666666666666666;
104;104_5d6b0dbf7f752c9dcb02506d2fb070e9c5f17f10-LOC.arff;LP;48.0;48.0;1.0;0.0;0.0;48.0;1.0;0.0;0.0;0.0;0.0;48.0;1.0;0.0;0.0;0.0;0.0;0.0;0.0;0.0;0.0;
104;104_5d6b0dbf7f752c9dcb02506d2fb070e9c5f17f10-LOC.arff;RAkELd;48.0;48.0;1.0;28.0;0.5833333333333334;20.0;0.4166666666666667;0.0;0.0;0.0;0.0;48.0;1.0;0.0;0.0;0.0;0.0;0.0;0.0;0.0;0.0;
105;105_cd79484caaf9c1fb956a22bcf9ac73e32b4470b6-LOC.arff;BR;117.0;117.0;1.0;0.0;0.0;47.0;0.4017094017094017;70.0;0.5982905982905983;22.0;0.18803418803418803;47.0;0.4017094017094017;70.0;0.5982905982905983;0.39316239316239315;0.6571428571428571;0.5982905982905983;1.0;0.46153846153846156;0.7714285714285715;
105;105_cd79484caaf9c1fb956a22bcf9ac73e32b4470b6-LOC.arff;LP;117.0;117.0;1.0;0.0;0.0;117.0;1.0;0.0;0.0;0.0;0.0;117.0;1.0;0.0;0.0;0.0;0.0;0.0;0.0;0.0;0.0;
105;105_cd79484caaf9c1fb956a22bcf9ac73e32b4470b6-LOC.arff;RAkELd;117.0;117.0;1.0;0.0;0.0;78.0;0.6666666666666666;39.0;0.3333333333333333;22.0;0.18803418803418803;78.0;0.6666666666666666;39.0;0.3333333333333333;0.2606837606837607;0.782051282051282;0.3333333333333333;1.0;0.2849002849002849;0.8547008547008548;
106;106_253839ab2e7c55e2ca990769f3dd03fadc3ffde2-LOC.arff;BR;259.0;259.0;1.0;0.0;0.0;259.0;1.0;0.0;0.0;0.0;0.0;259.0;1.0;0.0;0.0;0.0;0.0;0.0;0.0;0.0;0.0;
106;106_253839ab2e7c55e2ca990769f3dd03fadc3ffde2-LOC.arff;LP;259.0;259.0;1.0;0.0;0.0;259.0;1.0;0.0;0.0;0.0;0.0;259.0;1.0;0.0;0.0;0.0;0.0;0.0;0.0;0.0;0.0;
106;106_253839ab2e7c55e2ca990769f3dd03fadc3ffde2-LOC.arff;RAkELd;259.0;259.0;1.0;0.0;0.0;259.0;1.0;0.0;0.0;0.0;0.0;259.0;1.0;0.0;0.0;0.0;0.0;0.0;0.0;0.0;0.0;
110;110_08e898dcab65a9ee8a3bf367e9eaf8d45e5ee42f-LOC.arff;BR;260.0;260.0;1.0;0.0;0.0;1.0;0.0038461538461538464;259.0;0.9961538461538462;259.0;0.9961538461538462;1.0;0.0038461538461538464;130.0;0.5;0.9961538461538462;1.0;0.7480769230769231;0.750965250965251;0.8307692307692308;0.833976833976834;
110;110_08e898dcab65a9ee8a3bf367e9eaf8d45e5ee42f-LOC.arff;LP;260.0;260.0;1.0;0.0;0.0;1.0;0.0038461538461538464;259.0;0.9961538461538462;258.0;0.9923076923076923;1.0;0.0038461538461538464;134.0;0.5153846153846153;0.9942307692307693;0.9980694980694981;0.7557692307692307;0.7586872586872587;0.8346153846153846;0.8378378378378378;
110;110_08e898dcab65a9ee8a3bf367e9eaf8d45e5ee42f-LOC.arff;RAkELd;260.0;260.0;1.0;0.0;0.0;1.0;0.0038461538461538464;259.0;0.9961538461538462;259.0;0.9961538461538462;1.0;0.0038461538461538464;130.0;0.5;0.9961538461538462;1.0;0.7480769230769231;0.750965250965251;0.8307692307692308;0.833976833976834;
111;111_c4fb60b0e85ebd1bfd2eda99a557eca5e297bb98-LOC.arff;BR;259.0;259.0;1.0;254.0;0.9806949806949807;5.0;0.019305019305019305;0.0;0.0;0.0;0.0;259.0;1.0;0.0;0.0;0.0;0.0;0.0;0.0;0.0;0.0;
111;111_c4fb60b0e85ebd1bfd2eda99a557eca5e297bb98-LOC.arff;LP;259.0;259.0;1.0;0.0;0.0;259.0;1.0;0.0;0.0;0.0;0.0;259.0;1.0;0.0;0.0;0.0;0.0;0.0;0.0;0.0;0.0;
111;111_c4fb60b0e85ebd1bfd2eda99a557eca5e297bb98-LOC.arff;RAkELd;259.0;259.0;1.0;258.0;0.9961389961389961;1.0;0.003861003861003861;0.0;0.0;0.0;0.0;259.0;1.0;0.0;0.0;0.0;0.0;0.0;0.0;0.0;0.0;
112;112_47cc1b5c956bf7c54d8f8b04880e6e8bb1b847a5-LOC.arff;BR;259.0;259.0;1.0;1.0;0.003861003861003861;0.0;0.0;258.0;0.9961389961389961;258.0;0.9961389961389961;1.0;0.003861003861003861;129.0;0.4980694980694981;1.0;1.0;0.75;0.75;0.8333333333333334;0.8333333333333334;
112;112_47cc1b5c956bf7c54d8f8b04880e6e8bb1b847a5-LOC.arff;LP;259.0;259.0;1.0;0.0;0.0;1.0;0.003861003861003861;258.0;0.9961389961389961;134.0;0.5173745173745173;1.0;0.003861003861003861;258.0;0.9961389961389961;0.7567567567567568;0.7596899224806202;0.9961389961389961;1.0;0.8365508365508365;0.8397932816537468;
112;112_47cc1b5c956bf7c54d8f8b04880e6e8bb1b847a5-LOC.arff;RAkELd;259.0;259.0;1.0;0.0;0.0;1.0;0.003861003861003861;258.0;0.9961389961389961;134.0;0.5173745173745173;1.0;0.003861003861003861;258.0;0.9961389961389961;0.7567567567567568;0.7596899224806202;0.9961389961389961;1.0;0.8365508365508365;0.8397932816537468;
113;113_44854e5b60aa6690a1eec54dd04ea8217568445f-LOC.arff;BR;16.0;16.0;1.0;0.0;0.0;2.0;0.125;14.0;0.875;14.0;0.875;2.0;0.125;14.0;0.875;0.875;1.0;0.875;1.0;0.875;1.0;
113;113_44854e5b60aa6690a1eec54dd04ea8217568445f-LOC.arff;LP;16.0;16.0;1.0;0.0;0.0;2.0;0.125;14.0;0.875;14.0;0.875;2.0;0.125;14.0;0.875;0.875;1.0;0.875;1.0;0.875;1.0;
113;113_44854e5b60aa6690a1eec54dd04ea8217568445f-LOC.arff;RAkELd;16.0;16.0;1.0;0.0;0.0;2.0;0.125;14.0;0.875;14.0;0.875;2.0;0.125;14.0;0.875;0.875;1.0;0.875;1.0;0.875;1.0;
114;114_a7f8bf60bc8c5b8370dfad5d695440be3ae08b91-LOC.arff;BR;378.0;378.0;1.0;2.0;0.005291005291005291;16.0;0.042328042328042326;360.0;0.9523809523809523;0.0;0.0;18.0;0.047619047619047616;154.0;0.4074074074074074;0.4787234042553192;0.5;0.6835106382978723;0.7138888888888889;0.5469858156028369;0.5712962962962963;
114;114_a7f8bf60bc8c5b8370dfad5d695440be3ae08b91-LOC.arff;LP;378.0;378.0;1.0;0.0;0.0;18.0;0.047619047619047616;360.0;0.9523809523809523;206.0;0.544973544973545;18.0;0.047619047619047616;360.0;0.9523809523809523;0.7486772486772487;0.7861111111111111;0.9523809523809523;1.0;0.8165784832451499;0.8574074074074075;
114;114_a7f8bf60bc8c5b8370dfad5d695440be3ae08b91-LOC.arff;RAkELd;378.0;378.0;1.0;2.0;0.005291005291005291;16.0;0.042328042328042326;360.0;0.9523809523809523;0.0;0.0;18.0;0.047619047619047616;154.0;0.4074074074074074;0.4787234042553192;0.5;0.6835106382978723;0.7138888888888889;0.5469858156028369;0.5712962962962963;
116;116_bf5747f3c7386b6dc7e8c5753e9fff36ebcf935a-LOC.arff;BR;360.0;360.0;1.0;0.0;0.0;0.0;0.0;360.0;1.0;353.0;0.9805555555555555;0.0;0.0;154.0;0.42777777777777776;0.9902777777777778;0.9902777777777778;0.7138888888888889;0.7138888888888889;0.8027777777777778;0.8027777777777778;
116;116_bf5747f3c7386b6dc7e8c5753e9fff36ebcf935a-LOC.arff;LP;360.0;360.0;1.0;0.0;0.0;0.0;0.0;360.0;1.0;212.0;0.5888888888888889;0.0;0.0;356.0;0.9888888888888889;0.7944444444444444;0.7944444444444444;0.9944444444444445;0.9944444444444445;0.8592592592592592;0.8592592592592592;
116;116_bf5747f3c7386b6dc7e8c5753e9fff36ebcf935a-LOC.arff;RAkELd;360.0;360.0;1.0;0.0;0.0;0.0;0.0;360.0;1.0;211.0;0.5861111111111111;0.0;0.0;360.0;1.0;0.7930555555555555;0.7930555555555555;1.0;1.0;0.8620370370370369;0.8620370370370369;
118;118_c8548a4cb8c0db415cb1ba31cebb174dd8db9658-LOC.arff;BR;360.0;360.0;1.0;360.0;1.0;0.0;0.0;0.0;0.0;0.0;0.0;360.0;1.0;0.0;0.0;0.0;0.0;0.0;0.0;0.0;0.0;
118;118_c8548a4cb8c0db415cb1ba31cebb174dd8db9658-LOC.arff;LP;360.0;360.0;1.0;0.0;0.0;360.0;1.0;0.0;0.0;0.0;0.0;360.0;1.0;0.0;0.0;0.0;0.0;0.0;0.0;0.0;0.0;
118;118_c8548a4cb8c0db415cb1ba31cebb174dd8db9658-LOC.arff;RAkELd;360.0;360.0;1.0;360.0;1.0;0.0;0.0;0.0;0.0;0.0;0.0;360.0;1.0;0.0;0.0;0.0;0.0;0.0;0.0;0.0;0.0;
119;119_23bded8568a0eac403b2b4cb845569bf1fddbf8f-LOC.arff;BR;23.0;23.0;1.0;3.0;0.13043478260869565;16.0;0.6956521739130435;4.0;0.17391304347826086;4.0;0.17391304347826086;19.0;0.8260869565217391;0.0;0.0;0.2;1.0;0.09166666666666666;0.4583333333333333;0.125;0.625;
119;119_23bded8568a0eac403b2b4cb845569bf1fddbf8f-LOC.arff;LP;23.0;23.0;1.0;0.0;0.0;16.0;0.6956521739130435;7.0;0.30434782608695654;3.0;0.13043478260869565;16.0;0.6956521739130435;3.0;0.13043478260869565;0.21739130434782608;0.7142857142857143;0.21014492753623187;0.6904761904761905;0.21304347826086958;0.7000000000000001;
119;119_23bded8568a0eac403b2b4cb845569bf1fddbf8f-LOC.arff;RAkELd;23.0;23.0;1.0;3.0;0.13043478260869565;16.0;0.6956521739130435;4.0;0.17391304347826086;4.0;0.17391304347826086;19.0;0.8260869565217391;0.0;0.0;0.2;1.0;0.09166666666666666;0.4583333333333333;0.125;0.625;
122;122_71556e444e7f607c3c7a0a5b3b7936e0fc4a25d2-LOC.arff;BR;19.0;19.0;1.0;3.0;0.15789473684210525;0.0;0.0;16.0;0.8421052631578947;16.0;0.8421052631578947;3.0;0.15789473684210525;11.0;0.5789473684210527;1.0;1.0;0.8958333333333334;0.8958333333333334;0.9375;0.9375;
122;122_71556e444e7f607c3c7a0a5b3b7936e0fc4a25d2-LOC.arff;LP;19.0;19.0;1.0;0.0;0.0;1.0;0.05263157894736842;18.0;0.9473684210526315;18.0;0.9473684210526315;1.0;0.05263157894736842;13.0;0.6842105263157895;0.9473684210526315;1.0;0.8596491228070174;0.9074074074074073;0.8947368421052632;0.9444444444444444;
122;122_71556e444e7f607c3c7a0a5b3b7936e0fc4a25d2-LOC.arff;RAkELd;19.0;19.0;1.0;14.0;0.7368421052631579;0.0;0.0;5.0;0.2631578947368421;5.0;0.2631578947368421;14.0;0.7368421052631579;0.0;0.0;1.0;1.0;0.6666666666666666;0.6666666666666666;0.8;0.8;
123;123_9ccf038555eba2891b6eec37d668189827ab4e70-LOC.arff;BR;361.0;361.0;1.0;0.0;0.0;1.0;0.002770083102493075;360.0;0.997229916897507;206.0;0.5706371191135734;1.0;0.002770083102493075;105.0;0.29085872576177285;0.783471837488458;0.7856481481481481;0.7077562326869806;0.7097222222222223;0.7240997229916897;0.726111111111111;
123;123_9ccf038555eba2891b6eec37d668189827ab4e70-LOC.arff;LP;361.0;361.0;1.0;0.0;0.0;1.0;0.002770083102493075;360.0;0.997229916897507;206.0;0.5706371191135734;1.0;0.002770083102493075;105.0;0.29085872576177285;0.7839335180055401;0.7861111111111111;0.7077562326869806;0.7097222222222223;0.724561403508772;0.726574074074074;
123;123_9ccf038555eba2891b6eec37d668189827ab4e70-LOC.arff;RAkELd;361.0;361.0;1.0;0.0;0.0;1.0;0.002770083102493075;360.0;0.997229916897507;206.0;0.5706371191135734;1.0;0.002770083102493075;105.0;0.29085872576177285;0.783471837488458;0.7856481481481481;0.7077562326869806;0.7097222222222223;0.7240997229916897;0.726111111111111;
130;130_45106ed76f9cdc9d1589b2802eb19ab54919c87d-LOC.arff;BR;506.0;506.0;1.0;0.0;0.0;78.0;0.1541501976284585;428.0;0.8458498023715415;139.0;0.274703557312253;78.0;0.1541501976284585;428.0;0.8458498023715415;0.5862977602108036;0.6931464174454828;0.8458498023715415;1.0;0.6693675889328063;0.7913551401869159;
130;130_45106ed76f9cdc9d1589b2802eb19ab54919c87d-LOC.arff;LP;506.0;506.0;1.0;0.0;0.0;124.0;0.2450592885375494;382.0;0.7549407114624506;139.0;0.274703557312253;124.0;0.2450592885375494;382.0;0.7549407114624506;0.5559947299077733;0.7364746945898778;0.7549407114624506;1.0;0.6239130434782608;0.8264397905759162;
130;130_45106ed76f9cdc9d1589b2802eb19ab54919c87d-LOC.arff;RAkELd;506.0;506.0;1.0;0.0;0.0;78.0;0.1541501976284585;428.0;0.8458498023715415;255.0;0.5039525691699605;78.0;0.1541501976284585;222.0;0.43873517786561267;0.6528326745718049;0.7718068535825545;0.6877470355731226;0.8130841121495327;0.6328722002635047;0.748208722741433;
131;131_e332e9f9b143ad17df21ef912004469f3e4fa940-LOC.arff;BR;361.0;361.0;1.0;22.0;0.060941828254847646;1.0;0.002770083102493075;338.0;0.9362880886426593;238.0;0.6592797783933518;23.0;0.06371191135734072;133.0;0.3684210526315789;0.8495575221238938;0.8520710059171598;0.7595870206489675;0.7618343195266272;0.7817109144542773;0.7840236686390533;
131;131_e332e9f9b143ad17df21ef912004469f3e4fa940-LOC.arff;LP;361.0;361.0;1.0;0.0;0.0;0.0;0.0;361.0;1.0;255.0;0.7063711911357341;0.0;0.0;155.0;0.4293628808864266;0.853185595567867;0.853185595567867;0.778393351800554;0.778393351800554;0.794275161588181;0.794275161588181;
131;131_e332e9f9b143ad17df21ef912004469f3e4fa940-LOC.arff;RAkELd;361.0;361.0;1.0;22.0;0.060941828254847646;1.0;0.002770083102493075;338.0;0.9362880886426593;149.0;0.41274238227146814;23.0;0.06371191135734072;332.0;0.9196675900277008;0.7772861356932154;0.7795857988165681;0.9867256637168141;0.9896449704142012;0.8492625368731564;0.8517751479289942;
132;132_21897206d6bea04514168c8ee2b397b251891703-LOC.arff;BR;37.0;37.0;1.0;0.0;0.0;24.0;0.6486486486486487;13.0;0.35135135135135137;0.0;0.0;24.0;0.6486486486486487;13.0;0.35135135135135137;0.17567567567567569;0.5;0.35135135135135137;1.0;0.23423423423423423;0.6666666666666666;
132;132_21897206d6bea04514168c8ee2b397b251891703-LOC.arff;LP;37.0;37.0;1.0;0.0;0.0;37.0;1.0;0.0;0.0;0.0;0.0;37.0;1.0;0.0;0.0;0.0;0.0;0.0;0.0;0.0;0.0;
132;132_21897206d6bea04514168c8ee2b397b251891703-LOC.arff;RAkELd;37.0;37.0;1.0;0.0;0.0;37.0;1.0;0.0;0.0;0.0;0.0;37.0;1.0;0.0;0.0;0.0;0.0;0.0;0.0;0.0;0.0;
133;133_eed925f6fd6ba29f48c1d9430199eb3a133a1718-LOC.arff;BR;1.0;1.0;1.0;0.0;0.0;0.0;0.0;1.0;1.0;0.0;0.0;0.0;0.0;1.0;1.0;0.5;0.5;1.0;1.0;0.6666666666666666;0.6666666666666666;
133;133_eed925f6fd6ba29f48c1d9430199eb3a133a1718-LOC.arff;LP;1.0;1.0;1.0;0.0;0.0;1.0;1.0;0.0;0.0;0.0;0.0;1.0;1.0;0.0;0.0;0.0;0.0;0.0;0.0;0.0;0.0;
133;133_eed925f6fd6ba29f48c1d9430199eb3a133a1718-LOC.arff;RAkELd;1.0;1.0;1.0;0.0;0.0;0.0;0.0;1.0;1.0;0.0;0.0;0.0;0.0;1.0;1.0;0.5;0.5;1.0;1.0;0.6666666666666666;0.6666666666666666;
135;135_303f4a4a06a8abf5ed8aab57f9ede63f92adc2cd-LOC.arff;BR;157.0;157.0;1.0;90.0;0.5732484076433121;21.0;0.1337579617834395;46.0;0.2929936305732484;46.0;0.2929936305732484;111.0;0.7070063694267515;46.0;0.2929936305732484;0.6865671641791045;1.0;0.6865671641791045;1.0;0.6865671641791045;1.0;
135;135_303f4a4a06a8abf5ed8aab57f9ede63f92adc2cd-LOC.arff;LP;157.0;157.0;1.0;0.0;0.0;70.0;0.445859872611465;87.0;0.554140127388535;87.0;0.554140127388535;70.0;0.445859872611465;87.0;0.554140127388535;0.554140127388535;1.0;0.554140127388535;1.0;0.554140127388535;1.0;
135;135_303f4a4a06a8abf5ed8aab57f9ede63f92adc2cd-LOC.arff;RAkELd;157.0;157.0;1.0;90.0;0.5732484076433121;21.0;0.1337579617834395;46.0;0.2929936305732484;46.0;0.2929936305732484;111.0;0.7070063694267515;46.0;0.2929936305732484;0.6865671641791045;1.0;0.6865671641791045;1.0;0.6865671641791045;1.0;
141;141_1cba78c084f25b4702ff8d3bf5685a07f646d590-LOC.arff;BR;362.0;362.0;1.0;0.0;0.0;1.0;0.0027624309392265192;361.0;0.9972375690607734;164.0;0.4530386740331492;1.0;0.0027624309392265192;353.0;0.9751381215469613;0.7803867403314917;0.7825484764542936;0.9871086556169428;0.989843028624192;0.8531307550644567;0.8554939981532779;
141;141_1cba78c084f25b4702ff8d3bf5685a07f646d590-LOC.arff;LP;362.0;362.0;1.0;0.0;0.0;1.0;0.0027624309392265192;361.0;0.9972375690607734;254.0;0.7016574585635359;1.0;0.0027624309392265192;155.0;0.4281767955801105;0.8499079189686926;0.8522622345337028;0.7762430939226519;0.778393351800554;0.7915285451197054;0.7937211449676824;
141;141_1cba78c084f25b4702ff8d3bf5685a07f646d590-LOC.arff;RAkELd;362.0;362.0;1.0;0.0;0.0;1.0;0.0027624309392265192;361.0;0.9972375690607734;164.0;0.4530386740331492;1.0;0.0027624309392265192;353.0;0.9751381215469613;0.7803867403314917;0.7825484764542936;0.9871086556169428;0.989843028624192;0.8531307550644567;0.8554939981532779;
142;142_0280ab38969b3c6269755d7bd2cf1ab323685e30-LOC.arff;BR;411.0;411.0;1.0;0.0;0.0;0.0;0.0;411.0;1.0;186.0;0.45255474452554745;0.0;0.0;411.0;1.0;0.7700729927007299;0.7700729927007299;1.0;1.0;0.8479318734793188;0.8479318734793188;
142;142_0280ab38969b3c6269755d7bd2cf1ab323685e30-LOC.arff;LP;411.0;411.0;1.0;0.0;0.0;0.0;0.0;411.0;1.0;206.0;0.5012165450121655;0.0;0.0;399.0;0.9708029197080292;0.7875101378751014;0.7875101378751014;0.9878345498783455;0.9878345498783455;0.8540145985401459;0.8540145985401459;
142;142_0280ab38969b3c6269755d7bd2cf1ab323685e30-LOC.arff;RAkELd;411.0;411.0;1.0;0.0;0.0;0.0;0.0;411.0;1.0;215.0;0.5231143552311436;0.0;0.0;377.0;0.9172749391727494;0.7939983779399837;0.7939983779399837;0.967558799675588;0.967558799675588;0.8478507704785078;0.8478507704785078;
143;143_a8c989e5054f1f8a7665ffbc8ff3ff69e2de6330-LOC.arff;BR;39.0;39.0;1.0;0.0;0.0;22.0;0.5641025641025641;17.0;0.4358974358974359;0.0;0.0;22.0;0.5641025641025641;17.0;0.4358974358974359;0.21794871794871795;0.5;0.4358974358974359;1.0;0.29059829059829057;0.6666666666666666;
143;143_a8c989e5054f1f8a7665ffbc8ff3ff69e2de6330-LOC.arff;LP;39.0;39.0;1.0;0.0;0.0;39.0;1.0;0.0;0.0;0.0;0.0;39.0;1.0;0.0;0.0;0.0;0.0;0.0;0.0;0.0;0.0;
143;143_a8c989e5054f1f8a7665ffbc8ff3ff69e2de6330-LOC.arff;RAkELd;39.0;39.0;1.0;0.0;0.0;0.0;0.0;39.0;1.0;39.0;1.0;0.0;0.0;39.0;1.0;1.0;1.0;1.0;1.0;1.0;1.0;
144;144_cca9e429d7679036e56d37c26938abd78813e864-LOC.arff;BR;37.0;37.0;1.0;0.0;0.0;0.0;0.0;37.0;1.0;0.0;0.0;0.0;0.0;37.0;1.0;0.5;0.5;1.0;1.0;0.6666666666666666;0.6666666666666666;
144;144_cca9e429d7679036e56d37c26938abd78813e864-LOC.arff;LP;37.0;37.0;1.0;0.0;0.0;0.0;0.0;37.0;1.0;37.0;1.0;0.0;0.0;37.0;1.0;1.0;1.0;1.0;1.0;1.0;1.0;
144;144_cca9e429d7679036e56d37c26938abd78813e864-LOC.arff;RAkELd;37.0;37.0;1.0;0.0;0.0;0.0;0.0;37.0;1.0;37.0;1.0;0.0;0.0;37.0;1.0;1.0;1.0;1.0;1.0;1.0;1.0;
146;146_2474f804ebd37486ad8f83690c6cf189fa95053c-LOC.arff;BR;46.0;46.0;1.0;0.0;0.0;0.0;0.0;46.0;1.0;46.0;1.0;0.0;0.0;46.0;1.0;1.0;1.0;1.0;1.0;1.0;1.0;
146;146_2474f804ebd37486ad8f83690c6cf189fa95053c-LOC.arff;LP;46.0;46.0;1.0;0.0;0.0;0.0;0.0;46.0;1.0;46.0;1.0;0.0;0.0;46.0;1.0;1.0;1.0;1.0;1.0;1.0;1.0;
146;146_2474f804ebd37486ad8f83690c6cf189fa95053c-LOC.arff;RAkELd;46.0;46.0;1.0;0.0;0.0;0.0;0.0;46.0;1.0;46.0;1.0;0.0;0.0;46.0;1.0;1.0;1.0;1.0;1.0;1.0;1.0;
