commit;Dataset;NumOfInstances;NumOfLabels;Cardinality;MeanIR;CVIR;MaxIRLb;MinIRLb;MaxImR;MinImR;Scumble;
100;100_c6c49f950c5ad2658b5a4fdc1622a981e9ff2891-LOC.arff;141.0;38.0;1.127659574468085;5.725818630382775;0.8404270698693945;13.5;1.0;69.5;4.222222222222222;0.0025184562999731406;
101;101_71ac47af4324dd6c0d16a973fce26250dd64c129-LOC.arff;141.0;38.0;1.127659574468085;5.725818630382775;0.8404270698693945;13.5;1.0;69.5;4.222222222222222;0.0025184562999731406;
102;102_eebb0a963c8bace646791b759a8c8b74d88a6b1e-LOC.arff;141.0;38.0;1.127659574468085;5.725818630382775;0.8404270698693945;13.5;1.0;69.5;4.222222222222222;0.0025184562999731406;
103;103_26b530cf19618fc08603a25417524d4428a10a1b-LOC.arff;141.0;38.0;1.127659574468085;5.725818630382775;0.8404270698693945;13.5;1.0;69.5;4.222222222222222;0.0025184562999731406;
104;104_5d6b0dbf7f752c9dcb02506d2fb070e9c5f17f10-LOC.arff;143.0;38.0;1.1258741258741258;5.717359983766234;0.8431017533710337;13.5;1.0;70.5;4.296296296296297;0.0024832331349385513;
105;105_cd79484caaf9c1fb956a22bcf9ac73e32b4470b6-LOC.arff;171.0;38.0;1.105263157894737;6.636543317793317;1.0392596290169802;27.0;1.0;170.0;5.333333333333333;0.0020766218613813615;
106;106_253839ab2e7c55e2ca990769f3dd03fadc3ffde2-LOC.arff;231.0;38.0;1.077922077922078;18.96064204850437;1.0602895004458135;78.0;1.0;230.0;1.9615384615384615;0.001537239559723856;
107;107_a10bb4ad8dcfbc75e14c2e34031d975dc7565342-LOC.arff;490.0;38.0;1.3;59.58914131783125;1.1161802964179954;259.0;1.0;489.0;1.121212121212121;0.0023689067778475187;
108;108_d1943aa1fb3f6357771a09635aa4dae9f4c6f6a6-LOC.arff;490.0;38.0;1.3;59.58914131783125;1.1161802964179954;259.0;1.0;489.0;1.121212121212121;0.0023689067778475187;
109;109_4b6f4d2be9a0ab79bd66f69a18e5b9df1414cb5e-LOC.arff;490.0;38.0;1.3;59.58914131783125;1.1161802964179954;259.0;1.0;489.0;1.121212121212121;0.0023689067778475187;
10;10_a9682150cd459a8ec20dfe9d4e9690498a31d591-LOC.arff;10.0;7.0;1.0;1.0;NaN;1.0;1.0;4.9E-324;1.7976931348623157E308;0.0;
110;110_08e898dcab65a9ee8a3bf367e9eaf8d45e5ee42f-LOC.arff;490.0;38.0;1.3;59.58914131783125;1.1161802964179954;259.0;1.0;489.0;1.121212121212121;0.0023689067778475187;
111;111_c4fb60b0e85ebd1bfd2eda99a557eca5e297bb98-LOC.arff;490.0;38.0;1.3;59.58914131783125;1.1161802964179954;259.0;1.0;489.0;1.121212121212121;0.0023689067778475187;
112;112_47cc1b5c956bf7c54d8f8b04880e6e8bb1b847a5-LOC.arff;490.0;38.0;1.3;59.58914131783125;1.1161802964179954;259.0;1.0;489.0;1.121212121212121;0.0023689067778475187;
113;113_44854e5b60aa6690a1eec54dd04ea8217568445f-LOC.arff;490.0;38.0;1.3;59.58914131783125;1.1161802964179954;259.0;1.0;489.0;1.121212121212121;0.0023689067778475187;
114;114_a7f8bf60bc8c5b8370dfad5d695440be3ae08b91-LOC.arff;499.0;38.0;1.2945891783567134;59.282430791515466;1.1257389615679378;259.0;1.0;498.0;1.0791666666666666;0.002465460779681508;
115;115_8feb47592149b9a000a3a4826fceded059f7e8d4-LOC.arff;602.0;38.0;1.372093023255814;82.29880817391695;1.1281659309717609;360.0;1.0;601.0;1.119718309859155;0.0031219528664456824;
116;116_bf5747f3c7386b6dc7e8c5753e9fff36ebcf935a-LOC.arff;602.0;38.0;1.372093023255814;82.29880817391695;1.1281659309717609;360.0;1.0;601.0;1.119718309859155;0.0031219528664456824;
117;117_05bbe2a3201517b17c3dc3a5f87e3688bdf07007-LOC.arff;602.0;38.0;1.372093023255814;82.29880817391695;1.1281659309717609;360.0;1.0;601.0;1.119718309859155;0.0031219528664456824;
118;118_c8548a4cb8c0db415cb1ba31cebb174dd8db9658-LOC.arff;602.0;38.0;1.372093023255814;82.29880817391695;1.1281659309717609;360.0;1.0;601.0;1.119718309859155;0.0031219528664456824;
119;119_23bded8568a0eac403b2b4cb845569bf1fddbf8f-LOC.arff;602.0;38.0;1.372093023255814;82.29880817391695;1.1281659309717609;360.0;1.0;601.0;1.119718309859155;0.0031219528664456824;
11;11_909663edb340a77b696bbd1e88115a7484c2eb5b-LOC.arff;10.0;7.0;1.0;1.0;NaN;1.0;1.0;4.9E-324;1.7976931348623157E308;0.0;
120;120_97be8a6cb20a4027f8fea7c51397ef792b00ed6e-LOC.arff;607.0;38.0;1.3772652388797364;82.26289075372685;1.1021874126861833;360.0;1.0;606.0;1.1373239436619718;0.004851846306192312;
121;121_3d1e5b38ebeb3abc1be3084d723acadd7f977679-LOC.arff;607.0;38.0;1.3772652388797364;82.26289075372685;1.1021874126861833;360.0;1.0;606.0;1.1373239436619718;0.004851846306192312;
122;122_71556e444e7f607c3c7a0a5b3b7936e0fc4a25d2-LOC.arff;607.0;38.0;1.3772652388797364;82.26289075372685;1.1021874126861833;360.0;1.0;606.0;1.1373239436619718;0.004851846306192312;
123;123_9ccf038555eba2891b6eec37d668189827ab4e70-LOC.arff;608.0;38.0;1.3848684210526316;81.22147917342075;1.1177343814575371;360.0;1.0;607.0;1.1408450704225352;0.005691877114594307;
124;124_873c35a58cdca1a6d8a06a50c613f3ba70560271-LOC.arff;609.0;39.0;1.8029556650246306;77.42075397468642;1.1648453519568898;360.0;1.0;608.0;1.1443661971830985;0.009099071120499862;
125;125_2642194d44a7061ce01e7bccf81db198a71ab011-LOC.arff;609.0;39.0;1.8029556650246306;77.42075397468642;1.1648453519568898;360.0;1.0;608.0;1.1443661971830985;0.009099071120499862;
126;126_ad9d1d1490d499b5e0aee1905cbd868f4d497d00-LOC.arff;609.0;39.0;1.8029556650246306;77.42075397468642;1.1648453519568898;360.0;1.0;608.0;1.1443661971830985;0.009099071120499862;
127;127_73f0eeeb8cece6692f78418205a7ee1c6775ccdf-LOC.arff;609.0;39.0;1.8029556650246306;77.42075397468642;1.1648453519568898;360.0;1.0;608.0;1.1443661971830985;0.009099071120499862;
128;128_1afadc69ff71b0393dd46a4e290f6d70f680354c-LOC.arff;609.0;39.0;1.8029556650246306;77.42075397468642;1.1648453519568898;360.0;1.0;608.0;1.1443661971830985;0.009099071120499862;
129;129_84206be88ebefc5762aa2c197d7e0b5f4c91a471-LOC.arff;609.0;39.0;1.8029556650246306;77.42075397468642;1.1648453519568898;360.0;1.0;608.0;1.1443661971830985;0.009099071120499862;
12;12_dab86c0945ea104ed8e581aa98211ecc88e05aa2-LOC.arff;10.0;7.0;1.0;1.0;NaN;1.0;1.0;4.9E-324;1.7976931348623157E308;0.0;
130;130_45106ed76f9cdc9d1589b2802eb19ab54919c87d-LOC.arff;609.0;39.0;1.8029556650246306;77.42075397468642;1.1648453519568898;360.0;1.0;608.0;1.1443661971830985;0.009099071120499862;
131;131_e332e9f9b143ad17df21ef912004469f3e4fa940-LOC.arff;656.0;39.0;1.7454268292682926;76.8969746218131;1.1780257029686028;360.0;1.0;655.0;1.2162162162162162;0.008389204402947041;
132;132_21897206d6bea04514168c8ee2b397b251891703-LOC.arff;656.0;39.0;1.7454268292682926;76.8969746218131;1.1780257029686028;360.0;1.0;655.0;1.2162162162162162;0.008389204402947041;
133;133_eed925f6fd6ba29f48c1d9430199eb3a133a1718-LOC.arff;656.0;39.0;1.7454268292682926;76.8969746218131;1.1780257029686028;360.0;1.0;655.0;1.2162162162162162;0.008389204402947041;
134;134_d69383a369855daacd7a81d615db8173752a7eaa-LOC.arff;656.0;39.0;1.7454268292682926;76.8969746218131;1.1780257029686028;360.0;1.0;655.0;1.2162162162162162;0.008389204402947041;
135;135_303f4a4a06a8abf5ed8aab57f9ede63f92adc2cd-LOC.arff;656.0;39.0;1.7454268292682926;76.8969746218131;1.1780257029686028;360.0;1.0;655.0;1.2162162162162162;0.008389204402947041;
136;136_8a0b4ed76f60f29d00b4b2b24833ec8add7ba15c-LOC.arff;668.0;39.0;1.7320359281437125;76.85667370692052;1.1790325615717283;360.0;1.0;667.0;1.1688311688311688;0.008028836813157487;
137;137_49f34a21b4742e78a545ec5f09f17bd5fe7a96bb-LOC.arff;668.0;39.0;1.7320359281437125;76.85667370692052;1.1790325615717283;360.0;1.0;667.0;1.1688311688311688;0.008028836813157487;
138;138_4358a0bf9e27de02ab40a90ff902d763fb873d54-LOC.arff;668.0;39.0;1.7320359281437125;76.85667370692052;1.1790325615717283;360.0;1.0;667.0;1.1688311688311688;0.008028836813157487;
139;139_549db2b3db9c667c19aefc5ebbadacf797934069-LOC.arff;668.0;39.0;1.7320359281437125;76.85667370692052;1.1790325615717283;360.0;1.0;667.0;1.1688311688311688;0.008028836813157487;
13;13_d5d0e5ae9860139e5e5dc1b43a352f4dd288f118-LOC.arff;10.0;7.0;1.0;1.0;NaN;1.0;1.0;4.9E-324;1.7976931348623157E308;0.0;
140;140_3cdbe60f6c1d813990ccd13ceb799dfee35a7b88-LOC.arff;668.0;39.0;1.7320359281437125;76.85667370692052;1.1790325615717283;360.0;1.0;667.0;1.1688311688311688;0.008028836813157487;
141;141_1cba78c084f25b4702ff8d3bf5685a07f646d590-LOC.arff;668.0;39.0;1.7320359281437125;76.85667370692052;1.1790325615717283;360.0;1.0;667.0;1.1688311688311688;0.008028836813157487;
142;142_0280ab38969b3c6269755d7bd2cf1ab323685e30-LOC.arff;668.0;39.0;1.7320359281437125;76.85667370692052;1.1790325615717283;360.0;1.0;667.0;1.1688311688311688;0.008028836813157487;
143;143_a8c989e5054f1f8a7665ffbc8ff3ff69e2de6330-LOC.arff;718.0;39.0;1.7827298050139275;76.83377150097415;1.1796452390268855;360.0;1.0;716.0;1.0;0.003447507345815035;
144;144_cca9e429d7679036e56d37c26938abd78813e864-LOC.arff;718.0;39.0;1.7827298050139275;76.83377150097415;1.1796452390268855;360.0;1.0;716.0;1.0027932960893855;0.003447507345815035;
145;145_100b3feeab93b236a3971247bdd88ab5913e4d3c-LOC.arff;718.0;39.0;1.7827298050139275;76.83377150097415;1.1796452390268855;360.0;1.0;716.0;1.0027932960893855;0.003447507345815035;
146;146_2474f804ebd37486ad8f83690c6cf189fa95053c-LOC.arff;718.0;39.0;1.7827298050139275;76.83377150097415;1.1796452390268855;360.0;1.0;717.0;1.0;0.003447507345815035;
147;147_b7526edfee6372a73b15c5fc97ca40aabc7db80d-LOC.arff;725.0;39.0;1.7751724137931035;76.83258841904573;1.1796769074710047;360.0;1.0;723.0;1.011111111111111;0.003222744926422075;
14;14_e636e726315d871750d6ad195525875f44a04649-LOC.arff;10.0;7.0;1.0;1.0;NaN;1.0;1.0;4.9E-324;1.7976931348623157E308;0.0;
15;15_76b374037d3180fc313e8f62655b33bbe7a13ef8-LOC.arff;10.0;7.0;1.0;1.0;NaN;1.0;1.0;4.9E-324;1.7976931348623157E308;0.0;
16;16_d73a000a3f19a8cf92a4ae78a79c87e5fa311f14-LOC.arff;10.0;7.0;1.0;1.0;NaN;1.0;1.0;4.9E-324;1.7976931348623157E308;0.0;
17;17_8ffd856528358ebf50b02b7ad67e53951c99485f-LOC.arff;10.0;7.0;1.0;1.0;NaN;1.0;1.0;4.9E-324;1.7976931348623157E308;0.0;
18;18_9c01146cc3688b8fcadf62cf9f2007f30b590207-LOC.arff;10.0;7.0;1.0;1.0;NaN;1.0;1.0;4.9E-324;1.7976931348623157E308;0.0;
19;19_6c8d8cdbae50e6d01aafd55ba085945308284b5e-LOC.arff;27.0;14.0;1.0;3.875;0.3676637748074775;5.0;1.0;12.5;1.7;0.0;
20;20_15ec68861cb5901bb9cbee0f067c0596ee98cd27-LOC.arff;27.0;14.0;1.0;3.875;0.3676637748074775;5.0;1.0;12.5;1.7;0.0;
21;21_e1402c263a5abcc6dab5bf604c9b4a3bdd0a95a0-LOC.arff;27.0;14.0;1.0;3.875;0.3676637748074775;5.0;1.0;12.5;1.7;0.0;
22;22_5c9c7fe0b7f7776902081a93017c4f5e842039ec-LOC.arff;27.0;14.0;1.0;3.875;0.3676637748074775;5.0;1.0;12.5;1.7;0.0;
23;23_e18959adf37e0e2843f605e89c6876b5204bbf27-LOC.arff;27.0;14.0;1.0;3.875;0.3676637748074775;5.0;1.0;12.5;1.7;0.0;
24;24_ab756334a2425da94f9001cdb29aac1194352ab1-LOC.arff;27.0;17.0;1.0;3.875;0.3676637748074775;5.0;1.0;12.5;1.7;0.0;
25;25_1677c3533cb9f5b49f5dd87a3a2e97a103295a10-LOC.arff;27.0;17.0;1.0;3.875;0.3676637748074775;5.0;1.0;12.5;1.7;0.0;
26;26_ac447d7f609f042c0383a1161c0543d73cebc495-LOC.arff;27.0;17.0;1.0;3.875;0.3676637748074775;5.0;1.0;12.5;1.7;0.0;
27;27_b7a7f76a5cc38fa6030ffabbb0ddeeb15c80f8e2-LOC.arff;27.0;17.0;1.0;3.875;0.3676637748074775;5.0;1.0;12.5;1.7;0.0;
28;28_f6bf996a7d4bfeb2cfeab84896eb0631fbf88e4f-LOC.arff;27.0;17.0;1.0;3.875;0.3676637748074775;5.0;1.0;12.5;1.7;0.0;
29;29_00bd8afd45be85194beddfb00e9637f136798350-LOC.arff;28.0;22.0;1.0;4.555555555555555;0.5351977623778461;10.0;1.0;27.0;1.8;0.0;
30;30_93ed28c22e1489c938896d31e8a74124d2660605-LOC.arff;51.0;23.0;1.0;9.530000000000001;0.6377136537632904;23.0;1.0;50.0;1.2173913043478262;0.0;
31;31_9556f987e09ae2ff54434f2c28095d1674cde9af-LOC.arff;69.0;23.0;1.0;6.79029411764706;0.6075734160928876;11.5;1.0;33.5;2.0;0.0;
32;32_bfbc9461a7a32efb973862a8e3aa1604c461337b-LOC.arff;69.0;23.0;1.0;6.79029411764706;0.6075734160928876;11.5;1.0;33.5;2.0;0.0;
33;33_dd1c4bef414299c4ed1ad521dbb88e36a1a92055-LOC.arff;69.0;23.0;1.0;6.79029411764706;0.6075734160928876;11.5;1.0;33.5;2.0;0.0;
34;34_15130f3661df872e07d33a8a4b0b5fec3c6a722a-LOC.arff;79.0;23.0;1.0;7.548823529411766;0.6812282138059887;13.5;1.0;38.5;1.9259259259259258;0.0;
35;35_5ad6b54f233a3c513a152906526b4caf7cbcec0f-LOC.arff;79.0;23.0;1.0;7.548823529411766;0.6812282138059887;13.5;1.0;38.5;1.9259259259259258;0.0;
36;36_fc4aed85e2837b53c80c0d8fa8a31c1863685061-LOC.arff;79.0;23.0;1.0;7.548823529411766;0.6812282138059887;13.5;1.0;38.5;1.9259259259259258;0.0;
37;37_1d8b6384d5c88bee5211d88cd7c0f24d30015604-LOC.arff;79.0;23.0;1.0;7.548823529411766;0.6812282138059887;13.5;1.0;38.5;1.9259259259259258;0.0;
38;38_59c47710622a6078ddc0293ecfba3d4239972781-LOC.arff;79.0;23.0;1.0;7.548823529411766;0.6812282138059887;13.5;1.0;38.5;1.9259259259259258;0.0;
39;39_39dfbbf5b55ef962ea574f3f094d71058816169a-LOC.arff;79.0;23.0;1.0;7.548823529411766;0.6812282138059887;13.5;1.0;38.5;1.9259259259259258;0.0;
40;40_159bd083e2480791adcbccfd0331131f84bffc51-LOC.arff;79.0;29.0;1.0;7.548823529411766;0.6812282138059887;13.5;1.0;38.5;1.9259259259259258;0.0;
41;41_dd438eb9d9096cc64d6fb6c3f6d7900c8628e730-LOC.arff;79.0;29.0;1.0;7.548823529411766;0.6812282138059887;13.5;1.0;38.5;1.9259259259259258;0.0;
42;42_7f0ef3b0d3e038a71703226d72fed409baaf0e88-LOC.arff;79.0;29.0;1.0;7.548823529411766;0.6812282138059887;13.5;1.0;38.5;1.9259259259259258;0.0;
43;43_4c6e5b2f5ae5056ae7ff37002a96e87d4bd8c05b-LOC.arff;79.0;29.0;1.0;7.548823529411766;0.6812282138059887;13.5;1.0;38.5;1.9259259259259258;0.0;
44;44_1f517e59e41118463ae329c7b7fa9e3caae3a369-LOC.arff;79.0;29.0;1.0;7.548823529411766;0.6812282138059887;13.5;1.0;38.5;1.9259259259259258;0.0;
45;45_1fcfdf69ec8b5474b8f370d7951c996efd1636c2-LOC.arff;79.0;29.0;1.0;7.548823529411766;0.6812282138059887;13.5;1.0;38.5;1.9259259259259258;0.0;
46;46_d45c541fdbf7ce30d8c70adc75f0fe575b9fcf60-LOC.arff;79.0;29.0;1.0;7.548823529411766;0.6812282138059887;13.5;1.0;38.5;1.9259259259259258;0.0;
47;47_2177272a52e903fcf248b19836f56144a6aa0ec7-LOC.arff;81.0;29.0;1.0;8.089839572192515;0.6425461494289396;13.5;1.0;39.5;2.0;0.0;
48;48_cb0eb5e198c692b57ce60602a6c0d72f5e4a7b32-LOC.arff;81.0;29.0;1.0;8.089839572192515;0.6425461494289396;13.5;1.0;39.5;2.0;0.0;
49;49_4a7567832ae650ecdfdfa6cd1726274f4fd8431c-LOC.arff;83.0;29.0;1.0;8.540686274509804;0.608433287323611;13.5;1.0;40.5;2.074074074074074;0.0;
50;50_02ee066b1e5d40034311d3358084a56dfa7026c4-LOC.arff;83.0;29.0;1.0;8.540686274509804;0.608433287323611;13.5;1.0;40.5;2.074074074074074;0.0;
51;51_deeabf59c6fbfa761cffadfafc15339aa667db23-LOC.arff;83.0;29.0;1.0;8.540686274509804;0.608433287323611;13.5;1.0;40.5;2.074074074074074;0.0;
52;52_304819fbc19deb73be718f79a991e4a803022b96-LOC.arff;83.0;29.0;1.0;8.540686274509804;0.608433287323611;13.5;1.0;40.5;2.074074074074074;0.0;
53;53_6f2d4519b8e12f8dd31076559bd55d38cc987a6c-LOC.arff;85.0;29.0;1.0;7.978186274509805;0.6231063403527618;13.5;1.0;41.5;2.1481481481481484;0.0;
54;54_72078c71dc74d51666f3774f29f1355ed3c722e8-LOC.arff;85.0;29.0;1.0;7.978186274509805;0.6231063403527618;13.5;1.0;41.5;2.1481481481481484;0.0;
55;55_568e79cee2da08a8fd0a79e77f2e24ffab723281-LOC.arff;85.0;29.0;1.0;7.978186274509805;0.6231063403527618;13.5;1.0;41.5;2.1481481481481484;0.0;
56;56_24e1a83043e7d27068d74cc45d676c6a89034706-LOC.arff;85.0;29.0;1.0;7.978186274509805;0.6231063403527618;13.5;1.0;41.5;2.1481481481481484;0.0;
57;57_e2ebb7c648a848fc09312c429f6339c382682ebb-LOC.arff;85.0;29.0;1.0;7.978186274509805;0.6231063403527618;13.5;1.0;41.5;2.1481481481481484;0.0;
58;58_7d391e7498c159790b9d12f34e813cc802fa45ac-LOC.arff;88.0;29.0;1.0;7.851754385964913;0.6413675839262986;13.5;1.0;43.0;2.259259259259259;0.0;
59;59_1bd0ec489d4e57b94b2cbfa0e4324fc4e634c061-LOC.arff;89.0;29.0;1.0786516853932584;9.092657342657343;0.8091944216856843;27.0;1.0;88.0;2.2962962962962963;0.009676084409032185;
60;60_5c8921a353832c216a14b874ac02156ed185de9c-LOC.arff;89.0;29.0;1.0786516853932584;9.092657342657343;0.8091944216856843;27.0;1.0;88.0;2.2962962962962963;0.009676084409032185;
61;61_daaa1b7e3f90e783d0bfa3c0b66583b63a4f94b0-LOC.arff;91.0;29.0;1.0769230769230769;8.573426573426573;0.8466025854381048;27.0;1.0;90.0;2.3703703703703702;0.00946342321322928;
62;62_47ca9f47c109e4e4abd6915ff51dad1f1bcad661-LOC.arff;91.0;29.0;1.0769230769230769;8.573426573426573;0.8466025854381048;27.0;1.0;90.0;2.3703703703703702;0.00946342321322928;
63;63_a6d1611449509eb37a3e3ef494436f8e3d59536e-LOC.arff;98.0;34.0;1.0714285714285714;8.362824675324676;0.8490745953502332;27.0;1.0;97.0;2.6296296296296298;0.008787464412284332;
64;64_36eaec6006148a2ff9ad33a37631add3612902e5-LOC.arff;106.0;34.0;1.0660377358490567;8.089610389610389;0.890607877422507;27.0;1.0;105.0;2.925925925925926;0.008124259550979854;
65;65_661f9dfe7cdc909cf9e26a270f22cd925a9acf75-LOC.arff;106.0;34.0;1.0660377358490567;8.089610389610389;0.890607877422507;27.0;1.0;105.0;2.925925925925926;0.008124259550979854;
66;66_d74d985a1762bbf9293b7d49ee1dade1a6504df6-LOC.arff;106.0;34.0;1.0660377358490567;8.089610389610389;0.890607877422507;27.0;1.0;105.0;2.925925925925926;0.008124259550979854;
67;67_80fe1c0d9638850102a2bc3e3211650628a4a40f-LOC.arff;106.0;34.0;1.0660377358490567;8.089610389610389;0.890607877422507;27.0;1.0;105.0;2.925925925925926;0.008124259550979854;
68;68_164a9c5fcf5cdaac2d012245ac0919538a8bf91a-LOC.arff;106.0;34.0;1.0660377358490567;8.089610389610389;0.890607877422507;27.0;1.0;105.0;2.925925925925926;0.008124259550979854;
69;69_500e6d5b55c030a56a4fec90419fa996e3537a40-LOC.arff;106.0;34.0;1.0660377358490567;8.089610389610389;0.890607877422507;27.0;1.0;105.0;2.925925925925926;0.008124259550979854;
70;70_0ad5e0462afc0de4d76e557707f4f6cb903a266b-LOC.arff;106.0;34.0;1.0660377358490567;8.089610389610389;0.890607877422507;27.0;1.0;105.0;2.925925925925926;0.008124259550979854;
71;71_a62de4603672f423f1baf277cf86c6b67530e4fc-LOC.arff;106.0;38.0;1.0660377358490567;8.089610389610389;0.890607877422507;27.0;1.0;105.0;2.925925925925926;0.008124259550979854;
72;72_631bbd18567f5527aaa17bc8dcd7b7b772164ec9-LOC.arff;110.0;38.0;1.0636363636363637;8.00030303030303;0.8688677463600458;27.0;1.0;109.0;3.074074074074074;0.007828831930944222;
73;73_e3b9560418f5257e12a7ce966fb0c32dc434205d-LOC.arff;110.0;38.0;1.0636363636363637;8.00030303030303;0.8688677463600458;27.0;1.0;109.0;3.074074074074074;0.007828831930944222;
74;74_8e59335442daf1342a246ec32156eeef984baff7-LOC.arff;110.0;38.0;1.0636363636363637;8.00030303030303;0.8688677463600458;27.0;1.0;109.0;3.074074074074074;0.007828831930944222;
75;75_010cceb24fc82a9d43289b076c928e50d12913e9-LOC.arff;110.0;38.0;1.0636363636363637;8.00030303030303;0.8688677463600458;27.0;1.0;109.0;3.074074074074074;0.007828831930944222;
76;76_d74af5835ad4a15d696d0474c69d4d4494ee04f0-LOC.arff;121.0;38.0;1.1487603305785123;6.1068181818181815;0.7586220414429589;13.5;1.0;59.5;3.4814814814814814;0.0027210353672016034;
77;77_60c1bfd9624a4b6dae8a0d9ce85481efb081a47b-LOC.arff;121.0;38.0;1.1487603305785123;6.1068181818181815;0.7586220414429589;13.5;1.0;59.5;3.4814814814814814;0.0027210353672016034;
78;78_450cd632d16f39a7c43a465bb7c9b675daf8283e-LOC.arff;121.0;38.0;1.1487603305785123;6.1068181818181815;0.7586220414429589;13.5;1.0;59.5;3.4814814814814814;0.0027210353672016034;
79;79_8ffc110699306666c1c2c0ce69bd3ba1ce05cd27-LOC.arff;121.0;38.0;1.1487603305785123;6.1068181818181815;0.7586220414429589;13.5;1.0;59.5;3.4814814814814814;0.0027210353672016034;
80;80_97aebfcd8adccb4d3db1030e15c7c92c29982fab-LOC.arff;121.0;38.0;1.1487603305785123;6.1068181818181815;0.7586220414429589;13.5;1.0;59.5;3.4814814814814814;0.0027210353672016034;
81;81_f94e24632aadae446484c6d8b51b120131f5afc1-LOC.arff;121.0;38.0;1.1487603305785123;6.1068181818181815;0.7586220414429589;13.5;1.0;59.5;3.4814814814814814;0.0027210353672016034;
82;82_25c3438edc12719ad9c9df8975108dfc8de0792c-LOC.arff;123.0;38.0;1.146341463414634;6.083216783216783;0.7649783246179893;13.5;1.0;60.5;3.5555555555555554;0.0027370240465585216;
83;83_99bc1ad6410b8d927e200cd875614f9ff858d63f-LOC.arff;124.0;38.0;1.1451612903225807;5.9988417832167835;0.7756283805670556;13.5;1.0;61.0;3.5925925925925926;0.0027149512719895014;
84;84_f1a19e2117d706b58a21fb625921f8483e8d3c16-LOC.arff;124.0;38.0;1.1451612903225807;5.9988417832167835;0.7756283805670556;13.5;1.0;61.0;3.5925925925925926;0.0027149512719895014;
85;85_ca6fd14c7739cd790411ef60bdd9bf755ecf7e9c-LOC.arff;124.0;38.0;1.1451612903225807;5.9988417832167835;0.7756283805670556;13.5;1.0;61.0;3.5925925925925926;0.0027149512719895014;
86;86_ddcee230b85e30a5804de839353023ae41a958c2-LOC.arff;124.0;38.0;1.1451612903225807;5.9988417832167835;0.7756283805670556;13.5;1.0;61.0;3.5925925925925926;0.0027149512719895014;
87;87_f929c7897ee69e52b5ace4055cb326cfb425a4a9-LOC.arff;124.0;38.0;1.1451612903225807;5.9988417832167835;0.7756283805670556;13.5;1.0;61.0;3.5925925925925926;0.0027149512719895014;
88;88_bb6063cf6d3a6f5b9b0826162468778b9d3581d0-LOC.arff;124.0;38.0;1.1451612903225807;5.9988417832167835;0.7756283805670556;13.5;1.0;61.0;3.5925925925925926;0.0027149512719895014;
89;89_2f46299ea3b55b7be8f30dc51fea03dfdf234a15-LOC.arff;124.0;38.0;1.1451612903225807;5.9988417832167835;0.7756283805670556;13.5;1.0;61.0;3.5925925925925926;0.0027149512719895014;
90;90_1e807967a5e3516b854df63235f99d775511ea48-LOC.arff;124.0;38.0;1.1451612903225807;5.9988417832167835;0.7756283805670556;13.5;1.0;61.0;3.5925925925925926;0.0027149512719895014;
91;91_93ba8082c01fac2e8a82b26d1f7020a4e4d45156-LOC.arff;124.0;38.0;1.1451612903225807;5.9988417832167835;0.7756283805670556;13.5;1.0;61.0;3.5925925925925926;0.0027149512719895014;
92;92_e9d2043a1d4a9661e83dadc7ab26093f45939b46-LOC.arff;124.0;38.0;1.1451612903225807;5.9988417832167835;0.7756283805670556;13.5;1.0;61.0;3.5925925925925926;0.0027149512719895014;
93;93_51c56763d267cfd3d2016eff243959ace415df47-LOC.arff;124.0;38.0;1.1451612903225807;5.9988417832167835;0.7756283805670556;13.5;1.0;61.0;3.5925925925925926;0.0027149512719895014;
94;94_7de9144d5d011574967b46e98714c3b4d52d1884-LOC.arff;128.0;38.0;1.140625;5.918252840909091;0.7922077509625487;13.5;1.0;63.0;3.740740740740741;0.002774237017939163;
95;95_34eb16a5195da0f0ade44e336831d21dff54079d-LOC.arff;128.0;38.0;1.140625;5.918252840909091;0.7922077509625487;13.5;1.0;63.0;3.740740740740741;0.002774237017939163;
96;96_0d2f6c16974e7141a02c9fd481185bc703285a6a-LOC.arff;128.0;38.0;1.140625;5.918252840909091;0.7922077509625487;13.5;1.0;63.0;3.740740740740741;0.002774237017939163;
97;97_2b57726f7934d9ee1ccb19bbb5abb2bf01d9153c-LOC.arff;128.0;38.0;1.140625;5.918252840909091;0.7922077509625487;13.5;1.0;63.0;3.740740740740741;0.002774237017939163;
98;98_c571a573d447b9ded8d08722c63fea237820885e-LOC.arff;128.0;38.0;1.140625;5.918252840909091;0.7922077509625487;13.5;1.0;63.0;3.740740740740741;0.002774237017939163;
99;99_f3af85706152f7ed475251b916fc57b1790c4e41-LOC.arff;141.0;38.0;1.127659574468085;5.725818630382775;0.8404270698693945;13.5;1.0;69.5;4.222222222222222;0.0025184562999731406;
