commit;Dataset;NumOfInstances;NumOfLabels;Cardinality;MeanIR;CVIR;MaxIRLb;MinIRLb;MaxImR;MinImR;Scumble;
100;100_4e18fb9e22091af6e3a33373437cdf592584a522-FRAGMENT.arff;25.0;31.0;1.0;2.6944444444444446;0.5207600464707821;4.0;1.0;24.0;5.25;0.0;
101;101_ef7549da15775a1567b47e8b840d97d52c8e3e0c-FRAGMENT.arff;25.0;31.0;1.0;2.6944444444444446;0.5207600464707821;4.0;1.0;24.0;5.25;0.0;
102;102_449f177068615c8d78fb4513776f08dcca6396a4-FRAGMENT.arff;25.0;31.0;1.0;2.6944444444444446;0.5207600464707821;4.0;1.0;24.0;5.25;0.0;
103;103_667b07d652f2c8371a98710cfc04a937cbcf0bcc-FRAGMENT.arff;25.0;31.0;1.0;2.6944444444444446;0.5207600464707821;4.0;1.0;24.0;5.25;0.0;
104;104_b53c128a38005fdeefc469ba603eee4b89dd13d5-FRAGMENT.arff;26.0;32.0;1.0;2.794871794871795;0.4978279562432574;4.0;1.0;25.0;5.5;0.0;
105;105_68cc9faf5751e01c9620ad10f0027956bc0020e0-FRAGMENT.arff;26.0;32.0;1.0;2.794871794871795;0.4978279562432574;4.0;1.0;25.0;5.5;0.0;
106;106_0842dd6d908e6f96451cb8319f99513b53592e8a-FRAGMENT.arff;26.0;32.0;1.0;2.794871794871795;0.4978279562432574;4.0;1.0;25.0;5.5;0.0;
107;107_01098ab0d946a6bc5abbfa894e593658c207e137-FRAGMENT.arff;27.0;32.0;1.0;2.6410256410256414;0.513875708653193;4.0;1.0;26.0;5.75;0.0;
108;108_255dcf23bc23c75833e4e8834879f312dad97842-FRAGMENT.arff;29.0;33.0;1.0;2.5952380952380953;0.5067446018302916;4.0;1.0;28.0;6.25;0.0;
109;109_7931825ee3006c787565191424a534e6fc9c8525-FRAGMENT.arff;29.0;33.0;1.0;2.5952380952380953;0.5067446018302916;4.0;1.0;28.0;6.25;0.0;
110;110_297f4dbded95d229f97815328fc8a86e57edde0c-FRAGMENT.arff;29.0;33.0;1.0;2.5952380952380953;0.5067446018302916;4.0;1.0;28.0;6.25;0.0;
111;111_cc5de4e9113dd441207985db9d26a39e73091a2d-FRAGMENT.arff;29.0;33.0;1.0;2.5952380952380953;0.5067446018302916;4.0;1.0;28.0;6.25;0.0;
112;112_b4d5ee0c9dbd03e30b5c62e57a8cff886bc58622-FRAGMENT.arff;29.0;33.0;1.0;2.5952380952380953;0.5067446018302916;4.0;1.0;28.0;6.25;0.0;
113;113_d08def390f92ffa09b4f5caa1aba2eaed7e2140f-FRAGMENT.arff;30.0;34.0;1.0;2.688888888888889;0.49022766439455295;4.0;1.0;29.0;6.5;0.0;
114;114_9349588937cef231db4e6861d02950d7d0d94d98-FRAGMENT.arff;30.0;34.0;1.0;2.688888888888889;0.49022766439455295;4.0;1.0;29.0;6.5;0.0;
115;115_114d8cb40b0408c8b43dc7084819b2f4a7844960-FRAGMENT.arff;30.0;34.0;1.0;2.688888888888889;0.49022766439455295;4.0;1.0;29.0;6.5;0.0;
116;116_dbe811dd3d6fc52b87e13d9f45db127c9c1327b0-FRAGMENT.arff;30.0;34.0;1.0;2.688888888888889;0.49022766439455295;4.0;1.0;29.0;6.5;0.0;
117;117_ab74f942866393542fa61b3ad17ff0125dad6eb0-FRAGMENT.arff;30.0;34.0;1.0;2.688888888888889;0.49022766439455295;4.0;1.0;29.0;6.5;0.0;
118;118_0453613ab67fd1c8a9ea33e34d833cb2a1e946fc-FRAGMENT.arff;30.0;34.0;1.0;2.688888888888889;0.49022766439455295;4.0;1.0;29.0;6.5;0.0;
119;119_cf94e04d35807cded32edd74b20ffe90765aca10-FRAGMENT.arff;30.0;34.0;1.0;2.688888888888889;0.49022766439455295;4.0;1.0;29.0;6.5;0.0;
120;120_be90a7f39e46fbd52ba01d87d40e7494a5787f30-FRAGMENT.arff;31.0;34.0;1.0;2.555555555555556;0.4995271866554808;4.0;1.0;30.0;6.75;0.0;
121;121_c665b4cf9e79afd246013bf348d9b77259cee2f3-FRAGMENT.arff;32.0;34.0;1.0;2.5111111111111115;0.5210836237452271;4.0;1.0;31.0;7.0;0.0;
122;122_50c76ea03dcc36be748ac0ade97982e027a9960e-FRAGMENT.arff;32.0;34.0;1.0;2.5111111111111115;0.5210836237452271;4.0;1.0;31.0;7.0;0.0;
123;123_748a70d588da74415260cbd1ac6455acba66dd5b-FRAGMENT.arff;32.0;34.0;1.0;2.5111111111111115;0.5210836237452271;4.0;1.0;31.0;7.0;0.0;
124;124_9991814cc333688c65cccd10bbc443c3840adab3-FRAGMENT.arff;32.0;35.0;1.0;2.5111111111111115;0.5210836237452271;4.0;1.0;31.0;7.0;0.0;
125;125_180d931c2a0a4bc198027322e9917419fbd66a2b-FRAGMENT.arff;33.0;35.0;1.0;2.604166666666667;0.5060318830534956;4.0;1.0;32.0;7.25;0.0;
126;126_5c6cc2b50cd4bb88654c736b9b53770222393ecd-FRAGMENT.arff;34.0;35.0;1.0;2.5833333333333335;0.5193448205805964;4.0;1.0;33.0;7.5;0.0;
127;127_fedc7a8caa2ab52d08f772821e1fbb88ea441ac9-FRAGMENT.arff;35.0;35.0;1.0;2.5416666666666665;0.539408204557511;4.0;1.0;34.0;7.75;0.0;
128;128_b3ece8fd451c017244d8f8ef7e00b3bd9d1cb788-FRAGMENT.arff;39.0;35.0;1.0;2.3125000000000004;0.5988924658895055;4.0;1.0;38.0;8.75;0.0;
129;129_4af31534ea0cfd1189e8b799249ae9f73b1c0c6c-FRAGMENT.arff;39.0;35.0;1.0;2.3125000000000004;0.5988924658895055;4.0;1.0;38.0;8.75;0.0;
12;12_048e08719bd9857b435a6559ab0ada8ff338a44b-FRAGMENT.arff;1.0;10.0;1.0;1.0;NaN;1.0;1.0;4.9E-324;1.7976931348623157E308;0.0;
130;130_e9599c45c368a6d7c9db82bae1ea6dd9dca21c2b-FRAGMENT.arff;40.0;35.0;1.0;2.291666666666667;0.6122352129066613;4.0;1.0;39.0;9.0;0.0;
131;131_4fdaa8b9a72ad289b74b8a9fa3858d7f2bbe1dcb-FRAGMENT.arff;41.0;35.0;1.0;2.848958333333333;0.62134275436354;5.0;1.0;40.0;7.2;0.0;
132;132_6b5f4541956b9b0aa7d7e49d04fff913150dc122-FRAGMENT.arff;41.0;35.0;1.0;2.848958333333333;0.62134275436354;5.0;1.0;40.0;7.2;0.0;
133;133_c89fffa801f241ef958bf81270005eabcc89c717-FRAGMENT.arff;41.0;35.0;1.0;2.848958333333333;0.62134275436354;5.0;1.0;40.0;7.2;0.0;
134;134_82b90bd20ca2db9fb77837021e8872b49b9ef1f3-FRAGMENT.arff;41.0;35.0;1.0;2.848958333333333;0.62134275436354;5.0;1.0;40.0;7.2;0.0;
135;135_688c48015958ffeed02f85049895e20bc723d601-FRAGMENT.arff;43.0;35.0;1.0;3.375;0.6412151244693108;6.0;1.0;42.0;6.166666666666667;0.0;
136;136_0298038bacb5027553c0c19c3078c207ccbdc509-FRAGMENT.arff;44.0;35.0;1.0;3.1875;0.6426269296838081;6.0;1.0;43.0;6.333333333333333;0.0;
137;137_8b3ee8a7e8ea754fae48358ac94539113145447a-FRAGMENT.arff;44.0;35.0;1.0;3.1875;0.6426269296838081;6.0;1.0;43.0;6.333333333333333;0.0;
138;138_188814e0fbb9e23b15ab387d9e6f60c36bed014d-FRAGMENT.arff;44.0;35.0;1.0;3.1875;0.6426269296838081;6.0;1.0;43.0;6.333333333333333;0.0;
139;139_a9ae591e5b01a6cb8a3e20be9431912b2ce0a3ef-FRAGMENT.arff;44.0;35.0;1.0;3.1875;0.6426269296838081;6.0;1.0;43.0;6.333333333333333;0.0;
13;13_b2a20839ea2348852647e103ce22eb1483e10cf1-FRAGMENT.arff;1.0;10.0;1.0;1.0;NaN;1.0;1.0;4.9E-324;1.7976931348623157E308;0.0;
140;140_554ba7b71baf1378e2332cffe863709685bb0dca-FRAGMENT.arff;44.0;35.0;1.0;3.1875;0.6426269296838081;6.0;1.0;43.0;6.333333333333333;0.0;
141;141_cdfb89796c682c97308f6c7d78d130cf339bfe9e-FRAGMENT.arff;44.0;35.0;1.0;3.1875;0.6426269296838081;6.0;1.0;43.0;6.333333333333333;0.0;
142;142_03f72268722bb6eaf3b14f1c77b155dd6bf323fc-FRAGMENT.arff;45.0;35.0;1.0;3.125;0.6622788939210831;6.0;1.0;44.0;6.5;0.0;
143;143_a7362b37bce5eebc9bca6d1c770c784e6f285fe6-FRAGMENT.arff;45.0;35.0;1.0;3.125;0.6622788939210831;6.0;1.0;44.0;6.5;0.0;
144;144_6affc6b343f9734df6e965e91af29d89f2251f80-FRAGMENT.arff;45.0;35.0;1.0;3.125;0.6622788939210831;6.0;1.0;44.0;6.5;0.0;
145;145_075a5f0820676f7915b5b6459eb7ceace99e3a4e-FRAGMENT.arff;49.0;35.0;1.0;4.104166666666666;0.687702677127593;8.0;1.0;48.0;5.125;0.0;
146;146_9a9f404b99b66e7d362b3fbc71c96f52538c653e-FRAGMENT.arff;50.0;35.0;1.0;4.020833333333333;0.7076438030108435;8.0;1.0;49.0;5.25;0.0;
147;147_f502a5ed7e8b04a1f31acfb86b987852e4a8c62d-FRAGMENT.arff;50.0;35.0;1.0;4.020833333333333;0.7076438030108435;8.0;1.0;49.0;5.25;0.0;
148;148_f34e8318818821defb487010325fa98563e3b3c1-FRAGMENT.arff;51.0;35.0;1.0;3.9791666666666665;0.7215665195877636;8.0;1.0;50.0;5.375;0.0;
149;149_2ada7aed210465d18a77e3250020b640e646bb09-FRAGMENT.arff;51.0;35.0;1.0;3.9791666666666665;0.7215665195877636;8.0;1.0;50.0;5.375;0.0;
14;14_e72c0b188d7dca3bccfb2a409d0156e76d114f85-FRAGMENT.arff;4.0;11.0;1.0;2.0;0.7071067811865476;3.0;1.0;3.0;3.0;0.0;
150;150_af9dd2fc4031b97622a3f10bf4b980fa5685ba11-FRAGMENT.arff;51.0;35.0;1.0;3.9791666666666665;0.7215665195877636;8.0;1.0;50.0;5.375;0.0;
151;151_4d904e7132ad4e0072813ffa2264ca51a5af70e9-FRAGMENT.arff;52.0;35.0;1.0;3.9541666666666666;0.7311999321325204;8.0;1.0;51.0;5.5;0.0;
152;152_26198589d9af8728d9e01ec9fd8d99a362ccde1c-FRAGMENT.arff;53.0;35.0;1.0;3.9375;0.7381562370096064;8.0;1.0;52.0;5.625;0.0;
153;153_40cd936a1f9b664dfd7c3ea4fb0de0c04bb0a48c-FRAGMENT.arff;53.0;37.0;1.0;3.9375;0.7381562370096064;8.0;1.0;52.0;5.625;0.0;
154;154_6d4ab95a471949ad6453b3e0516da42c6a6eb959-FRAGMENT.arff;56.0;37.0;1.0;4.378306878306878;0.6946562921040488;8.0;1.0;55.0;6.0;0.0;
155;155_edd65c537c2f6d1c993cd3afde1bee18732c417b-FRAGMENT.arff;56.0;37.0;1.0;4.378306878306878;0.6946562921040488;8.0;1.0;55.0;6.0;0.0;
156;156_e535484b612b11be313fc5c8cf4ce4f84efe0dac-FRAGMENT.arff;56.0;37.0;1.0;4.378306878306878;0.6946562921040488;8.0;1.0;55.0;6.0;0.0;
157;157_efe8afe333c056e76e6026bbd0e40dcb49eaf3a5-FRAGMENT.arff;57.0;38.0;1.0;4.37037037037037;0.6980027707120214;8.0;1.0;56.0;6.125;0.0;
158;158_4e30d3b5e6cfc16791b321e3a67e9b7dd287437b-FRAGMENT.arff;66.0;38.0;1.0;3.9689223057644107;0.7383392822609588;8.0;1.0;65.0;7.25;0.0;
159;159_ad7a09ae130d82cb8cb47dd2573aa42d3df0e4f8-FRAGMENT.arff;69.0;38.0;1.0;4.434210526315789;0.7502241327287479;9.0;1.0;68.0;6.666666666666667;0.0;
15;15_0da85d442c34ab69ca565f3d700201f2bbd30ed3-FRAGMENT.arff;5.0;11.0;1.0;2.5;0.8485281374238569;4.0;1.0;4.0;4.0;0.0;
160;160_f4d51c3d7cd5823ad420472d1fe9118918d89025-FRAGMENT.arff;69.0;38.0;1.0;4.434210526315789;0.7502241327287479;9.0;1.0;68.0;6.666666666666667;0.0;
161;161_87271012b9fd8cfef5a76a849da8b23c7f07f32a-FRAGMENT.arff;69.0;38.0;1.0;4.434210526315789;0.7502241327287479;9.0;1.0;68.0;6.666666666666667;0.0;
162;162_5029820eaaf7d7b3f1047e60c66c3ea08d185073-FRAGMENT.arff;69.0;38.0;1.0;4.434210526315789;0.7502241327287479;9.0;1.0;68.0;6.666666666666667;0.0;
163;163_b38f82ec782f52eb9b13817915abd9a1d5c7b7a7-FRAGMENT.arff;69.0;38.0;1.0;4.434210526315789;0.7502241327287479;9.0;1.0;68.0;6.666666666666667;0.0;
164;164_fdcc4275a5c8dbfec7c6c7c4b185952b743fe61d-FRAGMENT.arff;72.0;38.0;1.0;4.107142857142857;0.7692622018685779;9.0;1.0;71.0;7.0;0.0;
165;165_73b4305e70cd203b71a66f043429aad06c695923-FRAGMENT.arff;76.0;38.0;1.0;4.48015873015873;0.7952213602360059;10.0;1.0;75.0;6.6;0.0;
166;166_a208858ddba795bae4d456baa2255d556ddc1e6d-FRAGMENT.arff;77.0;39.0;1.0;4.756150793650794;0.773904625076773;10.0;1.0;76.0;6.7;0.0;
167;167_903ea9fa291a8a8b3eb0a4bbf7bac0f789425144-FRAGMENT.arff;78.0;39.0;1.0;4.506150793650794;0.769979263371159;10.0;1.0;77.0;6.8;0.0;
168;168_b6faf45260096b94a6a1ea3804e3e51c4ccdf346-FRAGMENT.arff;78.0;39.0;1.0;4.506150793650794;0.769979263371159;10.0;1.0;77.0;6.8;0.0;
169;169_a6d3aab47aacec97b6e6f78b676b73c9617e30d4-FRAGMENT.arff;87.0;39.0;1.0;4.007539682539683;0.8174079497983326;10.0;1.0;86.0;7.7;0.0;
16;16_dbc64c7dee79ac92f5348641b381c5c713563aa9-FRAGMENT.arff;5.0;11.0;1.0;2.5;0.8485281374238569;4.0;1.0;4.0;4.0;0.0;
170;170_f48d07fef7d1a4058482cecdbfc9b4f8a1c06e01-FRAGMENT.arff;87.0;39.0;1.0;4.007539682539683;0.8174079497983326;10.0;1.0;86.0;7.7;0.0;
171;171_6cd2e4471401ed42c3f1be08a4843106e09ca903-FRAGMENT.arff;87.0;39.0;1.0;4.007539682539683;0.8174079497983326;10.0;1.0;86.0;7.7;0.0;
172;172_962526597fa01f5fbd7d61b9109cc9413ff5670f-FRAGMENT.arff;87.0;39.0;1.0;4.007539682539683;0.8174079497983326;10.0;1.0;86.0;7.7;0.0;
173;173_9fb462edcf9aef77e1e4205db3602bfa03ecf5b5-FRAGMENT.arff;87.0;39.0;1.0;4.007539682539683;0.8174079497983326;10.0;1.0;86.0;7.7;0.0;
174;174_eea80316a26c365d666d13698eabc8317cb611f0-FRAGMENT.arff;87.0;39.0;1.0;4.007539682539683;0.8174079497983326;10.0;1.0;86.0;7.7;0.0;
175;175_e6ad400738f994f6a90e4e94a591b0c86303ef6a-FRAGMENT.arff;87.0;39.0;1.0;4.007539682539683;0.8174079497983326;10.0;1.0;86.0;7.7;0.0;
176;176_8bed6f98df49e82a0edf1fd56d84e6a51298f703-FRAGMENT.arff;90.0;40.0;1.0;4.030990173847317;0.7973629364463332;10.0;1.0;89.0;8.0;0.0;
177;177_8f06e725d5361c841621eb6b78bd496649bc1558-FRAGMENT.arff;90.0;40.0;1.0;4.030990173847317;0.7973629364463332;10.0;1.0;89.0;8.0;0.0;
178;178_5d384282eb9568df7445e35730792219866531ac-FRAGMENT.arff;90.0;40.0;1.0;4.030990173847317;0.7973629364463332;10.0;1.0;89.0;8.0;0.0;
179;179_80bcf4f0d755be589ea1d8270c986f94146e31fd-FRAGMENT.arff;90.0;40.0;1.0;4.030990173847317;0.7973629364463332;10.0;1.0;89.0;8.0;0.0;
17;17_b2026851ef304444182724685a9d17f8db843990-FRAGMENT.arff;5.0;11.0;1.0;2.5;0.8485281374238569;4.0;1.0;4.0;4.0;0.0;
180;180_28a570920d28e96845d56f965ec5c2c7e8210a31-FRAGMENT.arff;90.0;40.0;1.0;4.030990173847317;0.7973629364463332;10.0;1.0;89.0;8.0;0.0;
181;181_a33a0a1cb08fde9ffedec2489ffd38cbf5ed393a-FRAGMENT.arff;90.0;40.0;1.0;4.030990173847317;0.7973629364463332;10.0;1.0;89.0;8.0;0.0;
182;182_066e93cf07f5d46f0372a1bd5b94cf4aa939fc84-FRAGMENT.arff;91.0;40.0;1.0;3.991307634164777;0.8088374932743088;10.0;1.0;90.0;8.1;0.0;
183;183_977d52c127706523c267b528145d9183b7d2809c-FRAGMENT.arff;91.0;40.0;1.0;3.991307634164777;0.8088374932743088;10.0;1.0;90.0;8.1;0.0;
184;184_f7ba6d32e7f27265811cb61b56fbaaad7dae6dd0-FRAGMENT.arff;94.0;40.0;1.0;3.8484504913076343;0.8439162342354005;10.0;1.0;93.0;8.4;0.0;
185;185_8feae10665a7dc33a43728d00048453db470f078-FRAGMENT.arff;94.0;40.0;1.0;3.8484504913076343;0.8439162342354005;10.0;1.0;93.0;8.4;0.0;
186;186_f131502e24357933c03a6a3620af6e301a84ebe7-FRAGMENT.arff;95.0;40.0;1.0;4.228533635676493;0.8459187640871177;11.0;1.0;94.0;7.636363636363637;0.0;
187;187_6a5197e764eee00db1a8286e5411f11c081a58fb-FRAGMENT.arff;95.0;40.0;1.0;4.228533635676493;0.8459187640871177;11.0;1.0;94.0;7.636363636363637;0.0;
188;188_d41979868da073d4421d8980d6bc4c39db23f3d2-FRAGMENT.arff;100.0;40.0;1.0;4.431993403421976;0.8857756324657657;12.0;1.0;99.0;7.333333333333333;0.0;
189;189_b031141e3e1c6f2b4310a3face75839b7b56b050-FRAGMENT.arff;100.0;40.0;1.0;4.431993403421976;0.8857756324657657;12.0;1.0;99.0;7.333333333333333;0.0;
18;18_5bfce84b38946057d70bfce3700ee68c03609572-FRAGMENT.arff;5.0;11.0;1.0;2.5;0.8485281374238569;4.0;1.0;4.0;4.0;0.0;
190;190_a3cd83e06baf0cedccd1c5a553b60df23742773d-FRAGMENT.arff;100.0;40.0;1.0;4.431993403421976;0.8857756324657657;12.0;1.0;99.0;7.333333333333333;0.0;
191;191_29b35c9ba28f9d15a6db00d1995796e7ba805bb0-FRAGMENT.arff;101.0;41.0;1.0;4.403421974850548;0.8944989537816661;12.0;1.0;100.0;7.416666666666667;0.0;
192;192_26c03c9772633029e699bac680a8c66d0887d369-FRAGMENT.arff;106.0;41.0;1.0;4.417552144824874;0.8810272741773304;12.0;1.0;105.0;7.833333333333333;0.0;
193;193_5afcb8a8079214815b195d80415a8f460b0be86a-FRAGMENT.arff;115.0;41.0;1.0;4.902777777777778;0.9356954620504275;14.0;1.0;114.0;7.214285714285714;1.7377403863698104E-17;
194;194_31ada434bf4ed3b1cb7e29c9d9f43ec92b7610c0-FRAGMENT.arff;115.0;43.0;1.0;4.902777777777778;0.9356954620504275;14.0;1.0;114.0;7.214285714285714;1.7377403863698104E-17;
195;195_2f0143ea314743bee3d73514b13d82248abb3d56-FRAGMENT.arff;117.0;43.0;1.017094017094017;5.271990740740741;0.9032038056046491;14.0;1.0;116.0;7.357142857142857;0.0012327459624339873;
196;196_daf740fc48b8d785baa49eaf728d68eff645be38-FRAGMENT.arff;118.0;43.0;1.0169491525423728;5.261574074074074;0.9064622530541501;14.0;1.0;117.0;7.428571428571429;0.0012222989627523433;
197;197_5b6462d11ad4772d39bf053622fc219a157eec9c-FRAGMENT.arff;118.0;43.0;1.0169491525423728;5.261574074074074;0.9064622530541501;14.0;1.0;117.0;7.428571428571429;0.0012222989627523433;
198;198_327cd7259bc63031346417a44fd84b4d76ac281c-FRAGMENT.arff;120.0;43.0;1.0166666666666666;5.238390313390314;0.9132935272477226;14.0;1.0;119.0;7.571428571428571;0.0012019273133731375;
199;199_6738b372b43a779c9526218acc9a36a821208fa2-FRAGMENT.arff;125.0;43.0;1.016;5.159027777777777;0.9359350564011899;14.0;1.0;124.0;7.928571428571429;0.00115385022083822;
19;19_3218b98f20b7897418d04d94f1bca2da4bea6616-FRAGMENT.arff;5.0;11.0;1.0;2.5;0.8485281374238569;4.0;1.0;4.0;4.0;0.0;
200;200_eb555b951c3d12f1d79cbffbd5897973e600ea5e-FRAGMENT.arff;125.0;43.0;1.016;5.159027777777777;0.9359350564011899;14.0;1.0;124.0;7.928571428571429;0.00115385022083822;
201;201_112583761830054086c0b9d280a79d9ca129d0f3-FRAGMENT.arff;125.0;43.0;1.016;5.159027777777777;0.9359350564011899;14.0;1.0;124.0;7.928571428571429;0.00115385022083822;
202;202_ffdf4ee7724c8eafdc4488687128a8ec05ac8567-FRAGMENT.arff;125.0;43.0;1.016;5.159027777777777;0.9359350564011899;14.0;1.0;124.0;7.928571428571429;0.00115385022083822;
203;203_8588c74c8375e460633eb479af0d784ab764e449-FRAGMENT.arff;125.0;43.0;1.016;5.159027777777777;0.9359350564011899;14.0;1.0;124.0;7.928571428571429;0.00115385022083822;
204;204_293051883ffd9e5bb5d03e1f98539ff9739d7d80-FRAGMENT.arff;125.0;43.0;1.016;5.159027777777777;0.9359350564011899;14.0;1.0;124.0;7.928571428571429;0.00115385022083822;
205;205_54b52c2875ab0d61993de6b7625532a50c2e39b1-FRAGMENT.arff;136.0;43.0;1.0147058823529411;5.301587301587301;0.9935655284373818;15.0;1.0;135.0;8.066666666666666;0.0014705882352941174;
206;206_d2fa85c92f9ab620af80798f14da4d7655b08a4c-FRAGMENT.arff;136.0;43.0;1.0147058823529411;5.301587301587301;0.9935655284373818;15.0;1.0;135.0;8.066666666666666;0.0014705882352941174;
207;207_f344a88fa9487458187bc3e322b71167ba9b61d5-FRAGMENT.arff;142.0;43.0;1.0140845070422535;5.273809523809523;1.0029162831593812;15.0;1.0;141.0;8.466666666666667;0.0014084507042253518;
208;208_378b94f1fdc56ac3b80ccd5a4bb67daebe3c533e-FRAGMENT.arff;143.0;44.0;1.013986013986014;5.662857142857142;0.9767452643212906;15.0;1.0;142.0;8.533333333333333;0.0013986013986013984;
209;209_48e751d933fbf9502c4a0f533d8457c2fcf91056-FRAGMENT.arff;143.0;44.0;1.013986013986014;5.662857142857142;0.9767452643212906;15.0;1.0;142.0;8.533333333333333;0.0013986013986013984;
20;20_88767a4497b845bfd011b9bc45988264ff114a90-FRAGMENT.arff;5.0;11.0;1.0;2.5;0.8485281374238569;4.0;1.0;4.0;4.0;0.0;
210;210_d02618d626a9a38d7fbedb059bbc2f2579d1509c-FRAGMENT.arff;143.0;44.0;1.013986013986014;5.662857142857142;0.9767452643212906;15.0;1.0;142.0;8.533333333333333;0.0013986013986013984;
211;211_95ea0aca442a43251d1fb111ef2bc5e6cd28a583-FRAGMENT.arff;145.0;44.0;1.013793103448276;5.65073593073593;0.980512136606339;15.0;1.0;144.0;8.666666666666666;0.0013793103448275859;
212;212_aa4e0e03fdf71880e3870af9b5722ee1d21b9a83-FRAGMENT.arff;145.0;44.0;1.013793103448276;5.65073593073593;0.980512136606339;15.0;1.0;144.0;8.666666666666666;0.0013793103448275859;
213;213_dfc29e8759ca1cf4cc4ca9c24bc5e120b18bb777-FRAGMENT.arff;145.0;44.0;1.013793103448276;5.65073593073593;0.980512136606339;15.0;1.0;144.0;8.666666666666666;0.0013793103448275859;
214;214_4206ee7b9d0b653a55b2ef288bfa583fa4a2998c-FRAGMENT.arff;145.0;44.0;1.013793103448276;5.65073593073593;0.980512136606339;15.0;1.0;144.0;8.666666666666666;0.0013793103448275859;
215;215_279a55ba6f7b8921fda02d8eee657c76d5a568f3-FRAGMENT.arff;145.0;44.0;1.013793103448276;5.65073593073593;0.980512136606339;15.0;1.0;144.0;8.666666666666666;0.0013793103448275859;
216;216_f00d173cb413e034de28e68b4dec44ded193688d-FRAGMENT.arff;149.0;44.0;1.0134228187919463;5.17073593073593;1.0069446753299316;15.0;1.0;148.0;8.933333333333334;0.0013422818791946306;
217;217_d8b137bdea59555a157eab1e6d7b299425a5260b-FRAGMENT.arff;149.0;44.0;1.0134228187919463;5.17073593073593;1.0069446753299316;15.0;1.0;148.0;8.933333333333334;0.0013422818791946306;
218;218_ac3a1f72c5855fc0d36b19c8e66e6d68a39cbd15-FRAGMENT.arff;153.0;44.0;1.0130718954248366;5.481038961038962;1.0173881998234455;16.0;1.0;152.0;8.5625;0.0013071895424836598;
219;219_2e38223968881c7e5dfd4bd3d652f2ccf838b825-FRAGMENT.arff;155.0;44.0;1.0129032258064516;5.444190476190476;1.0269926776361205;16.0;1.0;154.0;8.6875;0.001682813016130087;
21;21_a55c668c5d08045067d982b2e1015cd2b93241ea-FRAGMENT.arff;5.0;11.0;1.0;2.5;0.8485281374238569;4.0;1.0;4.0;4.0;0.0;
220;220_7fb35d0deba8a34e2fbae152608d059641b6af8b-FRAGMENT.arff;155.0;44.0;1.0129032258064516;5.444190476190476;1.0269926776361205;16.0;1.0;154.0;8.6875;0.001682813016130087;
221;221_c9e014b9dc1b37c1f064196c04bbaa0c168a0373-FRAGMENT.arff;158.0;44.0;1.0126582278481013;5.411643467643468;1.0364969672003101;16.0;1.0;157.0;8.875;0.0016508608702541993;
222;222_0085dd085a01486221274e38f0621ecda216f7e1-FRAGMENT.arff;158.0;44.0;1.0126582278481013;5.411643467643468;1.0364969672003101;16.0;1.0;157.0;8.875;0.0016508608702541993;
223;223_0d0fb5c617201c805dfa76feaaf03533bc284675-FRAGMENT.arff;158.0;44.0;1.0126582278481013;5.411643467643468;1.0364969672003101;16.0;1.0;157.0;8.875;0.0016508608702541993;
224;224_a08b5d3dc11fecb611c3a8c63aa307734a2f189c-FRAGMENT.arff;158.0;44.0;1.0126582278481013;5.411643467643468;1.0364969672003101;16.0;1.0;157.0;8.875;0.0016508608702541993;
225;225_52184e7d7bb4f36a9580f7d831a4b57243740e07-FRAGMENT.arff;162.0;44.0;1.0123456790123457;5.382437118437118;1.0457543757395122;16.0;1.0;161.0;9.125;0.0016100988734577993;
226;226_691a336ec5b5b50957b124c57294bd229475330b-FRAGMENT.arff;162.0;44.0;1.0123456790123457;5.382437118437118;1.0457543757395122;16.0;1.0;161.0;9.125;0.0016100988734577993;
227;227_29f7dfca9c7e7caba6388867790ab19e07329526-FRAGMENT.arff;162.0;44.0;1.0123456790123457;5.382437118437118;1.0457543757395122;16.0;1.0;161.0;9.125;0.0016100988734577993;
228;228_9a189ef82abd288d8e4cd72fe7a54e7c0701f6b2-FRAGMENT.arff;164.0;44.0;1.0121951219512195;5.711980463980464;1.0479454230857979;17.0;1.0;163.0;8.647058823529411;0.00159046352134248;
229;229_810533b23a8a3795a4e12e31b4fc034ad6cb7264-FRAGMENT.arff;164.0;44.0;1.0121951219512195;5.711980463980464;1.0479454230857979;17.0;1.0;163.0;8.647058823529411;0.00159046352134248;
22;22_2f61cc1a34aa9f88929105d9941d3c2175a7a17b-FRAGMENT.arff;5.0;15.0;1.0;2.5;0.8485281374238569;4.0;1.0;4.0;4.0;0.0;
230;230_bda5da747ed28caba5026e2a3f9a998639804822-FRAGMENT.arff;164.0;44.0;1.0121951219512195;5.711980463980464;1.0479454230857979;17.0;1.0;163.0;8.647058823529411;0.00159046352134248;
231;231_ff4e01412c82f6647081202f4158672ba2001cce-FRAGMENT.arff;164.0;44.0;1.0121951219512195;5.711980463980464;1.0479454230857979;17.0;1.0;163.0;8.647058823529411;0.00159046352134248;
232;232_c865416bc59aa403dc02cc4d2310c2835df5cadb-FRAGMENT.arff;164.0;44.0;1.0121951219512195;5.711980463980464;1.0479454230857979;17.0;1.0;163.0;8.647058823529411;0.00159046352134248;
233;233_279b5e11edf4a13096bb3eb0b42d2b65412eb752-FRAGMENT.arff;164.0;44.0;1.0121951219512195;5.711980463980464;1.0479454230857979;17.0;1.0;163.0;8.647058823529411;0.00159046352134248;
234;234_95ca9a1c1af6c621330b2e213409c36aaccc2190-FRAGMENT.arff;164.0;44.0;1.0121951219512195;5.711980463980464;1.0479454230857979;17.0;1.0;163.0;8.647058823529411;0.00159046352134248;
235;235_b58828b570e88addafb90aec7ad5555e6583f361-FRAGMENT.arff;164.0;44.0;1.0121951219512195;5.711980463980464;1.0479454230857979;17.0;1.0;163.0;8.647058823529411;0.00159046352134248;
236;236_9193ed480ab626a7091ebe53a2cff7ec9daee6ad-FRAGMENT.arff;164.0;44.0;1.0121951219512195;5.711980463980464;1.0479454230857979;17.0;1.0;163.0;8.647058823529411;0.00159046352134248;
237;237_0420121214e1bbbc7ffe08033bc5edcd7bd370ee-FRAGMENT.arff;164.0;44.0;1.0121951219512195;5.711980463980464;1.0479454230857979;17.0;1.0;163.0;8.647058823529411;0.00159046352134248;
238;238_5bd9ba2c137f3d577e9f07bb41e8d1795c76ebef-FRAGMENT.arff;166.0;44.0;1.0240963855421688;5.6164566544566545;1.0727831597575002;17.0;1.0;165.0;8.764705882352942;0.0020930787991626336;
239;239_95d5ba6940853fb2f73e579081c148e0fc0f8b42-FRAGMENT.arff;166.0;44.0;1.0240963855421688;5.6164566544566545;1.0727831597575002;17.0;1.0;165.0;8.764705882352942;0.0020930787991626336;
23;23_f1681837f8ca0ae43f7513496490c7ee81754123-FRAGMENT.arff;5.0;15.0;1.0;2.5;0.8485281374238569;4.0;1.0;4.0;4.0;0.0;
240;240_18cd5d4d3a676c23329d2436879554f9c1336a0b-FRAGMENT.arff;166.0;44.0;1.0240963855421688;5.6164566544566545;1.0727831597575002;17.0;1.0;165.0;8.764705882352942;0.0020930787991626336;
241;241_4329388540ad8fefcada2ffe011f40cfcb65fa3e-FRAGMENT.arff;166.0;44.0;1.0240963855421688;5.6164566544566545;1.0727831597575002;17.0;1.0;165.0;8.764705882352942;0.0020930787991626336;
242;242_50933e0a4ad2a55b5289ea1eef2e244298a24b04-FRAGMENT.arff;173.0;44.0;1.023121387283237;5.555431013431014;1.0912232848536487;17.0;1.0;172.0;9.176470588235293;0.0020083877494855326;
243;243_ea03157948cba1d95b09e78b49049da18891dee6-FRAGMENT.arff;173.0;44.0;1.023121387283237;5.555431013431014;1.0912232848536487;17.0;1.0;172.0;9.176470588235293;0.0020083877494855326;
244;244_9f84e773ba45ecd657f6d0a9c2da16b534042bc5-FRAGMENT.arff;173.0;44.0;1.023121387283237;5.555431013431014;1.0912232848536487;17.0;1.0;172.0;9.176470588235293;0.0020083877494855326;
245;245_fd0b7cce12c304aa1830e37cd5dfa3a789f8a50e-FRAGMENT.arff;173.0;44.0;1.023121387283237;5.555431013431014;1.0912232848536487;17.0;1.0;172.0;9.176470588235293;0.0020083877494855326;
246;246_d9deb7cab1de4d29f4df5e046541d5dbc00bc262-FRAGMENT.arff;181.0;44.0;1.022099447513812;5.493188256188256;1.1106472131683476;17.0;1.0;180.0;9.647058823529411;0.0028746017445766404;
247;247_053d5e7e9e0950ec6a5b377d60276b0ff33a9898-FRAGMENT.arff;182.0;44.0;1.021978021978022;5.476997779997779;1.1153699758267324;17.0;1.0;181.0;9.705882352941176;0.002858807229496549;
248;248_e843ce964ba41b08ef363d1007136ccf43f3d775-FRAGMENT.arff;184.0;44.0;1.0217391304347827;5.430854922854922;1.1277930077759595;17.0;1.0;183.0;9.823529411764707;0.002827733237871587;
249;249_1d8e68ace74e03457012a81b2ea744813048855c-FRAGMENT.arff;186.0;44.0;1.021505376344086;5.42552158952159;1.1296305684763979;17.0;1.0;185.0;9.941176470588236;0.002797327504131023;
24;24_7fa68760b86a68bcd9684a065b9ac19cd5f421a6-FRAGMENT.arff;5.0;15.0;1.0;2.5;0.8485281374238569;4.0;1.0;4.0;4.0;0.0;
250;250_2f07e6912c521f1c57db707812128ead0fd51420-FRAGMENT.arff;186.0;44.0;1.021505376344086;5.42552158952159;1.1296305684763979;17.0;1.0;185.0;9.941176470588236;0.002797327504131023;
251;251_2e9c173a3c4cd3153aaf4798c5b433cb85232129-FRAGMENT.arff;186.0;44.0;1.021505376344086;5.42552158952159;1.1296305684763979;17.0;1.0;185.0;9.941176470588236;0.002797327504131023;
252;252_241a3ccf2ef6911a391053e48a0d07dca81463b6-FRAGMENT.arff;187.0;44.0;1.0213903743315509;5.413378732378733;1.1333619546712597;17.0;1.0;186.0;10.0;0.0027823685335206967;
253;253_36ff8e52e227aa94c2bb30758131e27cd242a573-FRAGMENT.arff;187.0;44.0;1.0213903743315509;5.413378732378733;1.1333619546712597;17.0;1.0;186.0;10.0;0.0027823685335206967;
254;254_881954db2044e960e4b332647f441e0026496855-FRAGMENT.arff;189.0;44.0;1.0211640211640212;5.3944898434898425;1.139348140547694;17.0;1.0;188.0;10.117647058823529;0.0027529254802559273;
255;255_42c929b4a881468cde3242668b524cf77636b505-FRAGMENT.arff;189.0;44.0;1.0211640211640212;5.3944898434898425;1.139348140547694;17.0;1.0;188.0;10.117647058823529;0.0027529254802559273;
256;256_d00383f993356eeb45c057716355f170ed75965e-FRAGMENT.arff;189.0;44.0;1.0211640211640212;5.3944898434898425;1.139348140547694;17.0;1.0;188.0;10.117647058823529;0.0027529254802559273;
257;257_6884dd91207106edb4c0d96e88dda9ffaccacd97-FRAGMENT.arff;189.0;45.0;1.0211640211640212;5.3944898434898425;1.139348140547694;17.0;1.0;188.0;10.117647058823529;0.0027529254802559273;
258;258_1aa654f9da31f80b5e0a42a60fbb010d6a208241-FRAGMENT.arff;191.0;45.0;1.0209424083769634;5.38915651015651;1.1412008965946194;17.0;1.0;190.0;10.235294117647058;0.002724099035436485;
259;259_115229b528e5da53cb7dc982acd579ea518ac5c8-FRAGMENT.arff;193.0;45.0;1.0310880829015545;4.924489843489843;1.150072265432443;17.0;1.0;192.0;10.352941176470589;0.003997786918413522;
25;25_ff05a0428366fda1870c6cbabe19d53de243de83-FRAGMENT.arff;5.0;15.0;1.0;2.5;0.8485281374238569;4.0;1.0;4.0;4.0;0.0;
260;260_2ebda98af2aaed937042fc41b8be24c8e0884435-FRAGMENT.arff;199.0;45.0;1.0402010050251256;5.114215372862432;1.1767105528404875;18.0;1.0;198.0;10.055555555555555;0.004536915359494244;
261;261_09c11338295d77ffb2cc56e8ad7acc2fc6eefbd1-FRAGMENT.arff;200.0;46.0;1.04;5.609822473906184;1.1435461829777094;18.0;1.0;199.0;10.11111111111111;0.004514230782696773;
262;262_37243d18d11b70ebde6aa972c91448e07e7826d7-FRAGMENT.arff;202.0;46.0;1.0445544554455446;5.248009287092998;1.1345000245299006;18.0;1.0;201.0;10.222222222222221;0.004830373723588366;
263;263_c142b689b16abeeffb3e6f0a36a7e87c93c78c74-FRAGMENT.arff;202.0;46.0;1.0445544554455446;5.248009287092998;1.1345000245299006;18.0;1.0;201.0;10.222222222222221;0.004830373723588366;
264;264_7d9aac070b26d5dc98d068ad037af92f446eac6d-FRAGMENT.arff;202.0;46.0;1.0445544554455446;5.248009287092998;1.1345000245299006;18.0;1.0;201.0;10.222222222222221;0.004830373723588366;
265;265_f3dbd24518771423bcf0983d5e312ee5c55ab836-FRAGMENT.arff;202.0;46.0;1.0445544554455446;5.248009287092998;1.1345000245299006;18.0;1.0;201.0;10.222222222222221;0.004830373723588366;
266;266_f4f636e328b2226881207b73f7f87c1eff2297ad-FRAGMENT.arff;202.0;46.0;1.0445544554455446;5.248009287092998;1.1345000245299006;18.0;1.0;201.0;10.222222222222221;0.004830373723588366;
267;267_3c5524eb88a76941f8669dc15d87c8d39e7fd513-FRAGMENT.arff;202.0;46.0;1.0445544554455446;5.248009287092998;1.1345000245299006;18.0;1.0;201.0;10.222222222222221;0.004830373723588366;
268;268_4de66587d9d0d7a2adb4a6c0814f11cb10469924-FRAGMENT.arff;202.0;46.0;1.0445544554455446;5.248009287092998;1.1345000245299006;18.0;1.0;201.0;10.222222222222221;0.004830373723588366;
269;269_fb0cce12e77d3cba4d8f4d0009dda72813ee7164-FRAGMENT.arff;202.0;46.0;1.0445544554455446;5.248009287092998;1.1345000245299006;18.0;1.0;201.0;10.222222222222221;0.004830373723588366;
26;26_9b3d7c5b22bbf94e06cd3fbbd0fe45343c80d825-FRAGMENT.arff;5.0;16.0;1.0;2.5;0.8485281374238569;4.0;1.0;4.0;4.0;0.0;
270;270_5937a99d9c71d8f56bdcd8463ff3b51777b00ed0-FRAGMENT.arff;202.0;46.0;1.0445544554455446;5.248009287092998;1.1345000245299006;18.0;1.0;201.0;10.222222222222221;0.004830373723588366;
271;271_03f2ea38e1c2d926fa361b29f3b494fc46ee47d7-FRAGMENT.arff;202.0;46.0;1.0445544554455446;5.248009287092998;1.1345000245299006;18.0;1.0;201.0;10.222222222222221;0.004830373723588366;
272;272_c2c2f4743aac058a3df193a44fe38b8d8de2d61a-FRAGMENT.arff;202.0;46.0;1.0445544554455446;5.248009287092998;1.1345000245299006;18.0;1.0;201.0;10.222222222222221;0.004830373723588366;
273;273_985aabf21fbb4d0687e32a1acd835d0e4e55abef-FRAGMENT.arff;202.0;46.0;1.0445544554455446;5.248009287092998;1.1345000245299006;18.0;1.0;201.0;10.222222222222221;0.004830373723588366;
274;274_6076994f747be7317f6fd062a5aaf2263c466994-FRAGMENT.arff;202.0;46.0;1.0445544554455446;5.248009287092998;1.1345000245299006;18.0;1.0;201.0;10.222222222222221;0.004830373723588366;
275;275_0f66a29f1bb831e3f1059e557f1b80f4d7ef2f24-FRAGMENT.arff;231.0;46.0;1.051948051948052;6.648810917589198;1.211133496350005;24.0;1.0;230.0;8.625;0.0065455958889800965;
276;276_d648c007e292dd8ea3d0cfd0910bc258d81248bd-FRAGMENT.arff;231.0;46.0;1.051948051948052;6.648810917589198;1.211133496350005;24.0;1.0;230.0;8.625;0.0065455958889800965;
277;277_83679972a479522c527bddf5ed95cbc382f74060-FRAGMENT.arff;231.0;46.0;1.051948051948052;6.648810917589198;1.211133496350005;24.0;1.0;230.0;8.625;0.0065455958889800965;
278;278_c749194698cd1f3076dfc6e38e9ef8b1f1f8cc65-FRAGMENT.arff;231.0;46.0;1.051948051948052;6.648810917589198;1.211133496350005;24.0;1.0;230.0;8.625;0.0065455958889800965;
279;279_8a2412fbad5e152c242493abf5cf847eb8a24f8d-FRAGMENT.arff;231.0;46.0;1.051948051948052;6.648810917589198;1.211133496350005;24.0;1.0;230.0;8.625;0.0065455958889800965;
27;27_915aa3a0fe1aa5483dbe482fc810f5ab23d94fc1-FRAGMENT.arff;5.0;16.0;1.0;2.5;0.8485281374238569;4.0;1.0;4.0;4.0;0.0;
280;280_94b52cdaa442f1f7fd55bcde0cdd5cbc0bac77db-FRAGMENT.arff;231.0;46.0;1.051948051948052;6.648810917589198;1.211133496350005;24.0;1.0;230.0;8.625;0.0065455958889800965;
281;281_fd894bfb040a7f784d6f46c3502666d631b33ce6-FRAGMENT.arff;231.0;46.0;1.051948051948052;6.648810917589198;1.211133496350005;24.0;1.0;230.0;8.625;0.0065455958889800965;
282;282_f5a93cc0e281e55eecddd4091498b3fc27298bf3-FRAGMENT.arff;231.0;46.0;1.051948051948052;6.648810917589198;1.211133496350005;24.0;1.0;229.0;8.583333333333334;0.0065455958889800965;
283;283_4b3e6c1064dee35a0cd978bb0de59275bb4838b4-FRAGMENT.arff;231.0;46.0;1.051948051948052;6.648810917589198;1.211133496350005;24.0;1.0;230.0;8.625;0.0065455958889800965;
284;284_d255be86de0bfd43a845c11bd3db3c2a7b11f607-FRAGMENT.arff;231.0;46.0;1.051948051948052;6.648810917589198;1.211133496350005;24.0;1.0;230.0;8.625;0.0065455958889800965;
285;285_5d4ba8ac2356d5dd5b7a6140363a6e5198a1e221-FRAGMENT.arff;231.0;46.0;1.051948051948052;6.648810917589198;1.211133496350005;24.0;1.0;230.0;8.625;0.0065455958889800965;
286;286_d07b97fb8bc07c47a3738fdf936b84c97510f82e-FRAGMENT.arff;231.0;46.0;1.051948051948052;6.648810917589198;1.211133496350005;24.0;1.0;230.0;8.625;0.0065455958889800965;
287;287_1bda80fa7409d6c0369990c313d38e858e10823e-FRAGMENT.arff;231.0;46.0;1.051948051948052;6.648810917589198;1.211133496350005;24.0;1.0;230.0;8.625;0.0065455958889800965;
288;288_8232701e4a2570c020e27e59d40863278a8fd414-FRAGMENT.arff;231.0;46.0;1.051948051948052;6.648810917589198;1.211133496350005;24.0;1.0;230.0;8.625;0.0065455958889800965;
289;289_a020e6483a65d2c771559282e902bbe2d7b08c91-FRAGMENT.arff;231.0;46.0;1.051948051948052;6.648810917589198;1.211133496350005;24.0;1.0;230.0;8.625;0.0065455958889800965;
28;28_103600db3443b0ead497c0eddcd2fcb4c5aee08d-FRAGMENT.arff;5.0;16.0;1.0;2.5;0.8485281374238569;4.0;1.0;4.0;4.0;0.0;
290;290_23a71f2a8008a2c91972ed5448140c86d0467993-FRAGMENT.arff;231.0;46.0;1.051948051948052;6.648810917589198;1.211133496350005;24.0;1.0;230.0;8.625;0.0065455958889800965;
291;291_e66f5cc74a71627bb6c5ee2eb0ace8246c458c47-FRAGMENT.arff;231.0;46.0;1.051948051948052;6.648810917589198;1.211133496350005;24.0;1.0;230.0;8.625;0.0065455958889800965;
292;292_63d3a026a6c584f5161ce072480a597c7333623c-FRAGMENT.arff;231.0;46.0;1.051948051948052;6.648810917589198;1.211133496350005;24.0;1.0;230.0;8.625;0.0065455958889800965;
293;293_774de765273a50d9d993adcf4cc6952fd8981c4c-FRAGMENT.arff;231.0;46.0;1.051948051948052;6.648810917589198;1.211133496350005;24.0;1.0;230.0;8.625;0.0065455958889800965;
294;294_e14b8c3a7ec2792c95c5e9dd599a71c3fccc8bc0-FRAGMENT.arff;231.0;46.0;1.051948051948052;6.648810917589198;1.211133496350005;24.0;1.0;230.0;8.625;0.0065455958889800965;
295;295_d12da1f3af0281680ee7930609348de89a25fc8a-FRAGMENT.arff;231.0;46.0;1.051948051948052;6.648810917589198;1.211133496350005;24.0;1.0;230.0;8.625;0.0065455958889800965;
296;296_b9bb03a497904dd910d0e8f59c857e8ea4b55863-FRAGMENT.arff;231.0;46.0;1.051948051948052;6.648810917589198;1.211133496350005;24.0;1.0;230.0;8.625;0.0065455958889800965;
297;297_ee86bb0e684367a5a85f9051ad50e188e581534f-FRAGMENT.arff;231.0;47.0;1.051948051948052;6.648810917589198;1.211133496350005;24.0;1.0;230.0;8.625;0.0065455958889800965;
298;298_3eeddd0579514e940d459439367cdac3208a275b-FRAGMENT.arff;232.0;47.0;1.0560344827586208;7.593714654989167;1.1761912925143616;25.0;1.0;231.0;8.28;0.009169902007495796;
299;299_7e8a2e8a8ee56853b171aa4b0c52dab097c46e0b-FRAGMENT.arff;232.0;47.0;1.0560344827586208;7.593714654989167;1.1761912925143616;25.0;1.0;231.0;8.28;0.009169902007495796;
29;29_c4f1be007225b7a92af919024abc8a0459463463-FRAGMENT.arff;5.0;18.0;1.0;2.5;0.8485281374238569;4.0;1.0;4.0;4.0;0.0;
300;300_57a66d42839a4b3402b252cbfae822affa638287-FRAGMENT.arff;232.0;47.0;1.0560344827586208;7.593714654989167;1.1761912925143616;25.0;1.0;231.0;8.28;0.009169902007495796;
301;301_abbd8101a593c732885f7d0b191d1815be3c6699-FRAGMENT.arff;232.0;47.0;1.0560344827586208;7.593714654989167;1.1761912925143616;25.0;1.0;231.0;8.28;0.009169902007495796;
302;302_fffbc01e3cd22afb97a497c2792adbf963f7fe21-FRAGMENT.arff;232.0;47.0;1.0560344827586208;7.593714654989167;1.1761912925143616;25.0;1.0;231.0;8.28;0.009169902007495796;
303;303_ab9a81582ff0c7a6004c7babb0b240aa93bcff8c-FRAGMENT.arff;232.0;47.0;1.0560344827586208;7.593714654989167;1.1761912925143616;25.0;1.0;231.0;8.28;0.009169902007495796;
304;304_9d8c2cf03d6acf81d8da81e576d198896b32854e-FRAGMENT.arff;232.0;47.0;1.0560344827586208;7.593714654989167;1.1761912925143616;25.0;1.0;231.0;8.28;0.009169902007495796;
305;305_d46bbabb15f13bde17c2619604e04b708cc14148-FRAGMENT.arff;232.0;47.0;1.0560344827586208;7.593714654989167;1.1761912925143616;25.0;1.0;231.0;8.28;0.009169902007495796;
306;306_b144151c8a0113a337552e1d4312f2b3182bfd2d-FRAGMENT.arff;232.0;47.0;1.0560344827586208;7.593714654989167;1.1761912925143616;25.0;1.0;231.0;8.28;0.009169902007495796;
307;307_681194cf5802d19970c0bc45abd2abbda9e89c13-FRAGMENT.arff;232.0;47.0;1.0560344827586208;7.593714654989167;1.1761912925143616;25.0;1.0;231.0;8.28;0.009169902007495796;
308;308_ae7d06171617de2fb6eed8db1233a6eba6dbddbc-FRAGMENT.arff;232.0;47.0;1.0560344827586208;7.593714654989167;1.1761912925143616;25.0;1.0;231.0;8.28;0.009169902007495796;
309;309_5a257044880b946d387114562c27341a77247634-FRAGMENT.arff;232.0;47.0;1.0560344827586208;7.593714654989167;1.1761912925143616;25.0;1.0;231.0;8.28;0.009169902007495796;
30;30_7b9ebe726b279042d1ae95e9d36ee56357e03b73-FRAGMENT.arff;6.0;18.0;1.0;3.0;0.5773502691896257;4.0;1.0;5.0;2.0;0.0;
310;310_c0b45d167dca0436f884502397389d418cdaffdf-FRAGMENT.arff;232.0;47.0;1.0560344827586208;7.593714654989167;1.1761912925143616;25.0;1.0;231.0;8.28;0.009169902007495796;
311;311_c6fee2c9e504e502eb903e6c0a8f006ac82c7ffa-FRAGMENT.arff;232.0;47.0;1.0560344827586208;7.593714654989167;1.1761912925143616;25.0;1.0;231.0;8.28;0.009169902007495796;
312;312_00315b8c1ef1c96d8ce567b9850cda18852f09f6-FRAGMENT.arff;233.0;47.0;1.0600858369098713;7.414500278225768;1.1638079102188823;26.0;1.0;232.0;7.961538461538462;0.010651824648407634;
313;313_2da5d26fe4bcd035c0abeeb910e282793de09d33-FRAGMENT.arff;233.0;47.0;1.0600858369098713;7.414500278225768;1.1638079102188823;26.0;1.0;232.0;7.961538461538462;0.010651824648407634;
314;314_ad644f1dd6c37dfc712203172b8b6553faca740f-FRAGMENT.arff;233.0;47.0;1.0600858369098713;7.414500278225768;1.1638079102188823;26.0;1.0;232.0;7.961538461538462;0.010651824648407634;
315;315_e56a13456f1e21576a56bec9f1de884d506b0d84-FRAGMENT.arff;233.0;47.0;1.0600858369098713;7.414500278225768;1.1638079102188823;26.0;1.0;232.0;7.961538461538462;0.010651824648407634;
316;316_387970253ff423e36eef1561f899da89fe882f15-FRAGMENT.arff;233.0;47.0;1.0600858369098713;7.414500278225768;1.1638079102188823;26.0;1.0;232.0;7.961538461538462;0.010651824648407634;
317;317_5ac7a54583acc6086851f4d6ba448a7ef61ff3ac-FRAGMENT.arff;233.0;47.0;1.0600858369098713;7.414500278225768;1.1638079102188823;26.0;1.0;232.0;7.961538461538462;0.010651824648407634;
318;318_8d6da9b7d6a838331420b87838e6a1a9e38f2297-FRAGMENT.arff;233.0;47.0;1.0600858369098713;7.414500278225768;1.1638079102188823;26.0;1.0;232.0;7.961538461538462;0.010651824648407634;
319;319_c23bf62122fecd9a3d16de4e3b812ad1b68163f6-FRAGMENT.arff;233.0;47.0;1.0600858369098713;7.414500278225768;1.1638079102188823;26.0;1.0;232.0;7.961538461538462;0.010651824648407634;
31;31_b9532fc25f3850863c38917bf9dc4f57216244e5-FRAGMENT.arff;6.0;18.0;1.0;3.0;0.5773502691896257;4.0;1.0;5.0;2.0;0.0;
320;320_b8a7e61727ddb43c9d2971865cc51e227b8eaa5f-FRAGMENT.arff;233.0;47.0;1.0600858369098713;7.414500278225768;1.1638079102188823;26.0;1.0;232.0;7.961538461538462;0.010651824648407634;
321;321_5a5d9572e6039747cae6abaf3ee83db95c54a395-FRAGMENT.arff;233.0;47.0;1.0600858369098713;7.414500278225768;1.1638079102188823;26.0;1.0;232.0;7.961538461538462;0.010651824648407634;
322;322_7755fc682f0ba7a4b7ece8890589da39f78b0ea8-FRAGMENT.arff;233.0;47.0;1.0600858369098713;7.414500278225768;1.1638079102188823;26.0;1.0;232.0;7.961538461538462;0.010651824648407634;
323;323_4b38d9945e49264ba4857eb1555d197b90e16fff-FRAGMENT.arff;233.0;47.0;1.0600858369098713;7.414500278225768;1.1638079102188823;26.0;1.0;232.0;7.961538461538462;0.010651824648407634;
324;324_0d5263aeb5d36fe4947674ab8ea88909ba4cf884-FRAGMENT.arff;233.0;47.0;1.0600858369098713;7.414500278225768;1.1638079102188823;26.0;1.0;232.0;7.961538461538462;0.010651824648407634;
325;325_ebe362786c48d8550da80df28284662f83af0645-FRAGMENT.arff;233.0;47.0;1.0600858369098713;7.414500278225768;1.1638079102188823;26.0;1.0;232.0;7.961538461538462;0.010651824648407634;
326;326_51e3559801821da32736d1426ca0d11e084efa63-FRAGMENT.arff;233.0;47.0;1.0600858369098713;7.414500278225768;1.1638079102188823;26.0;1.0;232.0;7.961538461538462;0.010651824648407634;
327;327_0c643bdeb542962e2de44d7473c9f18b49679273-FRAGMENT.arff;233.0;47.0;1.0600858369098713;7.414500278225768;1.1638079102188823;26.0;1.0;232.0;7.961538461538462;0.010651824648407634;
328;328_61e0e94ffedd5230a7d3e0dab7019b25d07564a8-FRAGMENT.arff;233.0;47.0;1.0600858369098713;7.414500278225768;1.1638079102188823;26.0;1.0;232.0;7.961538461538462;0.010651824648407634;
329;329_32feb1b1fa6e047b61a75dc225f5aad30da30aa6-FRAGMENT.arff;233.0;47.0;1.0600858369098713;7.414500278225768;1.1638079102188823;26.0;1.0;232.0;7.961538461538462;0.010651824648407634;
32;32_f765f2e82380000b5b2734ee8fabfc9f63470105-FRAGMENT.arff;7.0;19.0;1.0;3.25;0.46153846153846156;4.0;1.0;6.0;1.3333333333333333;0.0;
330;330_19a7fcfa345012ade015c858c2fb7d2469626d00-FRAGMENT.arff;233.0;47.0;1.0600858369098713;7.414500278225768;1.1638079102188823;26.0;1.0;232.0;7.961538461538462;0.010651824648407634;
331;331_4f897107b525410fc3985062f79200eff131124d-FRAGMENT.arff;233.0;47.0;1.0600858369098713;7.414500278225768;1.1638079102188823;26.0;1.0;232.0;7.961538461538462;0.010651824648407634;
332;332_464303dbab4348b60f929dfa12b6c6668d11c72b-FRAGMENT.arff;233.0;47.0;1.0600858369098713;7.414500278225768;1.1638079102188823;26.0;1.0;232.0;7.961538461538462;0.010651824648407634;
333;333_b4bb85e79cfc97324318a920ac40b36c47f9e5c5-FRAGMENT.arff;233.0;47.0;1.0600858369098713;7.414500278225768;1.1638079102188823;26.0;1.0;232.0;7.961538461538462;0.010651824648407634;
334;334_f430bfde6df6e6ad195aaa4c27d0842adf484257-FRAGMENT.arff;233.0;47.0;1.0600858369098713;7.414500278225768;1.1638079102188823;26.0;1.0;232.0;7.961538461538462;0.010651824648407634;
335;335_60e1c31e6cdfddf1394fda19e9d209fb8d7ec79b-FRAGMENT.arff;233.0;47.0;1.0600858369098713;7.414500278225768;1.1638079102188823;26.0;1.0;232.0;7.961538461538462;0.010651824648407634;
336;336_3b1f74ca917f2d598fe327302b582ef78be0e861-FRAGMENT.arff;233.0;47.0;1.0600858369098713;7.414500278225768;1.1638079102188823;26.0;1.0;232.0;7.961538461538462;0.010651824648407634;
337;337_b50998b7cfb91108bb5b46dce964623b7051c18a-FRAGMENT.arff;233.0;47.0;1.0600858369098713;7.414500278225768;1.1638079102188823;26.0;1.0;232.0;7.961538461538462;0.010651824648407634;
338;338_acf7e05b4da2b620ae5adfc2f83bd3fc887f49a6-FRAGMENT.arff;233.0;47.0;1.0600858369098713;7.414500278225768;1.1638079102188823;26.0;1.0;232.0;7.961538461538462;0.010651824648407634;
339;339_f9b7fe165b63204be6365b07b3bddd7c49029f8b-FRAGMENT.arff;233.0;47.0;1.0600858369098713;7.414500278225768;1.1638079102188823;26.0;1.0;232.0;7.961538461538462;0.010651824648407634;
33;33_2aef930f42487f6842898a0fbd775e039519a73d-FRAGMENT.arff;7.0;20.0;1.0;3.25;0.46153846153846156;4.0;1.0;6.0;1.3333333333333333;0.0;
340;340_503dc36843fd0f5eb965a059c30c5def029c67c1-FRAGMENT.arff;233.0;47.0;1.0600858369098713;7.414500278225768;1.1638079102188823;26.0;1.0;232.0;7.961538461538462;0.010651824648407634;
341;341_59758195d8fd35cc5bdf88bf6d589eac2b62f508-FRAGMENT.arff;233.0;47.0;1.0600858369098713;7.414500278225768;1.1638079102188823;26.0;1.0;232.0;7.961538461538462;0.010651824648407634;
342;342_eca71bccec32c920387160b7882c9b6ebf4ecbef-FRAGMENT.arff;233.0;47.0;1.0600858369098713;7.414500278225768;1.1638079102188823;26.0;1.0;232.0;7.961538461538462;0.010651824648407634;
343;343_461ad2773b99e4570c589ceabde39f406af719dd-FRAGMENT.arff;233.0;47.0;1.0600858369098713;7.414500278225768;1.1638079102188823;26.0;1.0;232.0;7.961538461538462;0.010651824648407634;
344;344_c192d424f798cc38e46f77990bfd7f3aef13aecc-FRAGMENT.arff;233.0;47.0;1.0600858369098713;7.414500278225768;1.1638079102188823;26.0;1.0;232.0;7.961538461538462;0.010651824648407634;
345;345_e15b3431d416281e04fc1b74f2e3fb8a398f6b6f-FRAGMENT.arff;233.0;47.0;1.0600858369098713;7.414500278225768;1.1638079102188823;26.0;1.0;232.0;7.961538461538462;0.010651824648407634;
346;346_e6225a171d523bed6c6006aa70d5002d3ef1d08e-FRAGMENT.arff;233.0;47.0;1.0600858369098713;7.414500278225768;1.1638079102188823;26.0;1.0;232.0;7.961538461538462;0.010651824648407634;
347;347_516ba13ee7a5d50731bce613303dc5d83db9c9f1-FRAGMENT.arff;233.0;47.0;1.0600858369098713;7.414500278225768;1.1638079102188823;26.0;1.0;232.0;7.961538461538462;0.010651824648407634;
348;348_b897a297fa46d1a26c1dd1fd997b1d881d8d0087-FRAGMENT.arff;233.0;47.0;1.0600858369098713;7.414500278225768;1.1638079102188823;26.0;1.0;232.0;7.961538461538462;0.010651824648407634;
349;349_c8b7d43e36f39ceb3a7476ebc4b5121ca15d41ff-FRAGMENT.arff;233.0;47.0;1.0600858369098713;7.414500278225768;1.1638079102188823;26.0;1.0;232.0;7.961538461538462;0.010651824648407634;
34;34_0df97c31bcbaf9d250b13bca3497a9178530591f-FRAGMENT.arff;7.0;20.0;1.0;3.25;0.46153846153846156;4.0;1.0;6.0;1.3333333333333333;0.0;
350;350_5e48a52a2f746619e0066bf8f62d96c0dcd5430d-FRAGMENT.arff;233.0;47.0;1.0600858369098713;7.414500278225768;1.1638079102188823;26.0;1.0;232.0;7.961538461538462;0.010651824648407634;
351;351_efef4a28affcff31ee30605c3172f32072174e9c-FRAGMENT.arff;233.0;47.0;1.0600858369098713;7.414500278225768;1.1638079102188823;26.0;1.0;232.0;7.961538461538462;0.010651824648407634;
352;352_221ab5e1341d3821b54e19d1907270d8237e32c8-FRAGMENT.arff;233.0;47.0;1.0600858369098713;7.414500278225768;1.1638079102188823;26.0;1.0;232.0;7.961538461538462;0.010651824648407634;
353;353_e24a447a33bd5e72f200efe67fe51a00a111ac55-FRAGMENT.arff;233.0;47.0;1.0600858369098713;7.414500278225768;1.1638079102188823;26.0;1.0;232.0;7.961538461538462;0.010651824648407634;
354;354_cd4818df7efea07c89fe7cee6fbc95e0fe1901ad-FRAGMENT.arff;233.0;47.0;1.0600858369098713;7.414500278225768;1.1638079102188823;26.0;1.0;232.0;7.961538461538462;0.010651824648407634;
355;355_22fd07919bfcf12d6a8aea7498179de220cf25bb-FRAGMENT.arff;233.0;47.0;1.0600858369098713;7.414500278225768;1.1638079102188823;26.0;1.0;232.0;7.961538461538462;0.010651824648407634;
356;356_f48855eca3ecc0527103d8b26dd49730a75e37a2-FRAGMENT.arff;233.0;47.0;1.0600858369098713;7.414500278225768;1.1638079102188823;26.0;1.0;232.0;7.961538461538462;0.010651824648407634;
357;357_9b67e3c76126bcd97f1b7fc16ae386a76fef7e59-FRAGMENT.arff;233.0;47.0;1.0600858369098713;7.414500278225768;1.1638079102188823;26.0;1.0;232.0;7.961538461538462;0.010651824648407634;
358;358_f6fa6737a06ef6ad0ac686ed5cc66c4e86d9a4e3-FRAGMENT.arff;233.0;47.0;1.0600858369098713;7.414500278225768;1.1638079102188823;26.0;1.0;232.0;7.961538461538462;0.010651824648407634;
359;359_e86519447b70de57e5c13b29bebb5b79d31e8039-FRAGMENT.arff;233.0;47.0;1.0600858369098713;7.414500278225768;1.1638079102188823;26.0;1.0;232.0;7.961538461538462;0.010651824648407634;
35;35_297f20ae47d741124af438fb8b27f26e51c94697-FRAGMENT.arff;7.0;20.0;1.0;3.25;0.46153846153846156;4.0;1.0;6.0;1.3333333333333333;0.0;
360;360_ee6290fc7c646c08cb8ca3fc4857c4343ce6c72e-FRAGMENT.arff;233.0;47.0;1.0600858369098713;7.414500278225768;1.1638079102188823;26.0;1.0;232.0;7.961538461538462;0.010651824648407634;
361;361_90f879438a17ccffb488c29a340ca2b01c9d47b8-FRAGMENT.arff;233.0;47.0;1.0600858369098713;7.414500278225768;1.1638079102188823;26.0;1.0;232.0;7.961538461538462;0.010651824648407634;
362;362_c4c2438ba7db0f9b128e49e8f0fa506e385834d6-FRAGMENT.arff;233.0;47.0;1.0600858369098713;7.414500278225768;1.1638079102188823;26.0;1.0;232.0;7.961538461538462;0.010651824648407634;
363;363_65890ad4a74aa3d67a40422005486960c40b9e0b-FRAGMENT.arff;233.0;47.0;1.0600858369098713;7.414500278225768;1.1638079102188823;26.0;1.0;232.0;7.961538461538462;0.010651824648407634;
364;364_e97d02a135b61047c72c79caaf66f139b53151f6-FRAGMENT.arff;233.0;47.0;1.0600858369098713;7.414500278225768;1.1638079102188823;26.0;1.0;232.0;7.961538461538462;0.010651824648407634;
365;365_7c355bcc8f7bc0b6eab7a5cee5e506c804123158-FRAGMENT.arff;233.0;47.0;1.0600858369098713;7.414500278225768;1.1638079102188823;26.0;1.0;232.0;7.961538461538462;0.010651824648407634;
366;366_eec88c539b060fb6a0834e41898e7a7a680152fa-FRAGMENT.arff;233.0;47.0;1.0600858369098713;7.414500278225768;1.1638079102188823;26.0;1.0;232.0;7.961538461538462;0.010651824648407634;
367;367_a72e3d2c0dd66db40d58165d23c7ae945c59d0aa-FRAGMENT.arff;233.0;47.0;1.0600858369098713;7.414500278225768;1.1638079102188823;26.0;1.0;232.0;7.961538461538462;0.010651824648407634;
368;368_3f9bb9a62eda0033a67bfe55a4d37402b9278df6-FRAGMENT.arff;233.0;47.0;1.0600858369098713;7.414500278225768;1.1638079102188823;26.0;1.0;232.0;7.961538461538462;0.010651824648407634;
369;369_91f17afb250371f1749e74f065abb770886bf5ce-FRAGMENT.arff;233.0;47.0;1.0600858369098713;7.414500278225768;1.1638079102188823;26.0;1.0;232.0;7.961538461538462;0.010651824648407634;
36;36_49208e89a5a73fd9b6c4a5225b0e9557d37bfbcd-FRAGMENT.arff;7.0;22.0;1.0;3.25;0.46153846153846156;4.0;1.0;6.0;1.3333333333333333;0.0;
370;370_b5484102e43cfaac1ce94f5f018b53871cff668d-FRAGMENT.arff;233.0;47.0;1.0600858369098713;7.414500278225768;1.1638079102188823;26.0;1.0;232.0;7.961538461538462;0.010651824648407634;
371;371_297a4e30cb8c51a08b113bbcc0bbae462b135e41-FRAGMENT.arff;233.0;47.0;1.0600858369098713;7.414500278225768;1.1638079102188823;26.0;1.0;232.0;7.961538461538462;0.010651824648407634;
372;372_fd223d43e8e61424111bc13d5a7b9372ad83a0a1-FRAGMENT.arff;233.0;47.0;1.0600858369098713;7.414500278225768;1.1638079102188823;26.0;1.0;232.0;7.961538461538462;0.010651824648407634;
373;373_375784e7b5c4044a992c692d476f015a745b0245-FRAGMENT.arff;233.0;49.0;1.0600858369098713;7.414500278225768;1.1638079102188823;26.0;1.0;232.0;7.961538461538462;0.010651824648407634;
374;374_ba91b37650f74c58ffb9f76977d043db5108b52f-FRAGMENT.arff;233.0;49.0;1.0600858369098713;7.414500278225768;1.1638079102188823;26.0;1.0;232.0;7.961538461538462;0.010651824648407634;
375;375_a57a2b3477d0a4df8de4f2ce078d6f2129368c2d-FRAGMENT.arff;233.0;49.0;1.0600858369098713;7.414500278225768;1.1638079102188823;26.0;1.0;232.0;7.961538461538462;0.010651824648407634;
376;376_502b341468f4f176e61f1a9479f3f0772018e9e7-FRAGMENT.arff;233.0;49.0;1.0600858369098713;7.414500278225768;1.1638079102188823;26.0;1.0;232.0;7.961538461538462;0.010651824648407634;
377;377_c951cd3516936bb7e84c43cdf202a0ffd87184c6-FRAGMENT.arff;233.0;49.0;1.0600858369098713;7.414500278225768;1.1638079102188823;26.0;1.0;232.0;7.961538461538462;0.010651824648407634;
378;378_7b4f24b78c47b040b18b438f2a262ac7ac71fd78-FRAGMENT.arff;233.0;49.0;1.0600858369098713;7.414500278225768;1.1638079102188823;26.0;1.0;232.0;7.961538461538462;0.010651824648407634;
379;379_9b9f10bdc9989a7dd5d073ccc38f317e4b873fdd-FRAGMENT.arff;233.0;49.0;1.0600858369098713;7.414500278225768;1.1638079102188823;26.0;1.0;232.0;7.961538461538462;0.010651824648407634;
37;37_3fa71c05e2b9e72abd0b7e1c5c222d66e48c22c4-FRAGMENT.arff;7.0;22.0;1.0;3.25;0.46153846153846156;4.0;1.0;6.0;1.3333333333333333;0.0;
380;380_1f5ec7d5ce0820d97bb392e4a3cd554ff8665244-FRAGMENT.arff;233.0;49.0;1.0600858369098713;7.414500278225768;1.1638079102188823;26.0;1.0;232.0;7.961538461538462;0.010651824648407634;
381;381_625675d735a00fd2b136443dcc0fb91498e1aaff-FRAGMENT.arff;233.0;49.0;1.0600858369098713;7.414500278225768;1.1638079102188823;26.0;1.0;232.0;7.961538461538462;0.010651824648407634;
382;382_97137cd577946c7de3088bbf4f673812ee74c2f4-FRAGMENT.arff;233.0;49.0;1.0600858369098713;7.414500278225768;1.1638079102188823;26.0;1.0;232.0;7.961538461538462;0.010651824648407634;
383;383_4f883c4f8e2440a61faefe79347973fd92c96963-FRAGMENT.arff;233.0;49.0;1.0600858369098713;7.414500278225768;1.1638079102188823;26.0;1.0;232.0;7.961538461538462;0.010651824648407634;
384;384_aa94205383ff820408f8a00c37bd204d97f87717-FRAGMENT.arff;233.0;49.0;1.0600858369098713;7.414500278225768;1.1638079102188823;26.0;1.0;232.0;7.961538461538462;0.010651824648407634;
385;385_deb240245f593944cca8df3aff2c7ce0a8c988ef-FRAGMENT.arff;233.0;49.0;1.0600858369098713;7.414500278225768;1.1638079102188823;26.0;1.0;232.0;7.961538461538462;0.010651824648407634;
386;386_82b7b0b2aa6b8f2fad27f863a278d48c736877b1-FRAGMENT.arff;233.0;49.0;1.0600858369098713;7.414500278225768;1.1638079102188823;26.0;1.0;232.0;7.961538461538462;0.010651824648407634;
387;387_b00962abeb2b5c31352a66561be6c2aa5bdf5761-FRAGMENT.arff;233.0;49.0;1.0600858369098713;7.414500278225768;1.1638079102188823;26.0;1.0;232.0;7.961538461538462;0.010651824648407634;
388;388_47597971c5be958964931eb255970ce85ad874b5-FRAGMENT.arff;233.0;49.0;1.0600858369098713;7.414500278225768;1.1638079102188823;26.0;1.0;232.0;7.961538461538462;0.010651824648407634;
389;389_f59d33b38c3211a89fa48c9583136dfc7330eecb-FRAGMENT.arff;233.0;49.0;1.0600858369098713;7.414500278225768;1.1638079102188823;26.0;1.0;232.0;7.961538461538462;0.010651824648407634;
38;38_6e53d5f3cd53c9ee555ed2845e447cafccf9575b-FRAGMENT.arff;7.0;22.0;1.0;3.25;0.46153846153846156;4.0;1.0;6.0;1.3333333333333333;0.0;
390;390_80838b71c282dfad386e4dfe49ee28db5640a1bc-FRAGMENT.arff;234.0;49.0;1.064102564102564;8.387597119267287;1.1351263102864548;27.0;1.0;233.0;7.666666666666667;0.013364516851899102;
391;391_aba1eacc25cf79d236eb6e7dee46b0df2f19fdfd-FRAGMENT.arff;234.0;49.0;1.064102564102564;8.387597119267287;1.1351263102864548;27.0;1.0;233.0;7.666666666666667;0.013364516851899102;
392;392_74feb2854e731273d254f668724dff95fe4ebdb5-FRAGMENT.arff;235.0;49.0;1.0680851063829788;9.362549350581805;1.1041922276936942;28.0;1.0;234.0;7.392857142857143;0.01610380815564333;
393;393_1dd4f428067b67c344c585bce8ada70277bee208-FRAGMENT.arff;235.0;49.0;1.0680851063829788;9.362549350581805;1.1041922276936942;28.0;1.0;234.0;7.392857142857143;0.01610380815564333;
394;394_d346784cb6205037c355a73aaedad64505834e53-FRAGMENT.arff;235.0;49.0;1.0680851063829788;9.362549350581805;1.1041922276936942;28.0;1.0;234.0;7.392857142857143;0.01610380815564333;
395;395_157a46bd3a4f6ab6340216910dd741256b7421f7-FRAGMENT.arff;235.0;49.0;1.0680851063829788;9.362549350581805;1.1041922276936942;28.0;1.0;234.0;7.392857142857143;0.01610380815564333;
396;396_0b966d29fdef50343b06a40b35684cbd31675826-FRAGMENT.arff;235.0;49.0;1.0680851063829788;9.362549350581805;1.1041922276936942;28.0;1.0;234.0;7.392857142857143;0.01610380815564333;
397;397_cdd1403adeb4392be3d6e5e619cfdd5c9f85f8ab-FRAGMENT.arff;235.0;49.0;1.0680851063829788;9.362549350581805;1.1041922276936942;28.0;1.0;234.0;7.392857142857143;0.01610380815564333;
398;398_0309336c10dc582e165907603f7e8eadfd3ed341-FRAGMENT.arff;235.0;49.0;1.0680851063829788;9.362549350581805;1.1041922276936942;28.0;1.0;234.0;7.392857142857143;0.01610380815564333;
399;399_73591c55b243f20d6fc9807fa851125c6dd0abb4-FRAGMENT.arff;235.0;49.0;1.0680851063829788;9.362549350581805;1.1041922276936942;28.0;1.0;234.0;7.392857142857143;0.01610380815564333;
39;39_b3079f0a9a06f8d0796377dfd9e9235cf6660713-FRAGMENT.arff;8.0;22.0;1.0;2.75;0.5454545454545454;4.0;1.0;7.0;1.0;0.0;
400;400_c6633679a77c64233dc3943a96047ef6386c12b7-FRAGMENT.arff;235.0;49.0;1.0680851063829788;9.362549350581805;1.1041922276936942;28.0;1.0;234.0;7.392857142857143;0.01610380815564333;
401;401_7cd374cac70f21d065313a800cc9c5202cbdb02b-FRAGMENT.arff;235.0;49.0;1.0680851063829788;9.362549350581805;1.1041922276936942;28.0;1.0;234.0;7.392857142857143;0.01610380815564333;
402;402_44f82a670784d63a06e0ab7bfdde66ef7230dd45-FRAGMENT.arff;235.0;49.0;1.0680851063829788;9.362549350581805;1.1041922276936942;28.0;1.0;234.0;7.392857142857143;0.01610380815564333;
403;403_9fbc0c23c2e22f2ce367704b9c690fb26f89dad5-FRAGMENT.arff;235.0;49.0;1.0680851063829788;9.362549350581805;1.1041922276936942;28.0;1.0;234.0;7.392857142857143;0.01610380815564333;
404;404_6c4e2a030c2d0461d1e4f4022217e2b87f1778ac-FRAGMENT.arff;235.0;49.0;1.0680851063829788;9.362549350581805;1.1041922276936942;28.0;1.0;233.0;7.357142857142857;0.01610380815564333;
405;405_c9c8c1db2b05ac29475b5ed94c4aeae36eb82cdb-FRAGMENT.arff;235.0;49.0;1.0680851063829788;9.362549350581805;1.1041922276936942;28.0;1.0;234.0;7.392857142857143;0.01610380815564333;
406;406_5f2687252532ee160b25fae38415a06393dd5820-FRAGMENT.arff;235.0;49.0;1.0680851063829788;9.362549350581805;1.1041922276936942;28.0;1.0;234.0;7.392857142857143;0.01610380815564333;
407;407_d86f0aae2bd61c382d984bc1c3db719162ebd8b7-FRAGMENT.arff;235.0;49.0;1.0680851063829788;9.362549350581805;1.1041922276936942;28.0;1.0;234.0;7.392857142857143;0.01610380815564333;
408;408_60ab9786d70e5bf4934227a24476ed38cd93e76c-FRAGMENT.arff;235.0;49.0;1.0680851063829788;9.362549350581805;1.1041922276936942;28.0;1.0;234.0;7.392857142857143;0.01610380815564333;
409;409_7dc24ea94d0dccf9ca0a7ec56ac059373ba20170-FRAGMENT.arff;238.0;49.0;1.0798319327731092;9.114858620081742;1.0970216663513885;31.0;1.0;237.0;6.67741935483871;0.020593956025741197;
40;40_937278c363429bcf9c3eaff18b0bac61d0349276-FRAGMENT.arff;8.0;23.0;1.0;2.75;0.5454545454545454;4.0;1.0;7.0;1.0;0.0;
410;410_45f9cbe17336a1e0cadac8f2544350a9bac95f26-FRAGMENT.arff;238.0;49.0;1.0798319327731092;9.114858620081742;1.0970216663513885;31.0;1.0;237.0;6.67741935483871;0.020593956025741197;
411;411_2e70c3c6eed78725cbb4e78c3b3385310dea6677-FRAGMENT.arff;238.0;49.0;1.0798319327731092;9.114858620081742;1.0970216663513885;31.0;1.0;237.0;6.67741935483871;0.020593956025741197;
412;412_fccda2e96e8e7c130dcba6c2d39913ccb547b742-FRAGMENT.arff;238.0;49.0;1.0798319327731092;9.114858620081742;1.0970216663513885;31.0;1.0;237.0;6.67741935483871;0.020593956025741197;
413;413_e9cf38b1eb4bf8a956434c70a0b1dd0709e97069-FRAGMENT.arff;238.0;49.0;1.0798319327731092;9.114858620081742;1.0970216663513885;31.0;1.0;237.0;6.67741935483871;0.020593956025741197;
414;414_facbabd58341130e3df83a4da22afa5ecb44f0e5-FRAGMENT.arff;238.0;49.0;1.0798319327731092;9.114858620081742;1.0970216663513885;31.0;1.0;237.0;6.67741935483871;0.020593956025741197;
415;415_91c10f54c4cd2f118435a4ea8f5ae0d4b5c57206-FRAGMENT.arff;238.0;49.0;1.0798319327731092;9.114858620081742;1.0970216663513885;31.0;1.0;237.0;6.67741935483871;0.020593956025741197;
416;416_cd8a1bb2ac6e733d358887ba36bcae34319137c0-FRAGMENT.arff;238.0;49.0;1.0798319327731092;9.114858620081742;1.0970216663513885;31.0;1.0;237.0;6.67741935483871;0.020593956025741197;
417;417_a8cef00c9d7e4cee2e2c4878d7fcf9ea897a402d-FRAGMENT.arff;238.0;49.0;1.0798319327731092;9.114858620081742;1.0970216663513885;31.0;1.0;237.0;6.67741935483871;0.020593956025741197;
418;418_682b55bc376256773a18e45943a3a721acddfc42-FRAGMENT.arff;238.0;49.0;1.0798319327731092;9.114858620081742;1.0970216663513885;31.0;1.0;237.0;6.67741935483871;0.020593956025741197;
419;419_315b51bcc0f0d783683e7cd8b1140f883b0e529c-FRAGMENT.arff;238.0;49.0;1.0798319327731092;9.114858620081742;1.0970216663513885;31.0;1.0;237.0;6.67741935483871;0.020593956025741197;
41;41_e83307d615005a9cdec7d811950b918f7b22e1cd-FRAGMENT.arff;9.0;23.0;1.0;2.25;0.5592469952052407;4.0;1.0;8.0;1.25;0.0;
420;420_a51698078bb83421d0eca4bc52d80a33650e1cd9-FRAGMENT.arff;238.0;49.0;1.0798319327731092;9.114858620081742;1.0970216663513885;31.0;1.0;237.0;6.67741935483871;0.020593956025741197;
421;421_ee79d9d58569ae8272a4930927cb4640eb751f34-FRAGMENT.arff;238.0;49.0;1.0798319327731092;9.114858620081742;1.0970216663513885;31.0;1.0;237.0;6.67741935483871;0.020593956025741197;
422;422_2f575d0e1d3b7ae00128de55c2ede1428bcdc57b-FRAGMENT.arff;238.0;49.0;1.0798319327731092;9.114858620081742;1.0970216663513885;31.0;1.0;237.0;6.67741935483871;0.020593956025741197;
423;423_300dc20136f153caf47190d5b30f5589b2c9ed7c-FRAGMENT.arff;238.0;49.0;1.0798319327731092;9.114858620081742;1.0970216663513885;31.0;1.0;237.0;6.67741935483871;0.020593956025741197;
424;424_9f831e51af51ef2e7c37ff7b4affef9ccf2a3ada-FRAGMENT.arff;238.0;49.0;1.0798319327731092;9.114858620081742;1.0970216663513885;31.0;1.0;237.0;6.67741935483871;0.020593956025741197;
425;425_6dc6d60a63bd81b9da9a88e15ffd2c2f04d4a900-FRAGMENT.arff;238.0;49.0;1.0798319327731092;9.114858620081742;1.0970216663513885;31.0;1.0;237.0;6.67741935483871;0.020593956025741197;
426;426_20084743fafc19d55407f2c269e59e440a26fd2d-FRAGMENT.arff;238.0;49.0;1.0798319327731092;9.114858620081742;1.0970216663513885;31.0;1.0;237.0;6.67741935483871;0.020593956025741197;
427;427_867a15708e7c4a3e241b5b78f13251fc8af2d4c8-FRAGMENT.arff;238.0;50.0;1.0798319327731092;9.114858620081742;1.0970216663513885;31.0;1.0;237.0;6.67741935483871;0.020593956025741197;
428;428_4497194fc0a9990576423b34a06d472feda54816-FRAGMENT.arff;240.0;50.0;1.0791666666666666;9.327696666079017;1.0607336459299395;31.0;1.0;239.0;6.741935483870968;0.02042233972552669;
429;429_67510f726f53ab0c259d2dd3b19a24e2df5f1db4-FRAGMENT.arff;241.0;50.0;1.0788381742738589;9.155474443856795;1.073434615207017;31.0;1.0;240.0;6.774193548387097;0.02033759972666558;
42;42_53c918c0dcec8a7145d647471acc4d0b954f054d-FRAGMENT.arff;10.0;23.0;1.0;2.0833333333333335;0.6449806198638839;4.0;1.0;9.0;1.5;0.0;
430;430_a8169c71c0bd23906ab53f02c2cf4028e6c7d5c0-FRAGMENT.arff;244.0;50.0;1.0778688524590163;8.983252221634574;1.0966731941495045;31.0;1.0;239.0;6.741935483870968;0.020087547271009858;
431;431_53d6f403146575bd75ef4435d8f487551fb3f612-FRAGMENT.arff;244.0;50.0;1.0778688524590163;8.983252221634574;1.0966731941495045;31.0;1.0;243.0;6.870967741935484;0.020087547271009858;
432;432_9aa08a610a99ccc7caa216e19a097620932ed9f8-FRAGMENT.arff;244.0;50.0;1.0778688524590163;8.983252221634574;1.0966731941495045;31.0;1.0;243.0;6.870967741935484;0.020087547271009858;
433;433_5148dfc3b5524dc9f062311c4df9aed3f9d04509-FRAGMENT.arff;244.0;50.0;1.0778688524590163;8.983252221634574;1.0966731941495045;31.0;1.0;243.0;6.870967741935484;0.020087547271009858;
434;434_512d4e3914ef6fcd1274bfcc633e330c015b26bc-FRAGMENT.arff;244.0;50.0;1.0778688524590163;8.983252221634574;1.0966731941495045;31.0;1.0;243.0;6.870967741935484;0.020087547271009858;
435;435_91d14a62cbbdd2cc59c0bfcd006217b1afff2214-FRAGMENT.arff;244.0;50.0;1.0778688524590163;8.983252221634574;1.0966731941495045;31.0;1.0;243.0;6.870967741935484;0.020087547271009858;
436;436_c1e0cfda8f1f406d5e814cb77510026691c2076c-FRAGMENT.arff;244.0;50.0;1.0778688524590163;8.983252221634574;1.0966731941495045;31.0;1.0;243.0;6.870967741935484;0.020087547271009858;
437;437_a577e5d6c12c6065c085092ceac97d2becccba22-FRAGMENT.arff;244.0;50.0;1.0778688524590163;8.983252221634574;1.0966731941495045;31.0;1.0;243.0;6.870967741935484;0.020087547271009858;
438;438_7040b48b20c7be975e08d9e7d3151c59496a80e0-FRAGMENT.arff;244.0;50.0;1.0778688524590163;8.983252221634574;1.0966731941495045;31.0;1.0;243.0;6.870967741935484;0.020087547271009858;
439;439_a01ee578bf057333dd86952743c05cd5d2063c65-FRAGMENT.arff;247.0;50.0;1.0769230769230769;8.79778213616449;1.1125059973988591;31.0;1.0;246.0;6.967741935483871;0.019843568964074514;
43;43_a6e7f03206a767db7e8847b107dc02453fdfb9b4-FRAGMENT.arff;10.0;23.0;1.0;2.0833333333333335;0.6449806198638839;4.0;1.0;9.0;1.5;0.0;
440;440_2dac3cbe3ea66097e60695a93f94aaf1f25d8090-FRAGMENT.arff;247.0;50.0;1.0769230769230769;8.79778213616449;1.1125059973988591;31.0;1.0;246.0;6.967741935483871;0.019843568964074514;
441;441_fc5bcec2a95685d229657b3a45209169816f949f-FRAGMENT.arff;247.0;50.0;1.0769230769230769;8.79778213616449;1.1125059973988591;31.0;1.0;246.0;6.967741935483871;0.019843568964074514;
442;442_4b762cea7df0b1cc67e781386ab2c5134aeb46a9-FRAGMENT.arff;252.0;50.0;1.0753968253968254;8.773312677747661;1.1175361155060264;31.0;1.0;251.0;7.129032258064516;0.01944984735764446;
443;443_901c903f3ac9d949233a8bd1239a72d133b7256e-FRAGMENT.arff;252.0;50.0;1.0753968253968254;8.773312677747661;1.1175361155060264;31.0;1.0;251.0;7.129032258064516;0.01944984735764446;
444;444_a1ef0518725f5723fb8614c30ede1e47795af02c-FRAGMENT.arff;255.0;50.0;1.0745098039215686;8.723633190568172;1.1266004644051957;31.0;1.0;254.0;7.225806451612903;0.019221025624025112;
445;445_7282c1cbe9da220dafe6719ff46c041e937ccc34-FRAGMENT.arff;255.0;50.0;1.0745098039215686;8.723633190568172;1.1266004644051957;31.0;1.0;254.0;7.225806451612903;0.019221025624025112;
446;446_2aedefcaeaaf162591a335dc2e2f36167fa1f5e0-FRAGMENT.arff;255.0;50.0;1.0745098039215686;8.723633190568172;1.1266004644051957;31.0;1.0;254.0;7.225806451612903;0.019221025624025112;
447;447_9901b599fac011ebeab338e2950185b512029878-FRAGMENT.arff;261.0;50.0;1.0727969348659003;8.66827604771103;1.137587588776733;31.0;1.0;260.0;7.419354838709677;0.018779162966001545;
448;448_cc2be45da50bbe11387c8751bb6fc10c0ca2ef98-FRAGMENT.arff;263.0;50.0;1.0722433460076046;8.659049857234839;1.1395358172068615;31.0;1.0;262.0;7.483870967741935;0.018636355643066174;
449;449_484e65be2ae9197a0ad6267d31527d477e7ce452-FRAGMENT.arff;271.0;50.0;1.070110701107011;8.637522079457062;1.1442123579198944;31.0;1.0;270.0;7.741935483870968;0.018086204922975656;
44;44_c06cb78a37de1ccdc027749a68d4a0174c54dbe9-FRAGMENT.arff;10.0;23.0;1.0;2.0833333333333335;0.6449806198638839;4.0;1.0;9.0;1.5;0.0;
450;450_9739b66b1c626fc89434f43c90fbc9c1ef380af7-FRAGMENT.arff;271.0;50.0;1.070110701107011;8.637522079457062;1.1442123579198944;31.0;1.0;270.0;7.741935483870968;0.018086204922975656;
451;451_0da82ea34cadb535df6673aa1e4b91ac31c2ec80-FRAGMENT.arff;275.0;50.0;1.069090909090909;8.559817053002037;1.1581793919156567;31.0;1.0;273.0;7.838709677419355;0.01782313285136874;
452;452_3c935dde4edc1d77fe34f105e54d5a49cb7730ec-FRAGMENT.arff;276.0;50.0;1.068840579710145;8.558094830779815;1.1585655996459028;31.0;1.0;275.0;7.903225806451613;0.017758556283066683;
453;453_3a01760c80febbd6e450519c1bf0e4fdb271af2f-FRAGMENT.arff;276.0;50.0;1.068840579710145;8.558094830779815;1.1585655996459028;31.0;1.0;275.0;7.903225806451613;0.017758556283066683;
454;454_be31bf6c560aaac0a35d7f4f382936b3239fda79-FRAGMENT.arff;276.0;50.0;1.068840579710145;8.558094830779815;1.1585655996459028;31.0;1.0;275.0;7.903225806451613;0.017758556283066683;
455;455_bd050161b1dfd3c55491c5a2be555bb3cddaa695-FRAGMENT.arff;276.0;50.0;1.068840579710145;8.558094830779815;1.1585655996459028;31.0;1.0;275.0;7.903225806451613;0.017758556283066683;
456;456_02104652dec186c472f9997b4f12d91ed51f5ac2-FRAGMENT.arff;277.0;50.0;1.068592057761733;8.55650508719007;1.1589231499137167;31.0;1.0;276.0;7.935483870967742;0.017694445971575466;
457;457_0775084efea892a7e80e4f85c0c8c8628970e579-FRAGMENT.arff;286.0;50.0;1.0664335664335665;8.485003062713908;1.1729379609850625;31.0;1.0;284.0;8.193548387096774;0.017137627741700714;
458;458_b139d7b4fd70b28345ee1b52fb495983507112b5-FRAGMENT.arff;286.0;50.0;1.0664335664335665;8.485003062713908;1.1729379609850625;31.0;1.0;284.0;8.193548387096774;0.017137627741700714;
459;459_84d74e78b5fb540b10d51b855febf117cd9d898d-FRAGMENT.arff;287.0;50.0;1.0662020905923344;8.483815323250306;1.1732103377175744;31.0;1.0;286.0;8.258064516129032;0.01707791475305367;
45;45_c8db001457ad46d07f21002f2395095041810a80-FRAGMENT.arff;13.0;26.0;1.0;2.904761904761905;0.48102953282364613;4.0;1.0;12.0;2.25;0.0;
460;460_c45dad5d500070223da30a2c01951afa4bd8c14b-FRAGMENT.arff;290.0;50.0;1.0655172413793104;8.441617151052135;1.1815370621130459;31.0;1.0;289.0;8.35483870967742;0.016901246669401394;
461;461_35a90d531df1c7b28ed8390ab61dd2aba9a91514-FRAGMENT.arff;293.0;50.0;1.0648464163822526;8.433416092851077;1.183375552670968;31.0;1.0;292.0;8.451612903225806;0.016728196362206155;
462;462_248ae98668bfcafd44b65e2fbca35e9d8ba77aa5-FRAGMENT.arff;293.0;50.0;1.0648464163822526;8.433416092851077;1.183375552670968;31.0;1.0;292.0;8.451612903225806;0.016728196362206155;
463;463_a43ba3d3e7fc470480d454f313a446ad11f2663f-FRAGMENT.arff;293.0;50.0;1.0648464163822526;8.433416092851077;1.183375552670968;31.0;1.0;292.0;8.451612903225806;0.016728196362206155;
464;464_c84233b13de8667c0086562fbb8a762bda1c9450-FRAGMENT.arff;297.0;50.0;1.0740740740740742;8.890586586902375;1.2220144310437577;34.0;1.0;296.0;7.735294117647059;0.018905214402638825;
465;465_1ccada0eeef1e1585377577a86f7423f9177791d-FRAGMENT.arff;298.0;50.0;1.0738255033557047;8.701697698013486;1.2373907464824592;34.0;1.0;297.0;7.764705882352941;0.018252536914263807;
466;466_675c3d9bf43aa66198dbe8441d3b1a8b13daa495-FRAGMENT.arff;299.0;51.0;1.0735785953177257;8.607253253569041;1.2496368975791046;34.0;1.0;298.0;7.794117647058823;0.017737543652836127;
467;467_de8536fdabadcdd4286efd4b7ccfedc99c6f0e85-FRAGMENT.arff;302.0;51.0;1.0728476821192052;8.823148309905527;1.211405910498607;34.0;1.0;301.0;7.882352941176471;0.01719808637059184;
468;468_5a15ca5d5d757ab85ddda1463d1252000c59c222-FRAGMENT.arff;302.0;51.0;1.0728476821192052;8.823148309905527;1.211405910498607;34.0;1.0;301.0;7.882352941176471;0.01719808637059184;
469;469_9aadc5fa2d86a0b8e1a2baf3838b19a228861cf5-FRAGMENT.arff;302.0;51.0;1.0728476821192052;8.823148309905527;1.211405910498607;34.0;1.0;300.0;7.852941176470588;0.01719808637059184;
46;46_80b9f906d53f0f45cd7cc91565164137324ec7d8-FRAGMENT.arff;13.0;26.0;1.0;2.904761904761905;0.48102953282364613;4.0;1.0;12.0;2.25;0.0;
470;470_d7c4977d693a51f83ddd085c093ce15c75b6430e-FRAGMENT.arff;302.0;51.0;1.0728476821192052;8.823148309905527;1.211405910498607;34.0;1.0;301.0;7.882352941176471;0.01719808637059184;
471;471_05a014d6be66825548d47aa3959b8f7dd6522864-FRAGMENT.arff;302.0;51.0;1.0728476821192052;8.823148309905527;1.211405910498607;34.0;1.0;301.0;7.882352941176471;0.01719808637059184;
472;472_e5a36b08180e5a8845e7dec7c032dd6ed0a3a793-FRAGMENT.arff;304.0;51.0;1.0723684210526316;8.820863363668966;1.211913133153927;34.0;1.0;303.0;7.9411764705882355;0.017084941065522153;
473;473_05b811173c71c3d13296d4d8173272bb562b65bb-FRAGMENT.arff;307.0;52.0;1.0716612377850163;8.805044505108173;1.2152087562927936;34.0;1.0;306.0;8.029411764705882;0.016917987244034968;
474;474_5e2615026cdb7de162b88829bc2b64d9e7478df4-FRAGMENT.arff;307.0;52.0;1.0716612377850163;8.805044505108173;1.2152087562927936;34.0;1.0;306.0;8.029411764705882;0.016917987244034968;
475;475_570c9b190d77406bcb53495b1f64cfae59d22d05-FRAGMENT.arff;307.0;52.0;1.0716612377850163;8.805044505108173;1.2152087562927936;34.0;1.0;306.0;8.029411764705882;0.016917987244034968;
476;476_be3623c7f5b5ee56fd081e71f5a35941a0d983e3-FRAGMENT.arff;307.0;52.0;1.0716612377850163;8.805044505108173;1.2152087562927936;34.0;1.0;306.0;8.029411764705882;0.016917987244034968;
477;477_4310b5f025b5bab2d97689ac6f0ebb42907469a9-FRAGMENT.arff;307.0;52.0;1.0716612377850163;8.805044505108173;1.2152087562927936;34.0;1.0;306.0;8.029411764705882;0.016917987244034968;
478;478_a63063135b91d51292ccc8cc3fbf07ffe25c7052-FRAGMENT.arff;307.0;52.0;1.0716612377850163;8.805044505108173;1.2152087562927936;34.0;1.0;306.0;8.029411764705882;0.016917987244034968;
479;479_996e3b68d213a2e444a17a85d9ab2a019b093aa7-FRAGMENT.arff;307.0;52.0;1.0716612377850163;8.805044505108173;1.2152087562927936;34.0;1.0;306.0;8.029411764705882;0.016917987244034968;
47;47_74a6e73ea07a8feb65781624ff92878bb6790970-FRAGMENT.arff;13.0;26.0;1.0;2.904761904761905;0.48102953282364613;4.0;1.0;11.0;2.0;0.0;
480;480_a6971bd502d689c7470be47a2236274f6c4d692d-FRAGMENT.arff;307.0;52.0;1.0716612377850163;8.805044505108173;1.2152087562927936;34.0;1.0;306.0;8.029411764705882;0.016917987244034968;
481;481_94ccfc16fa79e7409c37d76ea120c28286450189-FRAGMENT.arff;308.0;52.0;1.0714285714285714;8.792858125179857;1.2175901054644127;34.0;1.0;307.0;8.058823529411764;0.016863058714021866;
482;482_9415630c39f920e9b83978143a71cabac0b5ea5b-FRAGMENT.arff;308.0;52.0;1.0714285714285714;8.792858125179857;1.2175901054644127;34.0;1.0;307.0;8.058823529411764;0.016863058714021866;
483;483_709050a8d4ae165251e7204ca87e7eff5afcc374-FRAGMENT.arff;308.0;52.0;1.0714285714285714;8.792858125179857;1.2175901054644127;34.0;1.0;307.0;8.058823529411764;0.016863058714021866;
484;484_cfbd4706b7b2d45db96f1e153e1eb3e7138cf65e-FRAGMENT.arff;308.0;52.0;1.0714285714285714;8.792858125179857;1.2175901054644127;34.0;1.0;307.0;8.058823529411764;0.016863058714021866;
485;485_8193a46312307882bc05ca1f10bb8a933fd70c1a-FRAGMENT.arff;308.0;52.0;1.0714285714285714;8.792858125179857;1.2175901054644127;34.0;1.0;307.0;8.058823529411764;0.016863058714021866;
486;486_9713def5131b0891bbb05ed720248d77efbd3f55-FRAGMENT.arff;308.0;52.0;1.0714285714285714;8.792858125179857;1.2175901054644127;34.0;1.0;307.0;8.058823529411764;0.016863058714021866;
487;487_9467616995fb755b432474189d606fb8079968a9-FRAGMENT.arff;308.0;52.0;1.0714285714285714;8.792858125179857;1.2175901054644127;34.0;1.0;307.0;8.058823529411764;0.016863058714021866;
488;488_f86fdcb3ff89d75b052d654752a6cc44b42e76e3-FRAGMENT.arff;308.0;52.0;1.0714285714285714;8.792858125179857;1.2175901054644127;34.0;1.0;307.0;8.058823529411764;0.016863058714021866;
489;489_315d9a66cc61cb2740c5fafb9c05cd05236027b2-FRAGMENT.arff;308.0;52.0;1.0714285714285714;8.792858125179857;1.2175901054644127;34.0;1.0;307.0;8.058823529411764;0.016863058714021866;
48;48_05e272ff8f49cba53cc9b243183cf75b80107749-FRAGMENT.arff;14.0;26.0;1.0;2.857142857142857;0.51234753829798;4.0;1.0;13.0;2.5;0.0;
490;490_082f59e58d40534e6e64937b287295b1b72b4d02-FRAGMENT.arff;308.0;52.0;1.0714285714285714;8.792858125179857;1.2175901054644127;34.0;1.0;307.0;8.058823529411764;0.016863058714021866;
491;491_16d42cf23c2db547d25e4521786824350e5f325c-FRAGMENT.arff;308.0;52.0;1.0714285714285714;8.792858125179857;1.2175901054644127;34.0;1.0;307.0;8.058823529411764;0.016863058714021866;
492;492_ac388e228ce9d918e193c72ea2ab4a59a8786897-FRAGMENT.arff;308.0;52.0;1.0714285714285714;8.792858125179857;1.2175901054644127;34.0;1.0;307.0;8.058823529411764;0.016863058714021866;
493;493_e47b1a726343ff07ff27d44e10bc04406123ca4f-FRAGMENT.arff;308.0;52.0;1.0714285714285714;8.792858125179857;1.2175901054644127;34.0;1.0;307.0;8.058823529411764;0.016863058714021866;
494;494_fcc317c0f073ff031e8b78032c1240c68dbdcfec-FRAGMENT.arff;308.0;52.0;1.0714285714285714;8.792858125179857;1.2175901054644127;34.0;1.0;307.0;8.058823529411764;0.016863058714021866;
495;495_f29d6a0e856fe6f9f83a0bba21fad64d97121e85-FRAGMENT.arff;308.0;52.0;1.0714285714285714;8.792858125179857;1.2175901054644127;34.0;1.0;307.0;8.058823529411764;0.016863058714021866;
496;496_5f05835be1dc7df80521b462cb2035107019fdc5-FRAGMENT.arff;308.0;52.0;1.0714285714285714;8.792858125179857;1.2175901054644127;34.0;1.0;307.0;8.058823529411764;0.016863058714021866;
497;497_138b059d1161de48ec406a9b69133a3d3a243e52-FRAGMENT.arff;308.0;52.0;1.0714285714285714;8.792858125179857;1.2175901054644127;34.0;1.0;307.0;8.058823529411764;0.016863058714021866;
498;498_42164d92ce4a0dda0543ba36924e6b92b49565f9-FRAGMENT.arff;308.0;52.0;1.0714285714285714;8.792858125179857;1.2175901054644127;34.0;1.0;307.0;8.058823529411764;0.016863058714021866;
499;499_9ce31287f0d33c422535e424f39a82b7f1622134-FRAGMENT.arff;308.0;52.0;1.0714285714285714;8.792858125179857;1.2175901054644127;34.0;1.0;307.0;8.058823529411764;0.016863058714021866;
49;49_7db38c9f72a9cab9ce17d19bc84aa806f1bf0333-FRAGMENT.arff;14.0;27.0;1.0;2.857142857142857;0.51234753829798;4.0;1.0;13.0;2.5;0.0;
500;500_0364988f79f355393fcf7db8bc8388084b0e4568-FRAGMENT.arff;308.0;52.0;1.0714285714285714;8.792858125179857;1.2175901054644127;34.0;1.0;307.0;8.058823529411764;0.016863058714021866;
501;501_a194c350da64012f86f901fe9f03a455c3f7f2e0-FRAGMENT.arff;308.0;52.0;1.0714285714285714;8.792858125179857;1.2175901054644127;34.0;1.0;307.0;8.058823529411764;0.016863058714021866;
502;502_9c3ec85df5f899d8075db3d041e3314cd8656cff-FRAGMENT.arff;310.0;52.0;1.0741935483870968;9.000343621376901;1.2263043984195767;35.0;1.0;309.0;7.857142857142857;0.017193028517214794;
503;503_ac39b98decd677913894172087f97ac9ef794afc-FRAGMENT.arff;310.0;52.0;1.0741935483870968;9.000343621376901;1.2263043984195767;35.0;1.0;309.0;7.857142857142857;0.017193028517214794;
504;504_bdbdd398c4c70c788bcf47bc72b9ad8c889d72b3-FRAGMENT.arff;310.0;52.0;1.0741935483870968;9.000343621376901;1.2263043984195767;35.0;1.0;309.0;7.857142857142857;0.017193028517214794;
505;505_4c78b8d52985fa29c1e5eb4618e2ea4c7913db30-FRAGMENT.arff;310.0;52.0;1.0741935483870968;9.000343621376901;1.2263043984195767;35.0;1.0;309.0;7.857142857142857;0.017193028517214794;
506;506_6906cfc833eb557ca90d254d803b6a37249fff08-FRAGMENT.arff;310.0;52.0;1.0741935483870968;9.000343621376901;1.2263043984195767;35.0;1.0;309.0;7.857142857142857;0.017193028517214794;
507;507_4ba1cf0869241c7ad117c877e924169dde2baab6-FRAGMENT.arff;310.0;52.0;1.0741935483870968;9.000343621376901;1.2263043984195767;35.0;1.0;309.0;7.857142857142857;0.017193028517214794;
508;508_50690a35efd6f0250d10e476a79f654c6d7693e0-FRAGMENT.arff;310.0;52.0;1.0741935483870968;9.000343621376901;1.2263043984195767;35.0;1.0;309.0;7.857142857142857;0.017193028517214794;
509;509_2f39adbf1c6e66063b500f53bdbfa2b3d88b3b00-FRAGMENT.arff;310.0;52.0;1.0741935483870968;9.000343621376901;1.2263043984195767;35.0;1.0;309.0;7.857142857142857;0.017193028517214794;
50;50_54b238a724f760ecf526a4a1a49ac1d33d77dadc-FRAGMENT.arff;15.0;27.0;1.0;3.0;0.47140452079103173;4.0;1.0;14.0;2.75;0.0;
510;510_0611a11a2dc34a37c67ad86143ac1e06741c3d59-FRAGMENT.arff;310.0;52.0;1.0741935483870968;9.000343621376901;1.2263043984195767;35.0;1.0;309.0;7.857142857142857;0.017193028517214794;
511;511_32be42c13567c1681760f76546d1c053d27ef76b-FRAGMENT.arff;310.0;52.0;1.0741935483870968;9.000343621376901;1.2263043984195767;35.0;1.0;309.0;7.857142857142857;0.017193028517214794;
512;512_163df12a1fb5b47544b807d4ccad43f8dc72d531-FRAGMENT.arff;310.0;52.0;1.0741935483870968;9.000343621376901;1.2263043984195767;35.0;1.0;309.0;7.857142857142857;0.017193028517214794;
513;513_098ba66043fc35dcbcbaa907a6ab3f6b64f72456-FRAGMENT.arff;310.0;52.0;1.0741935483870968;9.000343621376901;1.2263043984195767;35.0;1.0;309.0;7.857142857142857;0.017193028517214794;
514;514_a66fe0f7c2aa1d9ba361163f2e29e2149400253a-FRAGMENT.arff;310.0;52.0;1.0741935483870968;9.000343621376901;1.2263043984195767;35.0;1.0;309.0;7.857142857142857;0.017193028517214794;
515;515_398e97f31c1def14dcd7ac31f1b993df0b2f0e8d-FRAGMENT.arff;310.0;52.0;1.0741935483870968;9.000343621376901;1.2263043984195767;35.0;1.0;309.0;7.857142857142857;0.017193028517214794;
516;516_6db654e12f5674db325b9926b59c53f676a2cb94-FRAGMENT.arff;310.0;52.0;1.0741935483870968;9.000343621376901;1.2263043984195767;35.0;1.0;309.0;7.857142857142857;0.017193028517214794;
517;517_499dcadd65603ef588c617c19b65f69b302647d5-FRAGMENT.arff;310.0;52.0;1.0741935483870968;9.000343621376901;1.2263043984195767;35.0;1.0;309.0;7.857142857142857;0.017193028517214794;
518;518_b2b37245577d40c46db0c7df4bf26351f8daa4d3-FRAGMENT.arff;310.0;52.0;1.0741935483870968;9.000343621376901;1.2263043984195767;35.0;1.0;309.0;7.857142857142857;0.017193028517214794;
519;519_afba8e9a6c546cf53971801cf62a6f1abe13969f-FRAGMENT.arff;310.0;52.0;1.0741935483870968;9.000343621376901;1.2263043984195767;35.0;1.0;309.0;7.857142857142857;0.017193028517214794;
51;51_79fb84a857dc2020e56f5e42435fea9070ab75b6-FRAGMENT.arff;15.0;27.0;1.0;3.0;0.47140452079103173;4.0;1.0;14.0;2.75;0.0;
520;520_11ec9576935d30c1268f93c4f009d8369f7c08cd-FRAGMENT.arff;310.0;52.0;1.0741935483870968;9.000343621376901;1.2263043984195767;35.0;1.0;309.0;7.857142857142857;0.017193028517214794;
521;521_009db2af200de97791c0e0b0c15d41ac3baf4334-FRAGMENT.arff;310.0;52.0;1.0741935483870968;9.000343621376901;1.2263043984195767;35.0;1.0;309.0;7.857142857142857;0.017193028517214794;
522;522_56e4058b393d073d3b07d3090531b8ce11ef250b-FRAGMENT.arff;310.0;52.0;1.0741935483870968;9.000343621376901;1.2263043984195767;35.0;1.0;309.0;7.857142857142857;0.017193028517214794;
523;523_d670d8d3bccc77edd75ff719f86edd6c3e1d14aa-FRAGMENT.arff;310.0;52.0;1.0741935483870968;9.000343621376901;1.2263043984195767;35.0;1.0;309.0;7.857142857142857;0.017193028517214794;
524;524_845508b9b48b56b56f7e2bf53a7995c49f09a3f8-FRAGMENT.arff;310.0;52.0;1.0741935483870968;9.000343621376901;1.2263043984195767;35.0;1.0;309.0;7.857142857142857;0.017193028517214794;
525;525_c0324fb0ae00ab227508615f149028903eedab24-FRAGMENT.arff;310.0;52.0;1.0741935483870968;9.000343621376901;1.2263043984195767;35.0;1.0;309.0;7.857142857142857;0.017193028517214794;
526;526_72ba953eab89064d312c4f6692872fa84083f7b8-FRAGMENT.arff;310.0;52.0;1.0741935483870968;9.000343621376901;1.2263043984195767;35.0;1.0;309.0;7.857142857142857;0.017193028517214794;
527;527_21b19a7a2020def21cac321f9dd59962d0bf41b2-FRAGMENT.arff;310.0;52.0;1.0741935483870968;9.000343621376901;1.2263043984195767;35.0;1.0;309.0;7.857142857142857;0.017193028517214794;
528;528_de3aa6ec6e6ad5d22dcb144e23d2e0f3e7d33b08-FRAGMENT.arff;310.0;52.0;1.0741935483870968;9.000343621376901;1.2263043984195767;35.0;1.0;309.0;7.857142857142857;0.017193028517214794;
529;529_c41dc91c99c68d5e0fbe83d0aa80be37d4f0c365-FRAGMENT.arff;310.0;52.0;1.0741935483870968;9.000343621376901;1.2263043984195767;35.0;1.0;309.0;7.857142857142857;0.017193028517214794;
52;52_26329d179d3f16524ce0376b7cb914b768deb15a-FRAGMENT.arff;15.0;27.0;1.0;3.0;0.47140452079103173;4.0;1.0;14.0;2.75;0.0;
530;530_02c0f28e8cf841b07876e4c1f806d8fef3a7e545-FRAGMENT.arff;310.0;52.0;1.0741935483870968;9.000343621376901;1.2263043984195767;35.0;1.0;309.0;7.857142857142857;0.017193028517214794;
531;531_c0e7293677546b27cadec64c9dbebc72b7dd76d1-FRAGMENT.arff;310.0;52.0;1.0741935483870968;9.000343621376901;1.2263043984195767;35.0;1.0;309.0;7.857142857142857;0.017193028517214794;
532;532_1d907fa64ce3fb7de7d534808f68d4b588862534-FRAGMENT.arff;310.0;52.0;1.0741935483870968;9.000343621376901;1.2263043984195767;35.0;1.0;309.0;7.857142857142857;0.017193028517214794;
533;533_cf3bc0c3ec61e5d91622c55e8fd22eae3fceae6d-FRAGMENT.arff;310.0;52.0;1.0741935483870968;9.000343621376901;1.2263043984195767;35.0;1.0;309.0;7.857142857142857;0.017193028517214794;
534;534_db1374f26a234adb80ab0ca710fbbb01ef5bf97d-FRAGMENT.arff;310.0;52.0;1.0741935483870968;9.000343621376901;1.2263043984195767;35.0;1.0;309.0;7.857142857142857;0.017193028517214794;
535;535_106734762f16141e5f491bc99ad4568755ff31ea-FRAGMENT.arff;310.0;52.0;1.0741935483870968;9.000343621376901;1.2263043984195767;35.0;1.0;309.0;7.857142857142857;0.017193028517214794;
536;536_ad927a4ac7425fad3be4d8d0ff39258923bd021f-FRAGMENT.arff;311.0;52.0;1.0739549839228295;8.990079691758133;1.2283086983946305;35.0;1.0;310.0;7.885714285714286;0.017137745467320217;
537;537_18bfa38c0cafdf4cb924c4f31c214767d3b2a69a-FRAGMENT.arff;311.0;52.0;1.0739549839228295;8.990079691758133;1.2283086983946305;35.0;1.0;310.0;7.885714285714286;0.017137745467320217;
538;538_eba4c9575157a327aa9d1706299284e640d4b5f3-FRAGMENT.arff;311.0;52.0;1.0739549839228295;8.990079691758133;1.2283086983946305;35.0;1.0;310.0;7.885714285714286;0.017137745467320217;
539;539_c5e6ac9a3fa22b185807a96f78ee64cf83eb69ef-FRAGMENT.arff;311.0;52.0;1.0739549839228295;8.990079691758133;1.2283086983946305;35.0;1.0;310.0;7.885714285714286;0.017137745467320217;
53;53_2c33bc87e71096c97d6ffcbc392be9313d5e7657-FRAGMENT.arff;16.0;27.0;1.0;2.75;0.504992781694119;4.0;1.0;15.0;3.0;0.0;
540;540_203c2a61d94afd37c1147f9dd2c9bdb1ad358063-FRAGMENT.arff;311.0;52.0;1.0739549839228295;8.990079691758133;1.2283086983946305;35.0;1.0;310.0;7.885714285714286;0.017137745467320217;
541;541_2af7617117a23879069a37bf02a5a0a1c0af130c-FRAGMENT.arff;311.0;52.0;1.0739549839228295;8.990079691758133;1.2283086983946305;35.0;1.0;310.0;7.885714285714286;0.017137745467320217;
542;542_eb79975317c5c48c220a0285812a693bacf5486f-FRAGMENT.arff;311.0;52.0;1.0739549839228295;8.990079691758133;1.2283086983946305;35.0;1.0;310.0;7.885714285714286;0.017137745467320217;
54;54_ce0fbed78addfdf850df6a997edf65df72f2c0df-FRAGMENT.arff;17.0;29.0;1.0;2.888888888888889;0.4722318906849491;4.0;1.0;16.0;3.25;0.0;
55;55_837da9c989f5bd7806f3b7a8321c683ce23ccfff-FRAGMENT.arff;18.0;29.0;1.0;3.0;0.4444444444444444;4.0;1.0;17.0;3.5;0.0;
56;56_b3c75e164d944bbc90d5ce878b85244e40e87561-FRAGMENT.arff;18.0;29.0;1.0;3.0;0.4444444444444444;4.0;1.0;17.0;3.5;0.0;
57;57_703675744fe61df80af67c277285355d4a24cbb6-FRAGMENT.arff;18.0;29.0;1.0;3.0;0.4444444444444444;4.0;1.0;17.0;3.5;0.0;
58;58_30423b0ce638887ca33315b2648e8e2502a2327a-FRAGMENT.arff;18.0;29.0;1.0;3.0;0.4444444444444444;4.0;1.0;17.0;3.5;0.0;
59;59_4d3f26045288af7b553f95e4080d7da476b4c177-FRAGMENT.arff;18.0;29.0;1.0;3.0;0.4444444444444444;4.0;1.0;17.0;3.5;0.0;
60;60_fb2b98ea3e8bed3345501a58ce6fcba64461657d-FRAGMENT.arff;18.0;29.0;1.0;3.0;0.4444444444444444;4.0;1.0;17.0;3.5;0.0;
61;61_468700d01afd13b5fff60e57861437d5fe4c5aa2-FRAGMENT.arff;18.0;29.0;1.0;3.0;0.4444444444444444;4.0;1.0;17.0;3.5;0.0;
62;62_46ac49bd625f24c4ad1fbc2dc5ac005360850cdd-FRAGMENT.arff;18.0;29.0;1.0;3.0;0.4444444444444444;4.0;1.0;17.0;3.5;0.0;
63;63_0b47e6842dbc4714502f6451e93eb52c1bf6537b-FRAGMENT.arff;18.0;29.0;1.0;3.0;0.4444444444444444;4.0;1.0;17.0;3.5;0.0;
64;64_ab60808719e65a83cfebfce093902c4e750b5c2e-FRAGMENT.arff;18.0;29.0;1.0;3.0;0.4444444444444444;4.0;1.0;17.0;3.5;0.0;
65;65_75f091cc974c88e1b8d1cd6082e1f48c8a7e4f60-FRAGMENT.arff;18.0;29.0;1.0;3.0;0.4444444444444444;4.0;1.0;17.0;3.5;0.0;
66;66_610d2ffc32b2fe80f1f0a4b46c91c5449f68aefa-FRAGMENT.arff;18.0;29.0;1.0;3.0;0.4444444444444444;4.0;1.0;17.0;3.5;0.0;
67;67_7d6e51f60d8ba59ce539f2955a1b99d933df6c2c-FRAGMENT.arff;18.0;29.0;1.0;3.0;0.4444444444444444;4.0;1.0;17.0;3.5;0.0;
68;68_bbaaf19492d6df50410ccb8b59ad53f68f05f06f-FRAGMENT.arff;18.0;29.0;1.0;3.0;0.4444444444444444;4.0;1.0;17.0;3.5;0.0;
69;69_f2df6675654f3fe7c748b2441b6e2fb193d47096-FRAGMENT.arff;18.0;29.0;1.0;3.0;0.4444444444444444;4.0;1.0;17.0;3.5;0.0;
70;70_84e62ebb979bc5707a9073e3712d7a2daf3e6032-FRAGMENT.arff;18.0;29.0;1.0;3.0;0.4444444444444444;4.0;1.0;17.0;3.5;0.0;
71;71_fe84acae0ff3d1c0ca88ac5e4603ff5e57bf0eb0-FRAGMENT.arff;18.0;29.0;1.0;3.0;0.4444444444444444;4.0;1.0;17.0;3.5;0.0;
72;72_2e77407e1856104e644c020cb46463cbca6597d0-FRAGMENT.arff;18.0;29.0;1.0;3.0;0.4444444444444444;4.0;1.0;17.0;3.5;0.0;
73;73_62bb268b151dd31f02192fb8f4b994fc9c084dee-FRAGMENT.arff;18.0;29.0;1.0;3.0;0.4444444444444444;4.0;1.0;17.0;3.5;0.0;
74;74_fcb9b936225bedbbe911af9e80b40a4baab9cfdf-FRAGMENT.arff;18.0;29.0;1.0;3.0;0.4444444444444444;4.0;1.0;17.0;3.5;0.0;
75;75_3195dfd2df22c7ea9e51061b7da82582425c6989-FRAGMENT.arff;19.0;30.0;1.0;3.090909090909091;0.4207013422573817;4.0;1.0;18.0;3.75;0.0;
76;76_300dcb626eb5371c06593abfca73c9fa4e3243fe-FRAGMENT.arff;19.0;30.0;1.0;3.090909090909091;0.4207013422573817;4.0;1.0;18.0;3.75;0.0;
77;77_03ae693c0f284c06bd93134a5682d2c66f199907-FRAGMENT.arff;19.0;30.0;1.0;3.090909090909091;0.4207013422573817;4.0;1.0;18.0;3.75;0.0;
78;78_6b480743f361f1667aba202fe4b3205448d3431a-FRAGMENT.arff;19.0;30.0;1.0;3.090909090909091;0.4207013422573817;4.0;1.0;18.0;3.75;0.0;
79;79_cc490c4bf42fc67e4976ad6f8c4ff9c83b638bb7-FRAGMENT.arff;19.0;30.0;1.0;3.090909090909091;0.4207013422573817;4.0;1.0;18.0;3.75;0.0;
80;80_cb3f376b86218a5e83a784c48096307ef7137b43-FRAGMENT.arff;19.0;30.0;1.0;3.090909090909091;0.4207013422573817;4.0;1.0;18.0;3.75;0.0;
81;81_3b32996ad0b756f0411a4f9dad9108ca78e297ef-FRAGMENT.arff;19.0;30.0;1.0;3.090909090909091;0.4207013422573817;4.0;1.0;18.0;3.75;0.0;
82;82_5315093beef6ae72bfff181f695a0ba246392891-FRAGMENT.arff;19.0;30.0;1.0;3.090909090909091;0.4207013422573817;4.0;1.0;18.0;3.75;0.0;
83;83_ac03024766d3f9741facec52faa7b33e4309d4c1-FRAGMENT.arff;19.0;31.0;1.0;3.090909090909091;0.4207013422573817;4.0;1.0;18.0;3.75;0.0;
84;84_2e0b6bf482ab53f87f35a995dfd6d39e97e5ea33-FRAGMENT.arff;20.0;31.0;1.0;3.1666666666666665;0.40020140988184655;4.0;1.0;19.0;4.0;0.0;
85;85_eca44992d2a8441ceb28561c98a726c0533b4509-FRAGMENT.arff;20.0;31.0;1.0;3.1666666666666665;0.40020140988184655;4.0;1.0;19.0;4.0;0.0;
86;86_a6aa8b1642535a096b6592b797a589d3b179b89c-FRAGMENT.arff;21.0;31.0;1.0;3.0;0.4264014327112209;4.0;1.0;20.0;4.25;0.0;
87;87_5c59e7b2b7897c3dac218aed667f911a02501c03-FRAGMENT.arff;22.0;31.0;1.0;2.9444444444444446;0.4549692189520709;4.0;1.0;21.0;4.5;0.0;
88;88_19a4c6aabe741de5e981d216e4f15d2d1483551f-FRAGMENT.arff;22.0;31.0;1.0;2.9444444444444446;0.4549692189520709;4.0;1.0;21.0;4.5;0.0;
89;89_65b7318b2aae87ae238b69f900f4526309d7cff9-FRAGMENT.arff;22.0;31.0;1.0;2.9444444444444446;0.4549692189520709;4.0;1.0;21.0;4.5;0.0;
90;90_a08c33426044e58b01ab819845fcf0beca194b61-FRAGMENT.arff;25.0;31.0;1.0;2.6944444444444446;0.5207600464707821;4.0;1.0;24.0;5.25;0.0;
91;91_0f4bcfe5b1a36611d433dd3d368fb97364ba15cf-FRAGMENT.arff;25.0;31.0;1.0;2.6944444444444446;0.5207600464707821;4.0;1.0;24.0;5.25;0.0;
92;92_42670cd6c379c8ea7ab4af02b8fc3ca3be4e5199-FRAGMENT.arff;25.0;31.0;1.0;2.6944444444444446;0.5207600464707821;4.0;1.0;24.0;5.25;0.0;
93;93_4bfcd670cdac53bde94dffc0adcd6adb80845a84-FRAGMENT.arff;25.0;31.0;1.0;2.6944444444444446;0.5207600464707821;4.0;1.0;24.0;5.25;0.0;
94;94_046a2ec5c14672e16695c5b98a8ce399d2e64437-FRAGMENT.arff;25.0;31.0;1.0;2.6944444444444446;0.5207600464707821;4.0;1.0;24.0;5.25;0.0;
95;95_46a551966d77e2ef521a4586de136c0b834662a7-FRAGMENT.arff;25.0;31.0;1.0;2.6944444444444446;0.5207600464707821;4.0;1.0;24.0;5.25;0.0;
96;96_a7320514dbce737c9baed14fd1eb3e911db5b0b4-FRAGMENT.arff;25.0;31.0;1.0;2.6944444444444446;0.5207600464707821;4.0;1.0;24.0;5.25;0.0;
97;97_12ff94247058cb95c6dbd4d9a58cc2db5a0e767c-FRAGMENT.arff;25.0;31.0;1.0;2.6944444444444446;0.5207600464707821;4.0;1.0;24.0;5.25;0.0;
98;98_1d211d256d3ac5b90c23939e58c6620074d10846-FRAGMENT.arff;25.0;31.0;1.0;2.6944444444444446;0.5207600464707821;4.0;1.0;24.0;5.25;0.0;
99;99_43b048b40a721ad078a2056f1163f514ed58eeb8-FRAGMENT.arff;25.0;31.0;1.0;2.6944444444444446;0.5207600464707821;4.0;1.0;24.0;5.25;0.0;
