commit;DataSet;Classifier;TotalInstances;InstancesWithRankedLabels;PercentageOfInstancesWithRankedLabels;InstancesWithPrecisionNull;PercentageOfInstancesWithPrecisionNull;InstancesWithPrecisionZero;PercentageOfInstancesWithPrecisionZero;InstancesWithPrecisionNonZero;PercentageOfInstancesWithPrecisionNonZero;InstancesWithPrecisionOne;PercentageOfInstancesWithPrecisionOne;InstancesWithRecallZero;PercentageOfInstancesWithRecallZero;InstancesWithRecallOne;PercentageOfInstancesWithRecallOne;AveragePrecisionForAllNonNullPrecision;AveragePrecisionForNonZeroPrecision;AverageRecallForAllNonNullPrecision;AverageRecallForAllNonZeroPrecision;AverageFScoreForAllNonNullPrecision;AverageFScoreForAllNonZeroPrecision;
9;9_c99059a8f3b7cff952404f4ef5c6a742e6b73508-FILE.arff;BR;2.0;2.0;1.0;0.0;0.0;0.0;0.0;2.0;1.0;0.0;0.0;0.0;0.0;2.0;1.0;0.5;0.5;1.0;1.0;0.6666666666666666;0.6666666666666666;
9;9_c99059a8f3b7cff952404f4ef5c6a742e6b73508-FILE.arff;LP;2.0;2.0;1.0;0.0;0.0;0.0;0.0;2.0;1.0;2.0;1.0;0.0;0.0;2.0;1.0;1.0;1.0;1.0;1.0;1.0;1.0;
9;9_c99059a8f3b7cff952404f4ef5c6a742e6b73508-FILE.arff;RAkELd;2.0;2.0;1.0;1.0;0.5;0.0;0.0;1.0;0.5;0.0;0.0;1.0;0.5;1.0;0.5;0.5;0.5;1.0;1.0;0.6666666666666666;0.6666666666666666;
10;10_11aa0a0d402f0d337f725656fbda943913433321-FILE.arff;BR;1.0;1.0;1.0;0.0;0.0;0.0;0.0;1.0;1.0;0.0;0.0;0.0;0.0;1.0;1.0;0.5;0.5;1.0;1.0;0.6666666666666666;0.6666666666666666;
10;10_11aa0a0d402f0d337f725656fbda943913433321-FILE.arff;LP;1.0;1.0;1.0;0.0;0.0;1.0;1.0;0.0;0.0;0.0;0.0;1.0;1.0;0.0;0.0;0.0;0.0;0.0;0.0;0.0;0.0;
10;10_11aa0a0d402f0d337f725656fbda943913433321-FILE.arff;RAkELd;1.0;1.0;1.0;0.0;0.0;0.0;0.0;1.0;1.0;0.0;0.0;0.0;0.0;1.0;1.0;0.5;0.5;1.0;1.0;0.6666666666666666;0.6666666666666666;
14;14_e72c0b188d7dca3bccfb2a409d0156e76d114f85-FILE.arff;BR;1.0;1.0;1.0;0.0;0.0;0.0;0.0;1.0;1.0;0.0;0.0;0.0;0.0;1.0;1.0;0.5;0.5;1.0;1.0;0.6666666666666666;0.6666666666666666;
14;14_e72c0b188d7dca3bccfb2a409d0156e76d114f85-FILE.arff;LP;1.0;1.0;1.0;0.0;0.0;1.0;1.0;0.0;0.0;0.0;0.0;1.0;1.0;0.0;0.0;0.0;0.0;0.0;0.0;0.0;0.0;
14;14_e72c0b188d7dca3bccfb2a409d0156e76d114f85-FILE.arff;RAkELd;1.0;1.0;1.0;0.0;0.0;0.0;0.0;1.0;1.0;0.0;0.0;0.0;0.0;1.0;1.0;0.5;0.5;1.0;1.0;0.6666666666666666;0.6666666666666666;
16;16_dbc64c7dee79ac92f5348641b381c5c713563aa9-FILE.arff;BR;1.0;1.0;1.0;0.0;0.0;0.0;0.0;1.0;1.0;0.0;0.0;0.0;0.0;1.0;1.0;0.5;0.5;1.0;1.0;0.6666666666666666;0.6666666666666666;
16;16_dbc64c7dee79ac92f5348641b381c5c713563aa9-FILE.arff;LP;1.0;1.0;1.0;0.0;0.0;1.0;1.0;0.0;0.0;0.0;0.0;1.0;1.0;0.0;0.0;0.0;0.0;0.0;0.0;0.0;0.0;
16;16_dbc64c7dee79ac92f5348641b381c5c713563aa9-FILE.arff;RAkELd;1.0;1.0;1.0;0.0;0.0;0.0;0.0;1.0;1.0;0.0;0.0;0.0;0.0;1.0;1.0;0.5;0.5;1.0;1.0;0.6666666666666666;0.6666666666666666;
17;17_b2026851ef304444182724685a9d17f8db843990-FILE.arff;BR;1.0;1.0;1.0;0.0;0.0;0.0;0.0;1.0;1.0;0.0;0.0;0.0;0.0;1.0;1.0;0.5;0.5;1.0;1.0;0.6666666666666666;0.6666666666666666;
17;17_b2026851ef304444182724685a9d17f8db843990-FILE.arff;LP;1.0;1.0;1.0;0.0;0.0;1.0;1.0;0.0;0.0;0.0;0.0;1.0;1.0;0.0;0.0;0.0;0.0;0.0;0.0;0.0;0.0;
17;17_b2026851ef304444182724685a9d17f8db843990-FILE.arff;RAkELd;1.0;1.0;1.0;0.0;0.0;0.0;0.0;1.0;1.0;0.0;0.0;0.0;0.0;1.0;1.0;0.5;0.5;1.0;1.0;0.6666666666666666;0.6666666666666666;
22;22_2f61cc1a34aa9f88929105d9941d3c2175a7a17b-FILE.arff;BR;4.0;4.0;1.0;0.0;0.0;3.0;0.75;1.0;0.25;0.0;0.0;3.0;0.75;1.0;0.25;0.125;0.5;0.25;1.0;0.16666666666666666;0.6666666666666666;
22;22_2f61cc1a34aa9f88929105d9941d3c2175a7a17b-FILE.arff;LP;4.0;4.0;1.0;0.0;0.0;3.0;0.75;1.0;0.25;1.0;0.25;3.0;0.75;1.0;0.25;0.25;1.0;0.25;1.0;0.25;1.0;
22;22_2f61cc1a34aa9f88929105d9941d3c2175a7a17b-FILE.arff;RAkELd;4.0;4.0;1.0;0.0;0.0;4.0;1.0;0.0;0.0;0.0;0.0;4.0;1.0;0.0;0.0;0.0;0.0;0.0;0.0;0.0;0.0;
28;28_103600db3443b0ead497c0eddcd2fcb4c5aee08d-FILE.arff;BR;1.0;1.0;1.0;1.0;1.0;0.0;0.0;0.0;0.0;0.0;0.0;1.0;1.0;0.0;0.0;0.0;0.0;0.0;0.0;0.0;0.0;
28;28_103600db3443b0ead497c0eddcd2fcb4c5aee08d-FILE.arff;LP;1.0;1.0;1.0;0.0;0.0;1.0;1.0;0.0;0.0;0.0;0.0;1.0;1.0;0.0;0.0;0.0;0.0;0.0;0.0;0.0;0.0;
28;28_103600db3443b0ead497c0eddcd2fcb4c5aee08d-FILE.arff;RAkELd;1.0;1.0;1.0;1.0;1.0;0.0;0.0;0.0;0.0;0.0;0.0;1.0;1.0;0.0;0.0;0.0;0.0;0.0;0.0;0.0;0.0;
31;31_b9532fc25f3850863c38917bf9dc4f57216244e5-FILE.arff;BR;1.0;1.0;1.0;1.0;1.0;0.0;0.0;0.0;0.0;0.0;0.0;1.0;1.0;0.0;0.0;0.0;0.0;0.0;0.0;0.0;0.0;
31;31_b9532fc25f3850863c38917bf9dc4f57216244e5-FILE.arff;LP;1.0;1.0;1.0;0.0;0.0;1.0;1.0;0.0;0.0;0.0;0.0;1.0;1.0;0.0;0.0;0.0;0.0;0.0;0.0;0.0;0.0;
31;31_b9532fc25f3850863c38917bf9dc4f57216244e5-FILE.arff;RAkELd;1.0;1.0;1.0;0.0;0.0;1.0;1.0;0.0;0.0;0.0;0.0;1.0;1.0;0.0;0.0;0.0;0.0;0.0;0.0;0.0;0.0;
38;38_6e53d5f3cd53c9ee555ed2845e447cafccf9575b-FILE.arff;BR;1.0;1.0;1.0;1.0;1.0;0.0;0.0;0.0;0.0;0.0;0.0;1.0;1.0;0.0;0.0;0.0;0.0;0.0;0.0;0.0;0.0;
38;38_6e53d5f3cd53c9ee555ed2845e447cafccf9575b-FILE.arff;LP;1.0;1.0;1.0;0.0;0.0;1.0;1.0;0.0;0.0;0.0;0.0;1.0;1.0;0.0;0.0;0.0;0.0;0.0;0.0;0.0;0.0;
38;38_6e53d5f3cd53c9ee555ed2845e447cafccf9575b-FILE.arff;RAkELd;1.0;1.0;1.0;1.0;1.0;0.0;0.0;0.0;0.0;0.0;0.0;1.0;1.0;0.0;0.0;0.0;0.0;0.0;0.0;0.0;0.0;
40;40_937278c363429bcf9c3eaff18b0bac61d0349276-FILE.arff;BR;2.0;2.0;1.0;2.0;1.0;0.0;0.0;0.0;0.0;0.0;0.0;2.0;1.0;0.0;0.0;0.0;0.0;0.0;0.0;0.0;0.0;
40;40_937278c363429bcf9c3eaff18b0bac61d0349276-FILE.arff;LP;2.0;2.0;1.0;0.0;0.0;2.0;1.0;0.0;0.0;0.0;0.0;2.0;1.0;0.0;0.0;0.0;0.0;0.0;0.0;0.0;0.0;
40;40_937278c363429bcf9c3eaff18b0bac61d0349276-FILE.arff;RAkELd;2.0;2.0;1.0;2.0;1.0;0.0;0.0;0.0;0.0;0.0;0.0;2.0;1.0;0.0;0.0;0.0;0.0;0.0;0.0;0.0;0.0;
41;41_e83307d615005a9cdec7d811950b918f7b22e1cd-FILE.arff;BR;2.0;2.0;1.0;2.0;1.0;0.0;0.0;0.0;0.0;0.0;0.0;2.0;1.0;0.0;0.0;0.0;0.0;0.0;0.0;0.0;0.0;
41;41_e83307d615005a9cdec7d811950b918f7b22e1cd-FILE.arff;LP;2.0;2.0;1.0;0.0;0.0;2.0;1.0;0.0;0.0;0.0;0.0;2.0;1.0;0.0;0.0;0.0;0.0;0.0;0.0;0.0;0.0;
41;41_e83307d615005a9cdec7d811950b918f7b22e1cd-FILE.arff;RAkELd;2.0;2.0;1.0;2.0;1.0;0.0;0.0;0.0;0.0;0.0;0.0;2.0;1.0;0.0;0.0;0.0;0.0;0.0;0.0;0.0;0.0;
42;42_53c918c0dcec8a7145d647471acc4d0b954f054d-FILE.arff;BR;1.0;1.0;1.0;1.0;1.0;0.0;0.0;0.0;0.0;0.0;0.0;1.0;1.0;0.0;0.0;0.0;0.0;0.0;0.0;0.0;0.0;
42;42_53c918c0dcec8a7145d647471acc4d0b954f054d-FILE.arff;LP;1.0;1.0;1.0;0.0;0.0;1.0;1.0;0.0;0.0;0.0;0.0;1.0;1.0;0.0;0.0;0.0;0.0;0.0;0.0;0.0;0.0;
42;42_53c918c0dcec8a7145d647471acc4d0b954f054d-FILE.arff;RAkELd;1.0;1.0;1.0;1.0;1.0;0.0;0.0;0.0;0.0;0.0;0.0;1.0;1.0;0.0;0.0;0.0;0.0;0.0;0.0;0.0;0.0;
43;43_a6e7f03206a767db7e8847b107dc02453fdfb9b4-FILE.arff;BR;1.0;1.0;1.0;1.0;1.0;0.0;0.0;0.0;0.0;0.0;0.0;1.0;1.0;0.0;0.0;0.0;0.0;0.0;0.0;0.0;0.0;
43;43_a6e7f03206a767db7e8847b107dc02453fdfb9b4-FILE.arff;LP;1.0;1.0;1.0;0.0;0.0;1.0;1.0;0.0;0.0;0.0;0.0;1.0;1.0;0.0;0.0;0.0;0.0;0.0;0.0;0.0;0.0;
43;43_a6e7f03206a767db7e8847b107dc02453fdfb9b4-FILE.arff;RAkELd;1.0;1.0;1.0;1.0;1.0;0.0;0.0;0.0;0.0;0.0;0.0;1.0;1.0;0.0;0.0;0.0;0.0;0.0;0.0;0.0;0.0;
45;45_c8db001457ad46d07f21002f2395095041810a80-FILE.arff;BR;6.0;6.0;1.0;6.0;1.0;0.0;0.0;0.0;0.0;0.0;0.0;6.0;1.0;0.0;0.0;0.0;0.0;0.0;0.0;0.0;0.0;
45;45_c8db001457ad46d07f21002f2395095041810a80-FILE.arff;LP;6.0;6.0;1.0;0.0;0.0;6.0;1.0;0.0;0.0;0.0;0.0;6.0;1.0;0.0;0.0;0.0;0.0;0.0;0.0;0.0;0.0;
45;45_c8db001457ad46d07f21002f2395095041810a80-FILE.arff;RAkELd;6.0;6.0;1.0;6.0;1.0;0.0;0.0;0.0;0.0;0.0;0.0;6.0;1.0;0.0;0.0;0.0;0.0;0.0;0.0;0.0;0.0;
46;46_80b9f906d53f0f45cd7cc91565164137324ec7d8-FILE.arff;BR;1.0;1.0;1.0;1.0;1.0;0.0;0.0;0.0;0.0;0.0;0.0;1.0;1.0;0.0;0.0;0.0;0.0;0.0;0.0;0.0;0.0;
46;46_80b9f906d53f0f45cd7cc91565164137324ec7d8-FILE.arff;LP;1.0;1.0;1.0;0.0;0.0;1.0;1.0;0.0;0.0;0.0;0.0;1.0;1.0;0.0;0.0;0.0;0.0;0.0;0.0;0.0;0.0;
46;46_80b9f906d53f0f45cd7cc91565164137324ec7d8-FILE.arff;RAkELd;1.0;1.0;1.0;1.0;1.0;0.0;0.0;0.0;0.0;0.0;0.0;1.0;1.0;0.0;0.0;0.0;0.0;0.0;0.0;0.0;0.0;
47;47_74a6e73ea07a8feb65781624ff92878bb6790970-FILE.arff;BR;5.0;5.0;1.0;5.0;1.0;0.0;0.0;0.0;0.0;0.0;0.0;5.0;1.0;0.0;0.0;0.0;0.0;0.0;0.0;0.0;0.0;
47;47_74a6e73ea07a8feb65781624ff92878bb6790970-FILE.arff;LP;5.0;5.0;1.0;0.0;0.0;3.0;0.6;2.0;0.4;2.0;0.4;3.0;0.6;2.0;0.4;0.4;1.0;0.4;1.0;0.4;1.0;
47;47_74a6e73ea07a8feb65781624ff92878bb6790970-FILE.arff;RAkELd;5.0;5.0;1.0;5.0;1.0;0.0;0.0;0.0;0.0;0.0;0.0;5.0;1.0;0.0;0.0;0.0;0.0;0.0;0.0;0.0;0.0;
48;48_05e272ff8f49cba53cc9b243183cf75b80107749-FILE.arff;BR;1.0;1.0;1.0;1.0;1.0;0.0;0.0;0.0;0.0;0.0;0.0;1.0;1.0;0.0;0.0;0.0;0.0;0.0;0.0;0.0;0.0;
48;48_05e272ff8f49cba53cc9b243183cf75b80107749-FILE.arff;LP;1.0;1.0;1.0;0.0;0.0;1.0;1.0;0.0;0.0;0.0;0.0;1.0;1.0;0.0;0.0;0.0;0.0;0.0;0.0;0.0;0.0;
48;48_05e272ff8f49cba53cc9b243183cf75b80107749-FILE.arff;RAkELd;1.0;1.0;1.0;1.0;1.0;0.0;0.0;0.0;0.0;0.0;0.0;1.0;1.0;0.0;0.0;0.0;0.0;0.0;0.0;0.0;0.0;
49;49_7db38c9f72a9cab9ce17d19bc84aa806f1bf0333-FILE.arff;BR;1.0;1.0;1.0;1.0;1.0;0.0;0.0;0.0;0.0;0.0;0.0;1.0;1.0;0.0;0.0;0.0;0.0;0.0;0.0;0.0;0.0;
49;49_7db38c9f72a9cab9ce17d19bc84aa806f1bf0333-FILE.arff;LP;1.0;1.0;1.0;0.0;0.0;1.0;1.0;0.0;0.0;0.0;0.0;1.0;1.0;0.0;0.0;0.0;0.0;0.0;0.0;0.0;0.0;
49;49_7db38c9f72a9cab9ce17d19bc84aa806f1bf0333-FILE.arff;RAkELd;1.0;1.0;1.0;0.0;0.0;0.0;0.0;1.0;1.0;1.0;1.0;0.0;0.0;1.0;1.0;1.0;1.0;1.0;1.0;1.0;1.0;
50;50_54b238a724f760ecf526a4a1a49ac1d33d77dadc-FILE.arff;BR;2.0;2.0;1.0;2.0;1.0;0.0;0.0;0.0;0.0;0.0;0.0;2.0;1.0;0.0;0.0;0.0;0.0;0.0;0.0;0.0;0.0;
50;50_54b238a724f760ecf526a4a1a49ac1d33d77dadc-FILE.arff;LP;2.0;2.0;1.0;0.0;0.0;2.0;1.0;0.0;0.0;0.0;0.0;2.0;1.0;0.0;0.0;0.0;0.0;0.0;0.0;0.0;0.0;
50;50_54b238a724f760ecf526a4a1a49ac1d33d77dadc-FILE.arff;RAkELd;2.0;2.0;1.0;2.0;1.0;0.0;0.0;0.0;0.0;0.0;0.0;2.0;1.0;0.0;0.0;0.0;0.0;0.0;0.0;0.0;0.0;
51;51_79fb84a857dc2020e56f5e42435fea9070ab75b6-FILE.arff;BR;3.0;3.0;1.0;3.0;1.0;0.0;0.0;0.0;0.0;0.0;0.0;3.0;1.0;0.0;0.0;0.0;0.0;0.0;0.0;0.0;0.0;
51;51_79fb84a857dc2020e56f5e42435fea9070ab75b6-FILE.arff;LP;3.0;3.0;1.0;0.0;0.0;3.0;1.0;0.0;0.0;0.0;0.0;3.0;1.0;0.0;0.0;0.0;0.0;0.0;0.0;0.0;0.0;
51;51_79fb84a857dc2020e56f5e42435fea9070ab75b6-FILE.arff;RAkELd;3.0;3.0;1.0;2.0;0.6666666666666666;0.0;0.0;1.0;0.3333333333333333;1.0;0.3333333333333333;2.0;0.6666666666666666;1.0;0.3333333333333333;1.0;1.0;1.0;1.0;1.0;1.0;
53;53_2c33bc87e71096c97d6ffcbc392be9313d5e7657-FILE.arff;BR;1.0;1.0;1.0;1.0;1.0;0.0;0.0;0.0;0.0;0.0;0.0;1.0;1.0;0.0;0.0;0.0;0.0;0.0;0.0;0.0;0.0;
53;53_2c33bc87e71096c97d6ffcbc392be9313d5e7657-FILE.arff;LP;1.0;1.0;1.0;0.0;0.0;1.0;1.0;0.0;0.0;0.0;0.0;1.0;1.0;0.0;0.0;0.0;0.0;0.0;0.0;0.0;0.0;
53;53_2c33bc87e71096c97d6ffcbc392be9313d5e7657-FILE.arff;RAkELd;1.0;1.0;1.0;1.0;1.0;0.0;0.0;0.0;0.0;0.0;0.0;1.0;1.0;0.0;0.0;0.0;0.0;0.0;0.0;0.0;0.0;
61;61_468700d01afd13b5fff60e57861437d5fe4c5aa2-FILE.arff;BR;3.0;3.0;1.0;3.0;1.0;0.0;0.0;0.0;0.0;0.0;0.0;3.0;1.0;0.0;0.0;0.0;0.0;0.0;0.0;0.0;0.0;
61;61_468700d01afd13b5fff60e57861437d5fe4c5aa2-FILE.arff;LP;3.0;3.0;1.0;0.0;0.0;3.0;1.0;0.0;0.0;0.0;0.0;3.0;1.0;0.0;0.0;0.0;0.0;0.0;0.0;0.0;0.0;
61;61_468700d01afd13b5fff60e57861437d5fe4c5aa2-FILE.arff;RAkELd;3.0;3.0;1.0;2.0;0.6666666666666666;1.0;0.3333333333333333;0.0;0.0;0.0;0.0;3.0;1.0;0.0;0.0;0.0;0.0;0.0;0.0;0.0;0.0;
64;64_ab60808719e65a83cfebfce093902c4e750b5c2e-FILE.arff;BR;1.0;1.0;1.0;1.0;1.0;0.0;0.0;0.0;0.0;0.0;0.0;1.0;1.0;0.0;0.0;0.0;0.0;0.0;0.0;0.0;0.0;
64;64_ab60808719e65a83cfebfce093902c4e750b5c2e-FILE.arff;LP;1.0;1.0;1.0;0.0;0.0;1.0;1.0;0.0;0.0;0.0;0.0;1.0;1.0;0.0;0.0;0.0;0.0;0.0;0.0;0.0;0.0;
64;64_ab60808719e65a83cfebfce093902c4e750b5c2e-FILE.arff;RAkELd;1.0;1.0;1.0;1.0;1.0;0.0;0.0;0.0;0.0;0.0;0.0;1.0;1.0;0.0;0.0;0.0;0.0;0.0;0.0;0.0;0.0;
72;72_2e77407e1856104e644c020cb46463cbca6597d0-FILE.arff;BR;1.0;1.0;1.0;1.0;1.0;0.0;0.0;0.0;0.0;0.0;0.0;1.0;1.0;0.0;0.0;0.0;0.0;0.0;0.0;0.0;0.0;
72;72_2e77407e1856104e644c020cb46463cbca6597d0-FILE.arff;LP;1.0;1.0;1.0;0.0;0.0;1.0;1.0;0.0;0.0;0.0;0.0;1.0;1.0;0.0;0.0;0.0;0.0;0.0;0.0;0.0;0.0;
72;72_2e77407e1856104e644c020cb46463cbca6597d0-FILE.arff;RAkELd;1.0;1.0;1.0;1.0;1.0;0.0;0.0;0.0;0.0;0.0;0.0;1.0;1.0;0.0;0.0;0.0;0.0;0.0;0.0;0.0;0.0;
74;74_fcb9b936225bedbbe911af9e80b40a4baab9cfdf-FILE.arff;BR;1.0;1.0;1.0;1.0;1.0;0.0;0.0;0.0;0.0;0.0;0.0;1.0;1.0;0.0;0.0;0.0;0.0;0.0;0.0;0.0;0.0;
74;74_fcb9b936225bedbbe911af9e80b40a4baab9cfdf-FILE.arff;LP;1.0;1.0;1.0;0.0;0.0;1.0;1.0;0.0;0.0;0.0;0.0;1.0;1.0;0.0;0.0;0.0;0.0;0.0;0.0;0.0;0.0;
74;74_fcb9b936225bedbbe911af9e80b40a4baab9cfdf-FILE.arff;RAkELd;1.0;1.0;1.0;1.0;1.0;0.0;0.0;0.0;0.0;0.0;0.0;1.0;1.0;0.0;0.0;0.0;0.0;0.0;0.0;0.0;0.0;
75;75_3195dfd2df22c7ea9e51061b7da82582425c6989-FILE.arff;BR;1.0;1.0;1.0;1.0;1.0;0.0;0.0;0.0;0.0;0.0;0.0;1.0;1.0;0.0;0.0;0.0;0.0;0.0;0.0;0.0;0.0;
75;75_3195dfd2df22c7ea9e51061b7da82582425c6989-FILE.arff;LP;1.0;1.0;1.0;0.0;0.0;1.0;1.0;0.0;0.0;0.0;0.0;1.0;1.0;0.0;0.0;0.0;0.0;0.0;0.0;0.0;0.0;
75;75_3195dfd2df22c7ea9e51061b7da82582425c6989-FILE.arff;RAkELd;1.0;1.0;1.0;1.0;1.0;0.0;0.0;0.0;0.0;0.0;0.0;1.0;1.0;0.0;0.0;0.0;0.0;0.0;0.0;0.0;0.0;
76;76_300dcb626eb5371c06593abfca73c9fa4e3243fe-FILE.arff;BR;1.0;1.0;1.0;1.0;1.0;0.0;0.0;0.0;0.0;0.0;0.0;1.0;1.0;0.0;0.0;0.0;0.0;0.0;0.0;0.0;0.0;
76;76_300dcb626eb5371c06593abfca73c9fa4e3243fe-FILE.arff;LP;1.0;1.0;1.0;0.0;0.0;1.0;1.0;0.0;0.0;0.0;0.0;1.0;1.0;0.0;0.0;0.0;0.0;0.0;0.0;0.0;0.0;
76;76_300dcb626eb5371c06593abfca73c9fa4e3243fe-FILE.arff;RAkELd;1.0;1.0;1.0;1.0;1.0;0.0;0.0;0.0;0.0;0.0;0.0;1.0;1.0;0.0;0.0;0.0;0.0;0.0;0.0;0.0;0.0;
80;80_cb3f376b86218a5e83a784c48096307ef7137b43-FILE.arff;BR;2.0;2.0;1.0;2.0;1.0;0.0;0.0;0.0;0.0;0.0;0.0;2.0;1.0;0.0;0.0;0.0;0.0;0.0;0.0;0.0;0.0;
80;80_cb3f376b86218a5e83a784c48096307ef7137b43-FILE.arff;LP;2.0;2.0;1.0;0.0;0.0;1.0;0.5;1.0;0.5;1.0;0.5;1.0;0.5;1.0;0.5;0.5;1.0;0.5;1.0;0.5;1.0;
80;80_cb3f376b86218a5e83a784c48096307ef7137b43-FILE.arff;RAkELd;2.0;2.0;1.0;2.0;1.0;0.0;0.0;0.0;0.0;0.0;0.0;2.0;1.0;0.0;0.0;0.0;0.0;0.0;0.0;0.0;0.0;
83;83_ac03024766d3f9741facec52faa7b33e4309d4c1-FILE.arff;BR;1.0;1.0;1.0;1.0;1.0;0.0;0.0;0.0;0.0;0.0;0.0;1.0;1.0;0.0;0.0;0.0;0.0;0.0;0.0;0.0;0.0;
83;83_ac03024766d3f9741facec52faa7b33e4309d4c1-FILE.arff;LP;1.0;1.0;1.0;0.0;0.0;1.0;1.0;0.0;0.0;0.0;0.0;1.0;1.0;0.0;0.0;0.0;0.0;0.0;0.0;0.0;0.0;
83;83_ac03024766d3f9741facec52faa7b33e4309d4c1-FILE.arff;RAkELd;1.0;1.0;1.0;1.0;1.0;0.0;0.0;0.0;0.0;0.0;0.0;1.0;1.0;0.0;0.0;0.0;0.0;0.0;0.0;0.0;0.0;
84;84_2e0b6bf482ab53f87f35a995dfd6d39e97e5ea33-FILE.arff;BR;1.0;1.0;1.0;1.0;1.0;0.0;0.0;0.0;0.0;0.0;0.0;1.0;1.0;0.0;0.0;0.0;0.0;0.0;0.0;0.0;0.0;
84;84_2e0b6bf482ab53f87f35a995dfd6d39e97e5ea33-FILE.arff;LP;1.0;1.0;1.0;0.0;0.0;1.0;1.0;0.0;0.0;0.0;0.0;1.0;1.0;0.0;0.0;0.0;0.0;0.0;0.0;0.0;0.0;
84;84_2e0b6bf482ab53f87f35a995dfd6d39e97e5ea33-FILE.arff;RAkELd;1.0;1.0;1.0;1.0;1.0;0.0;0.0;0.0;0.0;0.0;0.0;1.0;1.0;0.0;0.0;0.0;0.0;0.0;0.0;0.0;0.0;
85;85_eca44992d2a8441ceb28561c98a726c0533b4509-FILE.arff;BR;1.0;1.0;1.0;1.0;1.0;0.0;0.0;0.0;0.0;0.0;0.0;1.0;1.0;0.0;0.0;0.0;0.0;0.0;0.0;0.0;0.0;
85;85_eca44992d2a8441ceb28561c98a726c0533b4509-FILE.arff;LP;1.0;1.0;1.0;0.0;0.0;1.0;1.0;0.0;0.0;0.0;0.0;1.0;1.0;0.0;0.0;0.0;0.0;0.0;0.0;0.0;0.0;
85;85_eca44992d2a8441ceb28561c98a726c0533b4509-FILE.arff;RAkELd;1.0;1.0;1.0;1.0;1.0;0.0;0.0;0.0;0.0;0.0;0.0;1.0;1.0;0.0;0.0;0.0;0.0;0.0;0.0;0.0;0.0;
88;88_19a4c6aabe741de5e981d216e4f15d2d1483551f-FILE.arff;BR;1.0;1.0;1.0;1.0;1.0;0.0;0.0;0.0;0.0;0.0;0.0;1.0;1.0;0.0;0.0;0.0;0.0;0.0;0.0;0.0;0.0;
88;88_19a4c6aabe741de5e981d216e4f15d2d1483551f-FILE.arff;LP;1.0;1.0;1.0;0.0;0.0;1.0;1.0;0.0;0.0;0.0;0.0;1.0;1.0;0.0;0.0;0.0;0.0;0.0;0.0;0.0;0.0;
88;88_19a4c6aabe741de5e981d216e4f15d2d1483551f-FILE.arff;RAkELd;1.0;1.0;1.0;1.0;1.0;0.0;0.0;0.0;0.0;0.0;0.0;1.0;1.0;0.0;0.0;0.0;0.0;0.0;0.0;0.0;0.0;
95;95_46a551966d77e2ef521a4586de136c0b834662a7-FILE.arff;BR;1.0;1.0;1.0;1.0;1.0;0.0;0.0;0.0;0.0;0.0;0.0;1.0;1.0;0.0;0.0;0.0;0.0;0.0;0.0;0.0;0.0;
95;95_46a551966d77e2ef521a4586de136c0b834662a7-FILE.arff;LP;1.0;1.0;1.0;0.0;0.0;1.0;1.0;0.0;0.0;0.0;0.0;1.0;1.0;0.0;0.0;0.0;0.0;0.0;0.0;0.0;0.0;
95;95_46a551966d77e2ef521a4586de136c0b834662a7-FILE.arff;RAkELd;1.0;1.0;1.0;1.0;1.0;0.0;0.0;0.0;0.0;0.0;0.0;1.0;1.0;0.0;0.0;0.0;0.0;0.0;0.0;0.0;0.0;
100;100_4e18fb9e22091af6e3a33373437cdf592584a522-FILE.arff;BR;2.0;2.0;1.0;2.0;1.0;0.0;0.0;0.0;0.0;0.0;0.0;2.0;1.0;0.0;0.0;0.0;0.0;0.0;0.0;0.0;0.0;
100;100_4e18fb9e22091af6e3a33373437cdf592584a522-FILE.arff;LP;2.0;2.0;1.0;0.0;0.0;1.0;0.5;1.0;0.5;1.0;0.5;1.0;0.5;1.0;0.5;0.5;1.0;0.5;1.0;0.5;1.0;
100;100_4e18fb9e22091af6e3a33373437cdf592584a522-FILE.arff;RAkELd;2.0;2.0;1.0;2.0;1.0;0.0;0.0;0.0;0.0;0.0;0.0;2.0;1.0;0.0;0.0;0.0;0.0;0.0;0.0;0.0;0.0;
101;101_ef7549da15775a1567b47e8b840d97d52c8e3e0c-FILE.arff;BR;2.0;2.0;1.0;2.0;1.0;0.0;0.0;0.0;0.0;0.0;0.0;2.0;1.0;0.0;0.0;0.0;0.0;0.0;0.0;0.0;0.0;
101;101_ef7549da15775a1567b47e8b840d97d52c8e3e0c-FILE.arff;LP;2.0;2.0;1.0;0.0;0.0;0.0;0.0;2.0;1.0;2.0;1.0;0.0;0.0;2.0;1.0;1.0;1.0;1.0;1.0;1.0;1.0;
101;101_ef7549da15775a1567b47e8b840d97d52c8e3e0c-FILE.arff;RAkELd;2.0;2.0;1.0;2.0;1.0;0.0;0.0;0.0;0.0;0.0;0.0;2.0;1.0;0.0;0.0;0.0;0.0;0.0;0.0;0.0;0.0;
102;102_449f177068615c8d78fb4513776f08dcca6396a4-FILE.arff;BR;2.0;2.0;1.0;2.0;1.0;0.0;0.0;0.0;0.0;0.0;0.0;2.0;1.0;0.0;0.0;0.0;0.0;0.0;0.0;0.0;0.0;
102;102_449f177068615c8d78fb4513776f08dcca6396a4-FILE.arff;LP;2.0;2.0;1.0;0.0;0.0;1.0;0.5;1.0;0.5;1.0;0.5;1.0;0.5;1.0;0.5;0.5;1.0;0.5;1.0;0.5;1.0;
102;102_449f177068615c8d78fb4513776f08dcca6396a4-FILE.arff;RAkELd;2.0;2.0;1.0;2.0;1.0;0.0;0.0;0.0;0.0;0.0;0.0;2.0;1.0;0.0;0.0;0.0;0.0;0.0;0.0;0.0;0.0;
103;103_667b07d652f2c8371a98710cfc04a937cbcf0bcc-FILE.arff;BR;1.0;1.0;1.0;1.0;1.0;0.0;0.0;0.0;0.0;0.0;0.0;1.0;1.0;0.0;0.0;0.0;0.0;0.0;0.0;0.0;0.0;
103;103_667b07d652f2c8371a98710cfc04a937cbcf0bcc-FILE.arff;LP;1.0;1.0;1.0;0.0;0.0;1.0;1.0;0.0;0.0;0.0;0.0;1.0;1.0;0.0;0.0;0.0;0.0;0.0;0.0;0.0;0.0;
103;103_667b07d652f2c8371a98710cfc04a937cbcf0bcc-FILE.arff;RAkELd;1.0;1.0;1.0;1.0;1.0;0.0;0.0;0.0;0.0;0.0;0.0;1.0;1.0;0.0;0.0;0.0;0.0;0.0;0.0;0.0;0.0;
104;104_b53c128a38005fdeefc469ba603eee4b89dd13d5-FILE.arff;BR;1.0;1.0;1.0;1.0;1.0;0.0;0.0;0.0;0.0;0.0;0.0;1.0;1.0;0.0;0.0;0.0;0.0;0.0;0.0;0.0;0.0;
104;104_b53c128a38005fdeefc469ba603eee4b89dd13d5-FILE.arff;LP;1.0;1.0;1.0;0.0;0.0;0.0;0.0;1.0;1.0;1.0;1.0;0.0;0.0;1.0;1.0;1.0;1.0;1.0;1.0;1.0;1.0;
104;104_b53c128a38005fdeefc469ba603eee4b89dd13d5-FILE.arff;RAkELd;1.0;1.0;1.0;1.0;1.0;0.0;0.0;0.0;0.0;0.0;0.0;1.0;1.0;0.0;0.0;0.0;0.0;0.0;0.0;0.0;0.0;
105;105_68cc9faf5751e01c9620ad10f0027956bc0020e0-FILE.arff;BR;2.0;2.0;1.0;2.0;1.0;0.0;0.0;0.0;0.0;0.0;0.0;2.0;1.0;0.0;0.0;0.0;0.0;0.0;0.0;0.0;0.0;
105;105_68cc9faf5751e01c9620ad10f0027956bc0020e0-FILE.arff;LP;2.0;2.0;1.0;0.0;0.0;1.0;0.5;1.0;0.5;1.0;0.5;1.0;0.5;1.0;0.5;0.5;1.0;0.5;1.0;0.5;1.0;
105;105_68cc9faf5751e01c9620ad10f0027956bc0020e0-FILE.arff;RAkELd;2.0;2.0;1.0;2.0;1.0;0.0;0.0;0.0;0.0;0.0;0.0;2.0;1.0;0.0;0.0;0.0;0.0;0.0;0.0;0.0;0.0;
106;106_0842dd6d908e6f96451cb8319f99513b53592e8a-FILE.arff;BR;2.0;2.0;1.0;2.0;1.0;0.0;0.0;0.0;0.0;0.0;0.0;2.0;1.0;0.0;0.0;0.0;0.0;0.0;0.0;0.0;0.0;
106;106_0842dd6d908e6f96451cb8319f99513b53592e8a-FILE.arff;LP;2.0;2.0;1.0;0.0;0.0;1.0;0.5;1.0;0.5;1.0;0.5;1.0;0.5;1.0;0.5;0.5;1.0;0.5;1.0;0.5;1.0;
106;106_0842dd6d908e6f96451cb8319f99513b53592e8a-FILE.arff;RAkELd;2.0;2.0;1.0;2.0;1.0;0.0;0.0;0.0;0.0;0.0;0.0;2.0;1.0;0.0;0.0;0.0;0.0;0.0;0.0;0.0;0.0;
115;115_114d8cb40b0408c8b43dc7084819b2f4a7844960-FILE.arff;BR;1.0;1.0;1.0;1.0;1.0;0.0;0.0;0.0;0.0;0.0;0.0;1.0;1.0;0.0;0.0;0.0;0.0;0.0;0.0;0.0;0.0;
115;115_114d8cb40b0408c8b43dc7084819b2f4a7844960-FILE.arff;LP;1.0;1.0;1.0;0.0;0.0;0.0;0.0;1.0;1.0;1.0;1.0;0.0;0.0;1.0;1.0;1.0;1.0;1.0;1.0;1.0;1.0;
115;115_114d8cb40b0408c8b43dc7084819b2f4a7844960-FILE.arff;RAkELd;1.0;1.0;1.0;1.0;1.0;0.0;0.0;0.0;0.0;0.0;0.0;1.0;1.0;0.0;0.0;0.0;0.0;0.0;0.0;0.0;0.0;
116;116_dbe811dd3d6fc52b87e13d9f45db127c9c1327b0-FILE.arff;BR;1.0;1.0;1.0;1.0;1.0;0.0;0.0;0.0;0.0;0.0;0.0;1.0;1.0;0.0;0.0;0.0;0.0;0.0;0.0;0.0;0.0;
116;116_dbe811dd3d6fc52b87e13d9f45db127c9c1327b0-FILE.arff;LP;1.0;1.0;1.0;0.0;0.0;0.0;0.0;1.0;1.0;1.0;1.0;0.0;0.0;1.0;1.0;1.0;1.0;1.0;1.0;1.0;1.0;
116;116_dbe811dd3d6fc52b87e13d9f45db127c9c1327b0-FILE.arff;RAkELd;1.0;1.0;1.0;1.0;1.0;0.0;0.0;0.0;0.0;0.0;0.0;1.0;1.0;0.0;0.0;0.0;0.0;0.0;0.0;0.0;0.0;
117;117_ab74f942866393542fa61b3ad17ff0125dad6eb0-FILE.arff;BR;1.0;1.0;1.0;1.0;1.0;0.0;0.0;0.0;0.0;0.0;0.0;1.0;1.0;0.0;0.0;0.0;0.0;0.0;0.0;0.0;0.0;
117;117_ab74f942866393542fa61b3ad17ff0125dad6eb0-FILE.arff;LP;1.0;1.0;1.0;0.0;0.0;0.0;0.0;1.0;1.0;1.0;1.0;0.0;0.0;1.0;1.0;1.0;1.0;1.0;1.0;1.0;1.0;
117;117_ab74f942866393542fa61b3ad17ff0125dad6eb0-FILE.arff;RAkELd;1.0;1.0;1.0;1.0;1.0;0.0;0.0;0.0;0.0;0.0;0.0;1.0;1.0;0.0;0.0;0.0;0.0;0.0;0.0;0.0;0.0;
119;119_cf94e04d35807cded32edd74b20ffe90765aca10-FILE.arff;BR;5.0;5.0;1.0;5.0;1.0;0.0;0.0;0.0;0.0;0.0;0.0;5.0;1.0;0.0;0.0;0.0;0.0;0.0;0.0;0.0;0.0;
119;119_cf94e04d35807cded32edd74b20ffe90765aca10-FILE.arff;LP;5.0;5.0;1.0;0.0;0.0;5.0;1.0;0.0;0.0;0.0;0.0;5.0;1.0;0.0;0.0;0.0;0.0;0.0;0.0;0.0;0.0;
119;119_cf94e04d35807cded32edd74b20ffe90765aca10-FILE.arff;RAkELd;5.0;5.0;1.0;5.0;1.0;0.0;0.0;0.0;0.0;0.0;0.0;5.0;1.0;0.0;0.0;0.0;0.0;0.0;0.0;0.0;0.0;
120;120_be90a7f39e46fbd52ba01d87d40e7494a5787f30-FILE.arff;BR;5.0;5.0;1.0;5.0;1.0;0.0;0.0;0.0;0.0;0.0;0.0;5.0;1.0;0.0;0.0;0.0;0.0;0.0;0.0;0.0;0.0;
120;120_be90a7f39e46fbd52ba01d87d40e7494a5787f30-FILE.arff;LP;5.0;5.0;1.0;0.0;0.0;4.0;0.8;1.0;0.2;1.0;0.2;4.0;0.8;1.0;0.2;0.2;1.0;0.2;1.0;0.2;1.0;
120;120_be90a7f39e46fbd52ba01d87d40e7494a5787f30-FILE.arff;RAkELd;5.0;5.0;1.0;5.0;1.0;0.0;0.0;0.0;0.0;0.0;0.0;5.0;1.0;0.0;0.0;0.0;0.0;0.0;0.0;0.0;0.0;
121;121_c665b4cf9e79afd246013bf348d9b77259cee2f3-FILE.arff;BR;2.0;2.0;1.0;2.0;1.0;0.0;0.0;0.0;0.0;0.0;0.0;2.0;1.0;0.0;0.0;0.0;0.0;0.0;0.0;0.0;0.0;
121;121_c665b4cf9e79afd246013bf348d9b77259cee2f3-FILE.arff;LP;2.0;2.0;1.0;0.0;0.0;2.0;1.0;0.0;0.0;0.0;0.0;2.0;1.0;0.0;0.0;0.0;0.0;0.0;0.0;0.0;0.0;
121;121_c665b4cf9e79afd246013bf348d9b77259cee2f3-FILE.arff;RAkELd;2.0;2.0;1.0;2.0;1.0;0.0;0.0;0.0;0.0;0.0;0.0;2.0;1.0;0.0;0.0;0.0;0.0;0.0;0.0;0.0;0.0;
122;122_50c76ea03dcc36be748ac0ade97982e027a9960e-FILE.arff;BR;1.0;1.0;1.0;1.0;1.0;0.0;0.0;0.0;0.0;0.0;0.0;1.0;1.0;0.0;0.0;0.0;0.0;0.0;0.0;0.0;0.0;
122;122_50c76ea03dcc36be748ac0ade97982e027a9960e-FILE.arff;LP;1.0;1.0;1.0;0.0;0.0;0.0;0.0;1.0;1.0;1.0;1.0;0.0;0.0;1.0;1.0;1.0;1.0;1.0;1.0;1.0;1.0;
122;122_50c76ea03dcc36be748ac0ade97982e027a9960e-FILE.arff;RAkELd;1.0;1.0;1.0;1.0;1.0;0.0;0.0;0.0;0.0;0.0;0.0;1.0;1.0;0.0;0.0;0.0;0.0;0.0;0.0;0.0;0.0;
123;123_748a70d588da74415260cbd1ac6455acba66dd5b-FILE.arff;BR;1.0;1.0;1.0;1.0;1.0;0.0;0.0;0.0;0.0;0.0;0.0;1.0;1.0;0.0;0.0;0.0;0.0;0.0;0.0;0.0;0.0;
123;123_748a70d588da74415260cbd1ac6455acba66dd5b-FILE.arff;LP;1.0;1.0;1.0;0.0;0.0;0.0;0.0;1.0;1.0;1.0;1.0;0.0;0.0;1.0;1.0;1.0;1.0;1.0;1.0;1.0;1.0;
123;123_748a70d588da74415260cbd1ac6455acba66dd5b-FILE.arff;RAkELd;1.0;1.0;1.0;1.0;1.0;0.0;0.0;0.0;0.0;0.0;0.0;1.0;1.0;0.0;0.0;0.0;0.0;0.0;0.0;0.0;0.0;
124;124_9991814cc333688c65cccd10bbc443c3840adab3-FILE.arff;BR;2.0;2.0;1.0;2.0;1.0;0.0;0.0;0.0;0.0;0.0;0.0;2.0;1.0;0.0;0.0;0.0;0.0;0.0;0.0;0.0;0.0;
124;124_9991814cc333688c65cccd10bbc443c3840adab3-FILE.arff;LP;2.0;2.0;1.0;0.0;0.0;1.0;0.5;1.0;0.5;1.0;0.5;1.0;0.5;1.0;0.5;0.5;1.0;0.5;1.0;0.5;1.0;
124;124_9991814cc333688c65cccd10bbc443c3840adab3-FILE.arff;RAkELd;2.0;2.0;1.0;2.0;1.0;0.0;0.0;0.0;0.0;0.0;0.0;2.0;1.0;0.0;0.0;0.0;0.0;0.0;0.0;0.0;0.0;
125;125_180d931c2a0a4bc198027322e9917419fbd66a2b-FILE.arff;BR;5.0;5.0;1.0;5.0;1.0;0.0;0.0;0.0;0.0;0.0;0.0;5.0;1.0;0.0;0.0;0.0;0.0;0.0;0.0;0.0;0.0;
125;125_180d931c2a0a4bc198027322e9917419fbd66a2b-FILE.arff;LP;5.0;5.0;1.0;0.0;0.0;5.0;1.0;0.0;0.0;0.0;0.0;5.0;1.0;0.0;0.0;0.0;0.0;0.0;0.0;0.0;0.0;
125;125_180d931c2a0a4bc198027322e9917419fbd66a2b-FILE.arff;RAkELd;5.0;5.0;1.0;5.0;1.0;0.0;0.0;0.0;0.0;0.0;0.0;5.0;1.0;0.0;0.0;0.0;0.0;0.0;0.0;0.0;0.0;
127;127_fedc7a8caa2ab52d08f772821e1fbb88ea441ac9-FILE.arff;BR;1.0;1.0;1.0;1.0;1.0;0.0;0.0;0.0;0.0;0.0;0.0;1.0;1.0;0.0;0.0;0.0;0.0;0.0;0.0;0.0;0.0;
127;127_fedc7a8caa2ab52d08f772821e1fbb88ea441ac9-FILE.arff;LP;1.0;1.0;1.0;0.0;0.0;1.0;1.0;0.0;0.0;0.0;0.0;1.0;1.0;0.0;0.0;0.0;0.0;0.0;0.0;0.0;0.0;
127;127_fedc7a8caa2ab52d08f772821e1fbb88ea441ac9-FILE.arff;RAkELd;1.0;1.0;1.0;1.0;1.0;0.0;0.0;0.0;0.0;0.0;0.0;1.0;1.0;0.0;0.0;0.0;0.0;0.0;0.0;0.0;0.0;
130;130_e9599c45c368a6d7c9db82bae1ea6dd9dca21c2b-FILE.arff;BR;2.0;2.0;1.0;2.0;1.0;0.0;0.0;0.0;0.0;0.0;0.0;2.0;1.0;0.0;0.0;0.0;0.0;0.0;0.0;0.0;0.0;
130;130_e9599c45c368a6d7c9db82bae1ea6dd9dca21c2b-FILE.arff;LP;2.0;2.0;1.0;0.0;0.0;1.0;0.5;1.0;0.5;1.0;0.5;1.0;0.5;1.0;0.5;0.5;1.0;0.5;1.0;0.5;1.0;
130;130_e9599c45c368a6d7c9db82bae1ea6dd9dca21c2b-FILE.arff;RAkELd;2.0;2.0;1.0;2.0;1.0;0.0;0.0;0.0;0.0;0.0;0.0;2.0;1.0;0.0;0.0;0.0;0.0;0.0;0.0;0.0;0.0;
132;132_6b5f4541956b9b0aa7d7e49d04fff913150dc122-FILE.arff;BR;1.0;1.0;1.0;1.0;1.0;0.0;0.0;0.0;0.0;0.0;0.0;1.0;1.0;0.0;0.0;0.0;0.0;0.0;0.0;0.0;0.0;
132;132_6b5f4541956b9b0aa7d7e49d04fff913150dc122-FILE.arff;LP;1.0;1.0;1.0;0.0;0.0;1.0;1.0;0.0;0.0;0.0;0.0;1.0;1.0;0.0;0.0;0.0;0.0;0.0;0.0;0.0;0.0;
132;132_6b5f4541956b9b0aa7d7e49d04fff913150dc122-FILE.arff;RAkELd;1.0;1.0;1.0;1.0;1.0;0.0;0.0;0.0;0.0;0.0;0.0;1.0;1.0;0.0;0.0;0.0;0.0;0.0;0.0;0.0;0.0;
133;133_c89fffa801f241ef958bf81270005eabcc89c717-FILE.arff;BR;3.0;3.0;1.0;3.0;1.0;0.0;0.0;0.0;0.0;0.0;0.0;3.0;1.0;0.0;0.0;0.0;0.0;0.0;0.0;0.0;0.0;
133;133_c89fffa801f241ef958bf81270005eabcc89c717-FILE.arff;LP;3.0;3.0;1.0;0.0;0.0;3.0;1.0;0.0;0.0;0.0;0.0;3.0;1.0;0.0;0.0;0.0;0.0;0.0;0.0;0.0;0.0;
133;133_c89fffa801f241ef958bf81270005eabcc89c717-FILE.arff;RAkELd;3.0;3.0;1.0;3.0;1.0;0.0;0.0;0.0;0.0;0.0;0.0;3.0;1.0;0.0;0.0;0.0;0.0;0.0;0.0;0.0;0.0;
138;138_188814e0fbb9e23b15ab387d9e6f60c36bed014d-FILE.arff;BR;1.0;1.0;1.0;1.0;1.0;0.0;0.0;0.0;0.0;0.0;0.0;1.0;1.0;0.0;0.0;0.0;0.0;0.0;0.0;0.0;0.0;
138;138_188814e0fbb9e23b15ab387d9e6f60c36bed014d-FILE.arff;LP;1.0;1.0;1.0;0.0;0.0;1.0;1.0;0.0;0.0;0.0;0.0;1.0;1.0;0.0;0.0;0.0;0.0;0.0;0.0;0.0;0.0;
138;138_188814e0fbb9e23b15ab387d9e6f60c36bed014d-FILE.arff;RAkELd;1.0;1.0;1.0;1.0;1.0;0.0;0.0;0.0;0.0;0.0;0.0;1.0;1.0;0.0;0.0;0.0;0.0;0.0;0.0;0.0;0.0;
141;141_cdfb89796c682c97308f6c7d78d130cf339bfe9e-FILE.arff;BR;1.0;1.0;1.0;1.0;1.0;0.0;0.0;0.0;0.0;0.0;0.0;1.0;1.0;0.0;0.0;0.0;0.0;0.0;0.0;0.0;0.0;
141;141_cdfb89796c682c97308f6c7d78d130cf339bfe9e-FILE.arff;LP;1.0;1.0;1.0;0.0;0.0;1.0;1.0;0.0;0.0;0.0;0.0;1.0;1.0;0.0;0.0;0.0;0.0;0.0;0.0;0.0;0.0;
141;141_cdfb89796c682c97308f6c7d78d130cf339bfe9e-FILE.arff;RAkELd;1.0;1.0;1.0;1.0;1.0;0.0;0.0;0.0;0.0;0.0;0.0;1.0;1.0;0.0;0.0;0.0;0.0;0.0;0.0;0.0;0.0;
142;142_03f72268722bb6eaf3b14f1c77b155dd6bf323fc-FILE.arff;BR;1.0;1.0;1.0;1.0;1.0;0.0;0.0;0.0;0.0;0.0;0.0;1.0;1.0;0.0;0.0;0.0;0.0;0.0;0.0;0.0;0.0;
142;142_03f72268722bb6eaf3b14f1c77b155dd6bf323fc-FILE.arff;LP;1.0;1.0;1.0;0.0;0.0;1.0;1.0;0.0;0.0;0.0;0.0;1.0;1.0;0.0;0.0;0.0;0.0;0.0;0.0;0.0;0.0;
142;142_03f72268722bb6eaf3b14f1c77b155dd6bf323fc-FILE.arff;RAkELd;1.0;1.0;1.0;1.0;1.0;0.0;0.0;0.0;0.0;0.0;0.0;1.0;1.0;0.0;0.0;0.0;0.0;0.0;0.0;0.0;0.0;
144;144_6affc6b343f9734df6e965e91af29d89f2251f80-FILE.arff;BR;3.0;3.0;1.0;3.0;1.0;0.0;0.0;0.0;0.0;0.0;0.0;3.0;1.0;0.0;0.0;0.0;0.0;0.0;0.0;0.0;0.0;
144;144_6affc6b343f9734df6e965e91af29d89f2251f80-FILE.arff;LP;3.0;3.0;1.0;0.0;0.0;3.0;1.0;0.0;0.0;0.0;0.0;3.0;1.0;0.0;0.0;0.0;0.0;0.0;0.0;0.0;0.0;
144;144_6affc6b343f9734df6e965e91af29d89f2251f80-FILE.arff;RAkELd;3.0;3.0;1.0;3.0;1.0;0.0;0.0;0.0;0.0;0.0;0.0;3.0;1.0;0.0;0.0;0.0;0.0;0.0;0.0;0.0;0.0;
147;147_f502a5ed7e8b04a1f31acfb86b987852e4a8c62d-FILE.arff;BR;4.0;4.0;1.0;4.0;1.0;0.0;0.0;0.0;0.0;0.0;0.0;4.0;1.0;0.0;0.0;0.0;0.0;0.0;0.0;0.0;0.0;
147;147_f502a5ed7e8b04a1f31acfb86b987852e4a8c62d-FILE.arff;LP;4.0;4.0;1.0;0.0;0.0;2.0;0.5;2.0;0.5;2.0;0.5;2.0;0.5;2.0;0.5;0.5;1.0;0.5;1.0;0.5;1.0;
147;147_f502a5ed7e8b04a1f31acfb86b987852e4a8c62d-FILE.arff;RAkELd;4.0;4.0;1.0;4.0;1.0;0.0;0.0;0.0;0.0;0.0;0.0;4.0;1.0;0.0;0.0;0.0;0.0;0.0;0.0;0.0;0.0;
150;150_af9dd2fc4031b97622a3f10bf4b980fa5685ba11-FILE.arff;BR;1.0;1.0;1.0;1.0;1.0;0.0;0.0;0.0;0.0;0.0;0.0;1.0;1.0;0.0;0.0;0.0;0.0;0.0;0.0;0.0;0.0;
150;150_af9dd2fc4031b97622a3f10bf4b980fa5685ba11-FILE.arff;LP;1.0;1.0;1.0;0.0;0.0;1.0;1.0;0.0;0.0;0.0;0.0;1.0;1.0;0.0;0.0;0.0;0.0;0.0;0.0;0.0;0.0;
150;150_af9dd2fc4031b97622a3f10bf4b980fa5685ba11-FILE.arff;RAkELd;1.0;1.0;1.0;1.0;1.0;0.0;0.0;0.0;0.0;0.0;0.0;1.0;1.0;0.0;0.0;0.0;0.0;0.0;0.0;0.0;0.0;
151;151_4d904e7132ad4e0072813ffa2264ca51a5af70e9-FILE.arff;BR;3.0;3.0;1.0;3.0;1.0;0.0;0.0;0.0;0.0;0.0;0.0;3.0;1.0;0.0;0.0;0.0;0.0;0.0;0.0;0.0;0.0;
151;151_4d904e7132ad4e0072813ffa2264ca51a5af70e9-FILE.arff;LP;3.0;3.0;1.0;0.0;0.0;2.0;0.6666666666666666;1.0;0.3333333333333333;1.0;0.3333333333333333;2.0;0.6666666666666666;1.0;0.3333333333333333;0.3333333333333333;1.0;0.3333333333333333;1.0;0.3333333333333333;1.0;
151;151_4d904e7132ad4e0072813ffa2264ca51a5af70e9-FILE.arff;RAkELd;3.0;3.0;1.0;3.0;1.0;0.0;0.0;0.0;0.0;0.0;0.0;3.0;1.0;0.0;0.0;0.0;0.0;0.0;0.0;0.0;0.0;
153;153_40cd936a1f9b664dfd7c3ea4fb0de0c04bb0a48c-FILE.arff;BR;1.0;1.0;1.0;1.0;1.0;0.0;0.0;0.0;0.0;0.0;0.0;1.0;1.0;0.0;0.0;0.0;0.0;0.0;0.0;0.0;0.0;
153;153_40cd936a1f9b664dfd7c3ea4fb0de0c04bb0a48c-FILE.arff;LP;1.0;1.0;1.0;0.0;0.0;0.0;0.0;1.0;1.0;1.0;1.0;0.0;0.0;1.0;1.0;1.0;1.0;1.0;1.0;1.0;1.0;
153;153_40cd936a1f9b664dfd7c3ea4fb0de0c04bb0a48c-FILE.arff;RAkELd;1.0;1.0;1.0;1.0;1.0;0.0;0.0;0.0;0.0;0.0;0.0;1.0;1.0;0.0;0.0;0.0;0.0;0.0;0.0;0.0;0.0;
154;154_6d4ab95a471949ad6453b3e0516da42c6a6eb959-FILE.arff;BR;4.0;4.0;1.0;4.0;1.0;0.0;0.0;0.0;0.0;0.0;0.0;4.0;1.0;0.0;0.0;0.0;0.0;0.0;0.0;0.0;0.0;
154;154_6d4ab95a471949ad6453b3e0516da42c6a6eb959-FILE.arff;LP;4.0;4.0;1.0;0.0;0.0;4.0;1.0;0.0;0.0;0.0;0.0;4.0;1.0;0.0;0.0;0.0;0.0;0.0;0.0;0.0;0.0;
154;154_6d4ab95a471949ad6453b3e0516da42c6a6eb959-FILE.arff;RAkELd;4.0;4.0;1.0;4.0;1.0;0.0;0.0;0.0;0.0;0.0;0.0;4.0;1.0;0.0;0.0;0.0;0.0;0.0;0.0;0.0;0.0;
155;155_edd65c537c2f6d1c993cd3afde1bee18732c417b-FILE.arff;BR;4.0;4.0;1.0;4.0;1.0;0.0;0.0;0.0;0.0;0.0;0.0;4.0;1.0;0.0;0.0;0.0;0.0;0.0;0.0;0.0;0.0;
155;155_edd65c537c2f6d1c993cd3afde1bee18732c417b-FILE.arff;LP;4.0;4.0;1.0;0.0;0.0;3.0;0.75;1.0;0.25;1.0;0.25;3.0;0.75;1.0;0.25;0.25;1.0;0.25;1.0;0.25;1.0;
155;155_edd65c537c2f6d1c993cd3afde1bee18732c417b-FILE.arff;RAkELd;4.0;4.0;1.0;4.0;1.0;0.0;0.0;0.0;0.0;0.0;0.0;4.0;1.0;0.0;0.0;0.0;0.0;0.0;0.0;0.0;0.0;
158;158_4e30d3b5e6cfc16791b321e3a67e9b7dd287437b-FILE.arff;BR;2.0;2.0;1.0;2.0;1.0;0.0;0.0;0.0;0.0;0.0;0.0;2.0;1.0;0.0;0.0;0.0;0.0;0.0;0.0;0.0;0.0;
158;158_4e30d3b5e6cfc16791b321e3a67e9b7dd287437b-FILE.arff;LP;2.0;2.0;1.0;0.0;0.0;2.0;1.0;0.0;0.0;0.0;0.0;2.0;1.0;0.0;0.0;0.0;0.0;0.0;0.0;0.0;0.0;
158;158_4e30d3b5e6cfc16791b321e3a67e9b7dd287437b-FILE.arff;RAkELd;2.0;2.0;1.0;2.0;1.0;0.0;0.0;0.0;0.0;0.0;0.0;2.0;1.0;0.0;0.0;0.0;0.0;0.0;0.0;0.0;0.0;
163;163_b38f82ec782f52eb9b13817915abd9a1d5c7b7a7-FILE.arff;BR;1.0;1.0;1.0;1.0;1.0;0.0;0.0;0.0;0.0;0.0;0.0;1.0;1.0;0.0;0.0;0.0;0.0;0.0;0.0;0.0;0.0;
163;163_b38f82ec782f52eb9b13817915abd9a1d5c7b7a7-FILE.arff;LP;1.0;1.0;1.0;0.0;0.0;1.0;1.0;0.0;0.0;0.0;0.0;1.0;1.0;0.0;0.0;0.0;0.0;0.0;0.0;0.0;0.0;
163;163_b38f82ec782f52eb9b13817915abd9a1d5c7b7a7-FILE.arff;RAkELd;1.0;1.0;1.0;1.0;1.0;0.0;0.0;0.0;0.0;0.0;0.0;1.0;1.0;0.0;0.0;0.0;0.0;0.0;0.0;0.0;0.0;
164;164_fdcc4275a5c8dbfec7c6c7c4b185952b743fe61d-FILE.arff;BR;4.0;4.0;1.0;4.0;1.0;0.0;0.0;0.0;0.0;0.0;0.0;4.0;1.0;0.0;0.0;0.0;0.0;0.0;0.0;0.0;0.0;
164;164_fdcc4275a5c8dbfec7c6c7c4b185952b743fe61d-FILE.arff;LP;4.0;4.0;1.0;0.0;0.0;3.0;0.75;1.0;0.25;1.0;0.25;3.0;0.75;1.0;0.25;0.25;1.0;0.25;1.0;0.25;1.0;
164;164_fdcc4275a5c8dbfec7c6c7c4b185952b743fe61d-FILE.arff;RAkELd;4.0;4.0;1.0;4.0;1.0;0.0;0.0;0.0;0.0;0.0;0.0;4.0;1.0;0.0;0.0;0.0;0.0;0.0;0.0;0.0;0.0;
168;168_b6faf45260096b94a6a1ea3804e3e51c4ccdf346-FILE.arff;BR;1.0;1.0;1.0;1.0;1.0;0.0;0.0;0.0;0.0;0.0;0.0;1.0;1.0;0.0;0.0;0.0;0.0;0.0;0.0;0.0;0.0;
168;168_b6faf45260096b94a6a1ea3804e3e51c4ccdf346-FILE.arff;LP;1.0;1.0;1.0;0.0;0.0;1.0;1.0;0.0;0.0;0.0;0.0;1.0;1.0;0.0;0.0;0.0;0.0;0.0;0.0;0.0;0.0;
168;168_b6faf45260096b94a6a1ea3804e3e51c4ccdf346-FILE.arff;RAkELd;1.0;1.0;1.0;1.0;1.0;0.0;0.0;0.0;0.0;0.0;0.0;1.0;1.0;0.0;0.0;0.0;0.0;0.0;0.0;0.0;0.0;
170;170_f48d07fef7d1a4058482cecdbfc9b4f8a1c06e01-FILE.arff;BR;1.0;1.0;1.0;1.0;1.0;0.0;0.0;0.0;0.0;0.0;0.0;1.0;1.0;0.0;0.0;0.0;0.0;0.0;0.0;0.0;0.0;
170;170_f48d07fef7d1a4058482cecdbfc9b4f8a1c06e01-FILE.arff;LP;1.0;1.0;1.0;0.0;0.0;1.0;1.0;0.0;0.0;0.0;0.0;1.0;1.0;0.0;0.0;0.0;0.0;0.0;0.0;0.0;0.0;
170;170_f48d07fef7d1a4058482cecdbfc9b4f8a1c06e01-FILE.arff;RAkELd;1.0;1.0;1.0;1.0;1.0;0.0;0.0;0.0;0.0;0.0;0.0;1.0;1.0;0.0;0.0;0.0;0.0;0.0;0.0;0.0;0.0;
175;175_e6ad400738f994f6a90e4e94a591b0c86303ef6a-FILE.arff;BR;1.0;1.0;1.0;1.0;1.0;0.0;0.0;0.0;0.0;0.0;0.0;1.0;1.0;0.0;0.0;0.0;0.0;0.0;0.0;0.0;0.0;
175;175_e6ad400738f994f6a90e4e94a591b0c86303ef6a-FILE.arff;LP;1.0;1.0;1.0;0.0;0.0;1.0;1.0;0.0;0.0;0.0;0.0;1.0;1.0;0.0;0.0;0.0;0.0;0.0;0.0;0.0;0.0;
175;175_e6ad400738f994f6a90e4e94a591b0c86303ef6a-FILE.arff;RAkELd;1.0;1.0;1.0;1.0;1.0;0.0;0.0;0.0;0.0;0.0;0.0;1.0;1.0;0.0;0.0;0.0;0.0;0.0;0.0;0.0;0.0;
181;181_a33a0a1cb08fde9ffedec2489ffd38cbf5ed393a-FILE.arff;BR;4.0;4.0;1.0;4.0;1.0;0.0;0.0;0.0;0.0;0.0;0.0;4.0;1.0;0.0;0.0;0.0;0.0;0.0;0.0;0.0;0.0;
181;181_a33a0a1cb08fde9ffedec2489ffd38cbf5ed393a-FILE.arff;LP;4.0;4.0;1.0;0.0;0.0;4.0;1.0;0.0;0.0;0.0;0.0;4.0;1.0;0.0;0.0;0.0;0.0;0.0;0.0;0.0;0.0;
181;181_a33a0a1cb08fde9ffedec2489ffd38cbf5ed393a-FILE.arff;RAkELd;4.0;4.0;1.0;4.0;1.0;0.0;0.0;0.0;0.0;0.0;0.0;4.0;1.0;0.0;0.0;0.0;0.0;0.0;0.0;0.0;0.0;
182;182_066e93cf07f5d46f0372a1bd5b94cf4aa939fc84-FILE.arff;BR;1.0;1.0;1.0;1.0;1.0;0.0;0.0;0.0;0.0;0.0;0.0;1.0;1.0;0.0;0.0;0.0;0.0;0.0;0.0;0.0;0.0;
182;182_066e93cf07f5d46f0372a1bd5b94cf4aa939fc84-FILE.arff;LP;1.0;1.0;1.0;0.0;0.0;1.0;1.0;0.0;0.0;0.0;0.0;1.0;1.0;0.0;0.0;0.0;0.0;0.0;0.0;0.0;0.0;
182;182_066e93cf07f5d46f0372a1bd5b94cf4aa939fc84-FILE.arff;RAkELd;1.0;1.0;1.0;1.0;1.0;0.0;0.0;0.0;0.0;0.0;0.0;1.0;1.0;0.0;0.0;0.0;0.0;0.0;0.0;0.0;0.0;
185;185_8feae10665a7dc33a43728d00048453db470f078-FILE.arff;BR;1.0;1.0;1.0;1.0;1.0;0.0;0.0;0.0;0.0;0.0;0.0;1.0;1.0;0.0;0.0;0.0;0.0;0.0;0.0;0.0;0.0;
185;185_8feae10665a7dc33a43728d00048453db470f078-FILE.arff;LP;1.0;1.0;1.0;0.0;0.0;0.0;0.0;1.0;1.0;1.0;1.0;0.0;0.0;1.0;1.0;1.0;1.0;1.0;1.0;1.0;1.0;
185;185_8feae10665a7dc33a43728d00048453db470f078-FILE.arff;RAkELd;1.0;1.0;1.0;1.0;1.0;0.0;0.0;0.0;0.0;0.0;0.0;1.0;1.0;0.0;0.0;0.0;0.0;0.0;0.0;0.0;0.0;
194;194_31ada434bf4ed3b1cb7e29c9d9f43ec92b7610c0-FILE.arff;BR;4.0;4.0;1.0;4.0;1.0;0.0;0.0;0.0;0.0;0.0;0.0;4.0;1.0;0.0;0.0;0.0;0.0;0.0;0.0;0.0;0.0;
194;194_31ada434bf4ed3b1cb7e29c9d9f43ec92b7610c0-FILE.arff;LP;4.0;4.0;1.0;0.0;0.0;4.0;1.0;0.0;0.0;0.0;0.0;4.0;1.0;0.0;0.0;0.0;0.0;0.0;0.0;0.0;0.0;
194;194_31ada434bf4ed3b1cb7e29c9d9f43ec92b7610c0-FILE.arff;RAkELd;4.0;4.0;1.0;4.0;1.0;0.0;0.0;0.0;0.0;0.0;0.0;4.0;1.0;0.0;0.0;0.0;0.0;0.0;0.0;0.0;0.0;
197;197_5b6462d11ad4772d39bf053622fc219a157eec9c-FILE.arff;BR;2.0;2.0;1.0;2.0;1.0;0.0;0.0;0.0;0.0;0.0;0.0;2.0;1.0;0.0;0.0;0.0;0.0;0.0;0.0;0.0;0.0;
197;197_5b6462d11ad4772d39bf053622fc219a157eec9c-FILE.arff;LP;2.0;2.0;1.0;0.0;0.0;2.0;1.0;0.0;0.0;0.0;0.0;2.0;1.0;0.0;0.0;0.0;0.0;0.0;0.0;0.0;0.0;
197;197_5b6462d11ad4772d39bf053622fc219a157eec9c-FILE.arff;RAkELd;2.0;2.0;1.0;1.0;0.5;1.0;0.5;0.0;0.0;0.0;0.0;2.0;1.0;0.0;0.0;0.0;0.0;0.0;0.0;0.0;0.0;
201;201_112583761830054086c0b9d280a79d9ca129d0f3-FILE.arff;BR;1.0;1.0;1.0;1.0;1.0;0.0;0.0;0.0;0.0;0.0;0.0;1.0;1.0;0.0;0.0;0.0;0.0;0.0;0.0;0.0;0.0;
201;201_112583761830054086c0b9d280a79d9ca129d0f3-FILE.arff;LP;1.0;1.0;1.0;0.0;0.0;1.0;1.0;0.0;0.0;0.0;0.0;1.0;1.0;0.0;0.0;0.0;0.0;0.0;0.0;0.0;0.0;
201;201_112583761830054086c0b9d280a79d9ca129d0f3-FILE.arff;RAkELd;1.0;1.0;1.0;1.0;1.0;0.0;0.0;0.0;0.0;0.0;0.0;1.0;1.0;0.0;0.0;0.0;0.0;0.0;0.0;0.0;0.0;
204;204_293051883ffd9e5bb5d03e1f98539ff9739d7d80-FILE.arff;BR;3.0;3.0;1.0;3.0;1.0;0.0;0.0;0.0;0.0;0.0;0.0;3.0;1.0;0.0;0.0;0.0;0.0;0.0;0.0;0.0;0.0;
204;204_293051883ffd9e5bb5d03e1f98539ff9739d7d80-FILE.arff;LP;3.0;3.0;1.0;0.0;0.0;3.0;1.0;0.0;0.0;0.0;0.0;3.0;1.0;0.0;0.0;0.0;0.0;0.0;0.0;0.0;0.0;
204;204_293051883ffd9e5bb5d03e1f98539ff9739d7d80-FILE.arff;RAkELd;3.0;3.0;1.0;3.0;1.0;0.0;0.0;0.0;0.0;0.0;0.0;3.0;1.0;0.0;0.0;0.0;0.0;0.0;0.0;0.0;0.0;
212;212_aa4e0e03fdf71880e3870af9b5722ee1d21b9a83-FILE.arff;BR;1.0;1.0;1.0;1.0;1.0;0.0;0.0;0.0;0.0;0.0;0.0;1.0;1.0;0.0;0.0;0.0;0.0;0.0;0.0;0.0;0.0;
212;212_aa4e0e03fdf71880e3870af9b5722ee1d21b9a83-FILE.arff;LP;1.0;1.0;1.0;0.0;0.0;1.0;1.0;0.0;0.0;0.0;0.0;1.0;1.0;0.0;0.0;0.0;0.0;0.0;0.0;0.0;0.0;
212;212_aa4e0e03fdf71880e3870af9b5722ee1d21b9a83-FILE.arff;RAkELd;1.0;1.0;1.0;1.0;1.0;0.0;0.0;0.0;0.0;0.0;0.0;1.0;1.0;0.0;0.0;0.0;0.0;0.0;0.0;0.0;0.0;
223;223_0d0fb5c617201c805dfa76feaaf03533bc284675-FILE.arff;BR;1.0;1.0;1.0;1.0;1.0;0.0;0.0;0.0;0.0;0.0;0.0;1.0;1.0;0.0;0.0;0.0;0.0;0.0;0.0;0.0;0.0;
223;223_0d0fb5c617201c805dfa76feaaf03533bc284675-FILE.arff;LP;1.0;1.0;1.0;0.0;0.0;1.0;1.0;0.0;0.0;0.0;0.0;1.0;1.0;0.0;0.0;0.0;0.0;0.0;0.0;0.0;0.0;
223;223_0d0fb5c617201c805dfa76feaaf03533bc284675-FILE.arff;RAkELd;1.0;1.0;1.0;1.0;1.0;0.0;0.0;0.0;0.0;0.0;0.0;1.0;1.0;0.0;0.0;0.0;0.0;0.0;0.0;0.0;0.0;
224;224_a08b5d3dc11fecb611c3a8c63aa307734a2f189c-FILE.arff;BR;1.0;1.0;1.0;1.0;1.0;0.0;0.0;0.0;0.0;0.0;0.0;1.0;1.0;0.0;0.0;0.0;0.0;0.0;0.0;0.0;0.0;
224;224_a08b5d3dc11fecb611c3a8c63aa307734a2f189c-FILE.arff;LP;1.0;1.0;1.0;0.0;0.0;1.0;1.0;0.0;0.0;0.0;0.0;1.0;1.0;0.0;0.0;0.0;0.0;0.0;0.0;0.0;0.0;
224;224_a08b5d3dc11fecb611c3a8c63aa307734a2f189c-FILE.arff;RAkELd;1.0;1.0;1.0;1.0;1.0;0.0;0.0;0.0;0.0;0.0;0.0;1.0;1.0;0.0;0.0;0.0;0.0;0.0;0.0;0.0;0.0;
227;227_29f7dfca9c7e7caba6388867790ab19e07329526-FILE.arff;BR;5.0;5.0;1.0;5.0;1.0;0.0;0.0;0.0;0.0;0.0;0.0;5.0;1.0;0.0;0.0;0.0;0.0;0.0;0.0;0.0;0.0;
227;227_29f7dfca9c7e7caba6388867790ab19e07329526-FILE.arff;LP;5.0;5.0;1.0;0.0;0.0;4.0;0.8;1.0;0.2;1.0;0.2;4.0;0.8;1.0;0.2;0.2;1.0;0.2;1.0;0.2;1.0;
227;227_29f7dfca9c7e7caba6388867790ab19e07329526-FILE.arff;RAkELd;5.0;5.0;1.0;5.0;1.0;0.0;0.0;0.0;0.0;0.0;0.0;5.0;1.0;0.0;0.0;0.0;0.0;0.0;0.0;0.0;0.0;
235;235_b58828b570e88addafb90aec7ad5555e6583f361-FILE.arff;BR;1.0;1.0;1.0;1.0;1.0;0.0;0.0;0.0;0.0;0.0;0.0;1.0;1.0;0.0;0.0;0.0;0.0;0.0;0.0;0.0;0.0;
235;235_b58828b570e88addafb90aec7ad5555e6583f361-FILE.arff;LP;1.0;1.0;1.0;0.0;0.0;1.0;1.0;0.0;0.0;0.0;0.0;1.0;1.0;0.0;0.0;0.0;0.0;0.0;0.0;0.0;0.0;
235;235_b58828b570e88addafb90aec7ad5555e6583f361-FILE.arff;RAkELd;1.0;1.0;1.0;1.0;1.0;0.0;0.0;0.0;0.0;0.0;0.0;1.0;1.0;0.0;0.0;0.0;0.0;0.0;0.0;0.0;0.0;
236;236_9193ed480ab626a7091ebe53a2cff7ec9daee6ad-FILE.arff;BR;1.0;1.0;1.0;1.0;1.0;0.0;0.0;0.0;0.0;0.0;0.0;1.0;1.0;0.0;0.0;0.0;0.0;0.0;0.0;0.0;0.0;
236;236_9193ed480ab626a7091ebe53a2cff7ec9daee6ad-FILE.arff;LP;1.0;1.0;1.0;0.0;0.0;1.0;1.0;0.0;0.0;0.0;0.0;1.0;1.0;0.0;0.0;0.0;0.0;0.0;0.0;0.0;0.0;
236;236_9193ed480ab626a7091ebe53a2cff7ec9daee6ad-FILE.arff;RAkELd;1.0;1.0;1.0;1.0;1.0;0.0;0.0;0.0;0.0;0.0;0.0;1.0;1.0;0.0;0.0;0.0;0.0;0.0;0.0;0.0;0.0;
247;247_053d5e7e9e0950ec6a5b377d60276b0ff33a9898-FILE.arff;BR;5.0;5.0;1.0;5.0;1.0;0.0;0.0;0.0;0.0;0.0;0.0;5.0;1.0;0.0;0.0;0.0;0.0;0.0;0.0;0.0;0.0;
247;247_053d5e7e9e0950ec6a5b377d60276b0ff33a9898-FILE.arff;LP;5.0;5.0;1.0;0.0;0.0;4.0;0.8;1.0;0.2;1.0;0.2;4.0;0.8;1.0;0.2;0.2;1.0;0.2;1.0;0.2;1.0;
247;247_053d5e7e9e0950ec6a5b377d60276b0ff33a9898-FILE.arff;RAkELd;5.0;5.0;1.0;5.0;1.0;0.0;0.0;0.0;0.0;0.0;0.0;5.0;1.0;0.0;0.0;0.0;0.0;0.0;0.0;0.0;0.0;
253;253_36ff8e52e227aa94c2bb30758131e27cd242a573-FILE.arff;BR;1.0;1.0;1.0;1.0;1.0;0.0;0.0;0.0;0.0;0.0;0.0;1.0;1.0;0.0;0.0;0.0;0.0;0.0;0.0;0.0;0.0;
253;253_36ff8e52e227aa94c2bb30758131e27cd242a573-FILE.arff;LP;1.0;1.0;1.0;0.0;0.0;1.0;1.0;0.0;0.0;0.0;0.0;1.0;1.0;0.0;0.0;0.0;0.0;0.0;0.0;0.0;0.0;
253;253_36ff8e52e227aa94c2bb30758131e27cd242a573-FILE.arff;RAkELd;1.0;1.0;1.0;1.0;1.0;0.0;0.0;0.0;0.0;0.0;0.0;1.0;1.0;0.0;0.0;0.0;0.0;0.0;0.0;0.0;0.0;
258;258_1aa654f9da31f80b5e0a42a60fbb010d6a208241-FILE.arff;BR;1.0;1.0;1.0;1.0;1.0;0.0;0.0;0.0;0.0;0.0;0.0;1.0;1.0;0.0;0.0;0.0;0.0;0.0;0.0;0.0;0.0;
258;258_1aa654f9da31f80b5e0a42a60fbb010d6a208241-FILE.arff;LP;1.0;1.0;1.0;0.0;0.0;1.0;1.0;0.0;0.0;0.0;0.0;1.0;1.0;0.0;0.0;0.0;0.0;0.0;0.0;0.0;0.0;
258;258_1aa654f9da31f80b5e0a42a60fbb010d6a208241-FILE.arff;RAkELd;1.0;1.0;1.0;1.0;1.0;0.0;0.0;0.0;0.0;0.0;0.0;1.0;1.0;0.0;0.0;0.0;0.0;0.0;0.0;0.0;0.0;
259;259_115229b528e5da53cb7dc982acd579ea518ac5c8-FILE.arff;BR;2.0;2.0;1.0;2.0;1.0;0.0;0.0;0.0;0.0;0.0;0.0;2.0;1.0;0.0;0.0;0.0;0.0;0.0;0.0;0.0;0.0;
259;259_115229b528e5da53cb7dc982acd579ea518ac5c8-FILE.arff;LP;2.0;2.0;1.0;0.0;0.0;1.0;0.5;1.0;0.5;1.0;0.5;1.0;0.5;1.0;0.5;0.5;1.0;0.5;1.0;0.5;1.0;
259;259_115229b528e5da53cb7dc982acd579ea518ac5c8-FILE.arff;RAkELd;2.0;2.0;1.0;2.0;1.0;0.0;0.0;0.0;0.0;0.0;0.0;2.0;1.0;0.0;0.0;0.0;0.0;0.0;0.0;0.0;0.0;
260;260_2ebda98af2aaed937042fc41b8be24c8e0884435-FILE.arff;BR;1.0;1.0;1.0;1.0;1.0;0.0;0.0;0.0;0.0;0.0;0.0;1.0;1.0;0.0;0.0;0.0;0.0;0.0;0.0;0.0;0.0;
260;260_2ebda98af2aaed937042fc41b8be24c8e0884435-FILE.arff;LP;1.0;1.0;1.0;0.0;0.0;1.0;1.0;0.0;0.0;0.0;0.0;1.0;1.0;0.0;0.0;0.0;0.0;0.0;0.0;0.0;0.0;
260;260_2ebda98af2aaed937042fc41b8be24c8e0884435-FILE.arff;RAkELd;1.0;1.0;1.0;1.0;1.0;0.0;0.0;0.0;0.0;0.0;0.0;1.0;1.0;0.0;0.0;0.0;0.0;0.0;0.0;0.0;0.0;
397;397_cdd1403adeb4392be3d6e5e619cfdd5c9f85f8ab-FILE.arff;BR;1.0;1.0;1.0;1.0;1.0;0.0;0.0;0.0;0.0;0.0;0.0;1.0;1.0;0.0;0.0;0.0;0.0;0.0;0.0;0.0;0.0;
397;397_cdd1403adeb4392be3d6e5e619cfdd5c9f85f8ab-FILE.arff;LP;1.0;1.0;1.0;0.0;0.0;1.0;1.0;0.0;0.0;0.0;0.0;1.0;1.0;0.0;0.0;0.0;0.0;0.0;0.0;0.0;0.0;
397;397_cdd1403adeb4392be3d6e5e619cfdd5c9f85f8ab-FILE.arff;RAkELd;1.0;1.0;1.0;1.0;1.0;0.0;0.0;0.0;0.0;0.0;0.0;1.0;1.0;0.0;0.0;0.0;0.0;0.0;0.0;0.0;0.0;
434;434_512d4e3914ef6fcd1274bfcc633e330c015b26bc-FILE.arff;BR;1.0;1.0;1.0;1.0;1.0;0.0;0.0;0.0;0.0;0.0;0.0;1.0;1.0;0.0;0.0;0.0;0.0;0.0;0.0;0.0;0.0;
434;434_512d4e3914ef6fcd1274bfcc633e330c015b26bc-FILE.arff;LP;1.0;1.0;1.0;0.0;0.0;1.0;1.0;0.0;0.0;0.0;0.0;1.0;1.0;0.0;0.0;0.0;0.0;0.0;0.0;0.0;0.0;
434;434_512d4e3914ef6fcd1274bfcc633e330c015b26bc-FILE.arff;RAkELd;1.0;1.0;1.0;1.0;1.0;0.0;0.0;0.0;0.0;0.0;0.0;1.0;1.0;0.0;0.0;0.0;0.0;0.0;0.0;0.0;0.0;
439;439_a01ee578bf057333dd86952743c05cd5d2063c65-FILE.arff;BR;1.0;1.0;1.0;0.0;0.0;0.0;0.0;1.0;1.0;1.0;1.0;0.0;0.0;1.0;1.0;1.0;1.0;1.0;1.0;1.0;1.0;
439;439_a01ee578bf057333dd86952743c05cd5d2063c65-FILE.arff;LP;1.0;1.0;1.0;0.0;0.0;0.0;0.0;1.0;1.0;1.0;1.0;0.0;0.0;1.0;1.0;1.0;1.0;1.0;1.0;1.0;1.0;
439;439_a01ee578bf057333dd86952743c05cd5d2063c65-FILE.arff;RAkELd;1.0;1.0;1.0;0.0;0.0;0.0;0.0;1.0;1.0;1.0;1.0;0.0;0.0;1.0;1.0;1.0;1.0;1.0;1.0;1.0;1.0;
440;440_2dac3cbe3ea66097e60695a93f94aaf1f25d8090-FILE.arff;BR;1.0;1.0;1.0;0.0;0.0;0.0;0.0;1.0;1.0;1.0;1.0;0.0;0.0;1.0;1.0;1.0;1.0;1.0;1.0;1.0;1.0;
440;440_2dac3cbe3ea66097e60695a93f94aaf1f25d8090-FILE.arff;LP;1.0;1.0;1.0;0.0;0.0;0.0;0.0;1.0;1.0;1.0;1.0;0.0;0.0;1.0;1.0;1.0;1.0;1.0;1.0;1.0;1.0;
440;440_2dac3cbe3ea66097e60695a93f94aaf1f25d8090-FILE.arff;RAkELd;1.0;1.0;1.0;0.0;0.0;0.0;0.0;1.0;1.0;1.0;1.0;0.0;0.0;1.0;1.0;1.0;1.0;1.0;1.0;1.0;1.0;
441;441_fc5bcec2a95685d229657b3a45209169816f949f-FILE.arff;BR;2.0;2.0;1.0;2.0;1.0;0.0;0.0;0.0;0.0;0.0;0.0;2.0;1.0;0.0;0.0;0.0;0.0;0.0;0.0;0.0;0.0;
441;441_fc5bcec2a95685d229657b3a45209169816f949f-FILE.arff;LP;2.0;2.0;1.0;0.0;0.0;2.0;1.0;0.0;0.0;0.0;0.0;2.0;1.0;0.0;0.0;0.0;0.0;0.0;0.0;0.0;0.0;
441;441_fc5bcec2a95685d229657b3a45209169816f949f-FILE.arff;RAkELd;2.0;2.0;1.0;2.0;1.0;0.0;0.0;0.0;0.0;0.0;0.0;2.0;1.0;0.0;0.0;0.0;0.0;0.0;0.0;0.0;0.0;
442;442_4b762cea7df0b1cc67e781386ab2c5134aeb46a9-FILE.arff;BR;3.0;3.0;1.0;2.0;0.6666666666666666;0.0;0.0;1.0;0.3333333333333333;1.0;0.3333333333333333;2.0;0.6666666666666666;1.0;0.3333333333333333;1.0;1.0;1.0;1.0;1.0;1.0;
442;442_4b762cea7df0b1cc67e781386ab2c5134aeb46a9-FILE.arff;LP;3.0;3.0;1.0;0.0;0.0;2.0;0.6666666666666666;1.0;0.3333333333333333;1.0;0.3333333333333333;2.0;0.6666666666666666;1.0;0.3333333333333333;0.3333333333333333;1.0;0.3333333333333333;1.0;0.3333333333333333;1.0;
442;442_4b762cea7df0b1cc67e781386ab2c5134aeb46a9-FILE.arff;RAkELd;3.0;3.0;1.0;2.0;0.6666666666666666;0.0;0.0;1.0;0.3333333333333333;1.0;0.3333333333333333;2.0;0.6666666666666666;1.0;0.3333333333333333;1.0;1.0;1.0;1.0;1.0;1.0;
448;448_cc2be45da50bbe11387c8751bb6fc10c0ca2ef98-FILE.arff;BR;1.0;1.0;1.0;1.0;1.0;0.0;0.0;0.0;0.0;0.0;0.0;1.0;1.0;0.0;0.0;0.0;0.0;0.0;0.0;0.0;0.0;
448;448_cc2be45da50bbe11387c8751bb6fc10c0ca2ef98-FILE.arff;LP;1.0;1.0;1.0;0.0;0.0;0.0;0.0;1.0;1.0;1.0;1.0;0.0;0.0;1.0;1.0;1.0;1.0;1.0;1.0;1.0;1.0;
448;448_cc2be45da50bbe11387c8751bb6fc10c0ca2ef98-FILE.arff;RAkELd;1.0;1.0;1.0;1.0;1.0;0.0;0.0;0.0;0.0;0.0;0.0;1.0;1.0;0.0;0.0;0.0;0.0;0.0;0.0;0.0;0.0;
449;449_484e65be2ae9197a0ad6267d31527d477e7ce452-FILE.arff;BR;1.0;1.0;1.0;1.0;1.0;0.0;0.0;0.0;0.0;0.0;0.0;1.0;1.0;0.0;0.0;0.0;0.0;0.0;0.0;0.0;0.0;
449;449_484e65be2ae9197a0ad6267d31527d477e7ce452-FILE.arff;LP;1.0;1.0;1.0;0.0;0.0;1.0;1.0;0.0;0.0;0.0;0.0;1.0;1.0;0.0;0.0;0.0;0.0;0.0;0.0;0.0;0.0;
449;449_484e65be2ae9197a0ad6267d31527d477e7ce452-FILE.arff;RAkELd;1.0;1.0;1.0;1.0;1.0;0.0;0.0;0.0;0.0;0.0;0.0;1.0;1.0;0.0;0.0;0.0;0.0;0.0;0.0;0.0;0.0;
450;450_9739b66b1c626fc89434f43c90fbc9c1ef380af7-FILE.arff;BR;2.0;2.0;1.0;2.0;1.0;0.0;0.0;0.0;0.0;0.0;0.0;2.0;1.0;0.0;0.0;0.0;0.0;0.0;0.0;0.0;0.0;
450;450_9739b66b1c626fc89434f43c90fbc9c1ef380af7-FILE.arff;LP;2.0;2.0;1.0;0.0;0.0;1.0;0.5;1.0;0.5;1.0;0.5;1.0;0.5;1.0;0.5;0.5;1.0;0.5;1.0;0.5;1.0;
450;450_9739b66b1c626fc89434f43c90fbc9c1ef380af7-FILE.arff;RAkELd;2.0;2.0;1.0;2.0;1.0;0.0;0.0;0.0;0.0;0.0;0.0;2.0;1.0;0.0;0.0;0.0;0.0;0.0;0.0;0.0;0.0;
451;451_0da82ea34cadb535df6673aa1e4b91ac31c2ec80-FILE.arff;BR;2.0;2.0;1.0;2.0;1.0;0.0;0.0;0.0;0.0;0.0;0.0;2.0;1.0;0.0;0.0;0.0;0.0;0.0;0.0;0.0;0.0;
451;451_0da82ea34cadb535df6673aa1e4b91ac31c2ec80-FILE.arff;LP;2.0;2.0;1.0;0.0;0.0;2.0;1.0;0.0;0.0;0.0;0.0;2.0;1.0;0.0;0.0;0.0;0.0;0.0;0.0;0.0;0.0;
451;451_0da82ea34cadb535df6673aa1e4b91ac31c2ec80-FILE.arff;RAkELd;2.0;2.0;1.0;2.0;1.0;0.0;0.0;0.0;0.0;0.0;0.0;2.0;1.0;0.0;0.0;0.0;0.0;0.0;0.0;0.0;0.0;
454;454_be31bf6c560aaac0a35d7f4f382936b3239fda79-FILE.arff;BR;4.0;4.0;1.0;4.0;1.0;0.0;0.0;0.0;0.0;0.0;0.0;4.0;1.0;0.0;0.0;0.0;0.0;0.0;0.0;0.0;0.0;
454;454_be31bf6c560aaac0a35d7f4f382936b3239fda79-FILE.arff;LP;4.0;4.0;1.0;0.0;0.0;1.0;0.25;3.0;0.75;3.0;0.75;1.0;0.25;3.0;0.75;0.75;1.0;0.75;1.0;0.75;1.0;
454;454_be31bf6c560aaac0a35d7f4f382936b3239fda79-FILE.arff;RAkELd;4.0;4.0;1.0;4.0;1.0;0.0;0.0;0.0;0.0;0.0;0.0;4.0;1.0;0.0;0.0;0.0;0.0;0.0;0.0;0.0;0.0;
455;455_bd050161b1dfd3c55491c5a2be555bb3cddaa695-FILE.arff;BR;4.0;4.0;1.0;4.0;1.0;0.0;0.0;0.0;0.0;0.0;0.0;4.0;1.0;0.0;0.0;0.0;0.0;0.0;0.0;0.0;0.0;
455;455_bd050161b1dfd3c55491c5a2be555bb3cddaa695-FILE.arff;LP;4.0;4.0;1.0;0.0;0.0;1.0;0.25;3.0;0.75;3.0;0.75;1.0;0.25;3.0;0.75;0.75;1.0;0.75;1.0;0.75;1.0;
455;455_bd050161b1dfd3c55491c5a2be555bb3cddaa695-FILE.arff;RAkELd;4.0;4.0;1.0;4.0;1.0;0.0;0.0;0.0;0.0;0.0;0.0;4.0;1.0;0.0;0.0;0.0;0.0;0.0;0.0;0.0;0.0;
456;456_02104652dec186c472f9997b4f12d91ed51f5ac2-FILE.arff;BR;2.0;2.0;1.0;2.0;1.0;0.0;0.0;0.0;0.0;0.0;0.0;2.0;1.0;0.0;0.0;0.0;0.0;0.0;0.0;0.0;0.0;
456;456_02104652dec186c472f9997b4f12d91ed51f5ac2-FILE.arff;LP;2.0;2.0;1.0;0.0;0.0;2.0;1.0;0.0;0.0;0.0;0.0;2.0;1.0;0.0;0.0;0.0;0.0;0.0;0.0;0.0;0.0;
456;456_02104652dec186c472f9997b4f12d91ed51f5ac2-FILE.arff;RAkELd;2.0;2.0;1.0;1.0;0.5;1.0;0.5;0.0;0.0;0.0;0.0;2.0;1.0;0.0;0.0;0.0;0.0;0.0;0.0;0.0;0.0;
458;458_b139d7b4fd70b28345ee1b52fb495983507112b5-FILE.arff;BR;2.0;2.0;1.0;2.0;1.0;0.0;0.0;0.0;0.0;0.0;0.0;2.0;1.0;0.0;0.0;0.0;0.0;0.0;0.0;0.0;0.0;
458;458_b139d7b4fd70b28345ee1b52fb495983507112b5-FILE.arff;LP;2.0;2.0;1.0;0.0;0.0;1.0;0.5;1.0;0.5;1.0;0.5;1.0;0.5;1.0;0.5;0.5;1.0;0.5;1.0;0.5;1.0;
458;458_b139d7b4fd70b28345ee1b52fb495983507112b5-FILE.arff;RAkELd;2.0;2.0;1.0;2.0;1.0;0.0;0.0;0.0;0.0;0.0;0.0;2.0;1.0;0.0;0.0;0.0;0.0;0.0;0.0;0.0;0.0;
460;460_c45dad5d500070223da30a2c01951afa4bd8c14b-FILE.arff;BR;1.0;1.0;1.0;1.0;1.0;0.0;0.0;0.0;0.0;0.0;0.0;1.0;1.0;0.0;0.0;0.0;0.0;0.0;0.0;0.0;0.0;
460;460_c45dad5d500070223da30a2c01951afa4bd8c14b-FILE.arff;LP;1.0;1.0;1.0;0.0;0.0;0.0;0.0;1.0;1.0;1.0;1.0;0.0;0.0;1.0;1.0;1.0;1.0;1.0;1.0;1.0;1.0;
460;460_c45dad5d500070223da30a2c01951afa4bd8c14b-FILE.arff;RAkELd;1.0;1.0;1.0;1.0;1.0;0.0;0.0;0.0;0.0;0.0;0.0;1.0;1.0;0.0;0.0;0.0;0.0;0.0;0.0;0.0;0.0;
478;478_a63063135b91d51292ccc8cc3fbf07ffe25c7052-FILE.arff;BR;3.0;3.0;1.0;3.0;1.0;0.0;0.0;0.0;0.0;0.0;0.0;3.0;1.0;0.0;0.0;0.0;0.0;0.0;0.0;0.0;0.0;
478;478_a63063135b91d51292ccc8cc3fbf07ffe25c7052-FILE.arff;LP;3.0;3.0;1.0;0.0;0.0;3.0;1.0;0.0;0.0;0.0;0.0;3.0;1.0;0.0;0.0;0.0;0.0;0.0;0.0;0.0;0.0;
478;478_a63063135b91d51292ccc8cc3fbf07ffe25c7052-FILE.arff;RAkELd;3.0;3.0;1.0;3.0;1.0;0.0;0.0;0.0;0.0;0.0;0.0;3.0;1.0;0.0;0.0;0.0;0.0;0.0;0.0;0.0;0.0;
480;480_a6971bd502d689c7470be47a2236274f6c4d692d-FILE.arff;BR;2.0;2.0;1.0;1.0;0.5;0.0;0.0;1.0;0.5;1.0;0.5;1.0;0.5;1.0;0.5;1.0;1.0;1.0;1.0;1.0;1.0;
480;480_a6971bd502d689c7470be47a2236274f6c4d692d-FILE.arff;LP;2.0;2.0;1.0;0.0;0.0;0.0;0.0;2.0;1.0;2.0;1.0;0.0;0.0;2.0;1.0;1.0;1.0;1.0;1.0;1.0;1.0;
480;480_a6971bd502d689c7470be47a2236274f6c4d692d-FILE.arff;RAkELd;2.0;2.0;1.0;1.0;0.5;0.0;0.0;1.0;0.5;1.0;0.5;1.0;0.5;1.0;0.5;1.0;1.0;1.0;1.0;1.0;1.0;
