commit;Dataset;NumOfInstances;NumOfLabels;Cardinality;MeanIR;CVIR;MaxIRLb;MinIRLb;MaxImR;MinImR;Scumble;
100;100_4e18fb9e22091af6e3a33373437cdf592584a522-LOC.arff;272.0;31.0;1.0404411764705883;8.75315105529391;1.0919643675596162;29.0;1.0;135.0;3.689655172413793;0.0023128696419018498;
101;101_ef7549da15775a1567b47e8b840d97d52c8e3e0c-LOC.arff;277.0;31.0;1.03971119133574;8.744017772351105;1.09401295190296;29.0;1.0;137.5;3.7758620689655173;0.0022711210924090362;
102;102_449f177068615c8d78fb4513776f08dcca6396a4-LOC.arff;277.0;31.0;1.03971119133574;8.744017772351105;1.09401295190296;29.0;1.0;137.5;3.7758620689655173;0.0022711210924090362;
103;103_667b07d652f2c8371a98710cfc04a937cbcf0bcc-LOC.arff;280.0;31.0;1.0392857142857144;8.739306921149025;1.0950756479873278;29.0;1.0;139.0;3.8275862068965516;0.002246787652133225;
104;104_b53c128a38005fdeefc469ba603eee4b89dd13d5-LOC.arff;285.0;32.0;1.03859649122807;8.959360234906793;1.0265306724311716;29.0;1.0;141.5;3.913793103448276;0.002207370324902818;
105;105_68cc9faf5751e01c9620ad10f0027956bc0020e0-LOC.arff;286.0;32.0;1.0384615384615385;8.958010707241474;1.0268263835858518;29.0;1.0;142.0;3.9310344827586206;0.002199652246843717;
106;106_0842dd6d908e6f96451cb8319f99513b53592e8a-LOC.arff;287.0;32.0;1.038327526132404;8.809292758523528;1.040676546595615;29.0;1.0;142.5;3.9482758620689653;0.0021919879533007077;
107;107_01098ab0d946a6bc5abbfa894e593658c207e137-LOC.arff;289.0;32.0;1.0380622837370241;8.623395322626092;1.063767819591324;29.0;1.0;143.5;3.9827586206896552;0.0021768184864958584;
108;108_255dcf23bc23c75833e4e8834879f312dad97842-LOC.arff;299.0;33.0;1.0568561872909699;8.425218652447716;1.0752531398241463;29.5;1.0;148.5;4.067796610169491;0.005043063371821494;
109;109_7931825ee3006c787565191424a534e6fc9c8525-LOC.arff;299.0;33.0;1.0568561872909699;8.425218652447716;1.0752531398241463;29.5;1.0;148.5;4.067796610169491;0.005043063371821494;
110;110_297f4dbded95d229f97815328fc8a86e57edde0c-LOC.arff;299.0;33.0;1.0568561872909699;8.425218652447716;1.0752531398241463;29.5;1.0;148.5;4.067796610169491;0.005043063371821494;
111;111_cc5de4e9113dd441207985db9d26a39e73091a2d-LOC.arff;299.0;33.0;1.0568561872909699;8.425218652447716;1.0752531398241463;29.5;1.0;148.5;4.067796610169491;0.005043063371821494;
112;112_b4d5ee0c9dbd03e30b5c62e57a8cff886bc58622-LOC.arff;299.0;33.0;1.0568561872909699;8.425218652447716;1.0752531398241463;29.5;1.0;148.5;4.067796610169491;0.005043063371821494;
113;113_d08def390f92ffa09b4f5caa1aba2eaed7e2140f-LOC.arff;310.0;34.0;1.0548387096774194;8.22111316652696;1.0662087151857236;29.5;1.0;152.5;4.203389830508475;0.0048641159618536345;
114;114_9349588937cef231db4e6861d02950d7d0d94d98-LOC.arff;338.0;34.0;1.0502958579881656;7.964392109805903;1.1187651190982897;29.5;1.0;168.0;4.728813559322034;0.004461171444303629;
115;115_114d8cb40b0408c8b43dc7084819b2f4a7844960-LOC.arff;338.0;34.0;1.0502958579881656;7.964392109805903;1.1187651190982897;29.5;1.0;168.0;4.728813559322034;0.004461171444303629;
116;116_dbe811dd3d6fc52b87e13d9f45db127c9c1327b0-LOC.arff;338.0;34.0;1.0502958579881656;7.964392109805903;1.1187651190982897;29.5;1.0;168.0;4.728813559322034;0.004461171444303629;
117;117_ab74f942866393542fa61b3ad17ff0125dad6eb0-LOC.arff;338.0;34.0;1.0502958579881656;7.964392109805903;1.1187651190982897;29.5;1.0;168.0;4.728813559322034;0.004461171444303629;
118;118_0453613ab67fd1c8a9ea33e34d833cb2a1e946fc-LOC.arff;338.0;34.0;1.0502958579881656;7.964392109805903;1.1187651190982897;29.5;1.0;168.0;4.728813559322034;0.004461171444303629;
119;119_cf94e04d35807cded32edd74b20ffe90765aca10-LOC.arff;386.0;34.0;1.044041450777202;11.662052337493016;1.1324093892508436;43.5;1.0;192.0;3.4367816091954024;0.00390641437350941;
11;11_b25502b1994cfc6f988f7f279248f1646ad892ff-LOC.arff;21.0;10.0;1.0;1.0;NaN;1.0;1.0;4.9E-324;1.7976931348623157E308;0.0;
120;120_be90a7f39e46fbd52ba01d87d40e7494a5787f30-LOC.arff;386.0;34.0;1.044041450777202;11.662052337493016;1.1324093892508436;43.5;1.0;192.0;3.4367816091954024;0.00390641437350941;
121;121_c665b4cf9e79afd246013bf348d9b77259cee2f3-LOC.arff;397.0;34.0;1.0428211586901763;13.128135583229684;1.1336944595951768;49.0;1.0;197.5;3.0510204081632653;0.003798176191875627;
122;122_50c76ea03dcc36be748ac0ade97982e027a9960e-LOC.arff;397.0;34.0;1.0428211586901763;13.128135583229684;1.1336944595951768;49.0;1.0;197.5;3.0510204081632653;0.003798176191875627;
123;123_748a70d588da74415260cbd1ac6455acba66dd5b-LOC.arff;397.0;34.0;1.0428211586901763;13.128135583229684;1.1336944595951768;49.0;1.0;193.0;3.0510204081632653;0.003798176191875627;
124;124_9991814cc333688c65cccd10bbc443c3840adab3-LOC.arff;398.0;35.0;1.0427135678391959;18.432627109277828;1.3905222567722841;98.0;1.0;397.0;3.0510204081632653;0.0037886330356146332;
125;125_180d931c2a0a4bc198027322e9917419fbd66a2b-LOC.arff;422.0;35.0;1.0402843601895735;12.59603037268109;1.154207490656532;49.0;1.0;210.0;3.306122448979592;0.003573165753968303;
126;126_5c6cc2b50cd4bb88654c736b9b53770222393ecd-LOC.arff;433.0;35.0;1.0392609699769053;12.703298539749264;1.1574665098778085;49.5;1.0;215.5;3.3737373737373737;0.003482392490010686;
127;127_fedc7a8caa2ab52d08f772821e1fbb88ea441ac9-LOC.arff;442.0;35.0;1.0429864253393666;12.443608413698845;1.1874320745635283;49.5;1.0;220.0;3.4646464646464645;0.0032401964488131918;
128;128_b3ece8fd451c017244d8f8ef7e00b3bd9d1cb788-LOC.arff;442.0;35.0;1.0429864253393666;12.443608413698845;1.1874320745635283;49.5;1.0;220.0;3.4646464646464645;0.0032401964488131918;
129;129_4af31534ea0cfd1189e8b799249ae9f73b1c0c6c-LOC.arff;442.0;35.0;1.0429864253393666;12.443608413698845;1.1874320745635283;49.5;1.0;220.0;3.4646464646464645;0.0032401964488131918;
12;12_048e08719bd9857b435a6559ab0ada8ff338a44b-LOC.arff;21.0;10.0;1.0;1.0;NaN;1.0;1.0;4.9E-324;1.7976931348623157E308;0.0;
130;130_e9599c45c368a6d7c9db82bae1ea6dd9dca21c2b-LOC.arff;442.0;35.0;1.0429864253393666;12.443608413698845;1.1874320745635283;49.5;1.0;219.5;3.4545454545454546;0.0032401964488131918;
131;131_4fdaa8b9a72ad289b74b8a9fa3858d7f2bbe1dcb-LOC.arff;448.0;35.0;1.0424107142857142;12.410697040636688;1.1923674807202789;49.5;1.0;223.0;3.525252525252525;0.0026427492426220195;
132;132_6b5f4541956b9b0aa7d7e49d04fff913150dc122-LOC.arff;448.0;35.0;1.0424107142857142;12.410697040636688;1.1923674807202789;49.5;1.0;223.0;3.525252525252525;0.0026427492426220195;
133;133_c89fffa801f241ef958bf81270005eabcc89c717-LOC.arff;452.0;35.0;1.0420353982300885;12.909614092783626;1.1927618547052632;51.5;1.0;225.0;3.3883495145631066;0.0026193620811828917;
134;134_82b90bd20ca2db9fb77837021e8872b49b9ef1f3-LOC.arff;471.0;35.0;1.040339702760085;15.026460428044468;1.194617061664379;60.0;1.0;234.5;2.925;0.002513697793406928;
135;135_688c48015958ffeed02f85049895e20bc723d601-LOC.arff;481.0;35.0;1.0395010395010396;14.803246142330181;1.219892350207286;60.0;1.0;239.5;3.0083333333333333;0.0024614379640221684;
136;136_0298038bacb5027553c0c19c3078c207ccbdc509-LOC.arff;481.0;35.0;1.0395010395010396;14.803246142330181;1.219892350207286;60.0;1.0;239.5;3.0083333333333333;0.0024614379640221684;
137;137_8b3ee8a7e8ea754fae48358ac94539113145447a-LOC.arff;481.0;35.0;1.0395010395010396;14.803246142330181;1.219892350207286;60.0;1.0;239.5;3.0083333333333333;0.0024614379640221684;
138;138_188814e0fbb9e23b15ab387d9e6f60c36bed014d-LOC.arff;481.0;35.0;1.0395010395010396;14.803246142330181;1.219892350207286;60.0;1.0;239.5;3.0083333333333333;0.0024614379640221684;
139;139_a9ae591e5b01a6cb8a3e20be9431912b2ce0a3ef-LOC.arff;481.0;35.0;1.0395010395010396;14.803246142330181;1.219892350207286;60.0;1.0;239.5;3.0083333333333333;0.0024614379640221684;
13;13_b2a20839ea2348852647e103ce22eb1483e10cf1-LOC.arff;21.0;10.0;1.0;1.0;NaN;1.0;1.0;4.9E-324;1.7976931348623157E308;0.0;
140;140_554ba7b71baf1378e2332cffe863709685bb0dca-LOC.arff;481.0;35.0;1.0395010395010396;14.803246142330181;1.219892350207286;60.0;1.0;239.5;3.0083333333333333;0.0024614379640221684;
141;141_cdfb89796c682c97308f6c7d78d130cf339bfe9e-LOC.arff;487.0;35.0;1.0390143737166324;14.740746142330181;1.2276344959550407;60.0;1.0;242.5;3.058333333333333;0.002431112239619431;
142;142_03f72268722bb6eaf3b14f1c77b155dd6bf323fc-LOC.arff;487.0;35.0;1.0390143737166324;14.740746142330181;1.2276344959550407;60.0;1.0;242.5;3.058333333333333;0.002431112239619431;
143;143_a7362b37bce5eebc9bca6d1c770c784e6f285fe6-LOC.arff;487.0;35.0;1.0390143737166324;14.740746142330181;1.2276344959550407;60.0;1.0;242.5;3.058333333333333;0.002431112239619431;
144;144_6affc6b343f9734df6e965e91af29d89f2251f80-LOC.arff;491.0;35.0;1.0407331975560081;14.708165313388434;1.231538106828605;60.0;1.0;244.5;3.091666666666667;0.002831423394096552;
145;145_075a5f0820676f7915b5b6459eb7ceace99e3a4e-LOC.arff;494.0;35.0;1.040485829959514;14.673443091166213;1.2358406455749882;60.0;1.0;246.0;3.1166666666666667;0.002814228515185034;
146;146_9a9f404b99b66e7d362b3fbc71c96f52538c653e-LOC.arff;494.0;35.0;1.040485829959514;14.673443091166213;1.2358406455749882;60.0;1.0;246.0;3.1166666666666667;0.002814228515185034;
147;147_f502a5ed7e8b04a1f31acfb86b987852e4a8c62d-LOC.arff;494.0;35.0;1.040485829959514;14.673443091166213;1.2358406455749882;60.0;1.0;245.5;3.1083333333333334;0.002814228515185034;
148;148_f34e8318818821defb487010325fa98563e3b3c1-LOC.arff;494.0;35.0;1.040485829959514;14.673443091166213;1.2358406455749882;60.0;1.0;246.0;3.1166666666666667;0.002814228515185034;
149;149_2ada7aed210465d18a77e3250020b640e646bb09-LOC.arff;494.0;35.0;1.040485829959514;14.673443091166213;1.2358406455749882;60.0;1.0;246.0;3.1166666666666667;0.002814228515185034;
14;14_e72c0b188d7dca3bccfb2a409d0156e76d114f85-LOC.arff;26.0;11.0;1.0;2.6;0.870285269152674;4.2;1.0;4.2;4.2;0.0;
150;150_af9dd2fc4031b97622a3f10bf4b980fa5685ba11-LOC.arff;494.0;35.0;1.040485829959514;14.673443091166213;1.2358406455749882;60.0;1.0;246.0;3.1166666666666667;0.002814228515185034;
151;151_4d904e7132ad4e0072813ffa2264ca51a5af70e9-LOC.arff;530.0;35.0;1.0377358490566038;19.056726018516084;1.2378539419273198;78.0;1.0;264.0;2.3974358974358974;0.0026230733707573698;
152;152_26198589d9af8728d9e01ec9fd8d99a362ccde1c-LOC.arff;549.0;35.0;1.0364298724954462;21.370125341284062;1.2385864976100769;87.5;1.0;273.5;2.137142857142857;0.0025322930537366255;
153;153_40cd936a1f9b664dfd7c3ea4fb0de0c04bb0a48c-LOC.arff;551.0;37.0;1.0889292196007259;20.79638464545496;1.2179049670895365;88.5;1.0;274.5;2.1129943502824857;0.026219503572403643;
154;154_6d4ab95a471949ad6453b3e0516da42c6a6eb959-LOC.arff;554.0;37.0;1.0884476534296028;20.772934724946214;1.2200247437725935;88.5;1.0;276.0;2.1299435028248586;0.0258811920908827;
155;155_edd65c537c2f6d1c993cd3afde1bee18732c417b-LOC.arff;554.0;37.0;1.0884476534296028;20.772934724946214;1.2200247437725935;88.5;1.0;276.0;2.1299435028248586;0.0258811920908827;
156;156_e535484b612b11be313fc5c8cf4ce4f84efe0dac-LOC.arff;559.0;37.0;1.1252236135957066;20.587487696209536;1.2776574175928206;91.0;1.0;278.5;2.0714285714285716;0.027624444420277353;
157;157_efe8afe333c056e76e6026bbd0e40dcb49eaf3a5-LOC.arff;560.0;38.0;1.125;29.082883080619563;1.547192052427197;182.0;1.0;559.0;2.076923076923077;0.027575115055241146;
158;158_4e30d3b5e6cfc16791b321e3a67e9b7dd287437b-LOC.arff;638.0;38.0;1.109717868338558;16.976508973219413;1.411131571442412;91.0;1.0;318.0;2.5054945054945055;0.024438127427605226;
159;159_ad7a09ae130d82cb8cb47dd2573aa42d3df0e4f8-LOC.arff;683.0;38.0;1.1215226939970717;16.816314141895862;1.4501796099948705;92.0;1.0;340.5;2.7119565217391304;0.02239513162189381;
15;15_0da85d442c34ab69ca565f3d700201f2bbd30ed3-LOC.arff;27.0;11.0;1.0;2.7;0.890430761494171;4.4;1.0;4.4;4.4;0.0;
160;160_f4d51c3d7cd5823ad420472d1fe9118918d89025-LOC.arff;683.0;38.0;1.1229868228404098;16.787997736848155;1.4531255738402087;92.0;1.0;340.5;2.7119565217391304;0.022578270740293487;
161;161_87271012b9fd8cfef5a76a849da8b23c7f07f32a-LOC.arff;683.0;38.0;1.1229868228404098;16.787997736848155;1.4531255738402087;92.0;1.0;340.5;2.7119565217391304;0.022578270740293487;
162;162_5029820eaaf7d7b3f1047e60c66c3ea08d185073-LOC.arff;683.0;38.0;1.1229868228404098;16.787997736848155;1.4531255738402087;92.0;1.0;340.5;2.7119565217391304;0.022578270740293487;
163;163_b38f82ec782f52eb9b13817915abd9a1d5c7b7a7-LOC.arff;683.0;38.0;1.1288433382137628;16.699355077568374;1.462652682961947;92.0;1.0;340.5;2.7119565217391304;0.02307099525017902;
164;164_fdcc4275a5c8dbfec7c6c7c4b185952b743fe61d-LOC.arff;689.0;38.0;1.1262699564586358;16.708770282246736;1.4617009177816465;92.0;1.0;343.5;2.744565217391304;0.023326365237257382;
165;165_73b4305e70cd203b71a66f043429aad06c695923-LOC.arff;699.0;38.0;1.1645207439198855;16.57648509491911;1.4772169263737949;92.0;1.0;348.5;2.7989130434782608;0.02436874819952024;
166;166_a208858ddba795bae4d456baa2255d556ddc1e6d-LOC.arff;703.0;39.0;1.1820768136557611;16.288837310761387;1.4653377817240414;92.0;1.0;350.0;2.8152173913043477;0.030373608719705243;
167;167_903ea9fa291a8a8b3eb0a4bbf7bac0f789425144-LOC.arff;724.0;39.0;1.1767955801104972;16.225253461660298;1.473293641457814;92.0;1.0;361.0;2.9347826086956523;0.028638597359956594;
168;168_b6faf45260096b94a6a1ea3804e3e51c4ccdf346-LOC.arff;724.0;39.0;1.1767955801104972;16.225253461660298;1.473293641457814;92.0;1.0;361.0;2.9347826086956523;0.028638597359956594;
169;169_a6d3aab47aacec97b6e6f78b676b73c9617e30d4-LOC.arff;778.0;39.0;1.1876606683804627;18.91216566266696;1.4958480065800137;108.5;1.0;388.0;2.585253456221198;0.032087579271709105;
16;16_dbc64c7dee79ac92f5348641b381c5c713563aa9-LOC.arff;27.0;11.0;1.0;2.7;0.890430761494171;4.4;1.0;4.4;4.4;0.0;
170;170_f48d07fef7d1a4058482cecdbfc9b4f8a1c06e01-LOC.arff;778.0;39.0;1.1876606683804627;18.91216566266696;1.4958480065800137;108.5;1.0;388.0;2.585253456221198;0.032087579271709105;
171;171_6cd2e4471401ed42c3f1be08a4843106e09ca903-LOC.arff;779.0;39.0;1.1874197689345314;18.909853215949145;1.4961025627438873;108.5;1.0;388.5;2.589861751152074;0.032015130393928025;
172;172_962526597fa01f5fbd7d61b9109cc9413ff5670f-LOC.arff;779.0;39.0;1.1874197689345314;18.909853215949145;1.4961025627438873;108.5;1.0;388.5;2.589861751152074;0.032015130393928025;
173;173_9fb462edcf9aef77e1e4205db3602bfa03ecf5b5-LOC.arff;779.0;39.0;1.1874197689345314;18.909853215949145;1.4961025627438873;108.5;1.0;388.5;2.589861751152074;0.032015130393928025;
174;174_eea80316a26c365d666d13698eabc8317cb611f0-LOC.arff;779.0;39.0;1.1874197689345314;18.909853215949145;1.4961025627438873;108.5;1.0;388.5;2.589861751152074;0.032015130393928025;
175;175_e6ad400738f994f6a90e4e94a591b0c86303ef6a-LOC.arff;779.0;39.0;1.1874197689345314;18.909853215949145;1.4961025627438873;108.5;1.0;388.5;2.589861751152074;0.032015130393928025;
176;176_8bed6f98df49e82a0edf1fd56d84e6a51298f703-LOC.arff;785.0;40.0;1.194904458598726;19.027727019702876;1.449967816436147;108.5;1.0;391.5;2.6175115207373274;0.03390446010593548;
177;177_8f06e725d5361c841621eb6b78bd496649bc1558-LOC.arff;785.0;40.0;1.194904458598726;19.027727019702876;1.449967816436147;108.5;1.0;391.5;2.6175115207373274;0.03390446010593548;
178;178_5d384282eb9568df7445e35730792219866531ac-LOC.arff;785.0;40.0;1.194904458598726;19.027727019702876;1.449967816436147;108.5;1.0;391.5;2.6175115207373274;0.03390446010593548;
179;179_80bcf4f0d755be589ea1d8270c986f94146e31fd-LOC.arff;785.0;40.0;1.194904458598726;19.027727019702876;1.449967816436147;108.5;1.0;391.5;2.6175115207373274;0.03390446010593548;
17;17_b2026851ef304444182724685a9d17f8db843990-LOC.arff;28.0;11.0;1.0;2.8;0.9091372900969897;4.6;1.0;4.6;4.6;0.0;
180;180_28a570920d28e96845d56f965ec5c2c7e8210a31-LOC.arff;785.0;40.0;1.194904458598726;19.027727019702876;1.449967816436147;108.5;1.0;391.5;2.6175115207373274;0.03390446010593548;
181;181_a33a0a1cb08fde9ffedec2489ffd38cbf5ed393a-LOC.arff;785.0;40.0;1.194904458598726;19.027727019702876;1.449967816436147;108.5;1.0;391.5;2.6175115207373274;0.03390446010593548;
182;182_066e93cf07f5d46f0372a1bd5b94cf4aa939fc84-LOC.arff;788.0;40.0;1.1941624365482233;19.004059835437864;1.4523592594163592;108.5;1.0;393.0;2.6313364055299537;0.033745477383748806;
183;183_977d52c127706523c267b528145d9183b7d2809c-LOC.arff;788.0;40.0;1.1941624365482233;19.004059835437864;1.4523592594163592;108.5;1.0;393.0;2.6313364055299537;0.033745477383748806;
184;184_f7ba6d32e7f27265811cb61b56fbaaad7dae6dd0-LOC.arff;800.0;40.0;1.1925;18.802346582215993;1.4703045097490068;108.5;1.0;399.0;2.686635944700461;0.03305853941561708;
185;185_8feae10665a7dc33a43728d00048453db470f078-LOC.arff;800.0;40.0;1.1925;18.802346582215993;1.4703045097490068;108.5;1.0;398.5;2.6820276497695854;0.03305853941561708;
186;186_f131502e24357933c03a6a3620af6e301a84ebe7-LOC.arff;800.0;40.0;1.20125;18.798461870436544;1.4707434185399595;108.5;1.0;399.0;2.686635944700461;0.03431970622553346;
187;187_6a5197e764eee00db1a8286e5411f11c081a58fb-LOC.arff;804.0;40.0;1.2176616915422886;18.564459607619206;1.4934525492452948;108.5;1.0;401.0;2.705069124423963;0.035213068059535634;
188;188_d41979868da073d4421d8980d6bc4c39db23f3d2-LOC.arff;806.0;40.0;1.2555831265508686;18.350502524024733;1.5161839378129918;108.5;1.0;402.0;2.7142857142857144;0.033201594814525406;
189;189_b031141e3e1c6f2b4310a3face75839b7b56b050-LOC.arff;809.0;40.0;1.2546353522867737;18.60353777945891;1.5162607710539329;110.0;1.0;403.5;2.6772727272727272;0.033302320185938684;
18;18_5bfce84b38946057d70bfce3700ee68c03609572-LOC.arff;29.0;11.0;1.0;2.416666666666667;0.82902174346009;3.8333333333333335;1.0;3.8333333333333335;3.8333333333333335;0.0;
190;190_a3cd83e06baf0cedccd1c5a553b60df23742773d-LOC.arff;809.0;40.0;1.2880098887515452;18.460397391121166;1.531825477120632;110.0;1.0;403.0;2.672727272727273;0.03222829702967121;
191;191_29b35c9ba28f9d15a6db00d1995796e7ba805bb0-LOC.arff;850.0;41.0;1.3070588235294118;17.75261414937481;1.5656256916890727;110.0;1.0;424.0;2.8636363636363638;0.033822963733638106;
192;192_26c03c9772633029e699bac680a8c66d0887d369-LOC.arff;866.0;41.0;1.302540415704388;18.512442954148664;1.5707783844384346;115.0;1.0;432.0;2.765217391304348;0.03422438623603957;
193;193_5afcb8a8079214815b195d80415a8f460b0be86a-LOC.arff;893.0;41.0;1.3482642777155656;18.689721781674454;1.595856546499448;117.5;1.0;445.5;2.8;0.031191098452894958;
194;194_31ada434bf4ed3b1cb7e29c9d9f43ec92b7610c0-LOC.arff;897.0;43.0;1.4481605351170568;17.863680718624845;1.6060219990323101;117.5;1.0;447.5;2.8170212765957445;0.03398562093940479;
195;195_2f0143ea314743bee3d73514b13d82248abb3d56-LOC.arff;902.0;43.0;1.4456762749445675;17.853457926487266;1.6072424800306881;117.5;1.0;450.0;2.8382978723404255;0.03365479807664051;
196;196_daf740fc48b8d785baa49eaf728d68eff645be38-LOC.arff;902.0;43.0;1.4456762749445675;17.853457926487266;1.6072424800306881;117.5;1.0;450.0;2.8382978723404255;0.03365479807664051;
197;197_5b6462d11ad4772d39bf053622fc219a157eec9c-LOC.arff;902.0;43.0;1.4567627494456763;17.763083442255024;1.6172298579837305;117.5;1.0;449.5;2.8340425531914892;0.03406940371337213;
198;198_327cd7259bc63031346417a44fd84b4d76ac281c-LOC.arff;902.0;43.0;1.4567627494456763;17.763083442255024;1.6172298579837305;117.5;1.0;450.0;2.8382978723404255;0.03406940371337213;
199;199_6738b372b43a779c9526218acc9a36a821208fa2-LOC.arff;915.0;43.0;1.4524590163934425;17.388498164167213;1.6533647528268611;117.5;1.0;456.5;2.893617021276596;0.03289373933594809;
19;19_3218b98f20b7897418d04d94f1bca2da4bea6616-LOC.arff;29.0;11.0;1.0;2.416666666666667;0.82902174346009;3.8333333333333335;1.0;3.8333333333333335;3.8333333333333335;0.0;
200;200_eb555b951c3d12f1d79cbffbd5897973e600ea5e-LOC.arff;915.0;43.0;1.4524590163934425;17.388498164167213;1.6533647528268611;117.5;1.0;456.5;2.893617021276596;0.03289373933594809;
201;201_112583761830054086c0b9d280a79d9ca129d0f3-LOC.arff;915.0;43.0;1.4524590163934425;17.388498164167213;1.6533647528268611;117.5;1.0;456.5;2.893617021276596;0.03289373933594809;
202;202_ffdf4ee7724c8eafdc4488687128a8ec05ac8567-LOC.arff;915.0;43.0;1.4524590163934425;17.388498164167213;1.6533647528268611;117.5;1.0;456.5;2.893617021276596;0.03289373933594809;
203;203_8588c74c8375e460633eb479af0d784ab764e449-LOC.arff;915.0;43.0;1.4524590163934425;17.388498164167213;1.6533647528268611;117.5;1.0;456.5;2.893617021276596;0.03289373933594809;
204;204_293051883ffd9e5bb5d03e1f98539ff9739d7d80-LOC.arff;915.0;43.0;1.4524590163934425;17.388498164167213;1.6533647528268611;117.5;1.0;456.5;2.893617021276596;0.03289373933594809;
205;205_54b52c2875ab0d61993de6b7625532a50c2e39b1-LOC.arff;929.0;43.0;1.518837459634015;17.068029304678074;1.6989498316814762;118.0;1.0;463.0;2.9322033898305087;0.031300165845087935;
206;206_d2fa85c92f9ab620af80798f14da4d7655b08a4c-LOC.arff;955.0;43.0;1.5047120418848168;17.024083544555843;1.7046287526932045;118.0;1.0;476.5;3.0466101694915255;0.028734981106503153;
207;207_f344a88fa9487458187bc3e322b71167ba9b61d5-LOC.arff;961.0;43.0;1.5036420395421437;17.010510413643466;1.7063835183641884;118.0;1.0;479.5;3.0720338983050848;0.02835935565397366;
208;208_378b94f1fdc56ac3b80ccd5a4bb67daebe3c533e-LOC.arff;961.0;44.0;1.5275754422476586;16.740524779706423;1.699310552424445;118.0;1.0;479.0;3.0677966101694913;0.032956370772535916;
209;209_48e751d933fbf9502c4a0f533d8457c2fcf91056-LOC.arff;961.0;44.0;1.5275754422476586;16.740524779706423;1.699310552424445;118.0;1.0;479.5;3.0720338983050848;0.032956370772535916;
20;20_88767a4497b845bfd011b9bc45988264ff114a90-LOC.arff;29.0;11.0;1.0;2.416666666666667;0.82902174346009;3.8333333333333335;1.0;3.8333333333333335;3.8333333333333335;0.0;
210;210_d02618d626a9a38d7fbedb059bbc2f2579d1509c-LOC.arff;963.0;44.0;1.5389408099688473;16.72610784941298;1.7012253321681905;118.0;1.0;480.5;3.080508474576271;0.03382268973143075;
211;211_95ea0aca442a43251d1fb111ef2bc5e6cd28a583-LOC.arff;963.0;44.0;1.5389408099688473;16.72610784941298;1.7012253321681905;118.0;1.0;480.5;3.080508474576271;0.03382268973143075;
212;212_aa4e0e03fdf71880e3870af9b5722ee1d21b9a83-LOC.arff;963.0;44.0;1.537902388369678;16.727006383583927;1.7011055816788188;118.0;1.0;480.5;3.080508474576271;0.033751186815762224;
213;213_dfc29e8759ca1cf4cc4ca9c24bc5e120b18bb777-LOC.arff;967.0;44.0;1.5367114788004137;16.689716101846372;1.7053150448933982;118.0;1.0;482.5;3.097457627118644;0.033449866097398535;
214;214_4206ee7b9d0b653a55b2ef288bfa583fa4a2998c-LOC.arff;970.0;44.0;1.5350515463917527;16.684611559669012;1.7059881346406656;118.0;1.0;484.0;3.110169491525424;0.033270365289588065;
215;215_279a55ba6f7b8921fda02d8eee657c76d5a568f3-LOC.arff;972.0;44.0;1.587448559670782;16.416674739666608;1.739625622626308;118.0;1.0;485.0;3.1186440677966103;0.030921688956030466;
216;216_f00d173cb413e034de28e68b4dec44ded193688d-LOC.arff;1024.0;44.0;1.5712890625;16.334262041253908;1.7508802251010722;118.0;1.0;511.0;3.3389830508474576;0.027141830649529294;
217;217_d8b137bdea59555a157eab1e6d7b299425a5260b-LOC.arff;1026.0;44.0;1.5701754385964912;16.333091406333274;1.7510435027547175;118.0;1.0;512.0;3.347457627118644;0.027135359024119433;
218;218_ac3a1f72c5855fc0d36b19c8e66e6d68a39cbd15-LOC.arff;1030.0;44.0;1.5679611650485437;16.53903969789057;1.751273374271055;119.5;1.0;514.0;3.309623430962343;0.02712936321822852;
219;219_2e38223968881c7e5dfd4bd3d652f2ccf838b825-LOC.arff;1037.0;44.0;1.562198649951784;16.53284363705204;1.752116588955265;119.5;1.0;517.5;3.3389121338912133;0.02687817908422843;
21;21_a55c668c5d08045067d982b2e1015cd2b93241ea-LOC.arff;29.0;11.0;1.0;2.416666666666667;0.82902174346009;3.8333333333333335;1.0;3.8333333333333335;3.8333333333333335;0.0;
220;220_7fb35d0deba8a34e2fbae152608d059641b6af8b-LOC.arff;1042.0;44.0;1.5595009596928984;16.50208430629271;1.7560822755984904;119.5;1.0;519.5;3.3556485355648538;0.026805961568183684;
221;221_c9e014b9dc1b37c1f064196c04bbaa0c168a0373-LOC.arff;1051.0;44.0;1.5642245480494767;16.55983719786386;1.7576369838499706;120.0;1.0;524.5;3.379166666666667;0.02712244999004942;
222;222_0085dd085a01486221274e38f0621ecda216f7e1-LOC.arff;1051.0;44.0;1.5642245480494767;16.55983719786386;1.7576369838499706;120.0;1.0;524.5;3.379166666666667;0.02712244999004942;
223;223_0d0fb5c617201c805dfa76feaaf03533bc284675-LOC.arff;1052.0;44.0;1.5627376425855513;16.630724413809784;1.7573853117356186;120.5;1.0;524.5;3.3651452282157677;0.02725368476638362;
224;224_a08b5d3dc11fecb611c3a8c63aa307734a2f189c-LOC.arff;1052.0;44.0;1.5636882129277567;16.628090534028363;1.757735070475596;120.5;1.0;525.0;3.3651452282157677;0.027220614652731602;
225;225_52184e7d7bb4f36a9580f7d831a4b57243740e07-LOC.arff;1058.0;44.0;1.5623818525519848;16.60492603523858;1.760735012711396;120.5;1.0;528.0;3.3900414937759336;0.02726561865898885;
226;226_691a336ec5b5b50957b124c57294bd229475330b-LOC.arff;1059.0;44.0;1.5618508026440037;16.603400718782883;1.76094119146585;120.5;1.0;528.5;3.3941908713692945;0.027282158220609868;
227;227_29f7dfca9c7e7caba6388867790ab19e07329526-LOC.arff;1059.0;44.0;1.5618508026440037;16.603400718782883;1.76094119146585;120.5;1.0;528.5;3.3941908713692945;0.027282158220609868;
228;228_9a189ef82abd288d8e4cd72fe7a54e7c0701f6b2-LOC.arff;1061.0;44.0;1.5805843543826579;16.50710746060222;1.7730274107308972;120.5;1.0;529.5;3.4024896265560165;0.026518903335786905;
229;229_810533b23a8a3795a4e12e31b4fc034ad6cb7264-LOC.arff;1061.0;44.0;1.5805843543826579;16.50710746060222;1.7730274107308972;120.5;1.0;529.5;3.4024896265560165;0.026518903335786905;
22;22_2f61cc1a34aa9f88929105d9941d3c2175a7a17b-LOC.arff;29.0;15.0;1.0;2.416666666666667;0.82902174346009;3.8333333333333335;1.0;3.8333333333333335;3.8333333333333335;0.0;
230;230_bda5da747ed28caba5026e2a3f9a998639804822-LOC.arff;1061.0;44.0;1.5805843543826579;16.50710746060222;1.7730274107308972;120.5;1.0;529.5;3.4024896265560165;0.026518903335786905;
231;231_ff4e01412c82f6647081202f4158672ba2001cce-LOC.arff;1061.0;44.0;1.5805843543826579;16.50710746060222;1.7730274107308972;120.5;1.0;529.5;3.4024896265560165;0.026518903335786905;
232;232_c865416bc59aa403dc02cc4d2310c2835df5cadb-LOC.arff;1061.0;44.0;1.5805843543826579;16.50710746060222;1.7730274107308972;120.5;1.0;529.5;3.4024896265560165;0.026518903335786905;
233;233_279b5e11edf4a13096bb3eb0b42d2b65412eb752-LOC.arff;1063.0;44.0;1.5794920037629352;16.504017717012474;1.77344898779605;120.5;1.0;530.5;3.4107883817427385;0.026391177513344445;
234;234_95ca9a1c1af6c621330b2e213409c36aaccc2190-LOC.arff;1064.0;44.0;1.5789473684210527;16.50253006269149;1.7736522002542126;120.5;1.0;531.0;3.4149377593360994;0.02632921900028296;
235;235_b58828b570e88addafb90aec7ad5555e6583f361-LOC.arff;1064.0;44.0;1.5789473684210527;16.50253006269149;1.7736522002542126;120.5;1.0;531.0;3.4149377593360994;0.02632921900028296;
236;236_9193ed480ab626a7091ebe53a2cff7ec9daee6ad-LOC.arff;1066.0;44.0;1.577861163227017;16.49966229532573;1.7740443588038042;120.5;1.0;532.0;3.4232365145228214;0.026287058172704995;
237;237_0420121214e1bbbc7ffe08033bc5edcd7bd370ee-LOC.arff;1066.0;44.0;1.575984990619137;16.514545946296337;1.7721918126811882;120.5;1.0;532.0;3.4232365145228214;0.02643132861657283;
238;238_5bd9ba2c137f3d577e9f07bb41e8d1795c76ebef-LOC.arff;1066.0;44.0;1.575984990619137;16.514545946296337;1.7721918126811882;120.5;1.0;532.0;3.4232365145228214;0.02643132861657283;
239;239_95d5ba6940853fb2f73e579081c148e0fc0f8b42-LOC.arff;1066.0;44.0;1.575984990619137;16.514545946296337;1.7721918126811882;120.5;1.0;532.0;3.4232365145228214;0.02643132861657283;
23;23_f1681837f8ca0ae43f7513496490c7ee81754123-LOC.arff;29.0;15.0;1.0;2.416666666666667;0.82902174346009;3.8333333333333335;1.0;3.8333333333333335;3.8333333333333335;0.0;
240;240_18cd5d4d3a676c23329d2436879554f9c1336a0b-LOC.arff;1066.0;44.0;1.575984990619137;16.514545946296337;1.7721918126811882;120.5;1.0;532.0;3.4232365145228214;0.02643132861657283;
241;241_4329388540ad8fefcada2ffe011f40cfcb65fa3e-LOC.arff;1082.0;44.0;1.5683918669131238;16.477922185107587;1.7770255682543228;120.5;1.0;540.0;3.4896265560165975;0.026613856412970982;
242;242_50933e0a4ad2a55b5289ea1eef2e244298a24b04-LOC.arff;1082.0;44.0;1.5683918669131238;16.477922185107587;1.7770255682543228;120.5;1.0;540.0;3.4896265560165975;0.026613856412970982;
243;243_ea03157948cba1d95b09e78b49049da18891dee6-LOC.arff;1082.0;44.0;1.5683918669131238;16.477922185107587;1.7770255682543228;120.5;1.0;540.0;3.4896265560165975;0.026613856412970982;
244;244_9f84e773ba45ecd657f6d0a9c2da16b534042bc5-LOC.arff;1082.0;44.0;1.5683918669131238;16.477922185107587;1.7770255682543228;120.5;1.0;540.0;3.4896265560165975;0.026613856412970982;
245;245_fd0b7cce12c304aa1830e37cd5dfa3a789f8a50e-LOC.arff;1082.0;44.0;1.5683918669131238;16.477922185107587;1.7770255682543228;120.5;1.0;540.0;3.4896265560165975;0.026613856412970982;
246;246_d9deb7cab1de4d29f4df5e046541d5dbc00bc262-LOC.arff;1142.0;44.0;1.5612959719789843;16.54851377535378;1.7859732597044986;121.5;1.0;569.5;3.6954732510288064;0.02634842925496502;
247;247_053d5e7e9e0950ec6a5b377d60276b0ff33a9898-LOC.arff;1165.0;44.0;1.5502145922746782;16.529660680396788;1.7885848286033044;121.5;1.0;581.0;3.7901234567901234;0.026664789353563596;
248;248_e843ce964ba41b08ef363d1007136ccf43f3d775-LOC.arff;1170.0;44.0;1.5538461538461539;16.373757704240525;1.807459359565338;121.5;1.0;584.0;3.814814814814815;0.027149331841407127;
249;249_1d8e68ace74e03457012a81b2ea744813048855c-LOC.arff;1172.0;44.0;1.552901023890785;16.370935404588955;1.8078525369450265;121.5;1.0;585.0;3.8230452674897117;0.027035968389907183;
24;24_7fa68760b86a68bcd9684a065b9ac19cd5f421a6-LOC.arff;29.0;15.0;1.0;2.416666666666667;0.82902174346009;3.8333333333333335;1.0;3.8333333333333335;3.8333333333333335;0.0;
250;250_2f07e6912c521f1c57db707812128ead0fd51420-LOC.arff;1172.0;44.0;1.552901023890785;16.370935404588955;1.8078525369450265;121.5;1.0;585.0;3.8230452674897117;0.027035968389907183;
251;251_2e9c173a3c4cd3153aaf4798c5b433cb85232129-LOC.arff;1172.0;44.0;1.552901023890785;16.370935404588955;1.8078525369450265;121.5;1.0;585.0;3.8230452674897117;0.027035968389907183;
252;252_241a3ccf2ef6911a391053e48a0d07dca81463b6-LOC.arff;1172.0;44.0;1.5597269624573378;16.367567421220976;1.8083315040421999;121.5;1.0;585.0;3.8230452674897117;0.027260526952869638;
253;253_36ff8e52e227aa94c2bb30758131e27cd242a573-LOC.arff;1172.0;44.0;1.5597269624573378;16.367567421220976;1.8083315040421999;121.5;1.0;585.0;3.8230452674897117;0.027260526952869638;
254;254_881954db2044e960e4b332647f441e0026496855-LOC.arff;1202.0;44.0;1.5881863560732112;16.18466479387529;1.832459625989371;121.5;1.0;600.0;3.9465020576131686;0.026001744710117097;
255;255_42c929b4a881468cde3242668b524cf77636b505-LOC.arff;1202.0;44.0;1.5881863560732112;16.18466479387529;1.832459625989371;121.5;1.0;600.0;3.9465020576131686;0.026001744710117097;
256;256_d00383f993356eeb45c057716355f170ed75965e-LOC.arff;1202.0;44.0;1.5881863560732112;16.18466479387529;1.832459625989371;121.5;1.0;600.0;3.9465020576131686;0.026001744710117097;
257;257_6884dd91207106edb4c0d96e88dda9ffaccacd97-LOC.arff;1202.0;45.0;1.5881863560732112;16.18466479387529;1.832459625989371;121.5;1.0;600.0;3.9465020576131686;0.026001744710117097;
258;258_1aa654f9da31f80b5e0a42a60fbb010d6a208241-LOC.arff;1204.0;45.0;1.5872093023255813;16.18209608351588;1.832825158310473;121.5;1.0;601.0;3.954732510288066;0.02586044395574771;
259;259_115229b528e5da53cb7dc982acd579ea518ac5c8-LOC.arff;1205.0;45.0;1.6066390041493777;16.179268231291477;1.8333163814496545;121.5;1.0;601.5;3.9588477366255144;0.026501929520422424;
25;25_ff05a0428366fda1870c6cbabe19d53de243de83-LOC.arff;29.0;15.0;1.0;2.416666666666667;0.82902174346009;3.8333333333333335;1.0;3.8333333333333335;3.8333333333333335;0.0;
260;260_2ebda98af2aaed937042fc41b8be24c8e0884435-LOC.arff;1219.0;45.0;1.6513535684987695;16.04565419703438;1.8518942571340835;121.5;1.0;608.5;4.016460905349795;0.02413415300722684;
261;261_09c11338295d77ffb2cc56e8ad7acc2fc6eefbd1-LOC.arff;1255.0;46.0;1.6645418326693227;15.634825457989772;1.8762852384121362;122.0;1.0;626.0;4.14344262295082;0.023428263497914863;
262;262_37243d18d11b70ebde6aa972c91448e07e7826d7-LOC.arff;1255.0;46.0;1.6637450199203188;15.636109263103947;1.8760939808149597;122.0;1.0;626.5;4.14344262295082;0.023491872961229905;
263;263_c142b689b16abeeffb3e6f0a36a7e87c93c78c74-LOC.arff;1255.0;46.0;1.6637450199203188;15.636109263103947;1.8760939808149597;122.0;1.0;626.5;4.14344262295082;0.023491872961229905;
264;264_7d9aac070b26d5dc98d068ad037af92f446eac6d-LOC.arff;1255.0;46.0;1.6637450199203188;15.636109263103947;1.8760939808149597;122.0;1.0;626.5;4.14344262295082;0.023491872961229905;
265;265_f3dbd24518771423bcf0983d5e312ee5c55ab836-LOC.arff;1255.0;46.0;1.6637450199203188;15.636109263103947;1.8760939808149597;122.0;1.0;626.5;4.14344262295082;0.023491872961229905;
266;266_f4f636e328b2226881207b73f7f87c1eff2297ad-LOC.arff;1255.0;46.0;1.6637450199203188;15.636109263103947;1.8760939808149597;122.0;1.0;626.5;4.14344262295082;0.023491872961229905;
267;267_3c5524eb88a76941f8669dc15d87c8d39e7fd513-LOC.arff;1255.0;46.0;1.6637450199203188;15.636109263103947;1.8760939808149597;122.0;1.0;626.5;4.14344262295082;0.023491872961229905;
268;268_4de66587d9d0d7a2adb4a6c0814f11cb10469924-LOC.arff;1255.0;46.0;1.6637450199203188;15.636109263103947;1.8760939808149597;122.0;1.0;626.5;4.14344262295082;0.023491872961229905;
269;269_fb0cce12e77d3cba4d8f4d0009dda72813ee7164-LOC.arff;1257.0;46.0;1.6626889419252189;15.633842447793654;1.876432588097299;122.0;1.0;627.0;4.147540983606557;0.02337478534678099;
26;26_9b3d7c5b22bbf94e06cd3fbbd0fe45343c80d825-LOC.arff;29.0;16.0;1.0;2.416666666666667;0.82902174346009;3.8333333333333335;1.0;3.8333333333333335;3.8333333333333335;0.0;
270;270_5937a99d9c71d8f56bdcd8463ff3b51777b00ed0-LOC.arff;1257.0;46.0;1.6626889419252189;15.633842447793654;1.876432588097299;122.0;1.0;627.5;4.151639344262295;0.02337478534678099;
271;271_03f2ea38e1c2d926fa361b29f3b494fc46ee47d7-LOC.arff;1257.0;46.0;1.6626889419252189;15.633842447793654;1.876432588097299;122.0;1.0;627.5;4.151639344262295;0.02337478534678099;
272;272_c2c2f4743aac058a3df193a44fe38b8d8de2d61a-LOC.arff;1257.0;46.0;1.6626889419252189;15.633842447793654;1.876432588097299;122.0;1.0;627.5;4.151639344262295;0.02337478534678099;
273;273_985aabf21fbb4d0687e32a1acd835d0e4e55abef-LOC.arff;1257.0;46.0;1.6626889419252189;15.633842447793654;1.876432588097299;122.0;1.0;627.5;4.151639344262295;0.02337478534678099;
274;274_6076994f747be7317f6fd062a5aaf2263c466994-LOC.arff;1257.0;46.0;1.6626889419252189;15.633842447793654;1.876432588097299;122.0;1.0;627.5;4.151639344262295;0.02337478534678099;
275;275_0f66a29f1bb831e3f1059e557f1b80f4d7ef2f24-LOC.arff;1788.0;46.0;1.5128635346756152;8.759416120072522;1.8868028114964053;75.25;1.0;446.0;4.940199335548173;0.018978649299344258;
276;276_d648c007e292dd8ea3d0cfd0910bc258d81248bd-LOC.arff;1788.0;46.0;1.5128635346756152;8.759416120072522;1.8868028114964053;75.25;1.0;446.0;4.940199335548173;0.018978649299344258;
277;277_83679972a479522c527bddf5ed95cbc382f74060-LOC.arff;1788.0;46.0;1.5128635346756152;8.759416120072522;1.8868028114964053;75.25;1.0;446.0;4.940199335548173;0.018978649299344258;
278;278_c749194698cd1f3076dfc6e38e9ef8b1f1f8cc65-LOC.arff;1788.0;46.0;1.5128635346756152;8.759416120072522;1.8868028114964053;75.25;1.0;446.0;4.940199335548173;0.018978649299344258;
279;279_8a2412fbad5e152c242493abf5cf847eb8a24f8d-LOC.arff;1788.0;46.0;1.5128635346756152;8.759416120072522;1.8868028114964053;75.25;1.0;446.0;4.940199335548173;0.018978649299344258;
27;27_915aa3a0fe1aa5483dbe482fc810f5ab23d94fc1-LOC.arff;29.0;16.0;1.0;2.416666666666667;0.82902174346009;3.8333333333333335;1.0;3.8333333333333335;3.8333333333333335;0.0;
280;280_94b52cdaa442f1f7fd55bcde0cdd5cbc0bac77db-LOC.arff;1788.0;46.0;1.5128635346756152;8.759416120072522;1.8868028114964053;75.25;1.0;446.0;4.940199335548173;0.018978649299344258;
281;281_fd894bfb040a7f784d6f46c3502666d631b33ce6-LOC.arff;1788.0;46.0;1.5128635346756152;8.759416120072522;1.8868028114964053;75.25;1.0;446.0;4.940199335548173;0.018978649299344258;
282;282_f5a93cc0e281e55eecddd4091498b3fc27298bf3-LOC.arff;1788.0;46.0;1.5128635346756152;8.759416120072522;1.8868028114964053;75.25;1.0;446.0;4.940199335548173;0.018978649299344258;
283;283_4b3e6c1064dee35a0cd978bb0de59275bb4838b4-LOC.arff;1788.0;46.0;1.5128635346756152;8.759416120072522;1.8868028114964053;75.25;1.0;445.75;4.93687707641196;0.018978649299344258;
284;284_d255be86de0bfd43a845c11bd3db3c2a7b11f607-LOC.arff;1788.0;46.0;1.5128635346756152;8.759416120072522;1.8868028114964053;75.25;1.0;446.0;4.940199335548173;0.018978649299344258;
285;285_5d4ba8ac2356d5dd5b7a6140363a6e5198a1e221-LOC.arff;1788.0;46.0;1.5128635346756152;8.759416120072522;1.8868028114964053;75.25;1.0;446.0;4.940199335548173;0.018978649299344258;
286;286_d07b97fb8bc07c47a3738fdf936b84c97510f82e-LOC.arff;1788.0;46.0;1.5128635346756152;8.759416120072522;1.8868028114964053;75.25;1.0;446.0;4.940199335548173;0.018978649299344258;
287;287_1bda80fa7409d6c0369990c313d38e858e10823e-LOC.arff;1788.0;46.0;1.5128635346756152;8.759416120072522;1.8868028114964053;75.25;1.0;445.75;4.93687707641196;0.018978649299344258;
288;288_8232701e4a2570c020e27e59d40863278a8fd414-LOC.arff;1788.0;46.0;1.5128635346756152;8.759416120072522;1.8868028114964053;75.25;1.0;446.0;4.940199335548173;0.018978649299344258;
289;289_a020e6483a65d2c771559282e902bbe2d7b08c91-LOC.arff;1788.0;46.0;1.5128635346756152;8.759416120072522;1.8868028114964053;75.25;1.0;446.0;4.940199335548173;0.018978649299344258;
28;28_103600db3443b0ead497c0eddcd2fcb4c5aee08d-LOC.arff;29.0;16.0;1.0;2.416666666666667;0.82902174346009;3.8333333333333335;1.0;3.8333333333333335;3.8333333333333335;0.0;
290;290_23a71f2a8008a2c91972ed5448140c86d0467993-LOC.arff;1788.0;46.0;1.5128635346756152;8.759416120072522;1.8868028114964053;75.25;1.0;446.0;4.940199335548173;0.018978649299344258;
291;291_e66f5cc74a71627bb6c5ee2eb0ace8246c458c47-LOC.arff;1788.0;46.0;1.5128635346756152;8.759416120072522;1.8868028114964053;75.25;1.0;446.0;4.940199335548173;0.018978649299344258;
292;292_63d3a026a6c584f5161ce072480a597c7333623c-LOC.arff;1788.0;46.0;1.5128635346756152;8.759416120072522;1.8868028114964053;75.25;1.0;446.0;4.940199335548173;0.018978649299344258;
293;293_774de765273a50d9d993adcf4cc6952fd8981c4c-LOC.arff;1788.0;46.0;1.5128635346756152;8.759416120072522;1.8868028114964053;75.25;1.0;446.0;4.940199335548173;0.018978649299344258;
294;294_e14b8c3a7ec2792c95c5e9dd599a71c3fccc8bc0-LOC.arff;1788.0;46.0;1.5128635346756152;8.759416120072522;1.8868028114964053;75.25;1.0;445.75;4.93687707641196;0.018978649299344258;
295;295_d12da1f3af0281680ee7930609348de89a25fc8a-LOC.arff;1788.0;46.0;1.5128635346756152;8.759416120072522;1.8868028114964053;75.25;1.0;446.0;4.940199335548173;0.018978649299344258;
296;296_b9bb03a497904dd910d0e8f59c857e8ea4b55863-LOC.arff;1788.0;46.0;1.5128635346756152;8.759416120072522;1.8868028114964053;75.25;1.0;446.0;4.940199335548173;0.018978649299344258;
297;297_ee86bb0e684367a5a85f9051ad50e188e581534f-LOC.arff;1788.0;47.0;1.5128635346756152;8.759416120072522;1.8868028114964053;75.25;1.0;446.0;4.940199335548173;0.018978649299344258;
298;298_3eeddd0579514e940d459439367cdac3208a275b-LOC.arff;1788.0;47.0;1.5128635346756152;8.759416120072522;1.8868028114964053;75.25;1.0;446.0;4.940199335548173;0.018978649299344258;
299;299_7e8a2e8a8ee56853b171aa4b0c52dab097c46e0b-LOC.arff;1788.0;47.0;1.5128635346756152;8.759416120072522;1.8868028114964053;75.25;1.0;446.0;4.940199335548173;0.018978649299344258;
29;29_c4f1be007225b7a92af919024abc8a0459463463-LOC.arff;31.0;18.0;1.0;5.4444444444444455;0.9977588380342558;11.5;1.0;14.5;2.875;0.0;
300;300_57a66d42839a4b3402b252cbfae822affa638287-LOC.arff;1788.0;47.0;1.5128635346756152;8.759416120072522;1.8868028114964053;75.25;1.0;446.0;4.940199335548173;0.018978649299344258;
301;301_abbd8101a593c732885f7d0b191d1815be3c6699-LOC.arff;1788.0;47.0;1.5128635346756152;8.759416120072522;1.8868028114964053;75.25;1.0;446.0;4.940199335548173;0.018978649299344258;
302;302_fffbc01e3cd22afb97a497c2792adbf963f7fe21-LOC.arff;1788.0;47.0;1.5128635346756152;8.759416120072522;1.8868028114964053;75.25;1.0;446.0;4.940199335548173;0.018978649299344258;
303;303_ab9a81582ff0c7a6004c7babb0b240aa93bcff8c-LOC.arff;1788.0;47.0;1.5128635346756152;8.759416120072522;1.8868028114964053;75.25;1.0;446.0;4.940199335548173;0.018978649299344258;
304;304_9d8c2cf03d6acf81d8da81e576d198896b32854e-LOC.arff;1789.0;47.0;1.5131358300726663;19.579769353330125;2.989360990941967;301.0;1.0;1788.0;4.943521594684386;0.019381165992672655;
305;305_d46bbabb15f13bde17c2619604e04b708cc14148-LOC.arff;1789.0;47.0;1.5131358300726663;19.579769353330125;2.989360990941967;301.0;1.0;1788.0;4.943521594684386;0.019381165992672655;
306;306_b144151c8a0113a337552e1d4312f2b3182bfd2d-LOC.arff;1789.0;47.0;1.5131358300726663;19.579769353330125;2.989360990941967;301.0;1.0;1788.0;4.943521594684386;0.019381165992672655;
307;307_681194cf5802d19970c0bc45abd2abbda9e89c13-LOC.arff;1789.0;47.0;1.5131358300726663;19.579769353330125;2.989360990941967;301.0;1.0;1788.0;4.943521594684386;0.019381165992672655;
308;308_ae7d06171617de2fb6eed8db1233a6eba6dbddbc-LOC.arff;1789.0;47.0;1.5131358300726663;19.579769353330125;2.989360990941967;301.0;1.0;1787.0;4.940199335548173;0.019381165992672655;
309;309_5a257044880b946d387114562c27341a77247634-LOC.arff;1789.0;47.0;1.5131358300726663;19.579769353330125;2.989360990941967;301.0;1.0;1788.0;4.943521594684386;0.019381165992672655;
30;30_7b9ebe726b279042d1ae95e9d36ee56357e03b73-LOC.arff;31.0;18.0;1.0;5.4444444444444455;0.9977588380342558;11.5;1.0;14.5;2.875;0.0;
310;310_c0b45d167dca0436f884502397389d418cdaffdf-LOC.arff;1789.0;47.0;1.5131358300726663;19.579769353330125;2.989360990941967;301.0;1.0;1788.0;4.943521594684386;0.019381165992672655;
311;311_c6fee2c9e504e502eb903e6c0a8f006ac82c7ffa-LOC.arff;1789.0;47.0;1.5131358300726663;19.579769353330125;2.989360990941967;301.0;1.0;1788.0;4.943521594684386;0.019381165992672655;
312;312_00315b8c1ef1c96d8ce567b9850cda18852f09f6-LOC.arff;1789.0;47.0;1.5131358300726663;19.579769353330125;2.989360990941967;301.0;1.0;1788.0;4.943521594684386;0.019381165992672655;
313;313_2da5d26fe4bcd035c0abeeb910e282793de09d33-LOC.arff;1790.0;47.0;1.5134078212290503;14.002437491953845;2.2661045253050336;150.5;1.0;894.0;4.946843853820598;0.0196747288459368;
314;314_ad644f1dd6c37dfc712203172b8b6553faca740f-LOC.arff;1790.0;47.0;1.5134078212290503;14.002437491953845;2.2661045253050336;150.5;1.0;894.0;4.946843853820598;0.0196747288459368;
315;315_e56a13456f1e21576a56bec9f1de884d506b0d84-LOC.arff;1790.0;47.0;1.5134078212290503;14.002437491953845;2.2661045253050336;150.5;1.0;894.0;4.946843853820598;0.0196747288459368;
316;316_387970253ff423e36eef1561f899da89fe882f15-LOC.arff;1790.0;47.0;1.5134078212290503;14.002437491953845;2.2661045253050336;150.5;1.0;894.0;4.946843853820598;0.0196747288459368;
317;317_5ac7a54583acc6086851f4d6ba448a7ef61ff3ac-LOC.arff;1790.0;47.0;1.5134078212290503;14.002437491953845;2.2661045253050336;150.5;1.0;894.0;4.946843853820598;0.0196747288459368;
318;318_8d6da9b7d6a838331420b87838e6a1a9e38f2297-LOC.arff;1790.0;47.0;1.5134078212290503;14.002437491953845;2.2661045253050336;150.5;1.0;894.0;4.946843853820598;0.0196747288459368;
319;319_c23bf62122fecd9a3d16de4e3b812ad1b68163f6-LOC.arff;1790.0;47.0;1.5134078212290503;14.002437491953845;2.2661045253050336;150.5;1.0;894.0;4.946843853820598;0.0196747288459368;
31;31_b9532fc25f3850863c38917bf9dc4f57216244e5-LOC.arff;31.0;18.0;1.0;5.4444444444444455;0.9977588380342558;11.5;1.0;14.5;2.875;0.0;
320;320_b8a7e61727ddb43c9d2971865cc51e227b8eaa5f-LOC.arff;1790.0;47.0;1.5134078212290503;14.002437491953845;2.2661045253050336;150.5;1.0;894.0;4.946843853820598;0.0196747288459368;
321;321_5a5d9572e6039747cae6abaf3ee83db95c54a395-LOC.arff;1790.0;47.0;1.5134078212290503;14.002437491953845;2.2661045253050336;150.5;1.0;894.0;4.946843853820598;0.0196747288459368;
322;322_7755fc682f0ba7a4b7ece8890589da39f78b0ea8-LOC.arff;1790.0;47.0;1.5134078212290503;14.002437491953845;2.2661045253050336;150.5;1.0;894.0;4.946843853820598;0.0196747288459368;
323;323_4b38d9945e49264ba4857eb1555d197b90e16fff-LOC.arff;1790.0;47.0;1.5134078212290503;14.002437491953845;2.2661045253050336;150.5;1.0;894.0;4.946843853820598;0.0196747288459368;
324;324_0d5263aeb5d36fe4947674ab8ea88909ba4cf884-LOC.arff;1790.0;47.0;1.5134078212290503;14.002437491953845;2.2661045253050336;150.5;1.0;893.5;4.943521594684386;0.0196747288459368;
325;325_ebe362786c48d8550da80df28284662f83af0645-LOC.arff;1790.0;47.0;1.5134078212290503;14.002437491953845;2.2661045253050336;150.5;1.0;894.0;4.946843853820598;0.0196747288459368;
326;326_51e3559801821da32736d1426ca0d11e084efa63-LOC.arff;1790.0;47.0;1.5134078212290503;14.002437491953845;2.2661045253050336;150.5;1.0;894.0;4.946843853820598;0.0196747288459368;
327;327_0c643bdeb542962e2de44d7473c9f18b49679273-LOC.arff;1790.0;47.0;1.5134078212290503;14.002437491953845;2.2661045253050336;150.5;1.0;894.0;4.946843853820598;0.0196747288459368;
328;328_61e0e94ffedd5230a7d3e0dab7019b25d07564a8-LOC.arff;1790.0;47.0;1.5134078212290503;14.002437491953845;2.2661045253050336;150.5;1.0;894.0;4.946843853820598;0.0196747288459368;
329;329_32feb1b1fa6e047b61a75dc225f5aad30da30aa6-LOC.arff;1790.0;47.0;1.5134078212290503;14.002437491953845;2.2661045253050336;150.5;1.0;894.0;4.946843853820598;0.0196747288459368;
32;32_f765f2e82380000b5b2734ee8fabfc9f63470105-LOC.arff;38.0;19.0;1.2105263157894737;4.678571428571429;1.078508265550609;12.0;1.0;18.0;1.7142857142857142;0.007420467813591601;
330;330_19a7fcfa345012ade015c858c2fb7d2469626d00-LOC.arff;1790.0;47.0;1.5134078212290503;14.002437491953845;2.2661045253050336;150.5;1.0;894.0;4.946843853820598;0.0196747288459368;
331;331_4f897107b525410fc3985062f79200eff131124d-LOC.arff;1790.0;47.0;1.5134078212290503;14.002437491953845;2.2661045253050336;150.5;1.0;894.0;4.946843853820598;0.0196747288459368;
332;332_464303dbab4348b60f929dfa12b6c6668d11c72b-LOC.arff;1790.0;47.0;1.5134078212290503;14.002437491953845;2.2661045253050336;150.5;1.0;894.0;4.946843853820598;0.0196747288459368;
333;333_b4bb85e79cfc97324318a920ac40b36c47f9e5c5-LOC.arff;1790.0;47.0;1.5134078212290503;14.002437491953845;2.2661045253050336;150.5;1.0;894.0;4.946843853820598;0.0196747288459368;
334;334_f430bfde6df6e6ad195aaa4c27d0842adf484257-LOC.arff;1790.0;47.0;1.5134078212290503;14.002437491953845;2.2661045253050336;150.5;1.0;894.0;4.946843853820598;0.0196747288459368;
335;335_60e1c31e6cdfddf1394fda19e9d209fb8d7ec79b-LOC.arff;1790.0;47.0;1.5134078212290503;14.002437491953845;2.2661045253050336;150.5;1.0;894.0;4.946843853820598;0.0196747288459368;
336;336_3b1f74ca917f2d598fe327302b582ef78be0e861-LOC.arff;1790.0;47.0;1.5134078212290503;14.002437491953845;2.2661045253050336;150.5;1.0;894.0;4.946843853820598;0.0196747288459368;
337;337_b50998b7cfb91108bb5b46dce964623b7051c18a-LOC.arff;1790.0;47.0;1.5134078212290503;14.002437491953845;2.2661045253050336;150.5;1.0;894.0;4.946843853820598;0.0196747288459368;
338;338_acf7e05b4da2b620ae5adfc2f83bd3fc887f49a6-LOC.arff;1790.0;47.0;1.5134078212290503;14.002437491953845;2.2661045253050336;150.5;1.0;894.0;4.946843853820598;0.0196747288459368;
339;339_f9b7fe165b63204be6365b07b3bddd7c49029f8b-LOC.arff;1790.0;47.0;1.5134078212290503;14.002437491953845;2.2661045253050336;150.5;1.0;894.0;4.946843853820598;0.0196747288459368;
33;33_2aef930f42487f6842898a0fbd775e039519a73d-LOC.arff;38.0;20.0;1.236842105263158;4.65;1.0900065288149836;12.0;1.0;18.0;1.5333333333333334;0.006392721121332682;
340;340_503dc36843fd0f5eb965a059c30c5def029c67c1-LOC.arff;1790.0;47.0;1.5134078212290503;14.002437491953845;2.2661045253050336;150.5;1.0;894.0;4.946843853820598;0.0196747288459368;
341;341_59758195d8fd35cc5bdf88bf6d589eac2b62f508-LOC.arff;1790.0;47.0;1.5134078212290503;14.002437491953845;2.2661045253050336;150.5;1.0;894.0;4.946843853820598;0.0196747288459368;
342;342_eca71bccec32c920387160b7882c9b6ebf4ecbef-LOC.arff;1790.0;47.0;1.5134078212290503;14.002437491953845;2.2661045253050336;150.5;1.0;894.0;4.946843853820598;0.0196747288459368;
343;343_461ad2773b99e4570c589ceabde39f406af719dd-LOC.arff;1790.0;47.0;1.5134078212290503;14.002437491953845;2.2661045253050336;150.5;1.0;894.0;4.946843853820598;0.0196747288459368;
344;344_c192d424f798cc38e46f77990bfd7f3aef13aecc-LOC.arff;1790.0;47.0;1.5134078212290503;14.002437491953845;2.2661045253050336;150.5;1.0;894.0;4.946843853820598;0.0196747288459368;
345;345_e15b3431d416281e04fc1b74f2e3fb8a398f6b6f-LOC.arff;1790.0;47.0;1.5134078212290503;14.002437491953845;2.2661045253050336;150.5;1.0;894.0;4.946843853820598;0.0196747288459368;
346;346_e6225a171d523bed6c6006aa70d5002d3ef1d08e-LOC.arff;1790.0;47.0;1.5134078212290503;14.002437491953845;2.2661045253050336;150.5;1.0;894.0;4.946843853820598;0.0196747288459368;
347;347_516ba13ee7a5d50731bce613303dc5d83db9c9f1-LOC.arff;1790.0;47.0;1.5134078212290503;14.002437491953845;2.2661045253050336;150.5;1.0;894.0;4.946843853820598;0.0196747288459368;
348;348_b897a297fa46d1a26c1dd1fd997b1d881d8d0087-LOC.arff;1790.0;47.0;1.5134078212290503;14.002437491953845;2.2661045253050336;150.5;1.0;894.0;4.946843853820598;0.0196747288459368;
349;349_c8b7d43e36f39ceb3a7476ebc4b5121ca15d41ff-LOC.arff;1790.0;47.0;1.5134078212290503;14.002437491953845;2.2661045253050336;150.5;1.0;894.0;4.946843853820598;0.0196747288459368;
34;34_0df97c31bcbaf9d250b13bca3497a9178530591f-LOC.arff;38.0;20.0;1.236842105263158;4.65;1.0900065288149836;12.0;1.0;18.0;1.5333333333333334;0.006392721121332682;
350;350_5e48a52a2f746619e0066bf8f62d96c0dcd5430d-LOC.arff;1790.0;47.0;1.5134078212290503;14.002437491953845;2.2661045253050336;150.5;1.0;894.0;4.946843853820598;0.0196747288459368;
351;351_efef4a28affcff31ee30605c3172f32072174e9c-LOC.arff;1790.0;47.0;1.5134078212290503;14.002437491953845;2.2661045253050336;150.5;1.0;894.0;4.946843853820598;0.0196747288459368;
352;352_221ab5e1341d3821b54e19d1907270d8237e32c8-LOC.arff;1790.0;47.0;1.5134078212290503;14.002437491953845;2.2661045253050336;150.5;1.0;894.0;4.946843853820598;0.0196747288459368;
353;353_e24a447a33bd5e72f200efe67fe51a00a111ac55-LOC.arff;1790.0;47.0;1.5134078212290503;14.002437491953845;2.2661045253050336;150.5;1.0;894.0;4.946843853820598;0.0196747288459368;
354;354_cd4818df7efea07c89fe7cee6fbc95e0fe1901ad-LOC.arff;1790.0;47.0;1.5134078212290503;14.002437491953845;2.2661045253050336;150.5;1.0;894.0;4.946843853820598;0.0196747288459368;
355;355_22fd07919bfcf12d6a8aea7498179de220cf25bb-LOC.arff;1790.0;47.0;1.5134078212290503;14.002437491953845;2.2661045253050336;150.5;1.0;894.0;4.946843853820598;0.0196747288459368;
356;356_f48855eca3ecc0527103d8b26dd49730a75e37a2-LOC.arff;1790.0;47.0;1.5134078212290503;14.002437491953845;2.2661045253050336;150.5;1.0;894.0;4.946843853820598;0.0196747288459368;
357;357_9b67e3c76126bcd97f1b7fc16ae386a76fef7e59-LOC.arff;1790.0;47.0;1.5134078212290503;14.002437491953845;2.2661045253050336;150.5;1.0;894.0;4.946843853820598;0.0196747288459368;
358;358_f6fa6737a06ef6ad0ac686ed5cc66c4e86d9a4e3-LOC.arff;1790.0;47.0;1.5134078212290503;14.002437491953845;2.2661045253050336;150.5;1.0;894.0;4.946843853820598;0.0196747288459368;
359;359_e86519447b70de57e5c13b29bebb5b79d31e8039-LOC.arff;1790.0;47.0;1.5134078212290503;14.002437491953845;2.2661045253050336;150.5;1.0;894.0;4.946843853820598;0.0196747288459368;
35;35_297f20ae47d741124af438fb8b27f26e51c94697-LOC.arff;38.0;20.0;1.236842105263158;4.65;1.0900065288149836;12.0;1.0;18.0;1.5333333333333334;0.006392721121332682;
360;360_ee6290fc7c646c08cb8ca3fc4857c4343ce6c72e-LOC.arff;1790.0;47.0;1.5134078212290503;14.002437491953845;2.2661045253050336;150.5;1.0;894.0;4.946843853820598;0.0196747288459368;
361;361_90f879438a17ccffb488c29a340ca2b01c9d47b8-LOC.arff;1790.0;47.0;1.5134078212290503;14.002437491953845;2.2661045253050336;150.5;1.0;894.0;4.946843853820598;0.0196747288459368;
362;362_c4c2438ba7db0f9b128e49e8f0fa506e385834d6-LOC.arff;1790.0;47.0;1.5134078212290503;14.002437491953845;2.2661045253050336;150.5;1.0;894.0;4.946843853820598;0.0196747288459368;
363;363_65890ad4a74aa3d67a40422005486960c40b9e0b-LOC.arff;1790.0;47.0;1.5134078212290503;14.002437491953845;2.2661045253050336;150.5;1.0;894.0;4.946843853820598;0.0196747288459368;
364;364_e97d02a135b61047c72c79caaf66f139b53151f6-LOC.arff;1790.0;47.0;1.5134078212290503;14.002437491953845;2.2661045253050336;150.5;1.0;894.0;4.946843853820598;0.0196747288459368;
365;365_7c355bcc8f7bc0b6eab7a5cee5e506c804123158-LOC.arff;1790.0;47.0;1.5134078212290503;14.002437491953845;2.2661045253050336;150.5;1.0;894.0;4.946843853820598;0.0196747288459368;
366;366_eec88c539b060fb6a0834e41898e7a7a680152fa-LOC.arff;1790.0;47.0;1.5134078212290503;14.002437491953845;2.2661045253050336;150.5;1.0;894.0;4.946843853820598;0.0196747288459368;
367;367_a72e3d2c0dd66db40d58165d23c7ae945c59d0aa-LOC.arff;1790.0;47.0;1.5134078212290503;14.002437491953845;2.2661045253050336;150.5;1.0;894.0;4.946843853820598;0.0196747288459368;
368;368_3f9bb9a62eda0033a67bfe55a4d37402b9278df6-LOC.arff;1790.0;47.0;1.5134078212290503;14.002437491953845;2.2661045253050336;150.5;1.0;894.0;4.946843853820598;0.0196747288459368;
369;369_91f17afb250371f1749e74f065abb770886bf5ce-LOC.arff;1790.0;47.0;1.5134078212290503;14.002437491953845;2.2661045253050336;150.5;1.0;894.0;4.946843853820598;0.0196747288459368;
36;36_49208e89a5a73fd9b6c4a5225b0e9557d37bfbcd-LOC.arff;38.0;22.0;1.236842105263158;4.65;1.0900065288149836;12.0;1.0;18.0;1.5333333333333334;0.006392721121332682;
370;370_b5484102e43cfaac1ce94f5f018b53871cff668d-LOC.arff;1790.0;47.0;1.5134078212290503;14.002437491953845;2.2661045253050336;150.5;1.0;894.0;4.946843853820598;0.0196747288459368;
371;371_297a4e30cb8c51a08b113bbcc0bbae462b135e41-LOC.arff;1790.0;47.0;1.5134078212290503;14.002437491953845;2.2661045253050336;150.5;1.0;894.0;4.946843853820598;0.0196747288459368;
372;372_fd223d43e8e61424111bc13d5a7b9372ad83a0a1-LOC.arff;1790.0;47.0;1.5134078212290503;14.002437491953845;2.2661045253050336;150.5;1.0;894.0;4.946843853820598;0.0196747288459368;
373;373_375784e7b5c4044a992c692d476f015a745b0245-LOC.arff;1790.0;49.0;1.5189944134078213;15.638115798839271;2.0682495902399687;150.5;1.0;894.0;4.946843853820598;0.021415284533493676;
374;374_ba91b37650f74c58ffb9f76977d043db5108b52f-LOC.arff;1790.0;49.0;1.5189944134078213;15.638115798839271;2.0682495902399687;150.5;1.0;894.0;4.946843853820598;0.021415284533493676;
375;375_a57a2b3477d0a4df8de4f2ce078d6f2129368c2d-LOC.arff;1790.0;49.0;1.5189944134078213;15.638115798839271;2.0682495902399687;150.5;1.0;894.0;4.946843853820598;0.021415284533493676;
376;376_502b341468f4f176e61f1a9479f3f0772018e9e7-LOC.arff;1790.0;49.0;1.5189944134078213;15.638115798839271;2.0682495902399687;150.5;1.0;894.0;4.946843853820598;0.021415284533493676;
377;377_c951cd3516936bb7e84c43cdf202a0ffd87184c6-LOC.arff;1790.0;49.0;1.5189944134078213;15.638115798839271;2.0682495902399687;150.5;1.0;894.0;4.946843853820598;0.021415284533493676;
378;378_7b4f24b78c47b040b18b438f2a262ac7ac71fd78-LOC.arff;1790.0;49.0;1.5189944134078213;15.638115798839271;2.0682495902399687;150.5;1.0;894.0;4.946843853820598;0.021415284533493676;
379;379_9b9f10bdc9989a7dd5d073ccc38f317e4b873fdd-LOC.arff;1790.0;49.0;1.5189944134078213;15.638115798839271;2.0682495902399687;150.5;1.0;894.0;4.946843853820598;0.021415284533493676;
37;37_3fa71c05e2b9e72abd0b7e1c5c222d66e48c22c4-LOC.arff;38.0;22.0;1.236842105263158;4.65;1.0900065288149836;12.0;1.0;18.0;1.5333333333333334;0.006392721121332682;
380;380_1f5ec7d5ce0820d97bb392e4a3cd554ff8665244-LOC.arff;1790.0;49.0;1.5189944134078213;15.638115798839271;2.0682495902399687;150.5;1.0;894.0;4.946843853820598;0.021415284533493676;
381;381_625675d735a00fd2b136443dcc0fb91498e1aaff-LOC.arff;1790.0;49.0;1.5189944134078213;15.638115798839271;2.0682495902399687;150.5;1.0;894.0;4.946843853820598;0.021415284533493676;
382;382_97137cd577946c7de3088bbf4f673812ee74c2f4-LOC.arff;1790.0;49.0;1.5189944134078213;15.638115798839271;2.0682495902399687;150.5;1.0;894.0;4.946843853820598;0.021415284533493676;
383;383_4f883c4f8e2440a61faefe79347973fd92c96963-LOC.arff;1790.0;49.0;1.5189944134078213;15.638115798839271;2.0682495902399687;150.5;1.0;894.0;4.946843853820598;0.021415284533493676;
384;384_aa94205383ff820408f8a00c37bd204d97f87717-LOC.arff;1790.0;49.0;1.5189944134078213;15.638115798839271;2.0682495902399687;150.5;1.0;894.0;4.946843853820598;0.021415284533493676;
385;385_deb240245f593944cca8df3aff2c7ce0a8c988ef-LOC.arff;1790.0;49.0;1.5189944134078213;15.638115798839271;2.0682495902399687;150.5;1.0;894.0;4.946843853820598;0.021415284533493676;
386;386_82b7b0b2aa6b8f2fad27f863a278d48c736877b1-LOC.arff;1790.0;49.0;1.5189944134078213;15.638115798839271;2.0682495902399687;150.5;1.0;894.0;4.946843853820598;0.021415284533493676;
387;387_b00962abeb2b5c31352a66561be6c2aa5bdf5761-LOC.arff;1790.0;49.0;1.5189944134078213;15.638115798839271;2.0682495902399687;150.5;1.0;894.0;4.946843853820598;0.021415284533493676;
388;388_47597971c5be958964931eb255970ce85ad874b5-LOC.arff;1790.0;49.0;1.5189944134078213;15.638115798839271;2.0682495902399687;150.5;1.0;894.0;4.946843853820598;0.021415284533493676;
389;389_f59d33b38c3211a89fa48c9583136dfc7330eecb-LOC.arff;1790.0;49.0;1.5189944134078213;15.638115798839271;2.0682495902399687;150.5;1.0;894.0;4.946843853820598;0.021415284533493676;
38;38_6e53d5f3cd53c9ee555ed2845e447cafccf9575b-LOC.arff;38.0;22.0;1.236842105263158;4.65;1.0900065288149836;12.0;1.0;18.0;1.5333333333333334;0.006392721121332682;
390;390_80838b71c282dfad386e4dfe49ee28db5640a1bc-LOC.arff;1799.0;49.0;1.5214007782101167;14.235264465669017;2.190423550929757;150.5;1.0;898.5;4.976744186046512;0.02203823751373304;
391;391_aba1eacc25cf79d236eb6e7dee46b0df2f19fdfd-LOC.arff;1802.0;49.0;1.5221975582685905;17.19855093160767;2.0085652451194536;150.5;1.0;900.0;4.98671096345515;0.02313016334280716;
392;392_74feb2854e731273d254f668724dff95fe4ebdb5-LOC.arff;1802.0;49.0;1.5221975582685905;17.19855093160767;2.0085652451194536;150.5;1.0;900.0;4.98671096345515;0.02313016334280716;
393;393_1dd4f428067b67c344c585bce8ada70277bee208-LOC.arff;1802.0;49.0;1.5221975582685905;17.19855093160767;2.0085652451194536;150.5;1.0;900.0;4.98671096345515;0.02313016334280716;
394;394_d346784cb6205037c355a73aaedad64505834e53-LOC.arff;1802.0;49.0;1.5221975582685905;17.19855093160767;2.0085652451194536;150.5;1.0;900.0;4.98671096345515;0.02313016334280716;
395;395_157a46bd3a4f6ab6340216910dd741256b7421f7-LOC.arff;1802.0;49.0;1.5221975582685905;17.19855093160767;2.0085652451194536;150.5;1.0;900.0;4.98671096345515;0.02313016334280716;
396;396_0b966d29fdef50343b06a40b35684cbd31675826-LOC.arff;1802.0;49.0;1.5221975582685905;17.19855093160767;2.0085652451194536;150.5;1.0;900.0;4.98671096345515;0.02313016334280716;
397;397_cdd1403adeb4392be3d6e5e619cfdd5c9f85f8ab-LOC.arff;1802.0;49.0;1.5221975582685905;17.19855093160767;2.0085652451194536;150.5;1.0;900.0;4.98671096345515;0.02313016334280716;
398;398_0309336c10dc582e165907603f7e8eadfd3ed341-LOC.arff;1802.0;49.0;1.5221975582685905;17.19855093160767;2.0085652451194536;150.5;1.0;900.0;4.98671096345515;0.02313016334280716;
399;399_73591c55b243f20d6fc9807fa851125c6dd0abb4-LOC.arff;1802.0;49.0;1.5221975582685905;17.19855093160767;2.0085652451194536;150.5;1.0;900.0;4.98671096345515;0.02313016334280716;
39;39_b3079f0a9a06f8d0796377dfd9e9235cf6660713-LOC.arff;40.0;22.0;1.225;4.602941176470588;1.1095112676869432;12.0;1.0;19.0;1.3529411764705883;0.003303550133515398;
400;400_c6633679a77c64233dc3943a96047ef6386c12b7-LOC.arff;1802.0;49.0;1.5221975582685905;17.19855093160767;2.0085652451194536;150.5;1.0;900.0;4.98671096345515;0.02313016334280716;
401;401_7cd374cac70f21d065313a800cc9c5202cbdb02b-LOC.arff;1802.0;49.0;1.5221975582685905;17.19855093160767;2.0085652451194536;150.5;1.0;900.0;4.98671096345515;0.02313016334280716;
402;402_44f82a670784d63a06e0ab7bfdde66ef7230dd45-LOC.arff;1802.0;49.0;1.5221975582685905;17.19855093160767;2.0085652451194536;150.5;1.0;900.0;4.98671096345515;0.02313016334280716;
403;403_9fbc0c23c2e22f2ce367704b9c690fb26f89dad5-LOC.arff;1802.0;49.0;1.5221975582685905;17.19855093160767;2.0085652451194536;150.5;1.0;900.0;4.98671096345515;0.02313016334280716;
404;404_6c4e2a030c2d0461d1e4f4022217e2b87f1778ac-LOC.arff;1802.0;49.0;1.5221975582685905;17.19855093160767;2.0085652451194536;150.5;1.0;900.0;4.98671096345515;0.02313016334280716;
405;405_c9c8c1db2b05ac29475b5ed94c4aeae36eb82cdb-LOC.arff;1802.0;49.0;1.5221975582685905;17.19855093160767;2.0085652451194536;150.5;1.0;900.0;4.98671096345515;0.02313016334280716;
406;406_5f2687252532ee160b25fae38415a06393dd5820-LOC.arff;1802.0;49.0;1.5221975582685905;17.19855093160767;2.0085652451194536;150.5;1.0;900.0;4.98671096345515;0.02313016334280716;
407;407_d86f0aae2bd61c382d984bc1c3db719162ebd8b7-LOC.arff;1802.0;49.0;1.5221975582685905;17.19855093160767;2.0085652451194536;150.5;1.0;900.0;4.98671096345515;0.02313016334280716;
408;408_60ab9786d70e5bf4934227a24476ed38cd93e76c-LOC.arff;1826.0;49.0;1.5284775465498357;13.992527452119344;2.1872988422296165;150.5;1.0;912.0;5.0664451827242525;0.02548601128758074;
409;409_7dc24ea94d0dccf9ca0a7ec56ac059373ba20170-LOC.arff;1826.0;49.0;1.5284775465498357;13.992527452119344;2.1872988422296165;150.5;1.0;912.0;5.0664451827242525;0.02548601128758074;
40;40_937278c363429bcf9c3eaff18b0bac61d0349276-LOC.arff;40.0;23.0;1.225;4.602941176470588;1.1095112676869432;12.0;1.0;19.0;1.3529411764705883;0.003303550133515398;
410;410_45f9cbe17336a1e0cadac8f2544350a9bac95f26-LOC.arff;1826.0;49.0;1.5284775465498357;13.992527452119344;2.1872988422296165;150.5;1.0;912.0;5.0664451827242525;0.02548601128758074;
411;411_2e70c3c6eed78725cbb4e78c3b3385310dea6677-LOC.arff;1826.0;49.0;1.5284775465498357;13.992527452119344;2.1872988422296165;150.5;1.0;912.0;5.0664451827242525;0.02548601128758074;
412;412_fccda2e96e8e7c130dcba6c2d39913ccb547b742-LOC.arff;1826.0;49.0;1.5284775465498357;13.992527452119344;2.1872988422296165;150.5;1.0;912.0;5.0664451827242525;0.02548601128758074;
413;413_e9cf38b1eb4bf8a956434c70a0b1dd0709e97069-LOC.arff;1826.0;49.0;1.5284775465498357;13.992527452119344;2.1872988422296165;150.5;1.0;912.0;5.0664451827242525;0.02548601128758074;
414;414_facbabd58341130e3df83a4da22afa5ecb44f0e5-LOC.arff;1826.0;49.0;1.5284775465498357;13.992527452119344;2.1872988422296165;150.5;1.0;912.0;5.0664451827242525;0.02548601128758074;
415;415_91c10f54c4cd2f118435a4ea8f5ae0d4b5c57206-LOC.arff;1826.0;49.0;1.5284775465498357;13.992527452119344;2.1872988422296165;150.5;1.0;912.0;5.0664451827242525;0.02548601128758074;
416;416_cd8a1bb2ac6e733d358887ba36bcae34319137c0-LOC.arff;1826.0;49.0;1.5284775465498357;13.992527452119344;2.1872988422296165;150.5;1.0;912.0;5.0664451827242525;0.02548601128758074;
417;417_a8cef00c9d7e4cee2e2c4878d7fcf9ea897a402d-LOC.arff;1826.0;49.0;1.5284775465498357;13.992527452119344;2.1872988422296165;150.5;1.0;912.0;5.0664451827242525;0.02548601128758074;
418;418_682b55bc376256773a18e45943a3a721acddfc42-LOC.arff;1826.0;49.0;1.5284775465498357;13.992527452119344;2.1872988422296165;150.5;1.0;912.0;5.0664451827242525;0.02548601128758074;
419;419_315b51bcc0f0d783683e7cd8b1140f883b0e529c-LOC.arff;1826.0;49.0;1.5284775465498357;13.992527452119344;2.1872988422296165;150.5;1.0;912.0;5.0664451827242525;0.02548601128758074;
41;41_e83307d615005a9cdec7d811950b918f7b22e1cd-LOC.arff;62.0;23.0;1.1774193548387097;6.560344827586206;1.2143198389804755;18.0;1.0;30.0;1.1379310344827587;0.0010318226943536995;
420;420_a51698078bb83421d0eca4bc52d80a33650e1cd9-LOC.arff;1826.0;49.0;1.5284775465498357;13.992527452119344;2.1872988422296165;150.5;1.0;912.0;5.0664451827242525;0.02548601128758074;
421;421_ee79d9d58569ae8272a4930927cb4640eb751f34-LOC.arff;1826.0;49.0;1.5284775465498357;13.992527452119344;2.1872988422296165;150.5;1.0;912.0;5.0664451827242525;0.02548601128758074;
422;422_2f575d0e1d3b7ae00128de55c2ede1428bcdc57b-LOC.arff;1826.0;49.0;1.5284775465498357;13.992527452119344;2.1872988422296165;150.5;1.0;912.0;5.0664451827242525;0.02548601128758074;
423;423_300dc20136f153caf47190d5b30f5589b2c9ed7c-LOC.arff;1826.0;49.0;1.5284775465498357;13.992527452119344;2.1872988422296165;150.5;1.0;912.0;5.0664451827242525;0.02548601128758074;
424;424_9f831e51af51ef2e7c37ff7b4affef9ccf2a3ada-LOC.arff;1826.0;49.0;1.5284775465498357;13.992527452119344;2.1872988422296165;150.5;1.0;912.0;5.0664451827242525;0.02548601128758074;
425;425_6dc6d60a63bd81b9da9a88e15ffd2c2f04d4a900-LOC.arff;1826.0;49.0;1.5284775465498357;13.992527452119344;2.1872988422296165;150.5;1.0;912.0;5.0664451827242525;0.02548601128758074;
426;426_20084743fafc19d55407f2c269e59e440a26fd2d-LOC.arff;1826.0;49.0;1.5284775465498357;13.992527452119344;2.1872988422296165;150.5;1.0;912.0;5.0664451827242525;0.02548601128758074;
427;427_867a15708e7c4a3e241b5b78f13251fc8af2d4c8-LOC.arff;1829.0;50.0;1.5276107162383816;16.870554314826474;2.0126486382809143;150.5;1.0;913.5;5.076411960132891;0.025444208097934625;
428;428_4497194fc0a9990576423b34a06d472feda54816-LOC.arff;1829.0;50.0;1.5276107162383816;16.870554314826474;2.0126486382809143;150.5;1.0;913.5;5.076411960132891;0.025444208097934625;
429;429_67510f726f53ab0c259d2dd3b19a24e2df5f1db4-LOC.arff;1829.0;50.0;1.5276107162383816;16.870554314826474;2.0126486382809143;150.5;1.0;913.5;5.076411960132891;0.025444208097934625;
42;42_53c918c0dcec8a7145d647471acc4d0b954f054d-LOC.arff;81.0;23.0;1.1358024691358024;9.890804597701148;1.243158146012795;27.5;1.0;39.5;1.793103448275862;0.006669029379850449;
430;430_a8169c71c0bd23906ab53f02c2cf4028e6c7d5c0-LOC.arff;1832.0;50.0;1.5267467248908297;15.198332092604256;2.025892624713746;150.5;1.0;915.0;5.086378737541528;0.02540254181829827;
431;431_53d6f403146575bd75ef4435d8f487551fb3f612-LOC.arff;1832.0;50.0;1.5267467248908297;15.198332092604256;2.025892624713746;150.5;1.0;915.0;5.086378737541528;0.02540254181829827;
432;432_9aa08a610a99ccc7caa216e19a097620932ed9f8-LOC.arff;1832.0;50.0;1.5267467248908297;15.198332092604256;2.025892624713746;150.5;1.0;915.0;5.086378737541528;0.02540254181829827;
433;433_5148dfc3b5524dc9f062311c4df9aed3f9d04509-LOC.arff;1832.0;50.0;1.5267467248908297;15.198332092604256;2.025892624713746;150.5;1.0;915.0;5.086378737541528;0.02540254181829827;
434;434_512d4e3914ef6fcd1274bfcc633e330c015b26bc-LOC.arff;1832.0;50.0;1.5267467248908297;15.198332092604256;2.025892624713746;150.5;1.0;915.0;5.086378737541528;0.02540254181829827;
435;435_91d14a62cbbdd2cc59c0bfcd006217b1afff2214-LOC.arff;1832.0;50.0;1.5267467248908297;15.198332092604256;2.025892624713746;150.5;1.0;915.0;5.086378737541528;0.02540254181829827;
436;436_c1e0cfda8f1f406d5e814cb77510026691c2076c-LOC.arff;1832.0;50.0;1.5267467248908297;15.198332092604256;2.025892624713746;150.5;1.0;915.0;5.086378737541528;0.02540254181829827;
437;437_a577e5d6c12c6065c085092ceac97d2becccba22-LOC.arff;1832.0;50.0;1.5267467248908297;15.198332092604256;2.025892624713746;150.5;1.0;915.0;5.086378737541528;0.02540254181829827;
438;438_7040b48b20c7be975e08d9e7d3151c59496a80e0-LOC.arff;1853.0;50.0;1.5256341068537507;15.157941551772536;2.0323051867431663;150.5;1.0;925.0;5.152823920265781;0.024409567981358248;
439;439_a01ee578bf057333dd86952743c05cd5d2063c65-LOC.arff;1871.0;50.0;1.5205772314270443;15.13140234539673;2.0365331872020906;150.5;1.0;934.5;5.21594684385382;0.02394581342686427;
43;43_a6e7f03206a767db7e8847b107dc02453fdfb9b4-LOC.arff;81.0;23.0;1.1358024691358024;9.890804597701148;1.243158146012795;27.5;1.0;39.5;1.793103448275862;0.006669029379850449;
440;440_2dac3cbe3ea66097e60695a93f94aaf1f25d8090-LOC.arff;1871.0;50.0;1.5205772314270443;15.13140234539673;2.0365331872020906;150.5;1.0;934.5;5.21594684385382;0.02394581342686427;
441;441_fc5bcec2a95685d229657b3a45209169816f949f-LOC.arff;1871.0;50.0;1.5205772314270443;15.13140234539673;2.0365331872020906;150.5;1.0;934.5;5.21594684385382;0.02394581342686427;
442;442_4b762cea7df0b1cc67e781386ab2c5134aeb46a9-LOC.arff;1953.0;50.0;1.4987199180747568;15.082453581171476;2.0444191814722843;150.5;1.0;975.5;5.488372093023256;0.022783896788615855;
443;443_901c903f3ac9d949233a8bd1239a72d133b7256e-LOC.arff;1955.0;50.0;1.4982097186700767;14.66439802561592;2.0747584470781657;150.5;1.0;976.5;5.495016611295681;0.022760588454305248;
444;444_a1ef0518725f5723fb8614c30ede1e47795af02c-LOC.arff;1955.0;50.0;1.4982097186700767;14.66439802561592;2.0747584470781657;150.5;1.0;976.5;5.495016611295681;0.022760588454305248;
445;445_7282c1cbe9da220dafe6719ff46c041e937ccc34-LOC.arff;1955.0;50.0;1.4982097186700767;14.66439802561592;2.0747584470781657;150.5;1.0;976.5;5.495016611295681;0.022760588454305248;
446;446_2aedefcaeaaf162591a335dc2e2f36167fa1f5e0-LOC.arff;1961.0;50.0;1.496685364609893;14.12689802561592;2.1339877403010363;150.5;1.0;976.0;5.4916943521594686;0.02269094871400651;
447;447_9901b599fac011ebeab338e2950185b512029878-LOC.arff;1961.0;50.0;1.496685364609893;14.12689802561592;2.1339877403010363;150.5;1.0;979.0;5.511627906976744;0.02269094871400651;
448;448_cc2be45da50bbe11387c8751bb6fc10c0ca2ef98-LOC.arff;1963.0;50.0;1.4961793173713704;14.037314692282587;2.146275823615442;150.5;1.0;979.5;5.514950166112957;0.022667830070385513;
449;449_484e65be2ae9197a0ad6267d31527d477e7ce452-LOC.arff;1971.0;50.0;1.4941653982749874;13.82828691450481;2.17781331815337;150.5;1.0;984.5;5.548172757475083;0.02257582467182484;
44;44_c06cb78a37de1ccdc027749a68d4a0174c54dbe9-LOC.arff;81.0;23.0;1.1358024691358024;9.890804597701148;1.243158146012795;27.5;1.0;39.5;1.793103448275862;0.006669029379850449;
450;450_9739b66b1c626fc89434f43c90fbc9c1ef380af7-LOC.arff;2080.0;50.0;1.4682692307692307;15.316126392781408;2.204693390017965;168.5;1.0;1039.0;5.172106824925816;0.022630724241507666;
451;451_0da82ea34cadb535df6673aa1e4b91ac31c2ec80-LOC.arff;2080.0;50.0;1.4682692307692307;15.316126392781408;2.204693390017965;168.5;1.0;1039.0;5.172106824925816;0.022630724241507666;
452;452_3c935dde4edc1d77fe34f105e54d5a49cb7730ec-LOC.arff;2081.0;50.0;1.4680442095146564;15.297404170559187;2.2074496381827005;168.5;1.0;1039.5;5.175074183976261;0.02261984931395288;
453;453_3a01760c80febbd6e450519c1bf0e4fdb271af2f-LOC.arff;2081.0;50.0;1.4680442095146564;15.297404170559187;2.2074496381827005;168.5;1.0;1039.5;5.175074183976261;0.02261984931395288;
454;454_be31bf6c560aaac0a35d7f4f382936b3239fda79-LOC.arff;2081.0;50.0;1.4680442095146564;15.297404170559187;2.2074496381827005;168.5;1.0;1039.5;5.175074183976261;0.02261984931395288;
455;455_bd050161b1dfd3c55491c5a2be555bb3cddaa695-LOC.arff;2081.0;50.0;1.4680442095146564;15.297404170559187;2.2074496381827005;168.5;1.0;1039.5;5.175074183976261;0.02261984931395288;
456;456_02104652dec186c472f9997b4f12d91ed51f5ac2-LOC.arff;2122.0;50.0;1.4604147031102734;16.202330422003918;2.215015759917169;179.0;1.0;1060.0;4.927374301675978;0.02301876191643947;
457;457_0775084efea892a7e80e4f85c0c8c8628970e579-LOC.arff;2123.0;50.0;1.460197833254828;16.183971447644943;2.2175987104751287;179.0;1.0;1060.5;4.930167597765363;0.023007919353125086;
458;458_b139d7b4fd70b28345ee1b52fb495983507112b5-LOC.arff;2124.0;50.0;1.4599811676082863;16.16697239731256;2.2200110978976477;179.0;1.0;1061.0;4.932960893854749;0.02299708699938068;
459;459_84d74e78b5fb540b10d51b855febf117cd9d898d-LOC.arff;2146.0;50.0;1.4552656104380242;16.120149219394257;2.2273923672749194;179.0;1.0;1072.0;4.994413407821229;0.022486742480950124;
45;45_c8db001457ad46d07f21002f2395095041810a80-LOC.arff;85.0;26.0;1.1294117647058823;15.760536398467432;0.8355173370406987;27.5;1.0;41.5;1.8333333333333333;0.006355192703151604;
460;460_c45dad5d500070223da30a2c01951afa4bd8c14b-LOC.arff;2273.0;50.0;1.4298284205895293;21.826924687354413;2.2288370465952094;242.5;1.0;1135.5;3.6865979381443297;0.024649105022348686;
461;461_35a90d531df1c7b28ed8390ab61dd2aba9a91514-LOC.arff;2273.0;50.0;1.4298284205895293;21.826924687354413;2.2288370465952094;242.5;1.0;1135.5;3.6865979381443297;0.024649105022348686;
462;462_248ae98668bfcafd44b65e2fbca35e9d8ba77aa5-LOC.arff;2273.0;50.0;1.4298284205895293;21.826924687354413;2.2288370465952094;242.5;1.0;1135.5;3.6865979381443297;0.024649105022348686;
463;463_a43ba3d3e7fc470480d454f313a446ad11f2663f-LOC.arff;2273.0;50.0;1.4518257809062913;21.363565208668845;2.2793800149779244;242.5;1.0;1135.5;3.6865979381443297;0.025067092956924344;
464;464_c84233b13de8667c0086562fbb8a762bda1c9450-LOC.arff;2347.0;50.0;1.4456753302087773;13.450407313932006;1.8651437086430167;121.25;1.0;585.75;3.839175257731959;0.023525422784456754;
465;465_1ccada0eeef1e1585377577a86f7423f9177791d-LOC.arff;2406.0;50.0;1.4393183707398172;13.375524467686903;1.877727700440985;121.25;1.0;600.5;3.9608247422680414;0.0236694011119619;
466;466_675c3d9bf43aa66198dbe8441d3b1a8b13daa495-LOC.arff;2444.0;51.0;1.4378068739770868;13.491078336018239;1.831497876816599;121.25;1.0;609.5;4.0350515463917525;0.025111583819301665;
467;467_de8536fdabadcdd4286efd4b7ccfedc99c6f0e85-LOC.arff;2444.0;51.0;1.4378068739770868;13.491078336018239;1.831497876816599;121.25;1.0;610.0;4.039175257731959;0.025111583819301665;
468;468_5a15ca5d5d757ab85ddda1463d1252000c59c222-LOC.arff;2444.0;51.0;1.4378068739770868;13.491078336018239;1.831497876816599;121.25;1.0;610.0;4.039175257731959;0.025111583819301665;
469;469_9aadc5fa2d86a0b8e1a2baf3838b19a228861cf5-LOC.arff;2444.0;51.0;1.4378068739770868;13.491078336018239;1.831497876816599;121.25;1.0;610.0;4.039175257731959;0.025111583819301665;
46;46_80b9f906d53f0f45cd7cc91565164137324ec7d8-LOC.arff;90.0;26.0;1.1222222222222222;14.163793103448274;0.7744894750146575;27.5;1.0;44.0;1.5714285714285714;0.006002126441865404;
470;470_d7c4977d693a51f83ddd085c093ce15c75b6430e-LOC.arff;2444.0;51.0;1.4378068739770868;13.491078336018239;1.831497876816599;121.25;1.0;610.0;4.039175257731959;0.025111583819301665;
471;471_05a014d6be66825548d47aa3959b8f7dd6522864-LOC.arff;2445.0;51.0;1.4376278118609407;13.470383678226808;1.8340442326136484;121.25;1.0;610.25;4.041237113402062;0.025101313232872503;
472;472_e5a36b08180e5a8845e7dec7c032dd6ed0a3a793-LOC.arff;2463.0;51.0;1.43605359317905;13.431255123579142;1.8403925469831914;121.25;1.0;614.75;4.078350515463917;0.02415226603968902;
473;473_05b811173c71c3d13296d4d8173272bb562b65bb-LOC.arff;2463.0;52.0;1.43605359317905;13.431255123579142;1.8403925469831914;121.25;1.0;614.75;4.078350515463917;0.02415226603968902;
474;474_5e2615026cdb7de162b88829bc2b64d9e7478df4-LOC.arff;2463.0;52.0;1.43605359317905;13.431255123579142;1.8403925469831914;121.25;1.0;614.75;4.078350515463917;0.02415226603968902;
475;475_570c9b190d77406bcb53495b1f64cfae59d22d05-LOC.arff;2463.0;52.0;1.43605359317905;13.431255123579142;1.8403925469831914;121.25;1.0;614.75;4.078350515463917;0.02415226603968902;
476;476_be3623c7f5b5ee56fd081e71f5a35941a0d983e3-LOC.arff;2463.0;52.0;1.43605359317905;13.431255123579142;1.8403925469831914;121.25;1.0;614.75;4.078350515463917;0.02415226603968902;
477;477_4310b5f025b5bab2d97689ac6f0ebb42907469a9-LOC.arff;2463.0;52.0;1.43605359317905;13.431255123579142;1.8403925469831914;121.25;1.0;614.75;4.078350515463917;0.02415226603968902;
478;478_a63063135b91d51292ccc8cc3fbf07ffe25c7052-LOC.arff;2463.0;52.0;1.43605359317905;13.431255123579142;1.8403925469831914;121.25;1.0;614.75;4.078350515463917;0.02415226603968902;
479;479_996e3b68d213a2e444a17a85d9ab2a019b093aa7-LOC.arff;2463.0;52.0;1.43605359317905;13.431255123579142;1.8403925469831914;121.25;1.0;614.25;4.074226804123711;0.02415226603968902;
47;47_74a6e73ea07a8feb65781624ff92878bb6790970-LOC.arff;91.0;26.0;1.120879120879121;14.41871921182266;0.774881298004483;28.0;1.0;44.5;1.6;0.006260448105645163;
480;480_a6971bd502d689c7470be47a2236274f6c4d692d-LOC.arff;2463.0;52.0;1.43605359317905;13.431255123579142;1.8403925469831914;121.25;1.0;614.75;4.078350515463917;0.02415226603968902;
481;481_94ccfc16fa79e7409c37d76ea120c28286450189-LOC.arff;2468.0;52.0;1.4351701782820097;13.423020828163182;1.8417381963004713;121.25;1.0;615.5;4.0845360824742265;0.02409898049985074;
482;482_9415630c39f920e9b83978143a71cabac0b5ea5b-LOC.arff;2469.0;52.0;1.4349939246658565;13.421471802292851;1.8419922278526801;121.25;1.0;616.25;4.090721649484536;0.02408865194646004;
483;483_709050a8d4ae165251e7204ca87e7eff5afcc374-LOC.arff;2469.0;52.0;1.4349939246658565;13.421471802292851;1.8419922278526801;121.25;1.0;616.25;4.090721649484536;0.02408865194646004;
484;484_cfbd4706b7b2d45db96f1e153e1eb3e7138cf65e-LOC.arff;2469.0;52.0;1.4349939246658565;13.421471802292851;1.8419922278526801;121.25;1.0;616.25;4.090721649484536;0.02408865194646004;
485;485_8193a46312307882bc05ca1f10bb8a933fd70c1a-LOC.arff;2469.0;52.0;1.4349939246658565;13.421471802292851;1.8419922278526801;121.25;1.0;616.25;4.090721649484536;0.02408865194646004;
486;486_9713def5131b0891bbb05ed720248d77efbd3f55-LOC.arff;2469.0;52.0;1.4349939246658565;13.421471802292851;1.8419922278526801;121.25;1.0;616.25;4.090721649484536;0.02408865194646004;
487;487_9467616995fb755b432474189d606fb8079968a9-LOC.arff;2469.0;52.0;1.4349939246658565;13.421471802292851;1.8419922278526801;121.25;1.0;616.25;4.090721649484536;0.02408865194646004;
488;488_f86fdcb3ff89d75b052d654752a6cc44b42e76e3-LOC.arff;2469.0;52.0;1.4349939246658565;13.421471802292851;1.8419922278526801;121.25;1.0;616.25;4.090721649484536;0.02408865194646004;
489;489_315d9a66cc61cb2740c5fafb9c05cd05236027b2-LOC.arff;2469.0;52.0;1.4349939246658565;13.421471802292851;1.8419922278526801;121.25;1.0;616.25;4.090721649484536;0.02408865194646004;
48;48_05e272ff8f49cba53cc9b243183cf75b80107749-LOC.arff;93.0;26.0;1.118279569892473;14.928571428571427;0.7756253778417245;29.0;1.0;45.5;1.6571428571428573;0.0067645219634118615;
490;490_082f59e58d40534e6e64937b287295b1b72b4d02-LOC.arff;2469.0;52.0;1.4349939246658565;13.421471802292851;1.8419922278526801;121.25;1.0;616.25;4.090721649484536;0.02408865194646004;
491;491_16d42cf23c2db547d25e4521786824350e5f325c-LOC.arff;2469.0;52.0;1.4349939246658565;13.421471802292851;1.8419922278526801;121.25;1.0;616.25;4.090721649484536;0.02408865194646004;
492;492_ac388e228ce9d918e193c72ea2ab4a59a8786897-LOC.arff;2469.0;52.0;1.4349939246658565;13.421471802292851;1.8419922278526801;121.25;1.0;616.25;4.090721649484536;0.02408865194646004;
493;493_e47b1a726343ff07ff27d44e10bc04406123ca4f-LOC.arff;2469.0;52.0;1.4349939246658565;13.421471802292851;1.8419922278526801;121.25;1.0;616.25;4.090721649484536;0.02408865194646004;
494;494_fcc317c0f073ff031e8b78032c1240c68dbdcfec-LOC.arff;2469.0;52.0;1.4349939246658565;13.421471802292851;1.8419922278526801;121.25;1.0;616.25;4.090721649484536;0.02408865194646004;
495;495_f29d6a0e856fe6f9f83a0bba21fad64d97121e85-LOC.arff;2469.0;52.0;1.4349939246658565;13.421471802292851;1.8419922278526801;121.25;1.0;616.25;4.090721649484536;0.02408865194646004;
496;496_5f05835be1dc7df80521b462cb2035107019fdc5-LOC.arff;2469.0;52.0;1.4349939246658565;13.421471802292851;1.8419922278526801;121.25;1.0;616.25;4.090721649484536;0.02408865194646004;
497;497_138b059d1161de48ec406a9b69133a3d3a243e52-LOC.arff;2469.0;52.0;1.4349939246658565;13.421471802292851;1.8419922278526801;121.25;1.0;616.25;4.090721649484536;0.02408865194646004;
498;498_42164d92ce4a0dda0543ba36924e6b92b49565f9-LOC.arff;2469.0;52.0;1.4349939246658565;13.421471802292851;1.8419922278526801;121.25;1.0;616.25;4.090721649484536;0.02408865194646004;
499;499_9ce31287f0d33c422535e424f39a82b7f1622134-LOC.arff;2473.0;52.0;1.4342903356247472;13.419719677389828;1.842291957721626;121.25;1.0;617.25;4.098969072164948;0.024107489767326268;
49;49_7db38c9f72a9cab9ce17d19bc84aa806f1bf0333-LOC.arff;125.0;27.0;1.088;13.289062499999998;0.8789215605544318;29.0;1.0;61.5;1.1551724137931034;0.005032804340778425;
500;500_0364988f79f355393fcf7db8bc8388084b0e4568-LOC.arff;2473.0;52.0;1.4342903356247472;13.419719677389828;1.842291957721626;121.25;1.0;617.25;4.098969072164948;0.024107489767326268;
501;501_a194c350da64012f86f901fe9f03a455c3f7f2e0-LOC.arff;2473.0;52.0;1.4342903356247472;13.419719677389828;1.842291957721626;121.25;1.0;617.25;4.098969072164948;0.024107489767326268;
502;502_9c3ec85df5f899d8075db3d041e3314cd8656cff-LOC.arff;2474.0;52.0;1.440986257073565;13.331779672584721;1.8554586235247428;121.25;1.0;617.5;4.101030927835051;0.023755103615382696;
503;503_ac39b98decd677913894172087f97ac9ef794afc-LOC.arff;2474.0;52.0;1.440986257073565;13.331779672584721;1.8554586235247428;121.25;1.0;617.5;4.101030927835051;0.023755103615382696;
504;504_bdbdd398c4c70c788bcf47bc72b9ad8c889d72b3-LOC.arff;2474.0;52.0;1.440986257073565;13.331779672584721;1.8554586235247428;121.25;1.0;617.5;4.101030927835051;0.023755103615382696;
505;505_4c78b8d52985fa29c1e5eb4618e2ea4c7913db30-LOC.arff;2474.0;52.0;1.440986257073565;13.331779672584721;1.8554586235247428;121.25;1.0;617.5;4.101030927835051;0.023755103615382696;
506;506_6906cfc833eb557ca90d254d803b6a37249fff08-LOC.arff;2474.0;52.0;1.440986257073565;13.331779672584721;1.8554586235247428;121.25;1.0;617.5;4.101030927835051;0.023755103615382696;
507;507_4ba1cf0869241c7ad117c877e924169dde2baab6-LOC.arff;2474.0;52.0;1.440986257073565;13.331779672584721;1.8554586235247428;121.25;1.0;617.5;4.101030927835051;0.023755103615382696;
508;508_50690a35efd6f0250d10e476a79f654c6d7693e0-LOC.arff;2474.0;52.0;1.440986257073565;13.331779672584721;1.8554586235247428;121.25;1.0;617.5;4.101030927835051;0.023755103615382696;
509;509_2f39adbf1c6e66063b500f53bdbfa2b3d88b3b00-LOC.arff;2474.0;52.0;1.440986257073565;13.331779672584721;1.8554586235247428;121.25;1.0;617.5;4.101030927835051;0.023755103615382696;
50;50_54b238a724f760ecf526a4a1a49ac1d33d77dadc-LOC.arff;128.0;27.0;1.0859375;13.269642857142856;0.8818594064128287;29.0;1.0;63.0;1.206896551724138;0.00491484798904143;
510;510_0611a11a2dc34a37c67ad86143ac1e06741c3d59-LOC.arff;2474.0;52.0;1.440986257073565;13.331779672584721;1.8554586235247428;121.25;1.0;617.5;4.101030927835051;0.023755103615382696;
511;511_32be42c13567c1681760f76546d1c053d27ef76b-LOC.arff;2474.0;52.0;1.440986257073565;13.331779672584721;1.8554586235247428;121.25;1.0;617.5;4.101030927835051;0.023755103615382696;
512;512_163df12a1fb5b47544b807d4ccad43f8dc72d531-LOC.arff;2474.0;52.0;1.440986257073565;13.331779672584721;1.8554586235247428;121.25;1.0;617.5;4.101030927835051;0.023755103615382696;
513;513_098ba66043fc35dcbcbaa907a6ab3f6b64f72456-LOC.arff;2474.0;52.0;1.440986257073565;13.331779672584721;1.8554586235247428;121.25;1.0;617.5;4.101030927835051;0.023755103615382696;
514;514_a66fe0f7c2aa1d9ba361163f2e29e2149400253a-LOC.arff;2474.0;52.0;1.440986257073565;13.331779672584721;1.8554586235247428;121.25;1.0;617.5;4.101030927835051;0.023755103615382696;
515;515_398e97f31c1def14dcd7ac31f1b993df0b2f0e8d-LOC.arff;2474.0;52.0;1.440986257073565;13.331779672584721;1.8554586235247428;121.25;1.0;617.5;4.101030927835051;0.023755103615382696;
516;516_6db654e12f5674db325b9926b59c53f676a2cb94-LOC.arff;2474.0;52.0;1.440986257073565;13.331779672584721;1.8554586235247428;121.25;1.0;617.5;4.101030927835051;0.023755103615382696;
517;517_499dcadd65603ef588c617c19b65f69b302647d5-LOC.arff;2474.0;52.0;1.440986257073565;13.331779672584721;1.8554586235247428;121.25;1.0;617.5;4.101030927835051;0.023755103615382696;
518;518_b2b37245577d40c46db0c7df4bf26351f8daa4d3-LOC.arff;2474.0;52.0;1.440986257073565;13.331779672584721;1.8554586235247428;121.25;1.0;617.5;4.101030927835051;0.023755103615382696;
519;519_afba8e9a6c546cf53971801cf62a6f1abe13969f-LOC.arff;2474.0;52.0;1.440986257073565;13.331779672584721;1.8554586235247428;121.25;1.0;617.5;4.101030927835051;0.023755103615382696;
51;51_79fb84a857dc2020e56f5e42435fea9070ab75b6-LOC.arff;128.0;27.0;1.0859375;13.269642857142856;0.8818594064128287;29.0;1.0;63.0;1.206896551724138;0.00491484798904143;
520;520_11ec9576935d30c1268f93c4f009d8369f7c08cd-LOC.arff;2474.0;52.0;1.440986257073565;13.331779672584721;1.8554586235247428;121.25;1.0;617.5;4.101030927835051;0.023755103615382696;
521;521_009db2af200de97791c0e0b0c15d41ac3baf4334-LOC.arff;2474.0;52.0;1.440986257073565;13.331779672584721;1.8554586235247428;121.25;1.0;617.5;4.101030927835051;0.023755103615382696;
522;522_56e4058b393d073d3b07d3090531b8ce11ef250b-LOC.arff;2474.0;52.0;1.440986257073565;13.331779672584721;1.8554586235247428;121.25;1.0;617.5;4.101030927835051;0.023755103615382696;
523;523_d670d8d3bccc77edd75ff719f86edd6c3e1d14aa-LOC.arff;2474.0;52.0;1.440986257073565;13.331779672584721;1.8554586235247428;121.25;1.0;617.5;4.101030927835051;0.023755103615382696;
524;524_845508b9b48b56b56f7e2bf53a7995c49f09a3f8-LOC.arff;2474.0;52.0;1.440986257073565;13.331779672584721;1.8554586235247428;121.25;1.0;617.5;4.101030927835051;0.023755103615382696;
525;525_c0324fb0ae00ab227508615f149028903eedab24-LOC.arff;2474.0;52.0;1.440986257073565;13.331779672584721;1.8554586235247428;121.25;1.0;617.5;4.101030927835051;0.023755103615382696;
526;526_72ba953eab89064d312c4f6692872fa84083f7b8-LOC.arff;2474.0;52.0;1.440986257073565;13.331779672584721;1.8554586235247428;121.25;1.0;617.5;4.101030927835051;0.023755103615382696;
527;527_21b19a7a2020def21cac321f9dd59962d0bf41b2-LOC.arff;2474.0;52.0;1.4397736459175425;13.375160918208348;1.8508592362931402;121.25;1.0;617.5;4.101030927835051;0.023641157390707858;
528;528_de3aa6ec6e6ad5d22dcb144e23d2e0f3e7d33b08-LOC.arff;2474.0;52.0;1.4397736459175425;13.375160918208348;1.8508592362931402;121.25;1.0;617.5;4.101030927835051;0.023641157390707858;
529;529_c41dc91c99c68d5e0fbe83d0aa80be37d4f0c365-LOC.arff;2474.0;52.0;1.4397736459175425;13.375160918208348;1.8508592362931402;121.25;1.0;617.5;4.101030927835051;0.023641157390707858;
52;52_26329d179d3f16524ce0376b7cb914b768deb15a-LOC.arff;143.0;27.0;1.0769230769230769;13.207499999999998;0.8914282004383799;29.0;1.0;70.5;1.4655172413793103;0.004399304493687434;
530;530_02c0f28e8cf841b07876e4c1f806d8fef3a7e545-LOC.arff;2474.0;52.0;1.4397736459175425;13.375160918208348;1.8508592362931402;121.25;1.0;617.5;4.101030927835051;0.023641157390707858;
531;531_c0e7293677546b27cadec64c9dbebc72b7dd76d1-LOC.arff;2474.0;52.0;1.4397736459175425;13.375160918208348;1.8508592362931402;121.25;1.0;617.5;4.101030927835051;0.023641157390707858;
532;532_1d907fa64ce3fb7de7d534808f68d4b588862534-LOC.arff;2474.0;52.0;1.4397736459175425;13.375160918208348;1.8508592362931402;121.25;1.0;617.5;4.101030927835051;0.023641157390707858;
533;533_cf3bc0c3ec61e5d91622c55e8fd22eae3fceae6d-LOC.arff;2474.0;52.0;1.4397736459175425;13.375160918208348;1.8508592362931402;121.25;1.0;617.5;4.101030927835051;0.023641157390707858;
534;534_db1374f26a234adb80ab0ca710fbbb01ef5bf97d-LOC.arff;2474.0;52.0;1.4397736459175425;13.375160918208348;1.8508592362931402;121.25;1.0;617.5;4.101030927835051;0.023641157390707858;
535;535_106734762f16141e5f491bc99ad4568755ff31ea-LOC.arff;2474.0;52.0;1.4397736459175425;13.375160918208348;1.8508592362931402;121.25;1.0;617.5;4.101030927835051;0.023641157390707858;
536;536_ad927a4ac7425fad3be4d8d0ff39258923bd021f-LOC.arff;2474.0;52.0;1.4397736459175425;13.375160918208348;1.8508592362931402;121.25;1.0;617.5;4.101030927835051;0.023641157390707858;
537;537_18bfa38c0cafdf4cb924c4f31c214767d3b2a69a-LOC.arff;2475.0;52.0;1.4395959595959595;13.373207714551631;1.8511780578248405;121.25;1.0;617.75;4.103092783505154;0.023622808641410486;
538;538_eba4c9575157a327aa9d1706299284e640d4b5f3-LOC.arff;2475.0;52.0;1.4395959595959595;13.373207714551631;1.8511780578248405;121.25;1.0;617.75;4.103092783505154;0.023622808641410486;
539;539_c5e6ac9a3fa22b185807a96f78ee64cf83eb69ef-LOC.arff;2475.0;52.0;1.4395959595959595;13.373207714551631;1.8511780578248405;121.25;1.0;617.75;4.103092783505154;0.023622808641410486;
53;53_2c33bc87e71096c97d6ffcbc392be9313d5e7657-LOC.arff;143.0;27.0;1.0769230769230769;13.207499999999998;0.8914282004383799;29.0;1.0;70.5;1.4655172413793103;0.004399304493687434;
540;540_203c2a61d94afd37c1147f9dd2c9bdb1ad358063-LOC.arff;2475.0;52.0;1.4395959595959595;13.373207714551631;1.8511780578248405;121.25;1.0;617.75;4.103092783505154;0.023622808641410486;
541;541_2af7617117a23879069a37bf02a5a0a1c0af130c-LOC.arff;2475.0;52.0;1.4395959595959595;13.373207714551631;1.8511780578248405;121.25;1.0;617.75;4.103092783505154;0.023622808641410486;
542;542_eb79975317c5c48c220a0285812a693bacf5486f-LOC.arff;2475.0;52.0;1.44;13.371853858434436;1.8514029295787031;121.25;1.0;617.5;4.101030927835051;0.023627828105736392;
54;54_ce0fbed78addfdf850df6a997edf65df72f2c0df-LOC.arff;183.0;29.0;1.0601092896174864;11.203362637362634;1.0014003823622797;29.0;1.0;90.5;2.1551724137931036;0.003437707883045372;
55;55_837da9c989f5bd7806f3b7a8321c683ce23ccfff-LOC.arff;183.0;29.0;1.0601092896174864;11.203362637362634;1.0014003823622797;29.0;1.0;90.5;2.1551724137931036;0.003437707883045372;
56;56_b3c75e164d944bbc90d5ce878b85244e40e87561-LOC.arff;183.0;29.0;1.0601092896174864;11.203362637362634;1.0014003823622797;29.0;1.0;90.5;2.1551724137931036;0.003437707883045372;
57;57_703675744fe61df80af67c277285355d4a24cbb6-LOC.arff;183.0;29.0;1.0601092896174864;11.203362637362634;1.0014003823622797;29.0;1.0;90.5;2.1551724137931036;0.003437707883045372;
58;58_30423b0ce638887ca33315b2648e8e2502a2327a-LOC.arff;183.0;29.0;1.0601092896174864;11.203362637362634;1.0014003823622797;29.0;1.0;90.5;2.1551724137931036;0.003437707883045372;
59;59_4d3f26045288af7b553f95e4080d7da476b4c177-LOC.arff;183.0;29.0;1.0601092896174864;11.203362637362634;1.0014003823622797;29.0;1.0;90.5;2.1551724137931036;0.003437707883045372;
60;60_fb2b98ea3e8bed3345501a58ce6fcba64461657d-LOC.arff;183.0;29.0;1.0601092896174864;11.203362637362634;1.0014003823622797;29.0;1.0;90.5;2.1551724137931036;0.003437707883045372;
61;61_468700d01afd13b5fff60e57861437d5fe4c5aa2-LOC.arff;183.0;29.0;1.0601092896174864;11.203362637362634;1.0014003823622797;29.0;1.0;90.5;2.1551724137931036;0.003437707883045372;
62;62_46ac49bd625f24c4ad1fbc2dc5ac005360850cdd-LOC.arff;183.0;29.0;1.0601092896174864;11.203362637362634;1.0014003823622797;29.0;1.0;90.5;2.1551724137931036;0.003437707883045372;
63;63_0b47e6842dbc4714502f6451e93eb52c1bf6537b-LOC.arff;183.0;29.0;1.0601092896174864;11.203362637362634;1.0014003823622797;29.0;1.0;90.5;2.1551724137931036;0.003437707883045372;
64;64_ab60808719e65a83cfebfce093902c4e750b5c2e-LOC.arff;183.0;29.0;1.0601092896174864;11.203362637362634;1.0014003823622797;29.0;1.0;90.5;2.1551724137931036;0.003437707883045372;
65;65_75f091cc974c88e1b8d1cd6082e1f48c8a7e4f60-LOC.arff;183.0;29.0;1.0601092896174864;11.203362637362634;1.0014003823622797;29.0;1.0;90.5;2.1551724137931036;0.003437707883045372;
66;66_610d2ffc32b2fe80f1f0a4b46c91c5449f68aefa-LOC.arff;183.0;29.0;1.0601092896174864;11.203362637362634;1.0014003823622797;29.0;1.0;90.5;2.1551724137931036;0.003437707883045372;
67;67_7d6e51f60d8ba59ce539f2955a1b99d933df6c2c-LOC.arff;183.0;29.0;1.0601092896174864;11.203362637362634;1.0014003823622797;29.0;1.0;90.5;2.1551724137931036;0.003437707883045372;
68;68_bbaaf19492d6df50410ccb8b59ad53f68f05f06f-LOC.arff;183.0;29.0;1.0601092896174864;11.203362637362634;1.0014003823622797;29.0;1.0;90.5;2.1551724137931036;0.003437707883045372;
69;69_f2df6675654f3fe7c748b2441b6e2fb193d47096-LOC.arff;183.0;29.0;1.0601092896174864;11.203362637362634;1.0014003823622797;29.0;1.0;90.5;2.1551724137931036;0.003437707883045372;
70;70_84e62ebb979bc5707a9073e3712d7a2daf3e6032-LOC.arff;183.0;29.0;1.0601092896174864;11.203362637362634;1.0014003823622797;29.0;1.0;90.5;2.1551724137931036;0.003437707883045372;
71;71_fe84acae0ff3d1c0ca88ac5e4603ff5e57bf0eb0-LOC.arff;183.0;29.0;1.0601092896174864;11.203362637362634;1.0014003823622797;29.0;1.0;90.5;2.1551724137931036;0.003437707883045372;
72;72_2e77407e1856104e644c020cb46463cbca6597d0-LOC.arff;183.0;29.0;1.0601092896174864;11.203362637362634;1.0014003823622797;29.0;1.0;90.5;2.1551724137931036;0.003437707883045372;
73;73_62bb268b151dd31f02192fb8f4b994fc9c084dee-LOC.arff;184.0;29.0;1.059782608695652;10.236695970695969;0.962022443401049;29.0;1.0;91.0;2.1724137931034484;0.003419024688028821;
74;74_fcb9b936225bedbbe911af9e80b40a4baab9cfdf-LOC.arff;184.0;29.0;1.059782608695652;10.236695970695969;0.962022443401049;29.0;1.0;91.0;2.1724137931034484;0.003419024688028821;
75;75_3195dfd2df22c7ea9e51061b7da82582425c6989-LOC.arff;187.0;30.0;1.0588235294117647;11.063663003663002;0.8800744610924593;29.0;1.0;92.5;2.2241379310344827;0.0033641740245845086;
76;76_300dcb626eb5371c06593abfca73c9fa4e3243fe-LOC.arff;208.0;30.0;1.0528846153846154;9.525784215784215;1.0115181275319052;29.0;1.0;103.0;2.586206896551724;0.003024521839410111;
77;77_03ae693c0f284c06bd93134a5682d2c66f199907-LOC.arff;208.0;30.0;1.0528846153846154;9.525784215784215;1.0115181275319052;29.0;1.0;103.0;2.586206896551724;0.003024521839410111;
78;78_6b480743f361f1667aba202fe4b3205448d3431a-LOC.arff;208.0;30.0;1.0528846153846154;9.525784215784215;1.0115181275319052;29.0;1.0;103.0;2.586206896551724;0.003024521839410111;
79;79_cc490c4bf42fc67e4976ad6f8c4ff9c83b638bb7-LOC.arff;208.0;30.0;1.0528846153846154;9.525784215784215;1.0115181275319052;29.0;1.0;103.0;2.586206896551724;0.003024521839410111;
80;80_cb3f376b86218a5e83a784c48096307ef7137b43-LOC.arff;208.0;30.0;1.0528846153846154;9.525784215784215;1.0115181275319052;29.0;1.0;103.0;2.586206896551724;0.003024521839410111;
81;81_3b32996ad0b756f0411a4f9dad9108ca78e297ef-LOC.arff;208.0;30.0;1.0528846153846154;9.525784215784215;1.0115181275319052;29.0;1.0;102.5;2.5689655172413794;0.003024521839410111;
82;82_5315093beef6ae72bfff181f695a0ba246392891-LOC.arff;208.0;30.0;1.0528846153846154;9.525784215784215;1.0115181275319052;29.0;1.0;103.0;2.586206896551724;0.003024521839410111;
83;83_ac03024766d3f9741facec52faa7b33e4309d4c1-LOC.arff;213.0;31.0;1.051643192488263;9.69863553113553;0.9492659126264641;29.0;1.0;105.5;2.6724137931034484;0.0029535236741657423;
84;84_2e0b6bf482ab53f87f35a995dfd6d39e97e5ea33-LOC.arff;223.0;31.0;1.0493273542600896;9.054191086691086;1.0305955427587932;29.0;1.0;110.5;2.8448275862068964;0.002821078666355619;
85;85_eca44992d2a8441ceb28561c98a726c0533b4509-LOC.arff;226.0;31.0;1.0486725663716814;9.000487382987382;1.0405625371276535;29.0;1.0;112.0;2.896551724137931;0.0027836307194570933;
86;86_a6aa8b1642535a096b6592b797a589d3b179b89c-LOC.arff;247.0;31.0;1.0445344129554657;8.855900488400488;1.069979435446212;29.0;1.0;122.5;3.2586206896551726;0.0025469657595032515;
87;87_5c59e7b2b7897c3dac218aed667f911a02501c03-LOC.arff;247.0;31.0;1.0445344129554657;8.855900488400488;1.069979435446212;29.0;1.0;122.5;3.2586206896551726;0.0025469657595032515;
88;88_19a4c6aabe741de5e981d216e4f15d2d1483551f-LOC.arff;247.0;31.0;1.0445344129554657;8.855900488400488;1.069979435446212;29.0;1.0;122.5;3.2586206896551726;0.0025469657595032515;
89;89_65b7318b2aae87ae238b69f900f4526309d7cff9-LOC.arff;267.0;31.0;1.0411985018726593;8.764360084360083;1.0894713498750757;29.0;1.0;132.5;3.603448275862069;0.0023561818074805357;
90;90_a08c33426044e58b01ab819845fcf0beca194b61-LOC.arff;272.0;31.0;1.0404411764705883;8.75315105529391;1.0919643675596162;29.0;1.0;135.0;3.689655172413793;0.0023128696419018498;
91;91_0f4bcfe5b1a36611d433dd3d368fb97364ba15cf-LOC.arff;272.0;31.0;1.0404411764705883;8.75315105529391;1.0919643675596162;29.0;1.0;135.0;3.689655172413793;0.0023128696419018498;
92;92_42670cd6c379c8ea7ab4af02b8fc3ca3be4e5199-LOC.arff;272.0;31.0;1.0404411764705883;8.75315105529391;1.0919643675596162;29.0;1.0;135.0;3.689655172413793;0.0023128696419018498;
93;93_4bfcd670cdac53bde94dffc0adcd6adb80845a84-LOC.arff;272.0;31.0;1.0404411764705883;8.75315105529391;1.0919643675596162;29.0;1.0;135.0;3.689655172413793;0.0023128696419018498;
94;94_046a2ec5c14672e16695c5b98a8ce399d2e64437-LOC.arff;272.0;31.0;1.0404411764705883;8.75315105529391;1.0919643675596162;29.0;1.0;135.0;3.689655172413793;0.0023128696419018498;
95;95_46a551966d77e2ef521a4586de136c0b834662a7-LOC.arff;272.0;31.0;1.0404411764705883;8.75315105529391;1.0919643675596162;29.0;1.0;135.0;3.689655172413793;0.0023128696419018498;
96;96_a7320514dbce737c9baed14fd1eb3e911db5b0b4-LOC.arff;272.0;31.0;1.0404411764705883;8.75315105529391;1.0919643675596162;29.0;1.0;134.5;3.6724137931034484;0.0023128696419018498;
97;97_12ff94247058cb95c6dbd4d9a58cc2db5a0e767c-LOC.arff;272.0;31.0;1.0404411764705883;8.75315105529391;1.0919643675596162;29.0;1.0;135.0;3.689655172413793;0.0023128696419018498;
98;98_1d211d256d3ac5b90c23939e58c6620074d10846-LOC.arff;272.0;31.0;1.0404411764705883;8.75315105529391;1.0919643675596162;29.0;1.0;135.0;3.689655172413793;0.0023128696419018498;
99;99_43b048b40a721ad078a2056f1163f514ed58eeb8-LOC.arff;272.0;31.0;1.0404411764705883;8.75315105529391;1.0919643675596162;29.0;1.0;135.0;3.689655172413793;0.0023128696419018498;
