commit;DataSet;Classifier;TotalInstances;InstancesWithRankedLabels;PercentageOfInstancesWithRankedLabels;InstancesWithPrecisionNull;PercentageOfInstancesWithPrecisionNull;InstancesWithPrecisionZero;PercentageOfInstancesWithPrecisionZero;InstancesWithPrecisionNonZero;PercentageOfInstancesWithPrecisionNonZero;InstancesWithPrecisionOne;PercentageOfInstancesWithPrecisionOne;InstancesWithRecallZero;PercentageOfInstancesWithRecallZero;InstancesWithRecallOne;PercentageOfInstancesWithRecallOne;AveragePrecisionForAllNonNullPrecision;AveragePrecisionForNonZeroPrecision;AverageRecallForAllNonNullPrecision;AverageRecallForAllNonZeroPrecision;AverageFScoreForAllNonNullPrecision;AverageFScoreForAllNonZeroPrecision
13;13_b2a20839ea2348852647e103ce22eb1483e10cf1-LOC.arff;RAkELd;5.0;5.0;1.0;0.0;0.0;5.0;1.0;0.0;0.0;0.0;0.0;5.0;1.0;0.0;0.0;0.0;0.0;0.0;0.0;0.0;0.0
14;14_e72c0b188d7dca3bccfb2a409d0156e76d114f85-LOC.arff;RAkELd;14.0;14.0;1.0;0.0;0.0;1.0;0.07142857142857142;13.0;0.9285714285714286;13.0;0.9285714285714286;1.0;0.07142857142857142;13.0;0.9285714285714286;0.9285714285714286;1.0;0.9285714285714286;1.0;0.9285714285714286;1.0
16;16_dbc64c7dee79ac92f5348641b381c5c713563aa9-LOC.arff;RAkELd;23.0;23.0;1.0;0.0;0.0;0.0;0.0;23.0;1.0;23.0;1.0;0.0;0.0;23.0;1.0;1.0;1.0;1.0;1.0;1.0;1.0
17;17_b2026851ef304444182724685a9d17f8db843990-LOC.arff;RAkELd;3.0;3.0;1.0;0.0;0.0;3.0;1.0;0.0;0.0;0.0;0.0;3.0;1.0;0.0;0.0;0.0;0.0;0.0;0.0;0.0;0.0
28;28_103600db3443b0ead497c0eddcd2fcb4c5aee08d-LOC.arff;RAkELd;2.0;2.0;1.0;0.0;0.0;2.0;1.0;0.0;0.0;0.0;0.0;2.0;1.0;0.0;0.0;0.0;0.0;0.0;0.0;0.0;0.0
31;31_b9532fc25f3850863c38917bf9dc4f57216244e5-LOC.arff;RAkELd;30.0;30.0;1.0;0.0;0.0;6.0;0.2;24.0;0.8;24.0;0.8;6.0;0.2;15.0;0.5;0.8;1.0;0.65;0.8125;0.7;0.875
38;38_6e53d5f3cd53c9ee555ed2845e447cafccf9575b-LOC.arff;RAkELd;2.0;2.0;1.0;0.0;0.0;2.0;1.0;0.0;0.0;0.0;0.0;2.0;1.0;0.0;0.0;0.0;0.0;0.0;0.0;0.0;0.0
40;40_937278c363429bcf9c3eaff18b0bac61d0349276-LOC.arff;RAkELd;54.0;54.0;1.0;0.0;0.0;6.0;0.1111111111111111;48.0;0.8888888888888888;20.0;0.37037037037037035;6.0;0.1111111111111111;40.0;0.7407407407407407;0.6296296296296297;0.7083333333333334;0.8148148148148148;0.9166666666666666;0.6666666666666666;0.75
41;41_e83307d615005a9cdec7d811950b918f7b22e1cd-LOC.arff;RAkELd;73.0;73.0;1.0;0.0;0.0;0.0;0.0;73.0;1.0;46.0;0.6301369863013698;0.0;0.0;73.0;1.0;0.815068493150685;0.815068493150685;1.0;1.0;0.8767123287671232;0.8767123287671232
44;44_c06cb78a37de1ccdc027749a68d4a0174c54dbe9-LOC.arff;RAkELd;9.0;9.0;1.0;0.0;0.0;9.0;1.0;0.0;0.0;0.0;0.0;9.0;1.0;0.0;0.0;0.0;0.0;0.0;0.0;0.0;0.0
46;46_80b9f906d53f0f45cd7cc91565164137324ec7d8-LOC.arff;RAkELd;36.0;36.0;1.0;2.0;0.05555555555555555;0.0;0.0;34.0;0.9444444444444444;34.0;0.9444444444444444;2.0;0.05555555555555555;34.0;0.9444444444444444;1.0;1.0;1.0;1.0;1.0;1.0
47;47_74a6e73ea07a8feb65781624ff92878bb6790970-LOC.arff;RAkELd;38.0;38.0;1.0;3.0;0.07894736842105263;0.0;0.0;35.0;0.9210526315789473;35.0;0.9210526315789473;3.0;0.07894736842105263;35.0;0.9210526315789473;1.0;1.0;1.0;1.0;1.0;1.0
48;48_05e272ff8f49cba53cc9b243183cf75b80107749-LOC.arff;RAkELd;35.0;35.0;1.0;35.0;1.0;0.0;0.0;0.0;0.0;0.0;0.0;35.0;1.0;0.0;0.0;0.0;0.0;0.0;0.0;0.0;0.0
49;49_7db38c9f72a9cab9ce17d19bc84aa806f1bf0333-LOC.arff;RAkELd;65.0;65.0;1.0;37.0;0.5692307692307692;1.0;0.015384615384615385;27.0;0.4153846153846154;1.0;0.015384615384615385;38.0;0.5846153846153846;27.0;0.4153846153846154;0.5;0.5185185185185185;0.9642857142857143;1.0;0.6547619047619048;0.6790123456790123
51;51_79fb84a857dc2020e56f5e42435fea9070ab75b6-LOC.arff;RAkELd;80.0;80.0;1.0;0.0;0.0;50.0;0.625;30.0;0.375;0.0;0.0;50.0;0.625;30.0;0.375;0.1875;0.5;0.375;1.0;0.25;0.6666666666666666
53;53_2c33bc87e71096c97d6ffcbc392be9313d5e7657-LOC.arff;RAkELd;40.0;40.0;1.0;0.0;0.0;40.0;1.0;0.0;0.0;0.0;0.0;40.0;1.0;0.0;0.0;0.0;0.0;0.0;0.0;0.0;0.0
72;72_2e77407e1856104e644c020cb46463cbca6597d0-LOC.arff;RAkELd;53.0;53.0;1.0;51.0;0.9622641509433962;2.0;0.03773584905660377;0.0;0.0;0.0;0.0;53.0;1.0;0.0;0.0;0.0;0.0;0.0;0.0;0.0;0.0
74;74_fcb9b936225bedbbe911af9e80b40a4baab9cfdf-LOC.arff;RAkELd;24.0;24.0;1.0;0.0;0.0;24.0;1.0;0.0;0.0;0.0;0.0;24.0;1.0;0.0;0.0;0.0;0.0;0.0;0.0;0.0;0.0
75;75_3195dfd2df22c7ea9e51061b7da82582425c6989-LOC.arff;RAkELd;24.0;24.0;1.0;0.0;0.0;0.0;0.0;24.0;1.0;24.0;1.0;0.0;0.0;24.0;1.0;1.0;1.0;1.0;1.0;1.0;1.0
76;76_300dcb626eb5371c06593abfca73c9fa4e3243fe-LOC.arff;RAkELd;16.0;16.0;1.0;0.0;0.0;0.0;0.0;16.0;1.0;7.0;0.4375;0.0;0.0;16.0;1.0;0.71875;0.71875;1.0;1.0;0.8125;0.8125
80;80_cb3f376b86218a5e83a784c48096307ef7137b43-LOC.arff;RAkELd;74.0;74.0;1.0;24.0;0.32432432432432434;0.0;0.0;50.0;0.6756756756756757;50.0;0.6756756756756757;24.0;0.32432432432432434;50.0;0.6756756756756757;1.0;1.0;1.0;1.0;1.0;1.0
82;82_5315093beef6ae72bfff181f695a0ba246392891-LOC.arff;RAkELd;16.0;16.0;1.0;0.0;0.0;16.0;1.0;0.0;0.0;0.0;0.0;16.0;1.0;0.0;0.0;0.0;0.0;0.0;0.0;0.0;0.0
83;83_ac03024766d3f9741facec52faa7b33e4309d4c1-LOC.arff;RAkELd;13.0;13.0;1.0;0.0;0.0;0.0;0.0;13.0;1.0;13.0;1.0;0.0;0.0;13.0;1.0;1.0;1.0;1.0;1.0;1.0;1.0
84;84_2e0b6bf482ab53f87f35a995dfd6d39e97e5ea33-LOC.arff;RAkELd;18.0;18.0;1.0;18.0;1.0;0.0;0.0;0.0;0.0;0.0;0.0;18.0;1.0;0.0;0.0;0.0;0.0;0.0;0.0;0.0;0.0
85;85_eca44992d2a8441ceb28561c98a726c0533b4509-LOC.arff;RAkELd;21.0;21.0;1.0;0.0;0.0;0.0;0.0;21.0;1.0;21.0;1.0;0.0;0.0;21.0;1.0;1.0;1.0;1.0;1.0;1.0;1.0
86;86_a6aa8b1642535a096b6592b797a589d3b179b89c-LOC.arff;RAkELd;2.0;2.0;1.0;0.0;0.0;2.0;1.0;0.0;0.0;0.0;0.0;2.0;1.0;0.0;0.0;0.0;0.0;0.0;0.0;0.0;0.0
87;87_5c59e7b2b7897c3dac218aed667f911a02501c03-LOC.arff;RAkELd;2.0;2.0;1.0;1.0;0.5;1.0;0.5;0.0;0.0;0.0;0.0;2.0;1.0;0.0;0.0;0.0;0.0;0.0;0.0;0.0;0.0
88;88_19a4c6aabe741de5e981d216e4f15d2d1483551f-LOC.arff;RAkELd;27.0;27.0;1.0;19.0;0.7037037037037037;8.0;0.2962962962962963;0.0;0.0;0.0;0.0;27.0;1.0;0.0;0.0;0.0;0.0;0.0;0.0;0.0;0.0
95;95_46a551966d77e2ef521a4586de136c0b834662a7-LOC.arff;RAkELd;24.0;24.0;1.0;0.0;0.0;24.0;1.0;0.0;0.0;0.0;0.0;24.0;1.0;0.0;0.0;0.0;0.0;0.0;0.0;0.0;0.0
97;97_12ff94247058cb95c6dbd4d9a58cc2db5a0e767c-LOC.arff;RAkELd;24.0;24.0;1.0;0.0;0.0;0.0;0.0;24.0;1.0;23.0;0.9583333333333334;0.0;0.0;24.0;1.0;0.9791666666666666;0.9791666666666666;1.0;1.0;0.9861111111111112;0.9861111111111112
100;100_4e18fb9e22091af6e3a33373437cdf592584a522-LOC.arff;RAkELd;34.0;34.0;1.0;0.0;0.0;0.0;0.0;34.0;1.0;34.0;1.0;0.0;0.0;34.0;1.0;1.0;1.0;1.0;1.0;1.0;1.0
101;101_ef7549da15775a1567b47e8b840d97d52c8e3e0c-LOC.arff;RAkELd;38.0;38.0;1.0;0.0;0.0;0.0;0.0;38.0;1.0;38.0;1.0;0.0;0.0;38.0;1.0;1.0;1.0;1.0;1.0;1.0;1.0
102;102_449f177068615c8d78fb4513776f08dcca6396a4-LOC.arff;RAkELd;57.0;57.0;1.0;0.0;0.0;0.0;0.0;57.0;1.0;0.0;0.0;0.0;0.0;57.0;1.0;0.47953216374269003;0.47953216374269003;1.0;1.0;0.6461988304093567;0.6461988304093567
103;103_667b07d652f2c8371a98710cfc04a937cbcf0bcc-LOC.arff;RAkELd;6.0;6.0;1.0;0.0;0.0;6.0;1.0;0.0;0.0;0.0;0.0;6.0;1.0;0.0;0.0;0.0;0.0;0.0;0.0;0.0;0.0
104;104_b53c128a38005fdeefc469ba603eee4b89dd13d5-LOC.arff;RAkELd;58.0;58.0;1.0;0.0;0.0;0.0;0.0;58.0;1.0;58.0;1.0;0.0;0.0;58.0;1.0;1.0;1.0;1.0;1.0;1.0;1.0
105;105_68cc9faf5751e01c9620ad10f0027956bc0020e0-LOC.arff;RAkELd;30.0;30.0;1.0;0.0;0.0;30.0;1.0;0.0;0.0;0.0;0.0;30.0;1.0;0.0;0.0;0.0;0.0;0.0;0.0;0.0;0.0
106;106_0842dd6d908e6f96451cb8319f99513b53592e8a-LOC.arff;RAkELd;66.0;66.0;1.0;45.0;0.6818181818181818;21.0;0.3181818181818182;0.0;0.0;0.0;0.0;66.0;1.0;0.0;0.0;0.0;0.0;0.0;0.0;0.0;0.0
107;107_01098ab0d946a6bc5abbfa894e593658c207e137-LOC.arff;RAkELd;76.0;76.0;1.0;0.0;0.0;48.0;0.631578947368421;28.0;0.3684210526315789;0.0;0.0;48.0;0.631578947368421;26.0;0.34210526315789475;0.09320175438596491;0.25297619047619047;0.35526315789473684;0.9642857142857143;0.14692982456140352;0.39880952380952384
112;112_b4d5ee0c9dbd03e30b5c62e57a8cff886bc58622-LOC.arff;RAkELd;39.0;39.0;1.0;39.0;1.0;0.0;0.0;0.0;0.0;0.0;0.0;39.0;1.0;0.0;0.0;0.0;0.0;0.0;0.0;0.0;0.0
113;113_d08def390f92ffa09b4f5caa1aba2eaed7e2140f-LOC.arff;RAkELd;39.0;39.0;1.0;0.0;0.0;0.0;0.0;39.0;1.0;39.0;1.0;0.0;0.0;39.0;1.0;1.0;1.0;1.0;1.0;1.0;1.0
114;114_9349588937cef231db4e6861d02950d7d0d94d98-LOC.arff;RAkELd;39.0;39.0;1.0;0.0;0.0;0.0;0.0;39.0;1.0;39.0;1.0;0.0;0.0;39.0;1.0;1.0;1.0;1.0;1.0;1.0;1.0
116;116_dbe811dd3d6fc52b87e13d9f45db127c9c1327b0-LOC.arff;RAkELd;39.0;39.0;1.0;0.0;0.0;0.0;0.0;39.0;1.0;39.0;1.0;0.0;0.0;39.0;1.0;1.0;1.0;1.0;1.0;1.0;1.0
118;118_0453613ab67fd1c8a9ea33e34d833cb2a1e946fc-LOC.arff;RAkELd;87.0;87.0;1.0;0.0;0.0;87.0;1.0;0.0;0.0;0.0;0.0;87.0;1.0;0.0;0.0;0.0;0.0;0.0;0.0;0.0;0.0
119;119_cf94e04d35807cded32edd74b20ffe90765aca10-LOC.arff;RAkELd;123.0;123.0;1.0;0.0;0.0;87.0;0.7073170731707317;36.0;0.2926829268292683;0.0;0.0;87.0;0.7073170731707317;36.0;0.2926829268292683;0.13821138211382114;0.4722222222222222;0.2926829268292683;1.0;0.18401084010840107;0.6287037037037037
120;120_be90a7f39e46fbd52ba01d87d40e7494a5787f30-LOC.arff;RAkELd;134.0;134.0;1.0;0.0;0.0;0.0;0.0;134.0;1.0;24.0;0.1791044776119403;0.0;0.0;134.0;1.0;0.5895522388059702;0.5895522388059702;1.0;1.0;0.72636815920398;0.72636815920398
121;121_c665b4cf9e79afd246013bf348d9b77259cee2f3-LOC.arff;RAkELd;39.0;39.0;1.0;39.0;1.0;0.0;0.0;0.0;0.0;0.0;0.0;39.0;1.0;0.0;0.0;0.0;0.0;0.0;0.0;0.0;0.0
122;122_50c76ea03dcc36be748ac0ade97982e027a9960e-LOC.arff;RAkELd;39.0;39.0;1.0;0.0;0.0;0.0;0.0;39.0;1.0;14.0;0.358974358974359;0.0;0.0;39.0;1.0;0.6794871794871795;0.6794871794871795;1.0;1.0;0.7863247863247863;0.7863247863247863
123;123_748a70d588da74415260cbd1ac6455acba66dd5b-LOC.arff;RAkELd;20.0;20.0;1.0;0.0;0.0;20.0;1.0;0.0;0.0;0.0;0.0;20.0;1.0;0.0;0.0;0.0;0.0;0.0;0.0;0.0;0.0
124;124_9991814cc333688c65cccd10bbc443c3840adab3-LOC.arff;RAkELd;46.0;46.0;1.0;28.0;0.6086956521739131;18.0;0.391304347826087;0.0;0.0;0.0;0.0;46.0;1.0;0.0;0.0;0.0;0.0;0.0;0.0;0.0;0.0
125;125_180d931c2a0a4bc198027322e9917419fbd66a2b-LOC.arff;RAkELd;255.0;255.0;1.0;0.0;0.0;196.0;0.7686274509803922;59.0;0.23137254901960785;0.0;0.0;196.0;0.7686274509803922;55.0;0.21568627450980393;0.11568627450980393;0.5;0.2235294117647059;0.9661016949152542;0.15163398692810456;0.655367231638418
126;126_5c6cc2b50cd4bb88654c736b9b53770222393ecd-LOC.arff;RAkELd;287.0;287.0;1.0;49.0;0.17073170731707318;65.0;0.2264808362369338;173.0;0.6027874564459931;41.0;0.14285714285714285;114.0;0.397212543554007;170.0;0.5923344947735192;0.4495798319327731;0.6184971098265896;0.7205882352941176;0.9913294797687862;0.5392156862745098;0.7418111753371868
127;127_fedc7a8caa2ab52d08f772821e1fbb88ea441ac9-LOC.arff;RAkELd;105.0;105.0;1.0;0.0;0.0;101.0;0.9619047619047619;4.0;0.0380952380952381;0.0;0.0;101.0;0.9619047619047619;4.0;0.0380952380952381;0.01904761904761905;0.5;0.0380952380952381;1.0;0.02507936507936508;0.6583333333333333
129;129_4af31534ea0cfd1189e8b799249ae9f73b1c0c6c-LOC.arff;RAkELd;126.0;126.0;1.0;6.0;0.047619047619047616;14.0;0.1111111111111111;106.0;0.8412698412698413;102.0;0.8095238095238095;20.0;0.15873015873015872;104.0;0.8253968253968254;0.8666666666666667;0.9811320754716981;0.875;0.9905660377358491;0.8666666666666667;0.9811320754716981
130;130_e9599c45c368a6d7c9db82bae1ea6dd9dca21c2b-LOC.arff;RAkELd;104.0;104.0;1.0;0.0;0.0;55.0;0.5288461538461539;49.0;0.47115384615384615;19.0;0.18269230769230768;55.0;0.5288461538461539;49.0;0.47115384615384615;0.3141025641025641;0.6666666666666666;0.47115384615384615;1.0;0.36217948717948717;0.7687074829931972
132;132_6b5f4541956b9b0aa7d7e49d04fff913150dc122-LOC.arff;RAkELd;103.0;103.0;1.0;103.0;1.0;0.0;0.0;0.0;0.0;0.0;0.0;103.0;1.0;0.0;0.0;0.0;0.0;0.0;0.0;0.0;0.0
133;133_c89fffa801f241ef958bf81270005eabcc89c717-LOC.arff;RAkELd;226.0;226.0;1.0;105.0;0.4646017699115044;0.0;0.0;121.0;0.5353982300884956;121.0;0.5353982300884956;105.0;0.4646017699115044;121.0;0.5353982300884956;1.0;1.0;1.0;1.0;1.0;1.0
134;134_82b90bd20ca2db9fb77837021e8872b49b9ef1f3-LOC.arff;RAkELd;24.0;24.0;1.0;24.0;1.0;0.0;0.0;0.0;0.0;0.0;0.0;24.0;1.0;0.0;0.0;0.0;0.0;0.0;0.0;0.0;0.0
135;135_688c48015958ffeed02f85049895e20bc723d601-LOC.arff;RAkELd;24.0;24.0;1.0;0.0;0.0;0.0;0.0;24.0;1.0;24.0;1.0;0.0;0.0;24.0;1.0;1.0;1.0;1.0;1.0;1.0;1.0
136;136_0298038bacb5027553c0c19c3078c207ccbdc509-LOC.arff;RAkELd;48.0;48.0;1.0;48.0;1.0;0.0;0.0;0.0;0.0;0.0;0.0;48.0;1.0;0.0;0.0;0.0;0.0;0.0;0.0;0.0;0.0
137;137_8b3ee8a7e8ea754fae48358ac94539113145447a-LOC.arff;RAkELd;24.0;24.0;1.0;0.0;0.0;0.0;0.0;24.0;1.0;24.0;1.0;0.0;0.0;24.0;1.0;1.0;1.0;1.0;1.0;1.0;1.0
140;140_554ba7b71baf1378e2332cffe863709685bb0dca-LOC.arff;RAkELd;54.0;54.0;1.0;35.0;0.6481481481481481;19.0;0.35185185185185186;0.0;0.0;0.0;0.0;54.0;1.0;0.0;0.0;0.0;0.0;0.0;0.0;0.0;0.0
141;141_cdfb89796c682c97308f6c7d78d130cf339bfe9e-LOC.arff;RAkELd;32.0;32.0;1.0;8.0;0.25;13.0;0.40625;11.0;0.34375;11.0;0.34375;21.0;0.65625;0.0;0.0;0.4583333333333333;1.0;0.22916666666666666;0.5;0.3055555555555555;0.6666666666666666
143;143_a7362b37bce5eebc9bca6d1c770c784e6f285fe6-LOC.arff;RAkELd;59.0;59.0;1.0;26.0;0.4406779661016949;28.0;0.4745762711864407;5.0;0.0847457627118644;0.0;0.0;54.0;0.9152542372881356;3.0;0.05084745762711865;0.07575757575757576;0.5;0.12121212121212122;0.8;0.09090909090909091;0.6
144;144_6affc6b343f9734df6e965e91af29d89f2251f80-LOC.arff;RAkELd;130.0;130.0;1.0;116.0;0.8923076923076924;14.0;0.1076923076923077;0.0;0.0;0.0;0.0;130.0;1.0;0.0;0.0;0.0;0.0;0.0;0.0;0.0;0.0
145;145_075a5f0820676f7915b5b6459eb7ceace99e3a4e-LOC.arff;RAkELd;88.0;88.0;1.0;60.0;0.6818181818181818;28.0;0.3181818181818182;0.0;0.0;0.0;0.0;88.0;1.0;0.0;0.0;0.0;0.0;0.0;0.0;0.0;0.0
146;146_9a9f404b99b66e7d362b3fbc71c96f52538c653e-LOC.arff;RAkELd;53.0;53.0;1.0;0.0;0.0;26.0;0.49056603773584906;27.0;0.5094339622641509;25.0;0.4716981132075472;26.0;0.49056603773584906;27.0;0.5094339622641509;0.49056603773584906;0.9629629629629629;0.5094339622641509;1.0;0.4968553459119497;0.9753086419753086
147;147_f502a5ed7e8b04a1f31acfb86b987852e4a8c62d-LOC.arff;RAkELd;179.0;179.0;1.0;48.0;0.2681564245810056;11.0;0.061452513966480445;120.0;0.6703910614525139;120.0;0.6703910614525139;59.0;0.329608938547486;120.0;0.6703910614525139;0.916030534351145;1.0;0.916030534351145;1.0;0.916030534351145;1.0
149;149_2ada7aed210465d18a77e3250020b640e646bb09-LOC.arff;RAkELd;120.0;120.0;1.0;120.0;1.0;0.0;0.0;0.0;0.0;0.0;0.0;120.0;1.0;0.0;0.0;0.0;0.0;0.0;0.0;0.0;0.0
150;150_af9dd2fc4031b97622a3f10bf4b980fa5685ba11-LOC.arff;RAkELd;156.0;156.0;1.0;0.0;0.0;0.0;0.0;156.0;1.0;0.0;0.0;0.0;0.0;156.0;1.0;0.4497863247863248;0.4497863247863248;1.0;1.0;0.6164529914529914;0.6164529914529914
151;151_4d904e7132ad4e0072813ffa2264ca51a5af70e9-LOC.arff;RAkELd;175.0;175.0;1.0;0.0;0.0;0.0;0.0;175.0;1.0;0.0;0.0;0.0;0.0;175.0;1.0;0.44952380952380955;0.44952380952380955;1.0;1.0;0.6161904761904762;0.6161904761904762
152;152_26198589d9af8728d9e01ec9fd8d99a362ccde1c-LOC.arff;RAkELd;148.0;148.0;1.0;103.0;0.6959459459459459;45.0;0.30405405405405406;0.0;0.0;0.0;0.0;148.0;1.0;0.0;0.0;0.0;0.0;0.0;0.0;0.0;0.0
153;153_40cd936a1f9b664dfd7c3ea4fb0de0c04bb0a48c-LOC.arff;RAkELd;44.0;44.0;1.0;11.0;0.25;13.0;0.29545454545454547;20.0;0.45454545454545453;20.0;0.45454545454545453;24.0;0.5454545454545454;9.0;0.20454545454545456;0.6060606060606061;1.0;0.4393939393939394;0.725;0.4949494949494949;0.8166666666666667
154;154_6d4ab95a471949ad6453b3e0516da42c6a6eb959-LOC.arff;RAkELd;160.0;160.0;1.0;140.0;0.875;9.0;0.05625;11.0;0.06875;11.0;0.06875;149.0;0.93125;0.0;0.0;0.55;1.0;0.275;0.5;0.36666666666666664;0.6666666666666666
155;155_edd65c537c2f6d1c993cd3afde1bee18732c417b-LOC.arff;RAkELd;209.0;209.0;1.0;33.0;0.15789473684210525;13.0;0.06220095693779904;163.0;0.7799043062200957;122.0;0.583732057416268;46.0;0.22009569377990432;127.0;0.6076555023923444;0.8191287878787878;0.8844580777096114;0.8285984848484849;0.8946830265848671;0.7986742424242425;0.8623721881390592
156;156_e535484b612b11be313fc5c8cf4ce4f84efe0dac-LOC.arff;RAkELd;17.0;17.0;1.0;0.0;0.0;17.0;1.0;0.0;0.0;0.0;0.0;17.0;1.0;0.0;0.0;0.0;0.0;0.0;0.0;0.0;0.0
157;157_efe8afe333c056e76e6026bbd0e40dcb49eaf3a5-LOC.arff;RAkELd;284.0;284.0;1.0;3.0;0.01056338028169014;89.0;0.31338028169014087;192.0;0.676056338028169;146.0;0.5140845070422535;92.0;0.323943661971831;160.0;0.5633802816901409;0.6020166073546857;0.8810763888888888;0.6281138790035588;0.9192708333333334;0.5952550415183867;0.8711805555555555
158;158_4e30d3b5e6cfc16791b321e3a67e9b7dd287437b-LOC.arff;RAkELd;329.0;329.0;1.0;0.0;0.0;3.0;0.00911854103343465;326.0;0.9908814589665653;206.0;0.6261398176291794;3.0;0.00911854103343465;284.0;0.8632218844984803;0.8080040526849037;0.815439672801636;0.9265450861195541;0.9350715746421268;0.8276595744680851;0.835276073619632
159;159_ad7a09ae130d82cb8cb47dd2573aa42d3df0e4f8-LOC.arff;RAkELd;32.0;32.0;1.0;0.0;0.0;0.0;0.0;32.0;1.0;3.0;0.09375;0.0;0.0;29.0;0.90625;0.546875;0.546875;0.953125;0.953125;0.6770833333333333;0.6770833333333333
160;160_f4d51c3d7cd5823ad420472d1fe9118918d89025-LOC.arff;RAkELd;60.0;60.0;1.0;55.0;0.9166666666666666;5.0;0.08333333333333333;0.0;0.0;0.0;0.0;60.0;1.0;0.0;0.0;0.0;0.0;0.0;0.0;0.0;0.0
162;162_5029820eaaf7d7b3f1047e60c66c3ea08d185073-LOC.arff;RAkELd;64.0;64.0;1.0;64.0;1.0;0.0;0.0;0.0;0.0;0.0;0.0;64.0;1.0;0.0;0.0;0.0;0.0;0.0;0.0;0.0;0.0
163;163_b38f82ec782f52eb9b13817915abd9a1d5c7b7a7-LOC.arff;RAkELd;329.0;329.0;1.0;8.0;0.0243161094224924;87.0;0.26443768996960487;234.0;0.7112462006079028;82.0;0.24924012158054712;95.0;0.2887537993920973;192.0;0.5835866261398176;0.4953271028037383;0.6794871794871795;0.6630321910695742;0.9095441595441596;0.5495327102803739;0.7538461538461538
164;164_fdcc4275a5c8dbfec7c6c7c4b185952b743fe61d-LOC.arff;RAkELd;395.0;395.0;1.0;125.0;0.31645569620253167;31.0;0.07848101265822785;239.0;0.6050632911392405;206.0;0.5215189873417722;156.0;0.3949367088607595;184.0;0.46582278481012657;0.8240740740740741;0.9309623430962343;0.7734567901234568;0.8737796373779638;0.7666666666666667;0.8661087866108786
165;165_73b4305e70cd203b71a66f043429aad06c695923-LOC.arff;RAkELd;80.0;80.0;1.0;38.0;0.475;42.0;0.525;0.0;0.0;0.0;0.0;80.0;1.0;0.0;0.0;0.0;0.0;0.0;0.0;0.0;0.0
166;166_a208858ddba795bae4d456baa2255d556ddc1e6d-LOC.arff;RAkELd;121.0;121.0;1.0;1.0;0.008264462809917356;116.0;0.9586776859504132;4.0;0.03305785123966942;4.0;0.03305785123966942;117.0;0.9669421487603306;0.0;0.0;0.03333333333333333;1.0;0.016666666666666666;0.5;0.02222222222222222;0.6666666666666666
168;168_b6faf45260096b94a6a1ea3804e3e51c4ccdf346-LOC.arff;RAkELd;601.0;601.0;1.0;177.0;0.2945091514143095;207.0;0.34442595673876875;217.0;0.3610648918469218;212.0;0.3527454242928453;384.0;0.6389351081530782;161.0;0.26788685524126454;0.5058962264150944;0.988479262672811;0.4410377358490566;0.8617511520737328;0.4589622641509434;0.896774193548387
170;170_f48d07fef7d1a4058482cecdbfc9b4f8a1c06e01-LOC.arff;RAkELd;89.0;89.0;1.0;0.0;0.0;48.0;0.5393258426966292;41.0;0.4606741573033708;0.0;0.0;48.0;0.5393258426966292;33.0;0.3707865168539326;0.20411985018726594;0.44308943089430897;0.4157303370786517;0.9024390243902439;0.26591760299625467;0.5772357723577235
175;175_e6ad400738f994f6a90e4e94a591b0c86303ef6a-LOC.arff;RAkELd;49.0;49.0;1.0;0.0;0.0;36.0;0.7346938775510204;13.0;0.2653061224489796;0.0;0.0;36.0;0.7346938775510204;10.0;0.20408163265306123;0.1326530612244898;0.5;0.23469387755102042;0.8846153846153846;0.16666666666666666;0.6282051282051282
181;181_a33a0a1cb08fde9ffedec2489ffd38cbf5ed393a-LOC.arff;RAkELd;285.0;285.0;1.0;0.0;0.0;128.0;0.44912280701754387;157.0;0.5508771929824562;0.0;0.0;128.0;0.44912280701754387;103.0;0.36140350877192984;0.1976608187134503;0.35881104033970274;0.45029239766081874;0.8174097664543525;0.2654302422723475;0.48183196845617227
182;182_066e93cf07f5d46f0372a1bd5b94cf4aa939fc84-LOC.arff;RAkELd;29.0;29.0;1.0;0.0;0.0;29.0;1.0;0.0;0.0;0.0;0.0;29.0;1.0;0.0;0.0;0.0;0.0;0.0;0.0;0.0;0.0
183;183_977d52c127706523c267b528145d9183b7d2809c-LOC.arff;RAkELd;299.0;299.0;1.0;19.0;0.06354515050167224;111.0;0.3712374581939799;169.0;0.5652173913043478;75.0;0.2508361204013378;130.0;0.43478260869565216;100.0;0.33444816053511706;0.4357142857142857;0.7218934911242604;0.4708333333333334;0.780078895463511;0.4147619047619047;0.6871794871794872
184;184_f7ba6d32e7f27265811cb61b56fbaaad7dae6dd0-LOC.arff;RAkELd;33.0;33.0;1.0;0.0;0.0;33.0;1.0;0.0;0.0;0.0;0.0;33.0;1.0;0.0;0.0;0.0;0.0;0.0;0.0;0.0;0.0
185;185_8feae10665a7dc33a43728d00048453db470f078-LOC.arff;RAkELd;297.0;297.0;1.0;7.0;0.02356902356902357;109.0;0.367003367003367;181.0;0.6094276094276094;15.0;0.050505050505050504;116.0;0.39057239057239057;145.0;0.4882154882154882;0.3454022988505747;0.5534069981583793;0.5655172413793104;0.9060773480662984;0.4164367816091954;0.6672191528545119
186;186_f131502e24357933c03a6a3620af6e301a84ebe7-LOC.arff;RAkELd;338.0;338.0;1.0;0.0;0.0;112.0;0.33136094674556216;226.0;0.6686390532544378;0.0;0.0;112.0;0.33136094674556216;152.0;0.44970414201183434;0.3047337278106509;0.4557522123893805;0.5502958579881657;0.8230088495575221;0.37810650887573966;0.5654867256637168
187;187_6a5197e764eee00db1a8286e5411f11c081a58fb-LOC.arff;RAkELd;68.0;68.0;1.0;32.0;0.47058823529411764;5.0;0.07352941176470588;31.0;0.45588235294117646;25.0;0.36764705882352944;37.0;0.5441176470588235;2.0;0.029411764705882353;0.7546296296296297;0.8763440860215054;0.3796296296296296;0.44086021505376344;0.46111111111111114;0.535483870967742
188;188_d41979868da073d4421d8980d6bc4c39db23f3d2-LOC.arff;RAkELd;251.0;251.0;1.0;5.0;0.0199203187250996;14.0;0.055776892430278883;232.0;0.9243027888446215;183.0;0.7290836653386454;19.0;0.07569721115537849;132.0;0.5258964143426295;0.8434959349593496;0.8943965517241379;0.7242547425474254;0.7679597701149425;0.7607046070460705;0.8066091954022988
189;189_b031141e3e1c6f2b4310a3face75839b7b56b050-LOC.arff;RAkELd;251.0;251.0;1.0;0.0;0.0;1.0;0.00398406374501992;250.0;0.9960159362549801;234.0;0.9322709163346613;1.0;0.00398406374501992;178.0;0.7091633466135459;0.9687915006640105;0.9726666666666667;0.8359893758300133;0.8393333333333334;0.8691899070385126;0.8726666666666666
190;190_a3cd83e06baf0cedccd1c5a553b60df23742773d-LOC.arff;RAkELd;238.0;238.0;1.0;0.0;0.0;42.0;0.17647058823529413;196.0;0.8235294117647058;158.0;0.6638655462184874;42.0;0.17647058823529413;153.0;0.6428571428571429;0.7514005602240896;0.9124149659863946;0.7366946778711485;0.8945578231292517;0.7211484593837535;0.8756802721088435
191;191_29b35c9ba28f9d15a6db00d1995796e7ba805bb0-LOC.arff;RAkELd;289.0;289.0;1.0;0.0;0.0;56.0;0.19377162629757785;233.0;0.8062283737024222;0.0;0.0;56.0;0.19377162629757785;173.0;0.5986159169550173;0.2569780853517878;0.31874105865522173;0.7179930795847751;0.8905579399141631;0.3655956500247158;0.4534641324340895
192;192_26c03c9772633029e699bac680a8c66d0887d369-LOC.arff;RAkELd;311.0;311.0;1.0;0.0;0.0;79.0;0.2540192926045016;232.0;0.7459807073954984;0.0;0.0;79.0;0.2540192926045016;144.0;0.4630225080385852;0.2997856377277599;0.40186781609195404;0.62486602357985;0.8376436781609196;0.3930255703567601;0.5268575533661741
193;193_5afcb8a8079214815b195d80415a8f460b0be86a-LOC.arff;RAkELd;279.0;279.0;1.0;0.0;0.0;171.0;0.6129032258064516;108.0;0.3870967741935484;20.0;0.07168458781362007;171.0;0.6129032258064516;26.0;0.0931899641577061;0.23357228195937876;0.6033950617283951;0.2111111111111111;0.5453703703703704;0.21629970984809696;0.5587742504409171
194;194_31ada434bf4ed3b1cb7e29c9d9f43ec92b7610c0-LOC.arff;RAkELd;105.0;105.0;1.0;24.0;0.22857142857142856;81.0;0.7714285714285715;0.0;0.0;0.0;0.0;105.0;1.0;0.0;0.0;0.0;0.0;0.0;0.0;0.0;0.0
196;196_daf740fc48b8d785baa49eaf728d68eff645be38-LOC.arff;RAkELd;60.0;60.0;1.0;0.0;0.0;60.0;1.0;0.0;0.0;0.0;0.0;60.0;1.0;0.0;0.0;0.0;0.0;0.0;0.0;0.0;0.0
197;197_5b6462d11ad4772d39bf053622fc219a157eec9c-LOC.arff;RAkELd;216.0;216.0;1.0;0.0;0.0;75.0;0.3472222222222222;141.0;0.6527777777777778;57.0;0.2638888888888889;75.0;0.3472222222222222;103.0;0.47685185185185186;0.4513888888888889;0.6914893617021277;0.5787037037037037;0.8865248226950354;0.48333333333333334;0.7404255319148937
198;198_327cd7259bc63031346417a44fd84b4d76ac281c-LOC.arff;RAkELd;540.0;540.0;1.0;0.0;0.0;206.0;0.3814814814814815;334.0;0.6185185185185185;190.0;0.35185185185185186;206.0;0.3814814814814815;187.0;0.34629629629629627;0.4861111111111111;0.7859281437125748;0.4826234567901235;0.7802894211576846;0.4656216931216931;0.7528015397775877
201;201_112583761830054086c0b9d280a79d9ca129d0f3-LOC.arff;RAkELd;90.0;90.0;1.0;1.0;0.011111111111111112;6.0;0.06666666666666667;83.0;0.9222222222222223;70.0;0.7777777777777778;7.0;0.07777777777777778;75.0;0.8333333333333334;0.8576779026217228;0.9196787148594376;0.8895131086142323;0.9538152610441768;0.8524344569288389;0.9140562248995984
204;204_293051883ffd9e5bb5d03e1f98539ff9739d7d80-LOC.arff;RAkELd;699.0;699.0;1.0;22.0;0.031473533619456366;191.0;0.2732474964234621;486.0;0.6952789699570815;201.0;0.2875536480686695;213.0;0.30472103004291845;320.0;0.45779685264663805;0.5080256031511571;0.707681755829904;0.5981043820777943;0.833161865569273;0.5239841973224544;0.7299121431837482
205;205_54b52c2875ab0d61993de6b7625532a50c2e39b1-LOC.arff;RAkELd;159.0;159.0;1.0;16.0;0.10062893081761007;48.0;0.3018867924528302;95.0;0.5974842767295597;21.0;0.1320754716981132;64.0;0.4025157232704403;58.0;0.36477987421383645;0.3747086247086247;0.5640350877192982;0.534965034965035;0.8052631578947368;0.3967365967365967;0.5971929824561404
206;206_d2fa85c92f9ab620af80798f14da4d7655b08a4c-LOC.arff;RAkELd;162.0;162.0;1.0;46.0;0.2839506172839506;12.0;0.07407407407407407;104.0;0.6419753086419753;60.0;0.37037037037037035;58.0;0.35802469135802467;97.0;0.5987654320987654;0.7011494252873562;0.782051282051282;0.8663793103448276;0.9663461538461539;0.7439655172413793;0.8298076923076922
207;207_f344a88fa9487458187bc3e322b71167ba9b61d5-LOC.arff;RAkELd;82.0;82.0;1.0;0.0;0.0;0.0;0.0;82.0;1.0;77.0;0.9390243902439024;0.0;0.0;39.0;0.47560975609756095;0.9695121951219512;0.9695121951219512;0.7378048780487805;0.7378048780487805;0.8089430894308942;0.8089430894308942
209;209_48e751d933fbf9502c4a0f533d8457c2fcf91056-LOC.arff;RAkELd;89.0;89.0;1.0;0.0;0.0;1.0;0.011235955056179775;88.0;0.9887640449438202;65.0;0.7303370786516854;1.0;0.011235955056179775;67.0;0.7528089887640449;0.8595505617977528;0.8693181818181818;0.8932584269662921;0.9034090909090909;0.8569288389513109;0.8666666666666667
210;210_d02618d626a9a38d7fbedb059bbc2f2579d1509c-LOC.arff;RAkELd;89.0;89.0;1.0;1.0;0.011235955056179775;1.0;0.011235955056179775;87.0;0.9775280898876404;59.0;0.6629213483146067;2.0;0.02247191011235955;61.0;0.6853932584269663;0.8295454545454546;0.8390804597701149;0.8636363636363636;0.8735632183908046;0.8234848484848485;0.8329501915708812
211;211_95ea0aca442a43251d1fb111ef2bc5e6cd28a583-LOC.arff;RAkELd;67.0;67.0;1.0;1.0;0.014925373134328358;0.0;0.0;66.0;0.9850746268656716;54.0;0.8059701492537313;1.0;0.014925373134328358;54.0;0.8059701492537313;0.9141414141414141;0.9141414141414141;0.9343434343434343;0.9343434343434343;0.9030303030303031;0.9030303030303031
212;212_aa4e0e03fdf71880e3870af9b5722ee1d21b9a83-LOC.arff;RAkELd;219.0;219.0;1.0;1.0;0.0045662100456621;19.0;0.0867579908675799;199.0;0.908675799086758;78.0;0.3561643835616438;20.0;0.091324200913242;135.0;0.6164383561643836;0.6353211009174312;0.6959798994974874;0.7568807339449541;0.8291457286432161;0.6674311926605505;0.7311557788944724
213;213_dfc29e8759ca1cf4cc4ca9c24bc5e120b18bb777-LOC.arff;RAkELd;26.0;26.0;1.0;26.0;1.0;0.0;0.0;0.0;0.0;0.0;0.0;26.0;1.0;0.0;0.0;0.0;0.0;0.0;0.0;0.0;0.0
214;214_4206ee7b9d0b653a55b2ef288bfa583fa4a2998c-LOC.arff;RAkELd;240.0;240.0;1.0;28.0;0.11666666666666667;22.0;0.09166666666666666;190.0;0.7916666666666666;138.0;0.575;50.0;0.20833333333333334;113.0;0.4708333333333333;0.7657232704402516;0.8543859649122808;0.7374213836477987;0.8228070175438597;0.7105345911949685;0.7928070175438596
215;215_279a55ba6f7b8921fda02d8eee657c76d5a568f3-LOC.arff;RAkELd;102.0;102.0;1.0;9.0;0.08823529411764706;81.0;0.7941176470588235;12.0;0.11764705882352941;11.0;0.10784313725490197;90.0;0.8823529411764706;7.0;0.06862745098039216;0.12365591397849462;0.9583333333333334;0.10215053763440861;0.7916666666666666;0.10752688172043011;0.8333333333333334
217;217_d8b137bdea59555a157eab1e6d7b299425a5260b-LOC.arff;RAkELd;142.0;142.0;1.0;0.0;0.0;91.0;0.6408450704225352;51.0;0.3591549295774648;0.0;0.0;91.0;0.6408450704225352;0.0;0.0;0.18392018779342723;0.5120915032679738;0.12699530516431923;0.35359477124183003;0.14674156047395484;0.40857454092748213
218;218_ac3a1f72c5855fc0d36b19c8e66e6d68a39cbd15-LOC.arff;RAkELd;80.0;80.0;1.0;0.0;0.0;17.0;0.2125;63.0;0.7875;30.0;0.375;17.0;0.2125;33.0;0.4125;0.6427083333333333;0.816137566137566;0.553125;0.7023809523809523;0.5273214285714285;0.6696145124716553
219;219_2e38223968881c7e5dfd4bd3d652f2ccf838b825-LOC.arff;RAkELd;56.0;56.0;1.0;35.0;0.625;21.0;0.375;0.0;0.0;0.0;0.0;56.0;1.0;0.0;0.0;0.0;0.0;0.0;0.0;0.0;0.0
220;220_7fb35d0deba8a34e2fbae152608d059641b6af8b-LOC.arff;RAkELd;326.0;326.0;1.0;100.0;0.3067484662576687;58.0;0.17791411042944785;168.0;0.5153374233128835;105.0;0.3220858895705521;158.0;0.48466257668711654;39.0;0.1196319018404908;0.5829646017699115;0.7842261904761905;0.4357669616519174;0.5862103174603175;0.4760254249192302;0.6403675359032502
222;222_0085dd085a01486221274e38f0621ecda216f7e1-LOC.arff;RAkELd;83.0;83.0;1.0;0.0;0.0;57.0;0.6867469879518072;26.0;0.3132530120481928;0.0;0.0;57.0;0.6867469879518072;0.0;0.0;0.10441767068273092;0.3333333333333333;0.142570281124498;0.4551282051282052;0.11967871485943775;0.3820512820512821
223;223_0d0fb5c617201c805dfa76feaaf03533bc284675-LOC.arff;RAkELd;85.0;85.0;1.0;2.0;0.023529411764705882;3.0;0.03529411764705882;80.0;0.9411764705882353;54.0;0.6352941176470588;5.0;0.058823529411764705;68.0;0.8;0.8112449799196787;0.8416666666666666;0.891566265060241;0.925;0.8164658634538152;0.8470833333333333
224;224_a08b5d3dc11fecb611c3a8c63aa307734a2f189c-LOC.arff;RAkELd;357.0;357.0;1.0;65.0;0.18207282913165265;103.0;0.28851540616246496;189.0;0.5294117647058824;74.0;0.20728291316526612;168.0;0.47058823529411764;131.0;0.36694677871148457;0.4450587084148728;0.6876039304610733;0.5601027397260274;0.8653439153439154;0.4732713633398565;0.7311917359536407
227;227_29f7dfca9c7e7caba6388867790ab19e07329526-LOC.arff;RAkELd;386.0;386.0;1.0;50.0;0.12953367875647667;251.0;0.6502590673575129;85.0;0.22020725388601037;22.0;0.05699481865284974;301.0;0.7797927461139896;10.0;0.025906735751295335;0.1589781746031746;0.6284313725490196;0.12544642857142857;0.49588235294117644;0.12969812925170068;0.5126890756302521
230;230_bda5da747ed28caba5026e2a3f9a998639804822-LOC.arff;RAkELd;42.0;42.0;1.0;30.0;0.7142857142857143;12.0;0.2857142857142857;0.0;0.0;0.0;0.0;42.0;1.0;0.0;0.0;0.0;0.0;0.0;0.0;0.0;0.0
232;232_c865416bc59aa403dc02cc4d2310c2835df5cadb-LOC.arff;RAkELd;30.0;30.0;1.0;18.0;0.6;3.0;0.1;9.0;0.3;9.0;0.3;21.0;0.7;0.0;0.0;0.75;1.0;0.375;0.5;0.5;0.6666666666666666
233;233_279b5e11edf4a13096bb3eb0b42d2b65412eb752-LOC.arff;RAkELd;31.0;31.0;1.0;0.0;0.0;0.0;0.0;31.0;1.0;28.0;0.9032258064516129;0.0;0.0;28.0;0.9032258064516129;0.9516129032258065;0.9516129032258065;0.9516129032258065;0.9516129032258065;0.9354838709677419;0.9354838709677419
234;234_95ca9a1c1af6c621330b2e213409c36aaccc2190-LOC.arff;RAkELd;31.0;31.0;1.0;0.0;0.0;0.0;0.0;31.0;1.0;28.0;0.9032258064516129;0.0;0.0;28.0;0.9032258064516129;0.9516129032258065;0.9516129032258065;0.9516129032258065;0.9516129032258065;0.9354838709677419;0.9354838709677419
235;235_b58828b570e88addafb90aec7ad5555e6583f361-LOC.arff;RAkELd;56.0;56.0;1.0;43.0;0.7678571428571429;13.0;0.23214285714285715;0.0;0.0;0.0;0.0;56.0;1.0;0.0;0.0;0.0;0.0;0.0;0.0;0.0;0.0
236;236_9193ed480ab626a7091ebe53a2cff7ec9daee6ad-LOC.arff;RAkELd;203.0;203.0;1.0;1.0;0.0049261083743842365;126.0;0.6206896551724138;76.0;0.37438423645320196;0.0;0.0;127.0;0.625615763546798;0.0;0.0;0.18688118811881188;0.4967105263157895;0.13184818481848185;0.35043859649122805;0.15066006600660067;0.4004385964912281
240;240_18cd5d4d3a676c23329d2436879554f9c1336a0b-LOC.arff;RAkELd;98.0;98.0;1.0;59.0;0.6020408163265306;37.0;0.37755102040816324;2.0;0.02040816326530612;2.0;0.02040816326530612;96.0;0.9795918367346939;0.0;0.0;0.05128205128205128;1.0;0.02564102564102564;0.5;0.034188034188034185;0.6666666666666666
245;245_fd0b7cce12c304aa1830e37cd5dfa3a789f8a50e-LOC.arff;RAkELd;344.0;344.0;1.0;0.0;0.0;167.0;0.48546511627906974;177.0;0.5145348837209303;97.0;0.2819767441860465;167.0;0.48546511627906974;41.0;0.11918604651162791;0.3994670542635659;0.7763653483992466;0.3273740310077519;0.6362523540489642;0.34505121816168327;0.6706080172181866
246;246_d9deb7cab1de4d29f4df5e046541d5dbc00bc262-LOC.arff;RAkELd;56.0;56.0;1.0;0.0;0.0;56.0;1.0;0.0;0.0;0.0;0.0;56.0;1.0;0.0;0.0;0.0;0.0;0.0;0.0;0.0;0.0
247;247_053d5e7e9e0950ec6a5b377d60276b0ff33a9898-LOC.arff;RAkELd;247.0;247.0;1.0;110.0;0.44534412955465585;54.0;0.21862348178137653;83.0;0.3360323886639676;69.0;0.2793522267206478;164.0;0.6639676113360324;23.0;0.0931174089068826;0.5547445255474452;0.9156626506024096;0.3588807785888078;0.5923694779116465;0.4177615571776156;0.6895582329317269
248;248_e843ce964ba41b08ef363d1007136ccf43f3d775-LOC.arff;RAkELd;115.0;115.0;1.0;115.0;1.0;0.0;0.0;0.0;0.0;0.0;0.0;115.0;1.0;0.0;0.0;0.0;0.0;0.0;0.0;0.0;0.0
251;251_2e9c173a3c4cd3153aaf4798c5b433cb85232129-LOC.arff;RAkELd;58.0;58.0;1.0;0.0;0.0;26.0;0.4482758620689655;32.0;0.5517241379310345;0.0;0.0;26.0;0.4482758620689655;25.0;0.43103448275862066;0.27586206896551724;0.5;0.49137931034482757;0.890625;0.3477011494252873;0.6302083333333333
253;253_36ff8e52e227aa94c2bb30758131e27cd242a573-LOC.arff;RAkELd;568.0;568.0;1.0;0.0;0.0;327.0;0.5757042253521126;241.0;0.4242957746478873;0.0;0.0;327.0;0.5757042253521126;81.0;0.1426056338028169;0.22186032863849764;0.5228907330567082;0.27315140845070424;0.6437759336099586;0.228520237587139;0.538587115973008
257;257_6884dd91207106edb4c0d96e88dda9ffaccacd97-LOC.arff;RAkELd;26.0;26.0;1.0;1.0;0.038461538461538464;24.0;0.9230769230769231;1.0;0.038461538461538464;0.0;0.0;25.0;0.9615384615384616;0.0;0.0;0.02;0.5;0.02;0.5;0.02;0.5
258;258_1aa654f9da31f80b5e0a42a60fbb010d6a208241-LOC.arff;RAkELd;280.0;280.0;1.0;0.0;0.0;27.0;0.09642857142857143;253.0;0.9035714285714286;112.0;0.4;27.0;0.09642857142857143;107.0;0.3821428571428571;0.6871428571428572;0.7604743083003953;0.659047619047619;0.7293807641633728;0.6208526592455164;0.687109662406105
259;259_115229b528e5da53cb7dc982acd579ea518ac5c8-LOC.arff;RAkELd;317.0;317.0;1.0;4.0;0.012618296529968454;98.0;0.30914826498422715;215.0;0.6782334384858044;111.0;0.3501577287066246;102.0;0.3217665615141956;119.0;0.3753943217665615;0.5348775292864749;0.7786821705426357;0.491640042598509;0.715736434108527;0.47653278563821694;0.6937430786267995
260;260_2ebda98af2aaed937042fc41b8be24c8e0884435-LOC.arff;RAkELd;241.0;241.0;1.0;0.0;0.0;51.0;0.21161825726141079;190.0;0.7883817427385892;131.0;0.5435684647302904;51.0;0.21161825726141079;101.0;0.4190871369294606;0.6837482710926694;0.867280701754386;0.6379470460383324;0.8091854636591479;0.6317553124607066;0.8013317384370016
268;268_4de66587d9d0d7a2adb4a6c0814f11cb10469924-LOC.arff;RAkELd;26.0;26.0;1.0;0.0;0.0;4.0;0.15384615384615385;22.0;0.8461538461538461;21.0;0.8076923076923077;4.0;0.15384615384615385;22.0;0.8461538461538461;0.8269230769230769;0.9772727272727273;0.8461538461538461;1.0;0.8333333333333334;0.9848484848484849
274;274_6076994f747be7317f6fd062a5aaf2263c466994-LOC.arff;RAkELd;1782.0;1782.0;1.0;0.0;0.0;1185.0;0.664983164983165;597.0;0.335016835016835;40.0;0.02244668911335578;1185.0;0.664983164983165;408.0;0.22895622895622897;0.171109240553685;0.510748185371301;0.2791072096627652;0.83311398261147;0.2000337267172284;0.5970855963318276
281;281_fd894bfb040a7f784d6f46c3502666d631b33ce6-LOC.arff;RAkELd;101.0;101.0;1.0;17.0;0.16831683168316833;38.0;0.37623762376237624;46.0;0.45544554455445546;44.0;0.43564356435643564;55.0;0.5445544554455446;44.0;0.43564356435643564;0.5396825396825398;0.9855072463768116;0.5357142857142857;0.9782608695652174;0.5349206349206349;0.9768115942028984
282;282_f5a93cc0e281e55eecddd4091498b3fc27298bf3-LOC.arff;RAkELd;101.0;101.0;1.0;0.0;0.0;0.0;0.0;101.0;1.0;71.0;0.7029702970297029;0.0;0.0;95.0;0.9405940594059405;0.8514851485148515;0.8514851485148515;0.9702970297029703;0.9702970297029703;0.8811881188118812;0.8811881188118812
283;283_4b3e6c1064dee35a0cd978bb0de59275bb4838b4-LOC.arff;RAkELd;124.0;124.0;1.0;3.0;0.024193548387096774;56.0;0.45161290322580644;65.0;0.5241935483870968;57.0;0.4596774193548387;59.0;0.47580645161290325;60.0;0.4838709677419355;0.5041322314049587;0.9384615384615385;0.5165289256198347;0.9615384615384616;0.5027548209366391;0.9358974358974359
284;284_d255be86de0bfd43a845c11bd3db3c2a7b11f607-LOC.arff;RAkELd;153.0;153.0;1.0;34.0;0.2222222222222222;59.0;0.38562091503267976;60.0;0.39215686274509803;44.0;0.2875816993464052;93.0;0.6078431372549019;56.0;0.3660130718954248;0.43417366946778707;0.861111111111111;0.48599439775910364;0.9638888888888889;0.44593837535014;0.8844444444444444
285;285_5d4ba8ac2356d5dd5b7a6140363a6e5198a1e221-LOC.arff;RAkELd;170.0;170.0;1.0;40.0;0.23529411764705882;56.0;0.32941176470588235;74.0;0.43529411764705883;58.0;0.3411764705882353;96.0;0.5647058823529412;61.0;0.3588235294117647;0.5076923076923077;0.8918918918918919;0.5166666666666667;0.9076576576576577;0.4958974358974359;0.8711711711711712
286;286_d07b97fb8bc07c47a3738fdf936b84c97510f82e-LOC.arff;RAkELd;58.0;58.0;1.0;0.0;0.0;47.0;0.8103448275862069;11.0;0.1896551724137931;8.0;0.13793103448275862;47.0;0.8103448275862069;10.0;0.1724137931034483;0.16379310344827586;0.8636363636363636;0.1810344827586207;0.9545454545454546;0.16666666666666666;0.8787878787878788
287;287_1bda80fa7409d6c0369990c313d38e858e10823e-LOC.arff;RAkELd;97.0;97.0;1.0;0.0;0.0;0.0;0.0;97.0;1.0;96.0;0.9896907216494846;0.0;0.0;91.0;0.9381443298969072;0.9948453608247423;0.9948453608247423;0.9690721649484536;0.9690721649484536;0.9759450171821307;0.9759450171821307
288;288_8232701e4a2570c020e27e59d40863278a8fd414-LOC.arff;RAkELd;100.0;100.0;1.0;0.0;0.0;0.0;0.0;100.0;1.0;100.0;1.0;0.0;0.0;93.0;0.93;1.0;1.0;0.965;0.965;0.9766666666666667;0.9766666666666667
290;290_23a71f2a8008a2c91972ed5448140c86d0467993-LOC.arff;RAkELd;152.0;152.0;1.0;0.0;0.0;28.0;0.18421052631578946;124.0;0.8157894736842105;59.0;0.3881578947368421;28.0;0.18421052631578946;106.0;0.6973684210526315;0.5964912280701755;0.7311827956989247;0.7554824561403508;0.9260752688172043;0.6313596491228071;0.7739247311827957
291;291_e66f5cc74a71627bb6c5ee2eb0ace8246c458c47-LOC.arff;RAkELd;145.0;145.0;1.0;9.0;0.06206896551724138;12.0;0.08275862068965517;124.0;0.8551724137931035;108.0;0.7448275862068966;21.0;0.14482758620689656;104.0;0.7172413793103448;0.8529411764705882;0.9354838709677419;0.8370098039215685;0.918010752688172;0.8247549019607844;0.9045698924731184
292;292_63d3a026a6c584f5161ce072480a597c7333623c-LOC.arff;RAkELd;121.0;121.0;1.0;0.0;0.0;18.0;0.1487603305785124;103.0;0.8512396694214877;95.0;0.7851239669421488;18.0;0.1487603305785124;91.0;0.7520661157024794;0.8181818181818182;0.9611650485436893;0.8044077134986225;0.9449838187702265;0.799724517906336;0.9394822006472492
293;293_774de765273a50d9d993adcf4cc6952fd8981c4c-LOC.arff;RAkELd;238.0;238.0;1.0;39.0;0.1638655462184874;199.0;0.8361344537815126;0.0;0.0;0.0;0.0;238.0;1.0;0.0;0.0;0.0;0.0;0.0;0.0;0.0;0.0
294;294_e14b8c3a7ec2792c95c5e9dd599a71c3fccc8bc0-LOC.arff;RAkELd;232.0;232.0;1.0;0.0;0.0;18.0;0.07758620689655173;214.0;0.9224137931034483;207.0;0.8922413793103449;18.0;0.07758620689655173;194.0;0.8362068965517241;0.9066091954022989;0.9828660436137072;0.8800287356321839;0.9540498442367601;0.8834770114942528;0.9577881619937695
296;296_b9bb03a497904dd910d0e8f59c857e8ea4b55863-LOC.arff;RAkELd;122.0;122.0;1.0;15.0;0.12295081967213115;107.0;0.8770491803278688;0.0;0.0;0.0;0.0;122.0;1.0;0.0;0.0;0.0;0.0;0.0;0.0;0.0;0.0
301;301_abbd8101a593c732885f7d0b191d1815be3c6699-LOC.arff;RAkELd;101.0;101.0;1.0;0.0;0.0;54.0;0.5346534653465347;47.0;0.46534653465346537;4.0;0.039603960396039604;54.0;0.5346534653465347;46.0;0.45544554455445546;0.2590759075907591;0.5567375886524822;0.4603960396039604;0.9893617021276596;0.32541254125412544;0.699290780141844
302;302_fffbc01e3cd22afb97a497c2792adbf963f7fe21-LOC.arff;RAkELd;101.0;101.0;1.0;0.0;0.0;92.0;0.9108910891089109;9.0;0.0891089108910891;0.0;0.0;92.0;0.9108910891089109;5.0;0.04950495049504951;0.04785478547854785;0.537037037037037;0.06930693069306931;0.7777777777777778;0.05544554455445544;0.6222222222222222
303;303_ab9a81582ff0c7a6004c7babb0b240aa93bcff8c-LOC.arff;RAkELd;168.0;168.0;1.0;12.0;0.07142857142857142;89.0;0.5297619047619048;67.0;0.39880952380952384;2.0;0.011904761904761904;101.0;0.6011904761904762;55.0;0.3273809523809524;0.20352564102564102;0.47388059701492535;0.38995726495726496;0.9079601990049752;0.264010989010989;0.6147121535181236
307;307_681194cf5802d19970c0bc45abd2abbda9e89c13-LOC.arff;RAkELd;106.0;106.0;1.0;0.0;0.0;42.0;0.39622641509433965;64.0;0.6037735849056604;0.0;0.0;42.0;0.39622641509433965;62.0;0.5849056603773585;0.2578616352201258;0.4270833333333333;0.5943396226415094;0.984375;0.3531446540880503;0.5848958333333333
308;308_ae7d06171617de2fb6eed8db1233a6eba6dbddbc-LOC.arff;RAkELd;227.0;227.0;1.0;105.0;0.46255506607929514;7.0;0.030837004405286344;115.0;0.5066079295154186;115.0;0.5066079295154186;112.0;0.4933920704845815;106.0;0.4669603524229075;0.9426229508196722;1.0;0.9057377049180327;0.9608695652173913;0.9180327868852459;0.9739130434782609
309;309_5a257044880b946d387114562c27341a77247634-LOC.arff;RAkELd;20.0;20.0;1.0;0.0;0.0;0.0;0.0;20.0;1.0;11.0;0.55;0.0;0.0;18.0;0.9;0.7583333333333333;0.7583333333333333;0.95;0.95;0.8166666666666667;0.8166666666666667
310;310_c0b45d167dca0436f884502397389d418cdaffdf-LOC.arff;RAkELd;151.0;151.0;1.0;0.0;0.0;22.0;0.1456953642384106;129.0;0.8543046357615894;0.0;0.0;22.0;0.1456953642384106;129.0;0.8543046357615894;0.40618101545253865;0.47545219638242897;0.8543046357615894;1.0;0.5485651214128034;0.6421188630490956
311;311_c6fee2c9e504e502eb903e6c0a8f006ac82c7ffa-LOC.arff;RAkELd;151.0;151.0;1.0;136.0;0.9006622516556292;15.0;0.09933774834437085;0.0;0.0;0.0;0.0;151.0;1.0;0.0;0.0;0.0;0.0;0.0;0.0;0.0;0.0
312;312_00315b8c1ef1c96d8ce567b9850cda18852f09f6-LOC.arff;RAkELd;62.0;62.0;1.0;0.0;0.0;62.0;1.0;0.0;0.0;0.0;0.0;62.0;1.0;0.0;0.0;0.0;0.0;0.0;0.0;0.0;0.0
316;316_387970253ff423e36eef1561f899da89fe882f15-LOC.arff;RAkELd;123.0;123.0;1.0;0.0;0.0;0.0;0.0;123.0;1.0;0.0;0.0;0.0;0.0;123.0;1.0;0.49322493224932246;0.49322493224932246;1.0;1.0;0.659891598915989;0.659891598915989
317;317_5ac7a54583acc6086851f4d6ba448a7ef61ff3ac-LOC.arff;RAkELd;123.0;123.0;1.0;0.0;0.0;0.0;0.0;123.0;1.0;123.0;1.0;0.0;0.0;123.0;1.0;1.0;1.0;1.0;1.0;1.0;1.0
318;318_8d6da9b7d6a838331420b87838e6a1a9e38f2297-LOC.arff;RAkELd;130.0;130.0;1.0;0.0;0.0;0.0;0.0;130.0;1.0;105.0;0.8076923076923077;0.0;0.0;130.0;1.0;0.9038461538461539;0.9038461538461539;1.0;1.0;0.9358974358974359;0.9358974358974359
323;323_4b38d9945e49264ba4857eb1555d197b90e16fff-LOC.arff;RAkELd;116.0;116.0;1.0;0.0;0.0;0.0;0.0;116.0;1.0;116.0;1.0;0.0;0.0;116.0;1.0;1.0;1.0;1.0;1.0;1.0;1.0
326;326_51e3559801821da32736d1426ca0d11e084efa63-LOC.arff;RAkELd;20.0;20.0;1.0;0.0;0.0;0.0;0.0;20.0;1.0;20.0;1.0;0.0;0.0;18.0;0.9;1.0;1.0;0.95;0.95;0.9666666666666666;0.9666666666666666
327;327_0c643bdeb542962e2de44d7473c9f18b49679273-LOC.arff;RAkELd;20.0;20.0;1.0;0.0;0.0;0.0;0.0;20.0;1.0;20.0;1.0;0.0;0.0;18.0;0.9;1.0;1.0;0.95;0.95;0.9666666666666666;0.9666666666666666
329;329_32feb1b1fa6e047b61a75dc225f5aad30da30aa6-LOC.arff;RAkELd;104.0;104.0;1.0;13.0;0.125;91.0;0.875;0.0;0.0;0.0;0.0;104.0;1.0;0.0;0.0;0.0;0.0;0.0;0.0;0.0;0.0
333;333_b4bb85e79cfc97324318a920ac40b36c47f9e5c5-LOC.arff;RAkELd;67.0;67.0;1.0;0.0;0.0;67.0;1.0;0.0;0.0;0.0;0.0;67.0;1.0;0.0;0.0;0.0;0.0;0.0;0.0;0.0;0.0
335;335_60e1c31e6cdfddf1394fda19e9d209fb8d7ec79b-LOC.arff;RAkELd;67.0;67.0;1.0;0.0;0.0;0.0;0.0;67.0;1.0;67.0;1.0;0.0;0.0;64.0;0.9552238805970149;1.0;1.0;0.9776119402985075;0.9776119402985075;0.9850746268656716;0.9850746268656716
344;344_c192d424f798cc38e46f77990bfd7f3aef13aecc-LOC.arff;RAkELd;37.0;37.0;1.0;0.0;0.0;37.0;1.0;0.0;0.0;0.0;0.0;37.0;1.0;0.0;0.0;0.0;0.0;0.0;0.0;0.0;0.0
345;345_e15b3431d416281e04fc1b74f2e3fb8a398f6b6f-LOC.arff;RAkELd;56.0;56.0;1.0;0.0;0.0;56.0;1.0;0.0;0.0;0.0;0.0;56.0;1.0;0.0;0.0;0.0;0.0;0.0;0.0;0.0;0.0
346;346_e6225a171d523bed6c6006aa70d5002d3ef1d08e-LOC.arff;RAkELd;62.0;62.0;1.0;0.0;0.0;0.0;0.0;62.0;1.0;62.0;1.0;0.0;0.0;57.0;0.9193548387096774;1.0;1.0;0.9596774193548387;0.9596774193548387;0.9731182795698925;0.9731182795698925
347;347_516ba13ee7a5d50731bce613303dc5d83db9c9f1-LOC.arff;RAkELd;107.0;107.0;1.0;83.0;0.7757009345794392;20.0;0.18691588785046728;4.0;0.037383177570093455;0.0;0.0;103.0;0.9626168224299065;0.0;0.0;0.08333333333333333;0.5;0.08333333333333333;0.5;0.08333333333333333;0.5
348;348_b897a297fa46d1a26c1dd1fd997b1d881d8d0087-LOC.arff;RAkELd;160.0;160.0;1.0;88.0;0.55;60.0;0.375;12.0;0.075;12.0;0.075;148.0;0.925;0.0;0.0;0.16666666666666666;1.0;0.08333333333333333;0.5;0.1111111111111111;0.6666666666666666
349;349_c8b7d43e36f39ceb3a7476ebc4b5121ca15d41ff-LOC.arff;RAkELd;62.0;62.0;1.0;0.0;0.0;31.0;0.5;31.0;0.5;5.0;0.08064516129032258;31.0;0.5;30.0;0.4838709677419355;0.2903225806451613;0.5806451612903226;0.49193548387096775;0.9838709677419355;0.3548387096774194;0.7096774193548387
350;350_5e48a52a2f746619e0066bf8f62d96c0dcd5430d-LOC.arff;RAkELd;1.0;1.0;1.0;1.0;1.0;0.0;0.0;0.0;0.0;0.0;0.0;1.0;1.0;0.0;0.0;0.0;0.0;0.0;0.0;0.0;0.0
353;353_e24a447a33bd5e72f200efe67fe51a00a111ac55-LOC.arff;RAkELd;67.0;67.0;1.0;0.0;0.0;0.0;0.0;67.0;1.0;67.0;1.0;0.0;0.0;64.0;0.9552238805970149;1.0;1.0;0.9776119402985075;0.9776119402985075;0.9850746268656716;0.9850746268656716
361;361_90f879438a17ccffb488c29a340ca2b01c9d47b8-LOC.arff;RAkELd;156.0;156.0;1.0;0.0;0.0;39.0;0.25;117.0;0.75;38.0;0.24358974358974358;39.0;0.25;116.0;0.7435897435897436;0.4967948717948718;0.6623931623931624;0.7467948717948718;0.9957264957264957;0.579059829059829;0.7720797720797721
365;365_7c355bcc8f7bc0b6eab7a5cee5e506c804123158-LOC.arff;RAkELd;140.0;140.0;1.0;0.0;0.0;0.0;0.0;140.0;1.0;140.0;1.0;0.0;0.0;140.0;1.0;1.0;1.0;1.0;1.0;1.0;1.0
372;372_fd223d43e8e61424111bc13d5a7b9372ad83a0a1-LOC.arff;RAkELd;67.0;67.0;1.0;0.0;0.0;67.0;1.0;0.0;0.0;0.0;0.0;67.0;1.0;0.0;0.0;0.0;0.0;0.0;0.0;0.0;0.0
389;389_f59d33b38c3211a89fa48c9583136dfc7330eecb-LOC.arff;RAkELd;90.0;90.0;1.0;9.0;0.1;0.0;0.0;81.0;0.9;23.0;0.25555555555555554;9.0;0.1;62.0;0.6888888888888889;0.6419753086419753;0.6419753086419753;0.8930041152263374;0.8930041152263374;0.7181069958847737;0.7181069958847737
390;390_80838b71c282dfad386e4dfe49ee28db5640a1bc-LOC.arff;RAkELd;3.0;3.0;1.0;3.0;1.0;0.0;0.0;0.0;0.0;0.0;0.0;3.0;1.0;0.0;0.0;0.0;0.0;0.0;0.0;0.0;0.0
393;393_1dd4f428067b67c344c585bce8ada70277bee208-LOC.arff;RAkELd;39.0;39.0;1.0;0.0;0.0;39.0;1.0;0.0;0.0;0.0;0.0;39.0;1.0;0.0;0.0;0.0;0.0;0.0;0.0;0.0;0.0
394;394_d346784cb6205037c355a73aaedad64505834e53-LOC.arff;RAkELd;39.0;39.0;1.0;0.0;0.0;0.0;0.0;39.0;1.0;39.0;1.0;0.0;0.0;39.0;1.0;1.0;1.0;1.0;1.0;1.0;1.0
396;396_0b966d29fdef50343b06a40b35684cbd31675826-LOC.arff;RAkELd;131.0;131.0;1.0;0.0;0.0;109.0;0.8320610687022901;22.0;0.16793893129770993;0.0;0.0;109.0;0.8320610687022901;22.0;0.16793893129770993;0.034569247546346785;0.20584415584415583;0.16793893129770993;1.0;0.056615776081424936;0.33712121212121215
397;397_cdd1403adeb4392be3d6e5e619cfdd5c9f85f8ab-LOC.arff;RAkELd;131.0;131.0;1.0;0.0;0.0;0.0;0.0;131.0;1.0;127.0;0.9694656488549618;0.0;0.0;124.0;0.9465648854961832;0.9847328244274809;0.9847328244274809;0.9732824427480916;0.9732824427480916;0.9732824427480916;0.9732824427480916
398;398_0309336c10dc582e165907603f7e8eadfd3ed341-LOC.arff;RAkELd;131.0;131.0;1.0;0.0;0.0;0.0;0.0;131.0;1.0;128.0;0.9770992366412213;0.0;0.0;124.0;0.9465648854961832;0.9860050890585241;0.9860050890585241;0.9732824427480916;0.9732824427480916;0.9732824427480916;0.9732824427480916
403;403_9fbc0c23c2e22f2ce367704b9c690fb26f89dad5-LOC.arff;RAkELd;131.0;131.0;1.0;0.0;0.0;0.0;0.0;131.0;1.0;122.0;0.9312977099236641;0.0;0.0;124.0;0.9465648854961832;0.955470737913486;0.955470737913486;0.9732824427480916;0.9732824427480916;0.950381679389313;0.950381679389313
407;407_d86f0aae2bd61c382d984bc1c3db719162ebd8b7-LOC.arff;RAkELd;36.0;36.0;1.0;0.0;0.0;0.0;0.0;36.0;1.0;36.0;1.0;0.0;0.0;0.0;0.0;1.0;1.0;0.5;0.5;0.6666666666666666;0.6666666666666666
426;426_20084743fafc19d55407f2c269e59e440a26fd2d-LOC.arff;RAkELd;3.0;3.0;1.0;0.0;0.0;3.0;1.0;0.0;0.0;0.0;0.0;3.0;1.0;0.0;0.0;0.0;0.0;0.0;0.0;0.0;0.0
427;427_867a15708e7c4a3e241b5b78f13251fc8af2d4c8-LOC.arff;RAkELd;3.0;3.0;1.0;0.0;0.0;0.0;0.0;3.0;1.0;3.0;1.0;0.0;0.0;3.0;1.0;1.0;1.0;1.0;1.0;1.0;1.0
428;428_4497194fc0a9990576423b34a06d472feda54816-LOC.arff;RAkELd;3.0;3.0;1.0;0.0;0.0;0.0;0.0;3.0;1.0;3.0;1.0;0.0;0.0;3.0;1.0;1.0;1.0;1.0;1.0;1.0;1.0
429;429_67510f726f53ab0c259d2dd3b19a24e2df5f1db4-LOC.arff;RAkELd;6.0;6.0;1.0;3.0;0.5;3.0;0.5;0.0;0.0;0.0;0.0;6.0;1.0;0.0;0.0;0.0;0.0;0.0;0.0;0.0;0.0
435;435_91d14a62cbbdd2cc59c0bfcd006217b1afff2214-LOC.arff;RAkELd;68.0;68.0;1.0;33.0;0.4852941176470588;35.0;0.5147058823529411;0.0;0.0;0.0;0.0;68.0;1.0;0.0;0.0;0.0;0.0;0.0;0.0;0.0;0.0
436;436_c1e0cfda8f1f406d5e814cb77510026691c2076c-LOC.arff;RAkELd;68.0;68.0;1.0;11.0;0.16176470588235295;31.0;0.45588235294117646;26.0;0.38235294117647056;26.0;0.38235294117647056;42.0;0.6176470588235294;26.0;0.38235294117647056;0.45614035087719296;1.0;0.45614035087719296;1.0;0.45614035087719296;1.0
437;437_a577e5d6c12c6065c085092ceac97d2becccba22-LOC.arff;RAkELd;79.0;79.0;1.0;0.0;0.0;19.0;0.24050632911392406;60.0;0.759493670886076;60.0;0.759493670886076;19.0;0.24050632911392406;53.0;0.6708860759493671;0.759493670886076;1.0;0.7151898734177216;0.9416666666666667;0.729957805907173;0.961111111111111
438;438_7040b48b20c7be975e08d9e7d3151c59496a80e0-LOC.arff;RAkELd;107.0;107.0;1.0;0.0;0.0;18.0;0.16822429906542055;89.0;0.8317757009345794;13.0;0.12149532710280374;18.0;0.16822429906542055;80.0;0.7476635514018691;0.4750778816199377;0.5711610486891386;0.7897196261682243;0.949438202247191;0.5794392523364486;0.6966292134831461
439;439_a01ee578bf057333dd86952743c05cd5d2063c65-LOC.arff;RAkELd;2.0;2.0;1.0;0.0;0.0;0.0;0.0;2.0;1.0;2.0;1.0;0.0;0.0;2.0;1.0;1.0;1.0;1.0;1.0;1.0;1.0
440;440_2dac3cbe3ea66097e60695a93f94aaf1f25d8090-LOC.arff;RAkELd;2.0;2.0;1.0;0.0;0.0;0.0;0.0;2.0;1.0;2.0;1.0;0.0;0.0;2.0;1.0;1.0;1.0;1.0;1.0;1.0;1.0
441;441_fc5bcec2a95685d229657b3a45209169816f949f-LOC.arff;RAkELd;82.0;82.0;1.0;0.0;0.0;82.0;1.0;0.0;0.0;0.0;0.0;82.0;1.0;0.0;0.0;0.0;0.0;0.0;0.0;0.0;0.0
442;442_4b762cea7df0b1cc67e781386ab2c5134aeb46a9-LOC.arff;RAkELd;86.0;86.0;1.0;0.0;0.0;68.0;0.7906976744186046;18.0;0.20930232558139536;0.0;0.0;68.0;0.7906976744186046;18.0;0.20930232558139536;0.10465116279069768;0.5;0.20930232558139536;1.0;0.13953488372093023;0.6666666666666666
445;445_7282c1cbe9da220dafe6719ff46c041e937ccc34-LOC.arff;RAkELd;8.0;8.0;1.0;0.0;0.0;5.0;0.625;3.0;0.375;0.0;0.0;5.0;0.625;3.0;0.375;0.16666666666666666;0.4444444444444444;0.375;1.0;0.22916666666666666;0.611111111111111
446;446_2aedefcaeaaf162591a335dc2e2f36167fa1f5e0-LOC.arff;RAkELd;13.0;13.0;1.0;0.0;0.0;13.0;1.0;0.0;0.0;0.0;0.0;13.0;1.0;0.0;0.0;0.0;0.0;0.0;0.0;0.0;0.0
447;447_9901b599fac011ebeab338e2950185b512029878-LOC.arff;RAkELd;6.0;6.0;1.0;0.0;0.0;0.0;0.0;6.0;1.0;6.0;1.0;0.0;0.0;6.0;1.0;1.0;1.0;1.0;1.0;1.0;1.0
448;448_cc2be45da50bbe11387c8751bb6fc10c0ca2ef98-LOC.arff;RAkELd;28.0;28.0;1.0;28.0;1.0;0.0;0.0;0.0;0.0;0.0;0.0;28.0;1.0;0.0;0.0;0.0;0.0;0.0;0.0;0.0;0.0
449;449_484e65be2ae9197a0ad6267d31527d477e7ce452-LOC.arff;RAkELd;109.0;109.0;1.0;109.0;1.0;0.0;0.0;0.0;0.0;0.0;0.0;109.0;1.0;0.0;0.0;0.0;0.0;0.0;0.0;0.0;0.0
450;450_9739b66b1c626fc89434f43c90fbc9c1ef380af7-LOC.arff;RAkELd;137.0;137.0;1.0;0.0;0.0;136.0;0.9927007299270073;1.0;0.0072992700729927005;0.0;0.0;136.0;0.9927007299270073;1.0;0.0072992700729927005;0.0036496350364963502;0.5;0.0072992700729927005;1.0;0.004866180048661801;0.6666666666666666
451;451_0da82ea34cadb535df6673aa1e4b91ac31c2ec80-LOC.arff;RAkELd;1.0;1.0;1.0;0.0;0.0;0.0;0.0;1.0;1.0;1.0;1.0;0.0;0.0;1.0;1.0;1.0;1.0;1.0;1.0;1.0;1.0
452;452_3c935dde4edc1d77fe34f105e54d5a49cb7730ec-LOC.arff;RAkELd;109.0;109.0;1.0;109.0;1.0;0.0;0.0;0.0;0.0;0.0;0.0;109.0;1.0;0.0;0.0;0.0;0.0;0.0;0.0;0.0;0.0
454;454_be31bf6c560aaac0a35d7f4f382936b3239fda79-LOC.arff;RAkELd;91.0;91.0;1.0;0.0;0.0;59.0;0.6483516483516484;32.0;0.3516483516483517;0.0;0.0;59.0;0.6483516483516484;32.0;0.3516483516483517;0.1282051282051282;0.3645833333333333;0.3516483516483517;1.0;0.18681318681318682;0.53125
455;455_bd050161b1dfd3c55491c5a2be555bb3cddaa695-LOC.arff;RAkELd;184.0;184.0;1.0;15.0;0.08152173913043478;76.0;0.41304347826086957;93.0;0.5054347826086957;93.0;0.5054347826086957;91.0;0.4945652173913043;90.0;0.4891304347826087;0.5502958579881657;1.0;0.5414201183431953;0.9838709677419355;0.5443786982248521;0.989247311827957
456;456_02104652dec186c472f9997b4f12d91ed51f5ac2-LOC.arff;RAkELd;81.0;81.0;1.0;0.0;0.0;79.0;0.9753086419753086;2.0;0.024691358024691357;0.0;0.0;79.0;0.9753086419753086;2.0;0.024691358024691357;0.012345679012345678;0.5;0.024691358024691357;1.0;0.016460905349794237;0.6666666666666666
457;457_0775084efea892a7e80e4f85c0c8c8628970e579-LOC.arff;RAkELd;31.0;31.0;1.0;21.0;0.6774193548387096;5.0;0.16129032258064516;5.0;0.16129032258064516;0.0;0.0;26.0;0.8387096774193549;5.0;0.16129032258064516;0.25;0.5;0.5;1.0;0.3333333333333333;0.6666666666666666
458;458_b139d7b4fd70b28345ee1b52fb495983507112b5-LOC.arff;RAkELd;92.0;92.0;1.0;84.0;0.9130434782608695;0.0;0.0;8.0;0.08695652173913043;0.0;0.0;84.0;0.9130434782608695;8.0;0.08695652173913043;0.5;0.5;1.0;1.0;0.6666666666666666;0.6666666666666666
459;459_84d74e78b5fb540b10d51b855febf117cd9d898d-LOC.arff;RAkELd;127.0;127.0;1.0;0.0;0.0;127.0;1.0;0.0;0.0;0.0;0.0;127.0;1.0;0.0;0.0;0.0;0.0;0.0;0.0;0.0;0.0
460;460_c45dad5d500070223da30a2c01951afa4bd8c14b-LOC.arff;RAkELd;44.0;44.0;1.0;0.0;0.0;44.0;1.0;0.0;0.0;0.0;0.0;44.0;1.0;0.0;0.0;0.0;0.0;0.0;0.0;0.0;0.0
461;461_35a90d531df1c7b28ed8390ab61dd2aba9a91514-LOC.arff;RAkELd;44.0;44.0;1.0;44.0;1.0;0.0;0.0;0.0;0.0;0.0;0.0;44.0;1.0;0.0;0.0;0.0;0.0;0.0;0.0;0.0;0.0
462;462_248ae98668bfcafd44b65e2fbca35e9d8ba77aa5-LOC.arff;RAkELd;78.0;78.0;1.0;0.0;0.0;0.0;0.0;78.0;1.0;0.0;0.0;0.0;0.0;42.0;0.5384615384615384;0.3523504273504274;0.3523504273504274;0.704059829059829;0.704059829059829;0.42933455433455436;0.42933455433455436
463;463_a43ba3d3e7fc470480d454f313a446ad11f2663f-LOC.arff;RAkELd;185.0;185.0;1.0;1.0;0.005405405405405406;109.0;0.5891891891891892;75.0;0.40540540540540543;58.0;0.31351351351351353;110.0;0.5945945945945946;60.0;0.32432432432432434;0.36141304347826086;0.8866666666666667;0.3550724637681159;0.8711111111111111;0.3406055900621118;0.8356190476190476
464;464_c84233b13de8667c0086562fbb8a762bda1c9450-LOC.arff;RAkELd;254.0;254.0;1.0;0.0;0.0;8.0;0.031496062992125984;246.0;0.968503937007874;134.0;0.5275590551181102;8.0;0.031496062992125984;204.0;0.8031496062992126;0.7480314960629921;0.7723577235772358;0.8589238845144357;0.8868563685636855;0.7623359580052493;0.7871273712737127
465;465_1ccada0eeef1e1585377577a86f7423f9177791d-LOC.arff;RAkELd;244.0;244.0;1.0;0.0;0.0;204.0;0.8360655737704918;40.0;0.16393442622950818;0.0;0.0;204.0;0.8360655737704918;35.0;0.14344262295081966;0.07616120218579235;0.4645833333333333;0.15368852459016394;0.9375;0.09986338797814208;0.6091666666666666
468;468_5a15ca5d5d757ab85ddda1463d1252000c59c222-LOC.arff;RAkELd;23.0;23.0;1.0;0.0;0.0;3.0;0.13043478260869565;20.0;0.8695652173913043;20.0;0.8695652173913043;3.0;0.13043478260869565;11.0;0.4782608695652174;0.8695652173913043;1.0;0.6739130434782609;0.775;0.7391304347826086;0.85
470;470_d7c4977d693a51f83ddd085c093ce15c75b6430e-LOC.arff;RAkELd;46.0;46.0;1.0;0.0;0.0;38.0;0.8260869565217391;8.0;0.17391304347826086;0.0;0.0;38.0;0.8260869565217391;8.0;0.17391304347826086;0.05253623188405797;0.3020833333333333;0.17391304347826086;1.0;0.08043478260869566;0.4625
471;471_05a014d6be66825548d47aa3959b8f7dd6522864-LOC.arff;RAkELd;93.0;93.0;1.0;26.0;0.27956989247311825;36.0;0.3870967741935484;31.0;0.3333333333333333;4.0;0.043010752688172046;62.0;0.6666666666666666;18.0;0.1935483870967742;0.26119402985074625;0.5645161290322581;0.3656716417910448;0.7903225806451613;0.2960199004975124;0.6397849462365591
478;478_a63063135b91d51292ccc8cc3fbf07ffe25c7052-LOC.arff;RAkELd;44.0;44.0;1.0;0.0;0.0;0.0;0.0;44.0;1.0;44.0;1.0;0.0;0.0;44.0;1.0;1.0;1.0;1.0;1.0;1.0;1.0
480;480_a6971bd502d689c7470be47a2236274f6c4d692d-LOC.arff;RAkELd;50.0;50.0;1.0;0.0;0.0;0.0;0.0;50.0;1.0;41.0;0.82;0.0;0.0;50.0;1.0;0.91;0.91;1.0;1.0;0.94;0.94
498;498_42164d92ce4a0dda0543ba36924e6b92b49565f9-LOC.arff;RAkELd;190.0;190.0;1.0;0.0;0.0;1.0;0.005263157894736842;189.0;0.9947368421052631;189.0;0.9947368421052631;1.0;0.005263157894736842;152.0;0.8;0.9947368421052631;1.0;0.8719298245614034;0.8765432098765431;0.9043859649122807;0.9091710758377426
501;501_a194c350da64012f86f901fe9f03a455c3f7f2e0-LOC.arff;RAkELd;324.0;324.0;1.0;44.0;0.13580246913580246;27.0;0.08333333333333333;253.0;0.7808641975308642;200.0;0.6172839506172839;71.0;0.2191358024691358;176.0;0.5432098765432098;0.8083333333333333;0.8945981554677207;0.7336309523809523;0.8119235836627141;0.7385884353741496;0.8174101261057782
502;502_9c3ec85df5f899d8075db3d041e3314cd8656cff-LOC.arff;RAkELd;1.0;1.0;1.0;0.0;0.0;0.0;0.0;1.0;1.0;1.0;1.0;0.0;0.0;1.0;1.0;1.0;1.0;1.0;1.0;1.0;1.0
510;510_0611a11a2dc34a37c67ad86143ac1e06741c3d59-LOC.arff;RAkELd;1.0;1.0;1.0;0.0;0.0;0.0;0.0;1.0;1.0;1.0;1.0;0.0;0.0;1.0;1.0;1.0;1.0;1.0;1.0;1.0;1.0
526;526_72ba953eab89064d312c4f6692872fa84083f7b8-LOC.arff;RAkELd;192.0;192.0;1.0;96.0;0.5;94.0;0.4895833333333333;2.0;0.010416666666666666;1.0;0.005208333333333333;190.0;0.9895833333333334;1.0;0.005208333333333333;0.013020833333333334;0.625;0.013888888888888888;0.6666666666666666;0.013392857142857144;0.6428571428571429
533;533_cf3bc0c3ec61e5d91622c55e8fd22eae3fceae6d-LOC.arff;RAkELd;3.0;3.0;1.0;0.0;0.0;0.0;0.0;3.0;1.0;3.0;1.0;0.0;0.0;3.0;1.0;1.0;1.0;1.0;1.0;1.0;1.0
534;534_db1374f26a234adb80ab0ca710fbbb01ef5bf97d-LOC.arff;RAkELd;3.0;3.0;1.0;0.0;0.0;0.0;0.0;3.0;1.0;3.0;1.0;0.0;0.0;3.0;1.0;1.0;1.0;1.0;1.0;1.0;1.0
535;535_106734762f16141e5f491bc99ad4568755ff31ea-LOC.arff;RAkELd;15.0;15.0;1.0;15.0;1.0;0.0;0.0;0.0;0.0;0.0;0.0;15.0;1.0;0.0;0.0;0.0;0.0;0.0;0.0;0.0;0.0
541;541_2af7617117a23879069a37bf02a5a0a1c0af130c-LOC.arff;RAkELd;18.0;18.0;1.0;0.0;0.0;15.0;0.8333333333333334;3.0;0.16666666666666666;0.0;0.0;15.0;0.8333333333333334;3.0;0.16666666666666666;0.08333333333333333;0.5;0.16666666666666666;1.0;0.1111111111111111;0.6666666666666666
