commit;DataSet;Classifier;TotalInstances;InstancesWithRankedLabels;PercentageOfInstancesWithRankedLabels;InstancesWithPrecisionNull;PercentageOfInstancesWithPrecisionNull;InstancesWithPrecisionZero;PercentageOfInstancesWithPrecisionZero;InstancesWithPrecisionNonZero;PercentageOfInstancesWithPrecisionNonZero;InstancesWithPrecisionOne;PercentageOfInstancesWithPrecisionOne;InstancesWithRecallZero;PercentageOfInstancesWithRecallZero;InstancesWithRecallOne;PercentageOfInstancesWithRecallOne;AveragePrecisionForAllNonNullPrecision;AveragePrecisionForNonZeroPrecision;AverageRecallForAllNonNullPrecision;AverageRecallForAllNonZeroPrecision;AverageFScoreForAllNonNullPrecision;AverageFScoreForAllNonZeroPrecision;
13;13_b2a20839ea2348852647e103ce22eb1483e10cf1-FRAGMENT.arff;BR;4.0;4.0;1.0;0.0;0.0;4.0;1.0;0.0;0.0;0.0;0.0;4.0;1.0;0.0;0.0;0.0;0.0;0.0;0.0;0.0;0.0;
13;13_b2a20839ea2348852647e103ce22eb1483e10cf1-FRAGMENT.arff;LP;4.0;4.0;1.0;0.0;0.0;4.0;1.0;0.0;0.0;0.0;0.0;4.0;1.0;0.0;0.0;0.0;0.0;0.0;0.0;0.0;0.0;
13;13_b2a20839ea2348852647e103ce22eb1483e10cf1-FRAGMENT.arff;RAkELd;4.0;4.0;1.0;0.0;0.0;4.0;1.0;0.0;0.0;0.0;0.0;4.0;1.0;0.0;0.0;0.0;0.0;0.0;0.0;0.0;0.0;
14;14_e72c0b188d7dca3bccfb2a409d0156e76d114f85-FRAGMENT.arff;BR;1.0;1.0;1.0;0.0;0.0;1.0;1.0;0.0;0.0;0.0;0.0;1.0;1.0;0.0;0.0;0.0;0.0;0.0;0.0;0.0;0.0;
14;14_e72c0b188d7dca3bccfb2a409d0156e76d114f85-FRAGMENT.arff;LP;1.0;1.0;1.0;0.0;0.0;1.0;1.0;0.0;0.0;0.0;0.0;1.0;1.0;0.0;0.0;0.0;0.0;0.0;0.0;0.0;0.0;
14;14_e72c0b188d7dca3bccfb2a409d0156e76d114f85-FRAGMENT.arff;RAkELd;1.0;1.0;1.0;0.0;0.0;1.0;1.0;0.0;0.0;0.0;0.0;1.0;1.0;0.0;0.0;0.0;0.0;0.0;0.0;0.0;0.0;
16;16_dbc64c7dee79ac92f5348641b381c5c713563aa9-FRAGMENT.arff;BR;1.0;1.0;1.0;0.0;0.0;1.0;1.0;0.0;0.0;0.0;0.0;1.0;1.0;0.0;0.0;0.0;0.0;0.0;0.0;0.0;0.0;
16;16_dbc64c7dee79ac92f5348641b381c5c713563aa9-FRAGMENT.arff;LP;1.0;1.0;1.0;0.0;0.0;1.0;1.0;0.0;0.0;0.0;0.0;1.0;1.0;0.0;0.0;0.0;0.0;0.0;0.0;0.0;0.0;
16;16_dbc64c7dee79ac92f5348641b381c5c713563aa9-FRAGMENT.arff;RAkELd;1.0;1.0;1.0;0.0;0.0;1.0;1.0;0.0;0.0;0.0;0.0;1.0;1.0;0.0;0.0;0.0;0.0;0.0;0.0;0.0;0.0;
17;17_b2026851ef304444182724685a9d17f8db843990-FRAGMENT.arff;BR;1.0;1.0;1.0;0.0;0.0;1.0;1.0;0.0;0.0;0.0;0.0;1.0;1.0;0.0;0.0;0.0;0.0;0.0;0.0;0.0;0.0;
17;17_b2026851ef304444182724685a9d17f8db843990-FRAGMENT.arff;LP;1.0;1.0;1.0;0.0;0.0;1.0;1.0;0.0;0.0;0.0;0.0;1.0;1.0;0.0;0.0;0.0;0.0;0.0;0.0;0.0;0.0;
17;17_b2026851ef304444182724685a9d17f8db843990-FRAGMENT.arff;RAkELd;1.0;1.0;1.0;0.0;0.0;1.0;1.0;0.0;0.0;0.0;0.0;1.0;1.0;0.0;0.0;0.0;0.0;0.0;0.0;0.0;0.0;
28;28_103600db3443b0ead497c0eddcd2fcb4c5aee08d-FRAGMENT.arff;BR;1.0;1.0;1.0;0.0;0.0;1.0;1.0;0.0;0.0;0.0;0.0;1.0;1.0;0.0;0.0;0.0;0.0;0.0;0.0;0.0;0.0;
28;28_103600db3443b0ead497c0eddcd2fcb4c5aee08d-FRAGMENT.arff;LP;1.0;1.0;1.0;0.0;0.0;1.0;1.0;0.0;0.0;0.0;0.0;1.0;1.0;0.0;0.0;0.0;0.0;0.0;0.0;0.0;0.0;
28;28_103600db3443b0ead497c0eddcd2fcb4c5aee08d-FRAGMENT.arff;RAkELd;1.0;1.0;1.0;0.0;0.0;1.0;1.0;0.0;0.0;0.0;0.0;1.0;1.0;0.0;0.0;0.0;0.0;0.0;0.0;0.0;0.0;
31;31_b9532fc25f3850863c38917bf9dc4f57216244e5-FRAGMENT.arff;BR;2.0;2.0;1.0;2.0;1.0;0.0;0.0;0.0;0.0;0.0;0.0;2.0;1.0;0.0;0.0;0.0;0.0;0.0;0.0;0.0;0.0;
31;31_b9532fc25f3850863c38917bf9dc4f57216244e5-FRAGMENT.arff;LP;2.0;2.0;1.0;0.0;0.0;2.0;1.0;0.0;0.0;0.0;0.0;2.0;1.0;0.0;0.0;0.0;0.0;0.0;0.0;0.0;0.0;
31;31_b9532fc25f3850863c38917bf9dc4f57216244e5-FRAGMENT.arff;RAkELd;2.0;2.0;1.0;2.0;1.0;0.0;0.0;0.0;0.0;0.0;0.0;2.0;1.0;0.0;0.0;0.0;0.0;0.0;0.0;0.0;0.0;
38;38_6e53d5f3cd53c9ee555ed2845e447cafccf9575b-FRAGMENT.arff;BR;1.0;1.0;1.0;1.0;1.0;0.0;0.0;0.0;0.0;0.0;0.0;1.0;1.0;0.0;0.0;0.0;0.0;0.0;0.0;0.0;0.0;
38;38_6e53d5f3cd53c9ee555ed2845e447cafccf9575b-FRAGMENT.arff;LP;1.0;1.0;1.0;0.0;0.0;1.0;1.0;0.0;0.0;0.0;0.0;1.0;1.0;0.0;0.0;0.0;0.0;0.0;0.0;0.0;0.0;
38;38_6e53d5f3cd53c9ee555ed2845e447cafccf9575b-FRAGMENT.arff;RAkELd;1.0;1.0;1.0;1.0;1.0;0.0;0.0;0.0;0.0;0.0;0.0;1.0;1.0;0.0;0.0;0.0;0.0;0.0;0.0;0.0;0.0;
40;40_937278c363429bcf9c3eaff18b0bac61d0349276-FRAGMENT.arff;BR;4.0;4.0;1.0;2.0;0.5;2.0;0.5;0.0;0.0;0.0;0.0;4.0;1.0;0.0;0.0;0.0;0.0;0.0;0.0;0.0;0.0;
40;40_937278c363429bcf9c3eaff18b0bac61d0349276-FRAGMENT.arff;LP;4.0;4.0;1.0;0.0;0.0;4.0;1.0;0.0;0.0;0.0;0.0;4.0;1.0;0.0;0.0;0.0;0.0;0.0;0.0;0.0;0.0;
40;40_937278c363429bcf9c3eaff18b0bac61d0349276-FRAGMENT.arff;RAkELd;4.0;4.0;1.0;2.0;0.5;2.0;0.5;0.0;0.0;0.0;0.0;4.0;1.0;0.0;0.0;0.0;0.0;0.0;0.0;0.0;0.0;
41;41_e83307d615005a9cdec7d811950b918f7b22e1cd-FRAGMENT.arff;BR;5.0;5.0;1.0;0.0;0.0;5.0;1.0;0.0;0.0;0.0;0.0;5.0;1.0;0.0;0.0;0.0;0.0;0.0;0.0;0.0;0.0;
41;41_e83307d615005a9cdec7d811950b918f7b22e1cd-FRAGMENT.arff;LP;5.0;5.0;1.0;0.0;0.0;5.0;1.0;0.0;0.0;0.0;0.0;5.0;1.0;0.0;0.0;0.0;0.0;0.0;0.0;0.0;0.0;
41;41_e83307d615005a9cdec7d811950b918f7b22e1cd-FRAGMENT.arff;RAkELd;5.0;5.0;1.0;0.0;0.0;5.0;1.0;0.0;0.0;0.0;0.0;5.0;1.0;0.0;0.0;0.0;0.0;0.0;0.0;0.0;0.0;
44;44_c06cb78a37de1ccdc027749a68d4a0174c54dbe9-FRAGMENT.arff;BR;3.0;3.0;1.0;1.0;0.3333333333333333;2.0;0.6666666666666666;0.0;0.0;0.0;0.0;3.0;1.0;0.0;0.0;0.0;0.0;0.0;0.0;0.0;0.0;
44;44_c06cb78a37de1ccdc027749a68d4a0174c54dbe9-FRAGMENT.arff;LP;3.0;3.0;1.0;0.0;0.0;3.0;1.0;0.0;0.0;0.0;0.0;3.0;1.0;0.0;0.0;0.0;0.0;0.0;0.0;0.0;0.0;
44;44_c06cb78a37de1ccdc027749a68d4a0174c54dbe9-FRAGMENT.arff;RAkELd;3.0;3.0;1.0;1.0;0.3333333333333333;2.0;0.6666666666666666;0.0;0.0;0.0;0.0;3.0;1.0;0.0;0.0;0.0;0.0;0.0;0.0;0.0;0.0;
46;46_80b9f906d53f0f45cd7cc91565164137324ec7d8-FRAGMENT.arff;BR;2.0;2.0;1.0;0.0;0.0;2.0;1.0;0.0;0.0;0.0;0.0;2.0;1.0;0.0;0.0;0.0;0.0;0.0;0.0;0.0;0.0;
46;46_80b9f906d53f0f45cd7cc91565164137324ec7d8-FRAGMENT.arff;LP;2.0;2.0;1.0;0.0;0.0;2.0;1.0;0.0;0.0;0.0;0.0;2.0;1.0;0.0;0.0;0.0;0.0;0.0;0.0;0.0;0.0;
46;46_80b9f906d53f0f45cd7cc91565164137324ec7d8-FRAGMENT.arff;RAkELd;2.0;2.0;1.0;0.0;0.0;2.0;1.0;0.0;0.0;0.0;0.0;2.0;1.0;0.0;0.0;0.0;0.0;0.0;0.0;0.0;0.0;
47;47_74a6e73ea07a8feb65781624ff92878bb6790970-FRAGMENT.arff;BR;3.0;3.0;1.0;0.0;0.0;3.0;1.0;0.0;0.0;0.0;0.0;3.0;1.0;0.0;0.0;0.0;0.0;0.0;0.0;0.0;0.0;
47;47_74a6e73ea07a8feb65781624ff92878bb6790970-FRAGMENT.arff;LP;3.0;3.0;1.0;0.0;0.0;3.0;1.0;0.0;0.0;0.0;0.0;3.0;1.0;0.0;0.0;0.0;0.0;0.0;0.0;0.0;0.0;
47;47_74a6e73ea07a8feb65781624ff92878bb6790970-FRAGMENT.arff;RAkELd;3.0;3.0;1.0;0.0;0.0;3.0;1.0;0.0;0.0;0.0;0.0;3.0;1.0;0.0;0.0;0.0;0.0;0.0;0.0;0.0;0.0;
48;48_05e272ff8f49cba53cc9b243183cf75b80107749-FRAGMENT.arff;BR;1.0;1.0;1.0;1.0;1.0;0.0;0.0;0.0;0.0;0.0;0.0;1.0;1.0;0.0;0.0;0.0;0.0;0.0;0.0;0.0;0.0;
48;48_05e272ff8f49cba53cc9b243183cf75b80107749-FRAGMENT.arff;LP;1.0;1.0;1.0;0.0;0.0;1.0;1.0;0.0;0.0;0.0;0.0;1.0;1.0;0.0;0.0;0.0;0.0;0.0;0.0;0.0;0.0;
48;48_05e272ff8f49cba53cc9b243183cf75b80107749-FRAGMENT.arff;RAkELd;1.0;1.0;1.0;1.0;1.0;0.0;0.0;0.0;0.0;0.0;0.0;1.0;1.0;0.0;0.0;0.0;0.0;0.0;0.0;0.0;0.0;
49;49_7db38c9f72a9cab9ce17d19bc84aa806f1bf0333-FRAGMENT.arff;BR;2.0;2.0;1.0;0.0;0.0;2.0;1.0;0.0;0.0;0.0;0.0;2.0;1.0;0.0;0.0;0.0;0.0;0.0;0.0;0.0;0.0;
49;49_7db38c9f72a9cab9ce17d19bc84aa806f1bf0333-FRAGMENT.arff;LP;2.0;2.0;1.0;0.0;0.0;2.0;1.0;0.0;0.0;0.0;0.0;2.0;1.0;0.0;0.0;0.0;0.0;0.0;0.0;0.0;0.0;
49;49_7db38c9f72a9cab9ce17d19bc84aa806f1bf0333-FRAGMENT.arff;RAkELd;2.0;2.0;1.0;0.0;0.0;2.0;1.0;0.0;0.0;0.0;0.0;2.0;1.0;0.0;0.0;0.0;0.0;0.0;0.0;0.0;0.0;
51;51_79fb84a857dc2020e56f5e42435fea9070ab75b6-FRAGMENT.arff;BR;3.0;3.0;1.0;0.0;0.0;3.0;1.0;0.0;0.0;0.0;0.0;3.0;1.0;0.0;0.0;0.0;0.0;0.0;0.0;0.0;0.0;
51;51_79fb84a857dc2020e56f5e42435fea9070ab75b6-FRAGMENT.arff;LP;3.0;3.0;1.0;0.0;0.0;3.0;1.0;0.0;0.0;0.0;0.0;3.0;1.0;0.0;0.0;0.0;0.0;0.0;0.0;0.0;0.0;
51;51_79fb84a857dc2020e56f5e42435fea9070ab75b6-FRAGMENT.arff;RAkELd;3.0;3.0;1.0;0.0;0.0;3.0;1.0;0.0;0.0;0.0;0.0;3.0;1.0;0.0;0.0;0.0;0.0;0.0;0.0;0.0;0.0;
53;53_2c33bc87e71096c97d6ffcbc392be9313d5e7657-FRAGMENT.arff;BR;2.0;2.0;1.0;2.0;1.0;0.0;0.0;0.0;0.0;0.0;0.0;2.0;1.0;0.0;0.0;0.0;0.0;0.0;0.0;0.0;0.0;
53;53_2c33bc87e71096c97d6ffcbc392be9313d5e7657-FRAGMENT.arff;LP;2.0;2.0;1.0;0.0;0.0;2.0;1.0;0.0;0.0;0.0;0.0;2.0;1.0;0.0;0.0;0.0;0.0;0.0;0.0;0.0;0.0;
53;53_2c33bc87e71096c97d6ffcbc392be9313d5e7657-FRAGMENT.arff;RAkELd;2.0;2.0;1.0;2.0;1.0;0.0;0.0;0.0;0.0;0.0;0.0;2.0;1.0;0.0;0.0;0.0;0.0;0.0;0.0;0.0;0.0;
72;72_2e77407e1856104e644c020cb46463cbca6597d0-FRAGMENT.arff;BR;3.0;3.0;1.0;1.0;0.3333333333333333;2.0;0.6666666666666666;0.0;0.0;0.0;0.0;3.0;1.0;0.0;0.0;0.0;0.0;0.0;0.0;0.0;0.0;
72;72_2e77407e1856104e644c020cb46463cbca6597d0-FRAGMENT.arff;LP;3.0;3.0;1.0;0.0;0.0;3.0;1.0;0.0;0.0;0.0;0.0;3.0;1.0;0.0;0.0;0.0;0.0;0.0;0.0;0.0;0.0;
72;72_2e77407e1856104e644c020cb46463cbca6597d0-FRAGMENT.arff;RAkELd;3.0;3.0;1.0;1.0;0.3333333333333333;2.0;0.6666666666666666;0.0;0.0;0.0;0.0;3.0;1.0;0.0;0.0;0.0;0.0;0.0;0.0;0.0;0.0;
74;74_fcb9b936225bedbbe911af9e80b40a4baab9cfdf-FRAGMENT.arff;BR;1.0;1.0;1.0;1.0;1.0;0.0;0.0;0.0;0.0;0.0;0.0;1.0;1.0;0.0;0.0;0.0;0.0;0.0;0.0;0.0;0.0;
74;74_fcb9b936225bedbbe911af9e80b40a4baab9cfdf-FRAGMENT.arff;LP;1.0;1.0;1.0;0.0;0.0;1.0;1.0;0.0;0.0;0.0;0.0;1.0;1.0;0.0;0.0;0.0;0.0;0.0;0.0;0.0;0.0;
74;74_fcb9b936225bedbbe911af9e80b40a4baab9cfdf-FRAGMENT.arff;RAkELd;1.0;1.0;1.0;1.0;1.0;0.0;0.0;0.0;0.0;0.0;0.0;1.0;1.0;0.0;0.0;0.0;0.0;0.0;0.0;0.0;0.0;
75;75_3195dfd2df22c7ea9e51061b7da82582425c6989-FRAGMENT.arff;BR;1.0;1.0;1.0;1.0;1.0;0.0;0.0;0.0;0.0;0.0;0.0;1.0;1.0;0.0;0.0;0.0;0.0;0.0;0.0;0.0;0.0;
75;75_3195dfd2df22c7ea9e51061b7da82582425c6989-FRAGMENT.arff;LP;1.0;1.0;1.0;0.0;0.0;1.0;1.0;0.0;0.0;0.0;0.0;1.0;1.0;0.0;0.0;0.0;0.0;0.0;0.0;0.0;0.0;
75;75_3195dfd2df22c7ea9e51061b7da82582425c6989-FRAGMENT.arff;RAkELd;1.0;1.0;1.0;1.0;1.0;0.0;0.0;0.0;0.0;0.0;0.0;1.0;1.0;0.0;0.0;0.0;0.0;0.0;0.0;0.0;0.0;
76;76_300dcb626eb5371c06593abfca73c9fa4e3243fe-FRAGMENT.arff;BR;1.0;1.0;1.0;1.0;1.0;0.0;0.0;0.0;0.0;0.0;0.0;1.0;1.0;0.0;0.0;0.0;0.0;0.0;0.0;0.0;0.0;
76;76_300dcb626eb5371c06593abfca73c9fa4e3243fe-FRAGMENT.arff;LP;1.0;1.0;1.0;0.0;0.0;1.0;1.0;0.0;0.0;0.0;0.0;1.0;1.0;0.0;0.0;0.0;0.0;0.0;0.0;0.0;0.0;
76;76_300dcb626eb5371c06593abfca73c9fa4e3243fe-FRAGMENT.arff;RAkELd;1.0;1.0;1.0;1.0;1.0;0.0;0.0;0.0;0.0;0.0;0.0;1.0;1.0;0.0;0.0;0.0;0.0;0.0;0.0;0.0;0.0;
80;80_cb3f376b86218a5e83a784c48096307ef7137b43-FRAGMENT.arff;BR;3.0;3.0;1.0;1.0;0.3333333333333333;2.0;0.6666666666666666;0.0;0.0;0.0;0.0;3.0;1.0;0.0;0.0;0.0;0.0;0.0;0.0;0.0;0.0;
80;80_cb3f376b86218a5e83a784c48096307ef7137b43-FRAGMENT.arff;LP;3.0;3.0;1.0;0.0;0.0;3.0;1.0;0.0;0.0;0.0;0.0;3.0;1.0;0.0;0.0;0.0;0.0;0.0;0.0;0.0;0.0;
80;80_cb3f376b86218a5e83a784c48096307ef7137b43-FRAGMENT.arff;RAkELd;3.0;3.0;1.0;0.0;0.0;3.0;1.0;0.0;0.0;0.0;0.0;3.0;1.0;0.0;0.0;0.0;0.0;0.0;0.0;0.0;0.0;
82;82_5315093beef6ae72bfff181f695a0ba246392891-FRAGMENT.arff;BR;1.0;1.0;1.0;1.0;1.0;0.0;0.0;0.0;0.0;0.0;0.0;1.0;1.0;0.0;0.0;0.0;0.0;0.0;0.0;0.0;0.0;
82;82_5315093beef6ae72bfff181f695a0ba246392891-FRAGMENT.arff;LP;1.0;1.0;1.0;0.0;0.0;1.0;1.0;0.0;0.0;0.0;0.0;1.0;1.0;0.0;0.0;0.0;0.0;0.0;0.0;0.0;0.0;
82;82_5315093beef6ae72bfff181f695a0ba246392891-FRAGMENT.arff;RAkELd;1.0;1.0;1.0;1.0;1.0;0.0;0.0;0.0;0.0;0.0;0.0;1.0;1.0;0.0;0.0;0.0;0.0;0.0;0.0;0.0;0.0;
83;83_ac03024766d3f9741facec52faa7b33e4309d4c1-FRAGMENT.arff;BR;1.0;1.0;1.0;1.0;1.0;0.0;0.0;0.0;0.0;0.0;0.0;1.0;1.0;0.0;0.0;0.0;0.0;0.0;0.0;0.0;0.0;
83;83_ac03024766d3f9741facec52faa7b33e4309d4c1-FRAGMENT.arff;LP;1.0;1.0;1.0;0.0;0.0;1.0;1.0;0.0;0.0;0.0;0.0;1.0;1.0;0.0;0.0;0.0;0.0;0.0;0.0;0.0;0.0;
83;83_ac03024766d3f9741facec52faa7b33e4309d4c1-FRAGMENT.arff;RAkELd;1.0;1.0;1.0;1.0;1.0;0.0;0.0;0.0;0.0;0.0;0.0;1.0;1.0;0.0;0.0;0.0;0.0;0.0;0.0;0.0;0.0;
86;86_a6aa8b1642535a096b6592b797a589d3b179b89c-FRAGMENT.arff;BR;1.0;1.0;1.0;1.0;1.0;0.0;0.0;0.0;0.0;0.0;0.0;1.0;1.0;0.0;0.0;0.0;0.0;0.0;0.0;0.0;0.0;
86;86_a6aa8b1642535a096b6592b797a589d3b179b89c-FRAGMENT.arff;LP;1.0;1.0;1.0;0.0;0.0;1.0;1.0;0.0;0.0;0.0;0.0;1.0;1.0;0.0;0.0;0.0;0.0;0.0;0.0;0.0;0.0;
86;86_a6aa8b1642535a096b6592b797a589d3b179b89c-FRAGMENT.arff;RAkELd;1.0;1.0;1.0;1.0;1.0;0.0;0.0;0.0;0.0;0.0;0.0;1.0;1.0;0.0;0.0;0.0;0.0;0.0;0.0;0.0;0.0;
95;95_46a551966d77e2ef521a4586de136c0b834662a7-FRAGMENT.arff;BR;1.0;1.0;1.0;0.0;0.0;1.0;1.0;0.0;0.0;0.0;0.0;1.0;1.0;0.0;0.0;0.0;0.0;0.0;0.0;0.0;0.0;
95;95_46a551966d77e2ef521a4586de136c0b834662a7-FRAGMENT.arff;LP;1.0;1.0;1.0;0.0;0.0;1.0;1.0;0.0;0.0;0.0;0.0;1.0;1.0;0.0;0.0;0.0;0.0;0.0;0.0;0.0;0.0;
95;95_46a551966d77e2ef521a4586de136c0b834662a7-FRAGMENT.arff;RAkELd;1.0;1.0;1.0;0.0;0.0;1.0;1.0;0.0;0.0;0.0;0.0;1.0;1.0;0.0;0.0;0.0;0.0;0.0;0.0;0.0;0.0;
97;97_12ff94247058cb95c6dbd4d9a58cc2db5a0e767c-FRAGMENT.arff;BR;1.0;1.0;1.0;1.0;1.0;0.0;0.0;0.0;0.0;0.0;0.0;1.0;1.0;0.0;0.0;0.0;0.0;0.0;0.0;0.0;0.0;
97;97_12ff94247058cb95c6dbd4d9a58cc2db5a0e767c-FRAGMENT.arff;LP;1.0;1.0;1.0;0.0;0.0;1.0;1.0;0.0;0.0;0.0;0.0;1.0;1.0;0.0;0.0;0.0;0.0;0.0;0.0;0.0;0.0;
97;97_12ff94247058cb95c6dbd4d9a58cc2db5a0e767c-FRAGMENT.arff;RAkELd;1.0;1.0;1.0;1.0;1.0;0.0;0.0;0.0;0.0;0.0;0.0;1.0;1.0;0.0;0.0;0.0;0.0;0.0;0.0;0.0;0.0;
100;100_4e18fb9e22091af6e3a33373437cdf592584a522-FRAGMENT.arff;BR;3.0;3.0;1.0;0.0;0.0;3.0;1.0;0.0;0.0;0.0;0.0;3.0;1.0;0.0;0.0;0.0;0.0;0.0;0.0;0.0;0.0;
100;100_4e18fb9e22091af6e3a33373437cdf592584a522-FRAGMENT.arff;LP;3.0;3.0;1.0;0.0;0.0;3.0;1.0;0.0;0.0;0.0;0.0;3.0;1.0;0.0;0.0;0.0;0.0;0.0;0.0;0.0;0.0;
100;100_4e18fb9e22091af6e3a33373437cdf592584a522-FRAGMENT.arff;RAkELd;3.0;3.0;1.0;0.0;0.0;3.0;1.0;0.0;0.0;0.0;0.0;3.0;1.0;0.0;0.0;0.0;0.0;0.0;0.0;0.0;0.0;
101;101_ef7549da15775a1567b47e8b840d97d52c8e3e0c-FRAGMENT.arff;BR;1.0;1.0;1.0;1.0;1.0;0.0;0.0;0.0;0.0;0.0;0.0;1.0;1.0;0.0;0.0;0.0;0.0;0.0;0.0;0.0;0.0;
101;101_ef7549da15775a1567b47e8b840d97d52c8e3e0c-FRAGMENT.arff;LP;1.0;1.0;1.0;0.0;0.0;1.0;1.0;0.0;0.0;0.0;0.0;1.0;1.0;0.0;0.0;0.0;0.0;0.0;0.0;0.0;0.0;
101;101_ef7549da15775a1567b47e8b840d97d52c8e3e0c-FRAGMENT.arff;RAkELd;1.0;1.0;1.0;1.0;1.0;0.0;0.0;0.0;0.0;0.0;0.0;1.0;1.0;0.0;0.0;0.0;0.0;0.0;0.0;0.0;0.0;
102;102_449f177068615c8d78fb4513776f08dcca6396a4-FRAGMENT.arff;BR;4.0;4.0;1.0;0.0;0.0;4.0;1.0;0.0;0.0;0.0;0.0;4.0;1.0;0.0;0.0;0.0;0.0;0.0;0.0;0.0;0.0;
102;102_449f177068615c8d78fb4513776f08dcca6396a4-FRAGMENT.arff;LP;4.0;4.0;1.0;0.0;0.0;4.0;1.0;0.0;0.0;0.0;0.0;4.0;1.0;0.0;0.0;0.0;0.0;0.0;0.0;0.0;0.0;
102;102_449f177068615c8d78fb4513776f08dcca6396a4-FRAGMENT.arff;RAkELd;4.0;4.0;1.0;0.0;0.0;4.0;1.0;0.0;0.0;0.0;0.0;4.0;1.0;0.0;0.0;0.0;0.0;0.0;0.0;0.0;0.0;
103;103_667b07d652f2c8371a98710cfc04a937cbcf0bcc-FRAGMENT.arff;BR;1.0;1.0;1.0;0.0;0.0;1.0;1.0;0.0;0.0;0.0;0.0;1.0;1.0;0.0;0.0;0.0;0.0;0.0;0.0;0.0;0.0;
103;103_667b07d652f2c8371a98710cfc04a937cbcf0bcc-FRAGMENT.arff;LP;1.0;1.0;1.0;0.0;0.0;1.0;1.0;0.0;0.0;0.0;0.0;1.0;1.0;0.0;0.0;0.0;0.0;0.0;0.0;0.0;0.0;
103;103_667b07d652f2c8371a98710cfc04a937cbcf0bcc-FRAGMENT.arff;RAkELd;1.0;1.0;1.0;0.0;0.0;1.0;1.0;0.0;0.0;0.0;0.0;1.0;1.0;0.0;0.0;0.0;0.0;0.0;0.0;0.0;0.0;
104;104_b53c128a38005fdeefc469ba603eee4b89dd13d5-FRAGMENT.arff;BR;4.0;4.0;1.0;0.0;0.0;4.0;1.0;0.0;0.0;0.0;0.0;4.0;1.0;0.0;0.0;0.0;0.0;0.0;0.0;0.0;0.0;
104;104_b53c128a38005fdeefc469ba603eee4b89dd13d5-FRAGMENT.arff;LP;4.0;4.0;1.0;0.0;0.0;4.0;1.0;0.0;0.0;0.0;0.0;4.0;1.0;0.0;0.0;0.0;0.0;0.0;0.0;0.0;0.0;
104;104_b53c128a38005fdeefc469ba603eee4b89dd13d5-FRAGMENT.arff;RAkELd;4.0;4.0;1.0;0.0;0.0;4.0;1.0;0.0;0.0;0.0;0.0;4.0;1.0;0.0;0.0;0.0;0.0;0.0;0.0;0.0;0.0;
105;105_68cc9faf5751e01c9620ad10f0027956bc0020e0-FRAGMENT.arff;BR;2.0;2.0;1.0;0.0;0.0;2.0;1.0;0.0;0.0;0.0;0.0;2.0;1.0;0.0;0.0;0.0;0.0;0.0;0.0;0.0;0.0;
105;105_68cc9faf5751e01c9620ad10f0027956bc0020e0-FRAGMENT.arff;LP;2.0;2.0;1.0;0.0;0.0;2.0;1.0;0.0;0.0;0.0;0.0;2.0;1.0;0.0;0.0;0.0;0.0;0.0;0.0;0.0;0.0;
105;105_68cc9faf5751e01c9620ad10f0027956bc0020e0-FRAGMENT.arff;RAkELd;2.0;2.0;1.0;0.0;0.0;2.0;1.0;0.0;0.0;0.0;0.0;2.0;1.0;0.0;0.0;0.0;0.0;0.0;0.0;0.0;0.0;
106;106_0842dd6d908e6f96451cb8319f99513b53592e8a-FRAGMENT.arff;BR;6.0;6.0;1.0;1.0;0.16666666666666666;5.0;0.8333333333333334;0.0;0.0;0.0;0.0;6.0;1.0;0.0;0.0;0.0;0.0;0.0;0.0;0.0;0.0;
106;106_0842dd6d908e6f96451cb8319f99513b53592e8a-FRAGMENT.arff;LP;6.0;6.0;1.0;0.0;0.0;6.0;1.0;0.0;0.0;0.0;0.0;6.0;1.0;0.0;0.0;0.0;0.0;0.0;0.0;0.0;0.0;
106;106_0842dd6d908e6f96451cb8319f99513b53592e8a-FRAGMENT.arff;RAkELd;6.0;6.0;1.0;1.0;0.16666666666666666;5.0;0.8333333333333334;0.0;0.0;0.0;0.0;6.0;1.0;0.0;0.0;0.0;0.0;0.0;0.0;0.0;0.0;
107;107_01098ab0d946a6bc5abbfa894e593658c207e137-FRAGMENT.arff;BR;8.0;8.0;1.0;0.0;0.0;8.0;1.0;0.0;0.0;0.0;0.0;8.0;1.0;0.0;0.0;0.0;0.0;0.0;0.0;0.0;0.0;
107;107_01098ab0d946a6bc5abbfa894e593658c207e137-FRAGMENT.arff;LP;8.0;8.0;1.0;0.0;0.0;8.0;1.0;0.0;0.0;0.0;0.0;8.0;1.0;0.0;0.0;0.0;0.0;0.0;0.0;0.0;0.0;
107;107_01098ab0d946a6bc5abbfa894e593658c207e137-FRAGMENT.arff;RAkELd;8.0;8.0;1.0;0.0;0.0;8.0;1.0;0.0;0.0;0.0;0.0;8.0;1.0;0.0;0.0;0.0;0.0;0.0;0.0;0.0;0.0;
112;112_b4d5ee0c9dbd03e30b5c62e57a8cff886bc58622-FRAGMENT.arff;BR;1.0;1.0;1.0;1.0;1.0;0.0;0.0;0.0;0.0;0.0;0.0;1.0;1.0;0.0;0.0;0.0;0.0;0.0;0.0;0.0;0.0;
112;112_b4d5ee0c9dbd03e30b5c62e57a8cff886bc58622-FRAGMENT.arff;LP;1.0;1.0;1.0;0.0;0.0;1.0;1.0;0.0;0.0;0.0;0.0;1.0;1.0;0.0;0.0;0.0;0.0;0.0;0.0;0.0;0.0;
112;112_b4d5ee0c9dbd03e30b5c62e57a8cff886bc58622-FRAGMENT.arff;RAkELd;1.0;1.0;1.0;1.0;1.0;0.0;0.0;0.0;0.0;0.0;0.0;1.0;1.0;0.0;0.0;0.0;0.0;0.0;0.0;0.0;0.0;
113;113_d08def390f92ffa09b4f5caa1aba2eaed7e2140f-FRAGMENT.arff;BR;1.0;1.0;1.0;1.0;1.0;0.0;0.0;0.0;0.0;0.0;0.0;1.0;1.0;0.0;0.0;0.0;0.0;0.0;0.0;0.0;0.0;
113;113_d08def390f92ffa09b4f5caa1aba2eaed7e2140f-FRAGMENT.arff;LP;1.0;1.0;1.0;0.0;0.0;1.0;1.0;0.0;0.0;0.0;0.0;1.0;1.0;0.0;0.0;0.0;0.0;0.0;0.0;0.0;0.0;
113;113_d08def390f92ffa09b4f5caa1aba2eaed7e2140f-FRAGMENT.arff;RAkELd;1.0;1.0;1.0;1.0;1.0;0.0;0.0;0.0;0.0;0.0;0.0;1.0;1.0;0.0;0.0;0.0;0.0;0.0;0.0;0.0;0.0;
114;114_9349588937cef231db4e6861d02950d7d0d94d98-FRAGMENT.arff;BR;1.0;1.0;1.0;1.0;1.0;0.0;0.0;0.0;0.0;0.0;0.0;1.0;1.0;0.0;0.0;0.0;0.0;0.0;0.0;0.0;0.0;
114;114_9349588937cef231db4e6861d02950d7d0d94d98-FRAGMENT.arff;LP;1.0;1.0;1.0;0.0;0.0;1.0;1.0;0.0;0.0;0.0;0.0;1.0;1.0;0.0;0.0;0.0;0.0;0.0;0.0;0.0;0.0;
114;114_9349588937cef231db4e6861d02950d7d0d94d98-FRAGMENT.arff;RAkELd;1.0;1.0;1.0;1.0;1.0;0.0;0.0;0.0;0.0;0.0;0.0;1.0;1.0;0.0;0.0;0.0;0.0;0.0;0.0;0.0;0.0;
116;116_dbe811dd3d6fc52b87e13d9f45db127c9c1327b0-FRAGMENT.arff;BR;1.0;1.0;1.0;1.0;1.0;0.0;0.0;0.0;0.0;0.0;0.0;1.0;1.0;0.0;0.0;0.0;0.0;0.0;0.0;0.0;0.0;
116;116_dbe811dd3d6fc52b87e13d9f45db127c9c1327b0-FRAGMENT.arff;LP;1.0;1.0;1.0;0.0;0.0;1.0;1.0;0.0;0.0;0.0;0.0;1.0;1.0;0.0;0.0;0.0;0.0;0.0;0.0;0.0;0.0;
116;116_dbe811dd3d6fc52b87e13d9f45db127c9c1327b0-FRAGMENT.arff;RAkELd;1.0;1.0;1.0;1.0;1.0;0.0;0.0;0.0;0.0;0.0;0.0;1.0;1.0;0.0;0.0;0.0;0.0;0.0;0.0;0.0;0.0;
118;118_0453613ab67fd1c8a9ea33e34d833cb2a1e946fc-FRAGMENT.arff;BR;1.0;1.0;1.0;0.0;0.0;1.0;1.0;0.0;0.0;0.0;0.0;1.0;1.0;0.0;0.0;0.0;0.0;0.0;0.0;0.0;0.0;
118;118_0453613ab67fd1c8a9ea33e34d833cb2a1e946fc-FRAGMENT.arff;LP;1.0;1.0;1.0;0.0;0.0;1.0;1.0;0.0;0.0;0.0;0.0;1.0;1.0;0.0;0.0;0.0;0.0;0.0;0.0;0.0;0.0;
118;118_0453613ab67fd1c8a9ea33e34d833cb2a1e946fc-FRAGMENT.arff;RAkELd;1.0;1.0;1.0;0.0;0.0;1.0;1.0;0.0;0.0;0.0;0.0;1.0;1.0;0.0;0.0;0.0;0.0;0.0;0.0;0.0;0.0;
119;119_cf94e04d35807cded32edd74b20ffe90765aca10-FRAGMENT.arff;BR;4.0;4.0;1.0;2.0;0.5;2.0;0.5;0.0;0.0;0.0;0.0;4.0;1.0;0.0;0.0;0.0;0.0;0.0;0.0;0.0;0.0;
119;119_cf94e04d35807cded32edd74b20ffe90765aca10-FRAGMENT.arff;LP;4.0;4.0;1.0;0.0;0.0;4.0;1.0;0.0;0.0;0.0;0.0;4.0;1.0;0.0;0.0;0.0;0.0;0.0;0.0;0.0;0.0;
119;119_cf94e04d35807cded32edd74b20ffe90765aca10-FRAGMENT.arff;RAkELd;4.0;4.0;1.0;2.0;0.5;2.0;0.5;0.0;0.0;0.0;0.0;4.0;1.0;0.0;0.0;0.0;0.0;0.0;0.0;0.0;0.0;
120;120_be90a7f39e46fbd52ba01d87d40e7494a5787f30-FRAGMENT.arff;BR;4.0;4.0;1.0;0.0;0.0;4.0;1.0;0.0;0.0;0.0;0.0;4.0;1.0;0.0;0.0;0.0;0.0;0.0;0.0;0.0;0.0;
120;120_be90a7f39e46fbd52ba01d87d40e7494a5787f30-FRAGMENT.arff;LP;4.0;4.0;1.0;0.0;0.0;4.0;1.0;0.0;0.0;0.0;0.0;4.0;1.0;0.0;0.0;0.0;0.0;0.0;0.0;0.0;0.0;
120;120_be90a7f39e46fbd52ba01d87d40e7494a5787f30-FRAGMENT.arff;RAkELd;4.0;4.0;1.0;0.0;0.0;4.0;1.0;0.0;0.0;0.0;0.0;4.0;1.0;0.0;0.0;0.0;0.0;0.0;0.0;0.0;0.0;
121;121_c665b4cf9e79afd246013bf348d9b77259cee2f3-FRAGMENT.arff;BR;1.0;1.0;1.0;0.0;0.0;1.0;1.0;0.0;0.0;0.0;0.0;1.0;1.0;0.0;0.0;0.0;0.0;0.0;0.0;0.0;0.0;
121;121_c665b4cf9e79afd246013bf348d9b77259cee2f3-FRAGMENT.arff;LP;1.0;1.0;1.0;0.0;0.0;1.0;1.0;0.0;0.0;0.0;0.0;1.0;1.0;0.0;0.0;0.0;0.0;0.0;0.0;0.0;0.0;
121;121_c665b4cf9e79afd246013bf348d9b77259cee2f3-FRAGMENT.arff;RAkELd;1.0;1.0;1.0;0.0;0.0;1.0;1.0;0.0;0.0;0.0;0.0;1.0;1.0;0.0;0.0;0.0;0.0;0.0;0.0;0.0;0.0;
122;122_50c76ea03dcc36be748ac0ade97982e027a9960e-FRAGMENT.arff;BR;1.0;1.0;1.0;0.0;0.0;1.0;1.0;0.0;0.0;0.0;0.0;1.0;1.0;0.0;0.0;0.0;0.0;0.0;0.0;0.0;0.0;
122;122_50c76ea03dcc36be748ac0ade97982e027a9960e-FRAGMENT.arff;LP;1.0;1.0;1.0;0.0;0.0;1.0;1.0;0.0;0.0;0.0;0.0;1.0;1.0;0.0;0.0;0.0;0.0;0.0;0.0;0.0;0.0;
122;122_50c76ea03dcc36be748ac0ade97982e027a9960e-FRAGMENT.arff;RAkELd;1.0;1.0;1.0;1.0;1.0;0.0;0.0;0.0;0.0;0.0;0.0;1.0;1.0;0.0;0.0;0.0;0.0;0.0;0.0;0.0;0.0;
123;123_748a70d588da74415260cbd1ac6455acba66dd5b-FRAGMENT.arff;BR;1.0;1.0;1.0;0.0;0.0;1.0;1.0;0.0;0.0;0.0;0.0;1.0;1.0;0.0;0.0;0.0;0.0;0.0;0.0;0.0;0.0;
123;123_748a70d588da74415260cbd1ac6455acba66dd5b-FRAGMENT.arff;LP;1.0;1.0;1.0;0.0;0.0;1.0;1.0;0.0;0.0;0.0;0.0;1.0;1.0;0.0;0.0;0.0;0.0;0.0;0.0;0.0;0.0;
123;123_748a70d588da74415260cbd1ac6455acba66dd5b-FRAGMENT.arff;RAkELd;1.0;1.0;1.0;0.0;0.0;1.0;1.0;0.0;0.0;0.0;0.0;1.0;1.0;0.0;0.0;0.0;0.0;0.0;0.0;0.0;0.0;
125;125_180d931c2a0a4bc198027322e9917419fbd66a2b-FRAGMENT.arff;BR;15.0;15.0;1.0;0.0;0.0;15.0;1.0;0.0;0.0;0.0;0.0;15.0;1.0;0.0;0.0;0.0;0.0;0.0;0.0;0.0;0.0;
125;125_180d931c2a0a4bc198027322e9917419fbd66a2b-FRAGMENT.arff;LP;15.0;15.0;1.0;0.0;0.0;15.0;1.0;0.0;0.0;0.0;0.0;15.0;1.0;0.0;0.0;0.0;0.0;0.0;0.0;0.0;0.0;
125;125_180d931c2a0a4bc198027322e9917419fbd66a2b-FRAGMENT.arff;RAkELd;15.0;15.0;1.0;0.0;0.0;15.0;1.0;0.0;0.0;0.0;0.0;15.0;1.0;0.0;0.0;0.0;0.0;0.0;0.0;0.0;0.0;
126;126_5c6cc2b50cd4bb88654c736b9b53770222393ecd-FRAGMENT.arff;BR;7.0;7.0;1.0;3.0;0.42857142857142855;4.0;0.5714285714285714;0.0;0.0;0.0;0.0;7.0;1.0;0.0;0.0;0.0;0.0;0.0;0.0;0.0;0.0;
126;126_5c6cc2b50cd4bb88654c736b9b53770222393ecd-FRAGMENT.arff;LP;7.0;7.0;1.0;0.0;0.0;7.0;1.0;0.0;0.0;0.0;0.0;7.0;1.0;0.0;0.0;0.0;0.0;0.0;0.0;0.0;0.0;
126;126_5c6cc2b50cd4bb88654c736b9b53770222393ecd-FRAGMENT.arff;RAkELd;7.0;7.0;1.0;3.0;0.42857142857142855;4.0;0.5714285714285714;0.0;0.0;0.0;0.0;7.0;1.0;0.0;0.0;0.0;0.0;0.0;0.0;0.0;0.0;
127;127_fedc7a8caa2ab52d08f772821e1fbb88ea441ac9-FRAGMENT.arff;BR;4.0;4.0;1.0;0.0;0.0;4.0;1.0;0.0;0.0;0.0;0.0;4.0;1.0;0.0;0.0;0.0;0.0;0.0;0.0;0.0;0.0;
127;127_fedc7a8caa2ab52d08f772821e1fbb88ea441ac9-FRAGMENT.arff;LP;4.0;4.0;1.0;0.0;0.0;4.0;1.0;0.0;0.0;0.0;0.0;4.0;1.0;0.0;0.0;0.0;0.0;0.0;0.0;0.0;0.0;
127;127_fedc7a8caa2ab52d08f772821e1fbb88ea441ac9-FRAGMENT.arff;RAkELd;4.0;4.0;1.0;0.0;0.0;4.0;1.0;0.0;0.0;0.0;0.0;4.0;1.0;0.0;0.0;0.0;0.0;0.0;0.0;0.0;0.0;
129;129_4af31534ea0cfd1189e8b799249ae9f73b1c0c6c-FRAGMENT.arff;BR;6.0;6.0;1.0;2.0;0.3333333333333333;4.0;0.6666666666666666;0.0;0.0;0.0;0.0;6.0;1.0;0.0;0.0;0.0;0.0;0.0;0.0;0.0;0.0;
129;129_4af31534ea0cfd1189e8b799249ae9f73b1c0c6c-FRAGMENT.arff;LP;6.0;6.0;1.0;0.0;0.0;6.0;1.0;0.0;0.0;0.0;0.0;6.0;1.0;0.0;0.0;0.0;0.0;0.0;0.0;0.0;0.0;
129;129_4af31534ea0cfd1189e8b799249ae9f73b1c0c6c-FRAGMENT.arff;RAkELd;6.0;6.0;1.0;2.0;0.3333333333333333;4.0;0.6666666666666666;0.0;0.0;0.0;0.0;6.0;1.0;0.0;0.0;0.0;0.0;0.0;0.0;0.0;0.0;
130;130_e9599c45c368a6d7c9db82bae1ea6dd9dca21c2b-FRAGMENT.arff;BR;6.0;6.0;1.0;1.0;0.16666666666666666;5.0;0.8333333333333334;0.0;0.0;0.0;0.0;6.0;1.0;0.0;0.0;0.0;0.0;0.0;0.0;0.0;0.0;
130;130_e9599c45c368a6d7c9db82bae1ea6dd9dca21c2b-FRAGMENT.arff;LP;6.0;6.0;1.0;0.0;0.0;6.0;1.0;0.0;0.0;0.0;0.0;6.0;1.0;0.0;0.0;0.0;0.0;0.0;0.0;0.0;0.0;
130;130_e9599c45c368a6d7c9db82bae1ea6dd9dca21c2b-FRAGMENT.arff;RAkELd;6.0;6.0;1.0;1.0;0.16666666666666666;5.0;0.8333333333333334;0.0;0.0;0.0;0.0;6.0;1.0;0.0;0.0;0.0;0.0;0.0;0.0;0.0;0.0;
132;132_6b5f4541956b9b0aa7d7e49d04fff913150dc122-FRAGMENT.arff;BR;3.0;3.0;1.0;0.0;0.0;3.0;1.0;0.0;0.0;0.0;0.0;3.0;1.0;0.0;0.0;0.0;0.0;0.0;0.0;0.0;0.0;
132;132_6b5f4541956b9b0aa7d7e49d04fff913150dc122-FRAGMENT.arff;LP;3.0;3.0;1.0;0.0;0.0;3.0;1.0;0.0;0.0;0.0;0.0;3.0;1.0;0.0;0.0;0.0;0.0;0.0;0.0;0.0;0.0;
132;132_6b5f4541956b9b0aa7d7e49d04fff913150dc122-FRAGMENT.arff;RAkELd;3.0;3.0;1.0;0.0;0.0;3.0;1.0;0.0;0.0;0.0;0.0;3.0;1.0;0.0;0.0;0.0;0.0;0.0;0.0;0.0;0.0;
133;133_c89fffa801f241ef958bf81270005eabcc89c717-FRAGMENT.arff;BR;11.0;11.0;1.0;1.0;0.09090909090909091;10.0;0.9090909090909091;0.0;0.0;0.0;0.0;11.0;1.0;0.0;0.0;0.0;0.0;0.0;0.0;0.0;0.0;
133;133_c89fffa801f241ef958bf81270005eabcc89c717-FRAGMENT.arff;LP;11.0;11.0;1.0;0.0;0.0;11.0;1.0;0.0;0.0;0.0;0.0;11.0;1.0;0.0;0.0;0.0;0.0;0.0;0.0;0.0;0.0;
133;133_c89fffa801f241ef958bf81270005eabcc89c717-FRAGMENT.arff;RAkELd;11.0;11.0;1.0;1.0;0.09090909090909091;10.0;0.9090909090909091;0.0;0.0;0.0;0.0;11.0;1.0;0.0;0.0;0.0;0.0;0.0;0.0;0.0;0.0;
134;134_82b90bd20ca2db9fb77837021e8872b49b9ef1f3-FRAGMENT.arff;BR;1.0;1.0;1.0;0.0;0.0;1.0;1.0;0.0;0.0;0.0;0.0;1.0;1.0;0.0;0.0;0.0;0.0;0.0;0.0;0.0;0.0;
134;134_82b90bd20ca2db9fb77837021e8872b49b9ef1f3-FRAGMENT.arff;LP;1.0;1.0;1.0;0.0;0.0;1.0;1.0;0.0;0.0;0.0;0.0;1.0;1.0;0.0;0.0;0.0;0.0;0.0;0.0;0.0;0.0;
134;134_82b90bd20ca2db9fb77837021e8872b49b9ef1f3-FRAGMENT.arff;RAkELd;1.0;1.0;1.0;1.0;1.0;0.0;0.0;0.0;0.0;0.0;0.0;1.0;1.0;0.0;0.0;0.0;0.0;0.0;0.0;0.0;0.0;
136;136_0298038bacb5027553c0c19c3078c207ccbdc509-FRAGMENT.arff;BR;4.0;4.0;1.0;2.0;0.5;2.0;0.5;0.0;0.0;0.0;0.0;4.0;1.0;0.0;0.0;0.0;0.0;0.0;0.0;0.0;0.0;
136;136_0298038bacb5027553c0c19c3078c207ccbdc509-FRAGMENT.arff;LP;4.0;4.0;1.0;0.0;0.0;4.0;1.0;0.0;0.0;0.0;0.0;4.0;1.0;0.0;0.0;0.0;0.0;0.0;0.0;0.0;0.0;
136;136_0298038bacb5027553c0c19c3078c207ccbdc509-FRAGMENT.arff;RAkELd;4.0;4.0;1.0;2.0;0.5;2.0;0.5;0.0;0.0;0.0;0.0;4.0;1.0;0.0;0.0;0.0;0.0;0.0;0.0;0.0;0.0;
137;137_8b3ee8a7e8ea754fae48358ac94539113145447a-FRAGMENT.arff;BR;2.0;2.0;1.0;0.0;0.0;2.0;1.0;0.0;0.0;0.0;0.0;2.0;1.0;0.0;0.0;0.0;0.0;0.0;0.0;0.0;0.0;
137;137_8b3ee8a7e8ea754fae48358ac94539113145447a-FRAGMENT.arff;LP;2.0;2.0;1.0;0.0;0.0;2.0;1.0;0.0;0.0;0.0;0.0;2.0;1.0;0.0;0.0;0.0;0.0;0.0;0.0;0.0;0.0;
137;137_8b3ee8a7e8ea754fae48358ac94539113145447a-FRAGMENT.arff;RAkELd;2.0;2.0;1.0;0.0;0.0;2.0;1.0;0.0;0.0;0.0;0.0;2.0;1.0;0.0;0.0;0.0;0.0;0.0;0.0;0.0;0.0;
140;140_554ba7b71baf1378e2332cffe863709685bb0dca-FRAGMENT.arff;BR;5.0;5.0;1.0;3.0;0.6;2.0;0.4;0.0;0.0;0.0;0.0;5.0;1.0;0.0;0.0;0.0;0.0;0.0;0.0;0.0;0.0;
140;140_554ba7b71baf1378e2332cffe863709685bb0dca-FRAGMENT.arff;LP;5.0;5.0;1.0;0.0;0.0;5.0;1.0;0.0;0.0;0.0;0.0;5.0;1.0;0.0;0.0;0.0;0.0;0.0;0.0;0.0;0.0;
140;140_554ba7b71baf1378e2332cffe863709685bb0dca-FRAGMENT.arff;RAkELd;5.0;5.0;1.0;3.0;0.6;2.0;0.4;0.0;0.0;0.0;0.0;5.0;1.0;0.0;0.0;0.0;0.0;0.0;0.0;0.0;0.0;
141;141_cdfb89796c682c97308f6c7d78d130cf339bfe9e-FRAGMENT.arff;BR;1.0;1.0;1.0;0.0;0.0;1.0;1.0;0.0;0.0;0.0;0.0;1.0;1.0;0.0;0.0;0.0;0.0;0.0;0.0;0.0;0.0;
141;141_cdfb89796c682c97308f6c7d78d130cf339bfe9e-FRAGMENT.arff;LP;1.0;1.0;1.0;0.0;0.0;1.0;1.0;0.0;0.0;0.0;0.0;1.0;1.0;0.0;0.0;0.0;0.0;0.0;0.0;0.0;0.0;
141;141_cdfb89796c682c97308f6c7d78d130cf339bfe9e-FRAGMENT.arff;RAkELd;1.0;1.0;1.0;0.0;0.0;1.0;1.0;0.0;0.0;0.0;0.0;1.0;1.0;0.0;0.0;0.0;0.0;0.0;0.0;0.0;0.0;
143;143_a7362b37bce5eebc9bca6d1c770c784e6f285fe6-FRAGMENT.arff;BR;1.0;1.0;1.0;0.0;0.0;1.0;1.0;0.0;0.0;0.0;0.0;1.0;1.0;0.0;0.0;0.0;0.0;0.0;0.0;0.0;0.0;
143;143_a7362b37bce5eebc9bca6d1c770c784e6f285fe6-FRAGMENT.arff;LP;1.0;1.0;1.0;0.0;0.0;1.0;1.0;0.0;0.0;0.0;0.0;1.0;1.0;0.0;0.0;0.0;0.0;0.0;0.0;0.0;0.0;
143;143_a7362b37bce5eebc9bca6d1c770c784e6f285fe6-FRAGMENT.arff;RAkELd;1.0;1.0;1.0;0.0;0.0;1.0;1.0;0.0;0.0;0.0;0.0;1.0;1.0;0.0;0.0;0.0;0.0;0.0;0.0;0.0;0.0;
144;144_6affc6b343f9734df6e965e91af29d89f2251f80-FRAGMENT.arff;BR;6.0;6.0;1.0;0.0;0.0;6.0;1.0;0.0;0.0;0.0;0.0;6.0;1.0;0.0;0.0;0.0;0.0;0.0;0.0;0.0;0.0;
144;144_6affc6b343f9734df6e965e91af29d89f2251f80-FRAGMENT.arff;LP;6.0;6.0;1.0;0.0;0.0;6.0;1.0;0.0;0.0;0.0;0.0;6.0;1.0;0.0;0.0;0.0;0.0;0.0;0.0;0.0;0.0;
144;144_6affc6b343f9734df6e965e91af29d89f2251f80-FRAGMENT.arff;RAkELd;6.0;6.0;1.0;0.0;0.0;6.0;1.0;0.0;0.0;0.0;0.0;6.0;1.0;0.0;0.0;0.0;0.0;0.0;0.0;0.0;0.0;
145;145_075a5f0820676f7915b5b6459eb7ceace99e3a4e-FRAGMENT.arff;BR;2.0;2.0;1.0;0.0;0.0;2.0;1.0;0.0;0.0;0.0;0.0;2.0;1.0;0.0;0.0;0.0;0.0;0.0;0.0;0.0;0.0;
145;145_075a5f0820676f7915b5b6459eb7ceace99e3a4e-FRAGMENT.arff;LP;2.0;2.0;1.0;0.0;0.0;2.0;1.0;0.0;0.0;0.0;0.0;2.0;1.0;0.0;0.0;0.0;0.0;0.0;0.0;0.0;0.0;
145;145_075a5f0820676f7915b5b6459eb7ceace99e3a4e-FRAGMENT.arff;RAkELd;2.0;2.0;1.0;0.0;0.0;2.0;1.0;0.0;0.0;0.0;0.0;2.0;1.0;0.0;0.0;0.0;0.0;0.0;0.0;0.0;0.0;
147;147_f502a5ed7e8b04a1f31acfb86b987852e4a8c62d-FRAGMENT.arff;BR;9.0;9.0;1.0;0.0;0.0;9.0;1.0;0.0;0.0;0.0;0.0;9.0;1.0;0.0;0.0;0.0;0.0;0.0;0.0;0.0;0.0;
147;147_f502a5ed7e8b04a1f31acfb86b987852e4a8c62d-FRAGMENT.arff;LP;9.0;9.0;1.0;0.0;0.0;9.0;1.0;0.0;0.0;0.0;0.0;9.0;1.0;0.0;0.0;0.0;0.0;0.0;0.0;0.0;0.0;
147;147_f502a5ed7e8b04a1f31acfb86b987852e4a8c62d-FRAGMENT.arff;RAkELd;9.0;9.0;1.0;0.0;0.0;9.0;1.0;0.0;0.0;0.0;0.0;9.0;1.0;0.0;0.0;0.0;0.0;0.0;0.0;0.0;0.0;
149;149_2ada7aed210465d18a77e3250020b640e646bb09-FRAGMENT.arff;BR;4.0;4.0;1.0;0.0;0.0;4.0;1.0;0.0;0.0;0.0;0.0;4.0;1.0;0.0;0.0;0.0;0.0;0.0;0.0;0.0;0.0;
149;149_2ada7aed210465d18a77e3250020b640e646bb09-FRAGMENT.arff;LP;4.0;4.0;1.0;0.0;0.0;4.0;1.0;0.0;0.0;0.0;0.0;4.0;1.0;0.0;0.0;0.0;0.0;0.0;0.0;0.0;0.0;
149;149_2ada7aed210465d18a77e3250020b640e646bb09-FRAGMENT.arff;RAkELd;4.0;4.0;1.0;0.0;0.0;4.0;1.0;0.0;0.0;0.0;0.0;4.0;1.0;0.0;0.0;0.0;0.0;0.0;0.0;0.0;0.0;
150;150_af9dd2fc4031b97622a3f10bf4b980fa5685ba11-FRAGMENT.arff;BR;5.0;5.0;1.0;0.0;0.0;5.0;1.0;0.0;0.0;0.0;0.0;5.0;1.0;0.0;0.0;0.0;0.0;0.0;0.0;0.0;0.0;
150;150_af9dd2fc4031b97622a3f10bf4b980fa5685ba11-FRAGMENT.arff;LP;5.0;5.0;1.0;0.0;0.0;5.0;1.0;0.0;0.0;0.0;0.0;5.0;1.0;0.0;0.0;0.0;0.0;0.0;0.0;0.0;0.0;
150;150_af9dd2fc4031b97622a3f10bf4b980fa5685ba11-FRAGMENT.arff;RAkELd;5.0;5.0;1.0;0.0;0.0;5.0;1.0;0.0;0.0;0.0;0.0;5.0;1.0;0.0;0.0;0.0;0.0;0.0;0.0;0.0;0.0;
151;151_4d904e7132ad4e0072813ffa2264ca51a5af70e9-FRAGMENT.arff;BR;6.0;6.0;1.0;1.0;0.16666666666666666;5.0;0.8333333333333334;0.0;0.0;0.0;0.0;6.0;1.0;0.0;0.0;0.0;0.0;0.0;0.0;0.0;0.0;
151;151_4d904e7132ad4e0072813ffa2264ca51a5af70e9-FRAGMENT.arff;LP;6.0;6.0;1.0;0.0;0.0;6.0;1.0;0.0;0.0;0.0;0.0;6.0;1.0;0.0;0.0;0.0;0.0;0.0;0.0;0.0;0.0;
151;151_4d904e7132ad4e0072813ffa2264ca51a5af70e9-FRAGMENT.arff;RAkELd;6.0;6.0;1.0;1.0;0.16666666666666666;5.0;0.8333333333333334;0.0;0.0;0.0;0.0;6.0;1.0;0.0;0.0;0.0;0.0;0.0;0.0;0.0;0.0;
152;152_26198589d9af8728d9e01ec9fd8d99a362ccde1c-FRAGMENT.arff;BR;7.0;7.0;1.0;2.0;0.2857142857142857;5.0;0.7142857142857143;0.0;0.0;0.0;0.0;7.0;1.0;0.0;0.0;0.0;0.0;0.0;0.0;0.0;0.0;
152;152_26198589d9af8728d9e01ec9fd8d99a362ccde1c-FRAGMENT.arff;LP;7.0;7.0;1.0;0.0;0.0;7.0;1.0;0.0;0.0;0.0;0.0;7.0;1.0;0.0;0.0;0.0;0.0;0.0;0.0;0.0;0.0;
152;152_26198589d9af8728d9e01ec9fd8d99a362ccde1c-FRAGMENT.arff;RAkELd;7.0;7.0;1.0;5.0;0.7142857142857143;2.0;0.2857142857142857;0.0;0.0;0.0;0.0;7.0;1.0;0.0;0.0;0.0;0.0;0.0;0.0;0.0;0.0;
153;153_40cd936a1f9b664dfd7c3ea4fb0de0c04bb0a48c-FRAGMENT.arff;BR;2.0;2.0;1.0;0.0;0.0;2.0;1.0;0.0;0.0;0.0;0.0;2.0;1.0;0.0;0.0;0.0;0.0;0.0;0.0;0.0;0.0;
153;153_40cd936a1f9b664dfd7c3ea4fb0de0c04bb0a48c-FRAGMENT.arff;LP;2.0;2.0;1.0;0.0;0.0;2.0;1.0;0.0;0.0;0.0;0.0;2.0;1.0;0.0;0.0;0.0;0.0;0.0;0.0;0.0;0.0;
153;153_40cd936a1f9b664dfd7c3ea4fb0de0c04bb0a48c-FRAGMENT.arff;RAkELd;2.0;2.0;1.0;1.0;0.5;1.0;0.5;0.0;0.0;0.0;0.0;2.0;1.0;0.0;0.0;0.0;0.0;0.0;0.0;0.0;0.0;
154;154_6d4ab95a471949ad6453b3e0516da42c6a6eb959-FRAGMENT.arff;BR;6.0;6.0;1.0;0.0;0.0;6.0;1.0;0.0;0.0;0.0;0.0;6.0;1.0;0.0;0.0;0.0;0.0;0.0;0.0;0.0;0.0;
154;154_6d4ab95a471949ad6453b3e0516da42c6a6eb959-FRAGMENT.arff;LP;6.0;6.0;1.0;0.0;0.0;6.0;1.0;0.0;0.0;0.0;0.0;6.0;1.0;0.0;0.0;0.0;0.0;0.0;0.0;0.0;0.0;
154;154_6d4ab95a471949ad6453b3e0516da42c6a6eb959-FRAGMENT.arff;RAkELd;6.0;6.0;1.0;1.0;0.16666666666666666;5.0;0.8333333333333334;0.0;0.0;0.0;0.0;6.0;1.0;0.0;0.0;0.0;0.0;0.0;0.0;0.0;0.0;
155;155_edd65c537c2f6d1c993cd3afde1bee18732c417b-FRAGMENT.arff;BR;10.0;10.0;1.0;1.0;0.1;9.0;0.9;0.0;0.0;0.0;0.0;10.0;1.0;0.0;0.0;0.0;0.0;0.0;0.0;0.0;0.0;
155;155_edd65c537c2f6d1c993cd3afde1bee18732c417b-FRAGMENT.arff;LP;10.0;10.0;1.0;0.0;0.0;10.0;1.0;0.0;0.0;0.0;0.0;10.0;1.0;0.0;0.0;0.0;0.0;0.0;0.0;0.0;0.0;
155;155_edd65c537c2f6d1c993cd3afde1bee18732c417b-FRAGMENT.arff;RAkELd;10.0;10.0;1.0;1.0;0.1;9.0;0.9;0.0;0.0;0.0;0.0;10.0;1.0;0.0;0.0;0.0;0.0;0.0;0.0;0.0;0.0;
156;156_e535484b612b11be313fc5c8cf4ce4f84efe0dac-FRAGMENT.arff;BR;1.0;1.0;1.0;0.0;0.0;1.0;1.0;0.0;0.0;0.0;0.0;1.0;1.0;0.0;0.0;0.0;0.0;0.0;0.0;0.0;0.0;
156;156_e535484b612b11be313fc5c8cf4ce4f84efe0dac-FRAGMENT.arff;LP;1.0;1.0;1.0;0.0;0.0;1.0;1.0;0.0;0.0;0.0;0.0;1.0;1.0;0.0;0.0;0.0;0.0;0.0;0.0;0.0;0.0;
156;156_e535484b612b11be313fc5c8cf4ce4f84efe0dac-FRAGMENT.arff;RAkELd;1.0;1.0;1.0;0.0;0.0;1.0;1.0;0.0;0.0;0.0;0.0;1.0;1.0;0.0;0.0;0.0;0.0;0.0;0.0;0.0;0.0;
157;157_efe8afe333c056e76e6026bbd0e40dcb49eaf3a5-FRAGMENT.arff;BR;21.0;21.0;1.0;17.0;0.8095238095238095;4.0;0.19047619047619047;0.0;0.0;0.0;0.0;21.0;1.0;0.0;0.0;0.0;0.0;0.0;0.0;0.0;0.0;
157;157_efe8afe333c056e76e6026bbd0e40dcb49eaf3a5-FRAGMENT.arff;LP;21.0;21.0;1.0;0.0;0.0;21.0;1.0;0.0;0.0;0.0;0.0;21.0;1.0;0.0;0.0;0.0;0.0;0.0;0.0;0.0;0.0;
157;157_efe8afe333c056e76e6026bbd0e40dcb49eaf3a5-FRAGMENT.arff;RAkELd;21.0;21.0;1.0;17.0;0.8095238095238095;4.0;0.19047619047619047;0.0;0.0;0.0;0.0;21.0;1.0;0.0;0.0;0.0;0.0;0.0;0.0;0.0;0.0;
158;158_4e30d3b5e6cfc16791b321e3a67e9b7dd287437b-FRAGMENT.arff;BR;24.0;24.0;1.0;4.0;0.16666666666666666;20.0;0.8333333333333334;0.0;0.0;0.0;0.0;24.0;1.0;0.0;0.0;0.0;0.0;0.0;0.0;0.0;0.0;
158;158_4e30d3b5e6cfc16791b321e3a67e9b7dd287437b-FRAGMENT.arff;LP;24.0;24.0;1.0;0.0;0.0;24.0;1.0;0.0;0.0;0.0;0.0;24.0;1.0;0.0;0.0;0.0;0.0;0.0;0.0;0.0;0.0;
158;158_4e30d3b5e6cfc16791b321e3a67e9b7dd287437b-FRAGMENT.arff;RAkELd;24.0;24.0;1.0;4.0;0.16666666666666666;20.0;0.8333333333333334;0.0;0.0;0.0;0.0;24.0;1.0;0.0;0.0;0.0;0.0;0.0;0.0;0.0;0.0;
159;159_ad7a09ae130d82cb8cb47dd2573aa42d3df0e4f8-FRAGMENT.arff;BR;6.0;6.0;1.0;0.0;0.0;6.0;1.0;0.0;0.0;0.0;0.0;6.0;1.0;0.0;0.0;0.0;0.0;0.0;0.0;0.0;0.0;
159;159_ad7a09ae130d82cb8cb47dd2573aa42d3df0e4f8-FRAGMENT.arff;LP;6.0;6.0;1.0;0.0;0.0;6.0;1.0;0.0;0.0;0.0;0.0;6.0;1.0;0.0;0.0;0.0;0.0;0.0;0.0;0.0;0.0;
159;159_ad7a09ae130d82cb8cb47dd2573aa42d3df0e4f8-FRAGMENT.arff;RAkELd;6.0;6.0;1.0;0.0;0.0;6.0;1.0;0.0;0.0;0.0;0.0;6.0;1.0;0.0;0.0;0.0;0.0;0.0;0.0;0.0;0.0;
160;160_f4d51c3d7cd5823ad420472d1fe9118918d89025-FRAGMENT.arff;BR;6.0;6.0;1.0;0.0;0.0;6.0;1.0;0.0;0.0;0.0;0.0;6.0;1.0;0.0;0.0;0.0;0.0;0.0;0.0;0.0;0.0;
160;160_f4d51c3d7cd5823ad420472d1fe9118918d89025-FRAGMENT.arff;LP;6.0;6.0;1.0;0.0;0.0;6.0;1.0;0.0;0.0;0.0;0.0;6.0;1.0;0.0;0.0;0.0;0.0;0.0;0.0;0.0;0.0;
160;160_f4d51c3d7cd5823ad420472d1fe9118918d89025-FRAGMENT.arff;RAkELd;6.0;6.0;1.0;0.0;0.0;6.0;1.0;0.0;0.0;0.0;0.0;6.0;1.0;0.0;0.0;0.0;0.0;0.0;0.0;0.0;0.0;
162;162_5029820eaaf7d7b3f1047e60c66c3ea08d185073-FRAGMENT.arff;BR;3.0;3.0;1.0;0.0;0.0;3.0;1.0;0.0;0.0;0.0;0.0;3.0;1.0;0.0;0.0;0.0;0.0;0.0;0.0;0.0;0.0;
162;162_5029820eaaf7d7b3f1047e60c66c3ea08d185073-FRAGMENT.arff;LP;3.0;3.0;1.0;0.0;0.0;3.0;1.0;0.0;0.0;0.0;0.0;3.0;1.0;0.0;0.0;0.0;0.0;0.0;0.0;0.0;0.0;
162;162_5029820eaaf7d7b3f1047e60c66c3ea08d185073-FRAGMENT.arff;RAkELd;3.0;3.0;1.0;0.0;0.0;3.0;1.0;0.0;0.0;0.0;0.0;3.0;1.0;0.0;0.0;0.0;0.0;0.0;0.0;0.0;0.0;
163;163_b38f82ec782f52eb9b13817915abd9a1d5c7b7a7-FRAGMENT.arff;BR;30.0;30.0;1.0;12.0;0.4;18.0;0.6;0.0;0.0;0.0;0.0;30.0;1.0;0.0;0.0;0.0;0.0;0.0;0.0;0.0;0.0;
163;163_b38f82ec782f52eb9b13817915abd9a1d5c7b7a7-FRAGMENT.arff;LP;30.0;30.0;1.0;0.0;0.0;30.0;1.0;0.0;0.0;0.0;0.0;30.0;1.0;0.0;0.0;0.0;0.0;0.0;0.0;0.0;0.0;
163;163_b38f82ec782f52eb9b13817915abd9a1d5c7b7a7-FRAGMENT.arff;RAkELd;30.0;30.0;1.0;12.0;0.4;18.0;0.6;0.0;0.0;0.0;0.0;30.0;1.0;0.0;0.0;0.0;0.0;0.0;0.0;0.0;0.0;
164;164_fdcc4275a5c8dbfec7c6c7c4b185952b743fe61d-FRAGMENT.arff;BR;41.0;41.0;1.0;13.0;0.3170731707317073;28.0;0.6829268292682927;0.0;0.0;0.0;0.0;41.0;1.0;0.0;0.0;0.0;0.0;0.0;0.0;0.0;0.0;
164;164_fdcc4275a5c8dbfec7c6c7c4b185952b743fe61d-FRAGMENT.arff;LP;41.0;41.0;1.0;0.0;0.0;41.0;1.0;0.0;0.0;0.0;0.0;41.0;1.0;0.0;0.0;0.0;0.0;0.0;0.0;0.0;0.0;
164;164_fdcc4275a5c8dbfec7c6c7c4b185952b743fe61d-FRAGMENT.arff;RAkELd;41.0;41.0;1.0;8.0;0.1951219512195122;33.0;0.8048780487804879;0.0;0.0;0.0;0.0;41.0;1.0;0.0;0.0;0.0;0.0;0.0;0.0;0.0;0.0;
165;165_73b4305e70cd203b71a66f043429aad06c695923-FRAGMENT.arff;BR;8.0;8.0;1.0;0.0;0.0;8.0;1.0;0.0;0.0;0.0;0.0;8.0;1.0;0.0;0.0;0.0;0.0;0.0;0.0;0.0;0.0;
165;165_73b4305e70cd203b71a66f043429aad06c695923-FRAGMENT.arff;LP;8.0;8.0;1.0;0.0;0.0;8.0;1.0;0.0;0.0;0.0;0.0;8.0;1.0;0.0;0.0;0.0;0.0;0.0;0.0;0.0;0.0;
165;165_73b4305e70cd203b71a66f043429aad06c695923-FRAGMENT.arff;RAkELd;8.0;8.0;1.0;0.0;0.0;8.0;1.0;0.0;0.0;0.0;0.0;8.0;1.0;0.0;0.0;0.0;0.0;0.0;0.0;0.0;0.0;
166;166_a208858ddba795bae4d456baa2255d556ddc1e6d-FRAGMENT.arff;BR;4.0;4.0;1.0;0.0;0.0;4.0;1.0;0.0;0.0;0.0;0.0;4.0;1.0;0.0;0.0;0.0;0.0;0.0;0.0;0.0;0.0;
166;166_a208858ddba795bae4d456baa2255d556ddc1e6d-FRAGMENT.arff;LP;4.0;4.0;1.0;0.0;0.0;4.0;1.0;0.0;0.0;0.0;0.0;4.0;1.0;0.0;0.0;0.0;0.0;0.0;0.0;0.0;0.0;
166;166_a208858ddba795bae4d456baa2255d556ddc1e6d-FRAGMENT.arff;RAkELd;4.0;4.0;1.0;0.0;0.0;4.0;1.0;0.0;0.0;0.0;0.0;4.0;1.0;0.0;0.0;0.0;0.0;0.0;0.0;0.0;0.0;
168;168_b6faf45260096b94a6a1ea3804e3e51c4ccdf346-FRAGMENT.arff;BR;58.0;58.0;1.0;15.0;0.25862068965517243;43.0;0.7413793103448276;0.0;0.0;0.0;0.0;58.0;1.0;0.0;0.0;0.0;0.0;0.0;0.0;0.0;0.0;
168;168_b6faf45260096b94a6a1ea3804e3e51c4ccdf346-FRAGMENT.arff;LP;58.0;58.0;1.0;0.0;0.0;58.0;1.0;0.0;0.0;0.0;0.0;58.0;1.0;0.0;0.0;0.0;0.0;0.0;0.0;0.0;0.0;
168;168_b6faf45260096b94a6a1ea3804e3e51c4ccdf346-FRAGMENT.arff;RAkELd;58.0;58.0;1.0;16.0;0.27586206896551724;42.0;0.7241379310344828;0.0;0.0;0.0;0.0;58.0;1.0;0.0;0.0;0.0;0.0;0.0;0.0;0.0;0.0;
170;170_f48d07fef7d1a4058482cecdbfc9b4f8a1c06e01-FRAGMENT.arff;BR;2.0;2.0;1.0;0.0;0.0;2.0;1.0;0.0;0.0;0.0;0.0;2.0;1.0;0.0;0.0;0.0;0.0;0.0;0.0;0.0;0.0;
170;170_f48d07fef7d1a4058482cecdbfc9b4f8a1c06e01-FRAGMENT.arff;LP;2.0;2.0;1.0;0.0;0.0;2.0;1.0;0.0;0.0;0.0;0.0;2.0;1.0;0.0;0.0;0.0;0.0;0.0;0.0;0.0;0.0;
170;170_f48d07fef7d1a4058482cecdbfc9b4f8a1c06e01-FRAGMENT.arff;RAkELd;2.0;2.0;1.0;0.0;0.0;2.0;1.0;0.0;0.0;0.0;0.0;2.0;1.0;0.0;0.0;0.0;0.0;0.0;0.0;0.0;0.0;
175;175_e6ad400738f994f6a90e4e94a591b0c86303ef6a-FRAGMENT.arff;BR;6.0;6.0;1.0;4.0;0.6666666666666666;2.0;0.3333333333333333;0.0;0.0;0.0;0.0;6.0;1.0;0.0;0.0;0.0;0.0;0.0;0.0;0.0;0.0;
175;175_e6ad400738f994f6a90e4e94a591b0c86303ef6a-FRAGMENT.arff;LP;6.0;6.0;1.0;0.0;0.0;6.0;1.0;0.0;0.0;0.0;0.0;6.0;1.0;0.0;0.0;0.0;0.0;0.0;0.0;0.0;0.0;
175;175_e6ad400738f994f6a90e4e94a591b0c86303ef6a-FRAGMENT.arff;RAkELd;6.0;6.0;1.0;2.0;0.3333333333333333;4.0;0.6666666666666666;0.0;0.0;0.0;0.0;6.0;1.0;0.0;0.0;0.0;0.0;0.0;0.0;0.0;0.0;
181;181_a33a0a1cb08fde9ffedec2489ffd38cbf5ed393a-FRAGMENT.arff;BR;22.0;22.0;1.0;10.0;0.45454545454545453;12.0;0.5454545454545454;0.0;0.0;0.0;0.0;22.0;1.0;0.0;0.0;0.0;0.0;0.0;0.0;0.0;0.0;
181;181_a33a0a1cb08fde9ffedec2489ffd38cbf5ed393a-FRAGMENT.arff;LP;22.0;22.0;1.0;0.0;0.0;22.0;1.0;0.0;0.0;0.0;0.0;22.0;1.0;0.0;0.0;0.0;0.0;0.0;0.0;0.0;0.0;
181;181_a33a0a1cb08fde9ffedec2489ffd38cbf5ed393a-FRAGMENT.arff;RAkELd;22.0;22.0;1.0;10.0;0.45454545454545453;12.0;0.5454545454545454;0.0;0.0;0.0;0.0;22.0;1.0;0.0;0.0;0.0;0.0;0.0;0.0;0.0;0.0;
182;182_066e93cf07f5d46f0372a1bd5b94cf4aa939fc84-FRAGMENT.arff;BR;2.0;2.0;1.0;0.0;0.0;2.0;1.0;0.0;0.0;0.0;0.0;2.0;1.0;0.0;0.0;0.0;0.0;0.0;0.0;0.0;0.0;
182;182_066e93cf07f5d46f0372a1bd5b94cf4aa939fc84-FRAGMENT.arff;LP;2.0;2.0;1.0;0.0;0.0;2.0;1.0;0.0;0.0;0.0;0.0;2.0;1.0;0.0;0.0;0.0;0.0;0.0;0.0;0.0;0.0;
182;182_066e93cf07f5d46f0372a1bd5b94cf4aa939fc84-FRAGMENT.arff;RAkELd;2.0;2.0;1.0;0.0;0.0;2.0;1.0;0.0;0.0;0.0;0.0;2.0;1.0;0.0;0.0;0.0;0.0;0.0;0.0;0.0;0.0;
183;183_977d52c127706523c267b528145d9183b7d2809c-FRAGMENT.arff;BR;25.0;25.0;1.0;2.0;0.08;23.0;0.92;0.0;0.0;0.0;0.0;25.0;1.0;0.0;0.0;0.0;0.0;0.0;0.0;0.0;0.0;
183;183_977d52c127706523c267b528145d9183b7d2809c-FRAGMENT.arff;LP;25.0;25.0;1.0;0.0;0.0;25.0;1.0;0.0;0.0;0.0;0.0;25.0;1.0;0.0;0.0;0.0;0.0;0.0;0.0;0.0;0.0;
183;183_977d52c127706523c267b528145d9183b7d2809c-FRAGMENT.arff;RAkELd;25.0;25.0;1.0;18.0;0.72;7.0;0.28;0.0;0.0;0.0;0.0;25.0;1.0;0.0;0.0;0.0;0.0;0.0;0.0;0.0;0.0;
184;184_f7ba6d32e7f27265811cb61b56fbaaad7dae6dd0-FRAGMENT.arff;BR;3.0;3.0;1.0;0.0;0.0;3.0;1.0;0.0;0.0;0.0;0.0;3.0;1.0;0.0;0.0;0.0;0.0;0.0;0.0;0.0;0.0;
184;184_f7ba6d32e7f27265811cb61b56fbaaad7dae6dd0-FRAGMENT.arff;LP;3.0;3.0;1.0;0.0;0.0;3.0;1.0;0.0;0.0;0.0;0.0;3.0;1.0;0.0;0.0;0.0;0.0;0.0;0.0;0.0;0.0;
184;184_f7ba6d32e7f27265811cb61b56fbaaad7dae6dd0-FRAGMENT.arff;RAkELd;3.0;3.0;1.0;0.0;0.0;3.0;1.0;0.0;0.0;0.0;0.0;3.0;1.0;0.0;0.0;0.0;0.0;0.0;0.0;0.0;0.0;
185;185_8feae10665a7dc33a43728d00048453db470f078-FRAGMENT.arff;BR;20.0;20.0;1.0;0.0;0.0;20.0;1.0;0.0;0.0;0.0;0.0;20.0;1.0;0.0;0.0;0.0;0.0;0.0;0.0;0.0;0.0;
185;185_8feae10665a7dc33a43728d00048453db470f078-FRAGMENT.arff;LP;20.0;20.0;1.0;0.0;0.0;20.0;1.0;0.0;0.0;0.0;0.0;20.0;1.0;0.0;0.0;0.0;0.0;0.0;0.0;0.0;0.0;
185;185_8feae10665a7dc33a43728d00048453db470f078-FRAGMENT.arff;RAkELd;20.0;20.0;1.0;0.0;0.0;20.0;1.0;0.0;0.0;0.0;0.0;20.0;1.0;0.0;0.0;0.0;0.0;0.0;0.0;0.0;0.0;
186;186_f131502e24357933c03a6a3620af6e301a84ebe7-FRAGMENT.arff;BR;23.0;23.0;1.0;6.0;0.2608695652173913;17.0;0.7391304347826086;0.0;0.0;0.0;0.0;23.0;1.0;0.0;0.0;0.0;0.0;0.0;0.0;0.0;0.0;
186;186_f131502e24357933c03a6a3620af6e301a84ebe7-FRAGMENT.arff;LP;23.0;23.0;1.0;0.0;0.0;23.0;1.0;0.0;0.0;0.0;0.0;23.0;1.0;0.0;0.0;0.0;0.0;0.0;0.0;0.0;0.0;
186;186_f131502e24357933c03a6a3620af6e301a84ebe7-FRAGMENT.arff;RAkELd;23.0;23.0;1.0;1.0;0.043478260869565216;22.0;0.9565217391304348;0.0;0.0;0.0;0.0;23.0;1.0;0.0;0.0;0.0;0.0;0.0;0.0;0.0;0.0;
187;187_6a5197e764eee00db1a8286e5411f11c081a58fb-FRAGMENT.arff;BR;12.0;12.0;1.0;1.0;0.08333333333333333;11.0;0.9166666666666666;0.0;0.0;0.0;0.0;12.0;1.0;0.0;0.0;0.0;0.0;0.0;0.0;0.0;0.0;
187;187_6a5197e764eee00db1a8286e5411f11c081a58fb-FRAGMENT.arff;LP;12.0;12.0;1.0;0.0;0.0;12.0;1.0;0.0;0.0;0.0;0.0;12.0;1.0;0.0;0.0;0.0;0.0;0.0;0.0;0.0;0.0;
187;187_6a5197e764eee00db1a8286e5411f11c081a58fb-FRAGMENT.arff;RAkELd;12.0;12.0;1.0;1.0;0.08333333333333333;11.0;0.9166666666666666;0.0;0.0;0.0;0.0;12.0;1.0;0.0;0.0;0.0;0.0;0.0;0.0;0.0;0.0;
188;188_d41979868da073d4421d8980d6bc4c39db23f3d2-FRAGMENT.arff;BR;8.0;8.0;1.0;0.0;0.0;8.0;1.0;0.0;0.0;0.0;0.0;8.0;1.0;0.0;0.0;0.0;0.0;0.0;0.0;0.0;0.0;
188;188_d41979868da073d4421d8980d6bc4c39db23f3d2-FRAGMENT.arff;LP;8.0;8.0;1.0;0.0;0.0;8.0;1.0;0.0;0.0;0.0;0.0;8.0;1.0;0.0;0.0;0.0;0.0;0.0;0.0;0.0;0.0;
188;188_d41979868da073d4421d8980d6bc4c39db23f3d2-FRAGMENT.arff;RAkELd;8.0;8.0;1.0;0.0;0.0;8.0;1.0;0.0;0.0;0.0;0.0;8.0;1.0;0.0;0.0;0.0;0.0;0.0;0.0;0.0;0.0;
190;190_a3cd83e06baf0cedccd1c5a553b60df23742773d-FRAGMENT.arff;BR;1.0;1.0;1.0;0.0;0.0;1.0;1.0;0.0;0.0;0.0;0.0;1.0;1.0;0.0;0.0;0.0;0.0;0.0;0.0;0.0;0.0;
190;190_a3cd83e06baf0cedccd1c5a553b60df23742773d-FRAGMENT.arff;LP;1.0;1.0;1.0;0.0;0.0;1.0;1.0;0.0;0.0;0.0;0.0;1.0;1.0;0.0;0.0;0.0;0.0;0.0;0.0;0.0;0.0;
190;190_a3cd83e06baf0cedccd1c5a553b60df23742773d-FRAGMENT.arff;RAkELd;1.0;1.0;1.0;0.0;0.0;1.0;1.0;0.0;0.0;0.0;0.0;1.0;1.0;0.0;0.0;0.0;0.0;0.0;0.0;0.0;0.0;
191;191_29b35c9ba28f9d15a6db00d1995796e7ba805bb0-FRAGMENT.arff;BR;26.0;26.0;1.0;1.0;0.038461538461538464;25.0;0.9615384615384616;0.0;0.0;0.0;0.0;26.0;1.0;0.0;0.0;0.0;0.0;0.0;0.0;0.0;0.0;
191;191_29b35c9ba28f9d15a6db00d1995796e7ba805bb0-FRAGMENT.arff;LP;26.0;26.0;1.0;0.0;0.0;26.0;1.0;0.0;0.0;0.0;0.0;26.0;1.0;0.0;0.0;0.0;0.0;0.0;0.0;0.0;0.0;
191;191_29b35c9ba28f9d15a6db00d1995796e7ba805bb0-FRAGMENT.arff;RAkELd;26.0;26.0;1.0;1.0;0.038461538461538464;25.0;0.9615384615384616;0.0;0.0;0.0;0.0;26.0;1.0;0.0;0.0;0.0;0.0;0.0;0.0;0.0;0.0;
192;192_26c03c9772633029e699bac680a8c66d0887d369-FRAGMENT.arff;BR;32.0;32.0;1.0;11.0;0.34375;21.0;0.65625;0.0;0.0;0.0;0.0;32.0;1.0;0.0;0.0;0.0;0.0;0.0;0.0;0.0;0.0;
192;192_26c03c9772633029e699bac680a8c66d0887d369-FRAGMENT.arff;LP;32.0;32.0;1.0;0.0;0.0;32.0;1.0;0.0;0.0;0.0;0.0;32.0;1.0;0.0;0.0;0.0;0.0;0.0;0.0;0.0;0.0;
192;192_26c03c9772633029e699bac680a8c66d0887d369-FRAGMENT.arff;RAkELd;32.0;32.0;1.0;12.0;0.375;20.0;0.625;0.0;0.0;0.0;0.0;32.0;1.0;0.0;0.0;0.0;0.0;0.0;0.0;0.0;0.0;
193;193_5afcb8a8079214815b195d80415a8f460b0be86a-FRAGMENT.arff;BR;4.0;4.0;1.0;0.0;0.0;4.0;1.0;0.0;0.0;0.0;0.0;4.0;1.0;0.0;0.0;0.0;0.0;0.0;0.0;0.0;0.0;
193;193_5afcb8a8079214815b195d80415a8f460b0be86a-FRAGMENT.arff;LP;4.0;4.0;1.0;0.0;0.0;4.0;1.0;0.0;0.0;0.0;0.0;4.0;1.0;0.0;0.0;0.0;0.0;0.0;0.0;0.0;0.0;
193;193_5afcb8a8079214815b195d80415a8f460b0be86a-FRAGMENT.arff;RAkELd;4.0;4.0;1.0;0.0;0.0;4.0;1.0;0.0;0.0;0.0;0.0;4.0;1.0;0.0;0.0;0.0;0.0;0.0;0.0;0.0;0.0;
194;194_31ada434bf4ed3b1cb7e29c9d9f43ec92b7610c0-FRAGMENT.arff;BR;6.0;6.0;1.0;6.0;1.0;0.0;0.0;0.0;0.0;0.0;0.0;6.0;1.0;0.0;0.0;0.0;0.0;0.0;0.0;0.0;0.0;
194;194_31ada434bf4ed3b1cb7e29c9d9f43ec92b7610c0-FRAGMENT.arff;LP;6.0;6.0;1.0;0.0;0.0;6.0;1.0;0.0;0.0;0.0;0.0;6.0;1.0;0.0;0.0;0.0;0.0;0.0;0.0;0.0;0.0;
194;194_31ada434bf4ed3b1cb7e29c9d9f43ec92b7610c0-FRAGMENT.arff;RAkELd;6.0;6.0;1.0;6.0;1.0;0.0;0.0;0.0;0.0;0.0;0.0;6.0;1.0;0.0;0.0;0.0;0.0;0.0;0.0;0.0;0.0;
196;196_daf740fc48b8d785baa49eaf728d68eff645be38-FRAGMENT.arff;BR;4.0;4.0;1.0;0.0;0.0;4.0;1.0;0.0;0.0;0.0;0.0;4.0;1.0;0.0;0.0;0.0;0.0;0.0;0.0;0.0;0.0;
196;196_daf740fc48b8d785baa49eaf728d68eff645be38-FRAGMENT.arff;LP;4.0;4.0;1.0;0.0;0.0;4.0;1.0;0.0;0.0;0.0;0.0;4.0;1.0;0.0;0.0;0.0;0.0;0.0;0.0;0.0;0.0;
196;196_daf740fc48b8d785baa49eaf728d68eff645be38-FRAGMENT.arff;RAkELd;4.0;4.0;1.0;0.0;0.0;4.0;1.0;0.0;0.0;0.0;0.0;4.0;1.0;0.0;0.0;0.0;0.0;0.0;0.0;0.0;0.0;
197;197_5b6462d11ad4772d39bf053622fc219a157eec9c-FRAGMENT.arff;BR;30.0;30.0;1.0;9.0;0.3;21.0;0.7;0.0;0.0;0.0;0.0;30.0;1.0;0.0;0.0;0.0;0.0;0.0;0.0;0.0;0.0;
197;197_5b6462d11ad4772d39bf053622fc219a157eec9c-FRAGMENT.arff;LP;30.0;30.0;1.0;0.0;0.0;30.0;1.0;0.0;0.0;0.0;0.0;30.0;1.0;0.0;0.0;0.0;0.0;0.0;0.0;0.0;0.0;
197;197_5b6462d11ad4772d39bf053622fc219a157eec9c-FRAGMENT.arff;RAkELd;30.0;30.0;1.0;7.0;0.23333333333333334;23.0;0.7666666666666667;0.0;0.0;0.0;0.0;30.0;1.0;0.0;0.0;0.0;0.0;0.0;0.0;0.0;0.0;
198;198_327cd7259bc63031346417a44fd84b4d76ac281c-FRAGMENT.arff;BR;53.0;53.0;1.0;0.0;0.0;53.0;1.0;0.0;0.0;0.0;0.0;53.0;1.0;0.0;0.0;0.0;0.0;0.0;0.0;0.0;0.0;
198;198_327cd7259bc63031346417a44fd84b4d76ac281c-FRAGMENT.arff;LP;53.0;53.0;1.0;0.0;0.0;53.0;1.0;0.0;0.0;0.0;0.0;53.0;1.0;0.0;0.0;0.0;0.0;0.0;0.0;0.0;0.0;
198;198_327cd7259bc63031346417a44fd84b4d76ac281c-FRAGMENT.arff;RAkELd;53.0;53.0;1.0;0.0;0.0;53.0;1.0;0.0;0.0;0.0;0.0;53.0;1.0;0.0;0.0;0.0;0.0;0.0;0.0;0.0;0.0;
204;204_293051883ffd9e5bb5d03e1f98539ff9739d7d80-FRAGMENT.arff;BR;72.0;72.0;1.0;0.0;0.0;72.0;1.0;0.0;0.0;0.0;0.0;72.0;1.0;0.0;0.0;0.0;0.0;0.0;0.0;0.0;0.0;
204;204_293051883ffd9e5bb5d03e1f98539ff9739d7d80-FRAGMENT.arff;LP;72.0;72.0;1.0;0.0;0.0;72.0;1.0;0.0;0.0;0.0;0.0;72.0;1.0;0.0;0.0;0.0;0.0;0.0;0.0;0.0;0.0;
204;204_293051883ffd9e5bb5d03e1f98539ff9739d7d80-FRAGMENT.arff;RAkELd;72.0;72.0;1.0;0.0;0.0;72.0;1.0;0.0;0.0;0.0;0.0;72.0;1.0;0.0;0.0;0.0;0.0;0.0;0.0;0.0;0.0;
205;205_54b52c2875ab0d61993de6b7625532a50c2e39b1-FRAGMENT.arff;BR;19.0;19.0;1.0;9.0;0.47368421052631576;10.0;0.5263157894736842;0.0;0.0;0.0;0.0;19.0;1.0;0.0;0.0;0.0;0.0;0.0;0.0;0.0;0.0;
205;205_54b52c2875ab0d61993de6b7625532a50c2e39b1-FRAGMENT.arff;LP;19.0;19.0;1.0;0.0;0.0;19.0;1.0;0.0;0.0;0.0;0.0;19.0;1.0;0.0;0.0;0.0;0.0;0.0;0.0;0.0;0.0;
205;205_54b52c2875ab0d61993de6b7625532a50c2e39b1-FRAGMENT.arff;RAkELd;19.0;19.0;1.0;9.0;0.47368421052631576;10.0;0.5263157894736842;0.0;0.0;0.0;0.0;19.0;1.0;0.0;0.0;0.0;0.0;0.0;0.0;0.0;0.0;
206;206_d2fa85c92f9ab620af80798f14da4d7655b08a4c-FRAGMENT.arff;BR;20.0;20.0;1.0;11.0;0.55;9.0;0.45;0.0;0.0;0.0;0.0;20.0;1.0;0.0;0.0;0.0;0.0;0.0;0.0;0.0;0.0;
206;206_d2fa85c92f9ab620af80798f14da4d7655b08a4c-FRAGMENT.arff;LP;20.0;20.0;1.0;0.0;0.0;20.0;1.0;0.0;0.0;0.0;0.0;20.0;1.0;0.0;0.0;0.0;0.0;0.0;0.0;0.0;0.0;
206;206_d2fa85c92f9ab620af80798f14da4d7655b08a4c-FRAGMENT.arff;RAkELd;20.0;20.0;1.0;5.0;0.25;15.0;0.75;0.0;0.0;0.0;0.0;20.0;1.0;0.0;0.0;0.0;0.0;0.0;0.0;0.0;0.0;
207;207_f344a88fa9487458187bc3e322b71167ba9b61d5-FRAGMENT.arff;BR;9.0;9.0;1.0;7.0;0.7777777777777778;2.0;0.2222222222222222;0.0;0.0;0.0;0.0;9.0;1.0;0.0;0.0;0.0;0.0;0.0;0.0;0.0;0.0;
207;207_f344a88fa9487458187bc3e322b71167ba9b61d5-FRAGMENT.arff;LP;9.0;9.0;1.0;0.0;0.0;9.0;1.0;0.0;0.0;0.0;0.0;9.0;1.0;0.0;0.0;0.0;0.0;0.0;0.0;0.0;0.0;
207;207_f344a88fa9487458187bc3e322b71167ba9b61d5-FRAGMENT.arff;RAkELd;9.0;9.0;1.0;9.0;1.0;0.0;0.0;0.0;0.0;0.0;0.0;9.0;1.0;0.0;0.0;0.0;0.0;0.0;0.0;0.0;0.0;
209;209_48e751d933fbf9502c4a0f533d8457c2fcf91056-FRAGMENT.arff;BR;6.0;6.0;1.0;0.0;0.0;6.0;1.0;0.0;0.0;0.0;0.0;6.0;1.0;0.0;0.0;0.0;0.0;0.0;0.0;0.0;0.0;
209;209_48e751d933fbf9502c4a0f533d8457c2fcf91056-FRAGMENT.arff;LP;6.0;6.0;1.0;0.0;0.0;6.0;1.0;0.0;0.0;0.0;0.0;6.0;1.0;0.0;0.0;0.0;0.0;0.0;0.0;0.0;0.0;
209;209_48e751d933fbf9502c4a0f533d8457c2fcf91056-FRAGMENT.arff;RAkELd;6.0;6.0;1.0;0.0;0.0;6.0;1.0;0.0;0.0;0.0;0.0;6.0;1.0;0.0;0.0;0.0;0.0;0.0;0.0;0.0;0.0;
210;210_d02618d626a9a38d7fbedb059bbc2f2579d1509c-FRAGMENT.arff;BR;4.0;4.0;1.0;0.0;0.0;4.0;1.0;0.0;0.0;0.0;0.0;4.0;1.0;0.0;0.0;0.0;0.0;0.0;0.0;0.0;0.0;
210;210_d02618d626a9a38d7fbedb059bbc2f2579d1509c-FRAGMENT.arff;LP;4.0;4.0;1.0;0.0;0.0;4.0;1.0;0.0;0.0;0.0;0.0;4.0;1.0;0.0;0.0;0.0;0.0;0.0;0.0;0.0;0.0;
210;210_d02618d626a9a38d7fbedb059bbc2f2579d1509c-FRAGMENT.arff;RAkELd;4.0;4.0;1.0;0.0;0.0;4.0;1.0;0.0;0.0;0.0;0.0;4.0;1.0;0.0;0.0;0.0;0.0;0.0;0.0;0.0;0.0;
211;211_95ea0aca442a43251d1fb111ef2bc5e6cd28a583-FRAGMENT.arff;BR;3.0;3.0;1.0;0.0;0.0;3.0;1.0;0.0;0.0;0.0;0.0;3.0;1.0;0.0;0.0;0.0;0.0;0.0;0.0;0.0;0.0;
211;211_95ea0aca442a43251d1fb111ef2bc5e6cd28a583-FRAGMENT.arff;LP;3.0;3.0;1.0;0.0;0.0;3.0;1.0;0.0;0.0;0.0;0.0;3.0;1.0;0.0;0.0;0.0;0.0;0.0;0.0;0.0;0.0;
211;211_95ea0aca442a43251d1fb111ef2bc5e6cd28a583-FRAGMENT.arff;RAkELd;3.0;3.0;1.0;0.0;0.0;3.0;1.0;0.0;0.0;0.0;0.0;3.0;1.0;0.0;0.0;0.0;0.0;0.0;0.0;0.0;0.0;
212;212_aa4e0e03fdf71880e3870af9b5722ee1d21b9a83-FRAGMENT.arff;BR;3.0;3.0;1.0;0.0;0.0;3.0;1.0;0.0;0.0;0.0;0.0;3.0;1.0;0.0;0.0;0.0;0.0;0.0;0.0;0.0;0.0;
212;212_aa4e0e03fdf71880e3870af9b5722ee1d21b9a83-FRAGMENT.arff;LP;3.0;3.0;1.0;0.0;0.0;3.0;1.0;0.0;0.0;0.0;0.0;3.0;1.0;0.0;0.0;0.0;0.0;0.0;0.0;0.0;0.0;
212;212_aa4e0e03fdf71880e3870af9b5722ee1d21b9a83-FRAGMENT.arff;RAkELd;3.0;3.0;1.0;0.0;0.0;3.0;1.0;0.0;0.0;0.0;0.0;3.0;1.0;0.0;0.0;0.0;0.0;0.0;0.0;0.0;0.0;
214;214_4206ee7b9d0b653a55b2ef288bfa583fa4a2998c-FRAGMENT.arff;BR;12.0;12.0;1.0;0.0;0.0;12.0;1.0;0.0;0.0;0.0;0.0;12.0;1.0;0.0;0.0;0.0;0.0;0.0;0.0;0.0;0.0;
214;214_4206ee7b9d0b653a55b2ef288bfa583fa4a2998c-FRAGMENT.arff;LP;12.0;12.0;1.0;0.0;0.0;12.0;1.0;0.0;0.0;0.0;0.0;12.0;1.0;0.0;0.0;0.0;0.0;0.0;0.0;0.0;0.0;
214;214_4206ee7b9d0b653a55b2ef288bfa583fa4a2998c-FRAGMENT.arff;RAkELd;12.0;12.0;1.0;0.0;0.0;12.0;1.0;0.0;0.0;0.0;0.0;12.0;1.0;0.0;0.0;0.0;0.0;0.0;0.0;0.0;0.0;
215;215_279a55ba6f7b8921fda02d8eee657c76d5a568f3-FRAGMENT.arff;BR;5.0;5.0;1.0;3.0;0.6;2.0;0.4;0.0;0.0;0.0;0.0;5.0;1.0;0.0;0.0;0.0;0.0;0.0;0.0;0.0;0.0;
215;215_279a55ba6f7b8921fda02d8eee657c76d5a568f3-FRAGMENT.arff;LP;5.0;5.0;1.0;0.0;0.0;5.0;1.0;0.0;0.0;0.0;0.0;5.0;1.0;0.0;0.0;0.0;0.0;0.0;0.0;0.0;0.0;
215;215_279a55ba6f7b8921fda02d8eee657c76d5a568f3-FRAGMENT.arff;RAkELd;5.0;5.0;1.0;5.0;1.0;0.0;0.0;0.0;0.0;0.0;0.0;5.0;1.0;0.0;0.0;0.0;0.0;0.0;0.0;0.0;0.0;
217;217_d8b137bdea59555a157eab1e6d7b299425a5260b-FRAGMENT.arff;BR;11.0;11.0;1.0;0.0;0.0;11.0;1.0;0.0;0.0;0.0;0.0;11.0;1.0;0.0;0.0;0.0;0.0;0.0;0.0;0.0;0.0;
217;217_d8b137bdea59555a157eab1e6d7b299425a5260b-FRAGMENT.arff;LP;11.0;11.0;1.0;0.0;0.0;11.0;1.0;0.0;0.0;0.0;0.0;11.0;1.0;0.0;0.0;0.0;0.0;0.0;0.0;0.0;0.0;
217;217_d8b137bdea59555a157eab1e6d7b299425a5260b-FRAGMENT.arff;RAkELd;11.0;11.0;1.0;0.0;0.0;11.0;1.0;0.0;0.0;0.0;0.0;11.0;1.0;0.0;0.0;0.0;0.0;0.0;0.0;0.0;0.0;
218;218_ac3a1f72c5855fc0d36b19c8e66e6d68a39cbd15-FRAGMENT.arff;BR;7.0;7.0;1.0;7.0;1.0;0.0;0.0;0.0;0.0;0.0;0.0;7.0;1.0;0.0;0.0;0.0;0.0;0.0;0.0;0.0;0.0;
218;218_ac3a1f72c5855fc0d36b19c8e66e6d68a39cbd15-FRAGMENT.arff;LP;7.0;7.0;1.0;0.0;0.0;7.0;1.0;0.0;0.0;0.0;0.0;7.0;1.0;0.0;0.0;0.0;0.0;0.0;0.0;0.0;0.0;
218;218_ac3a1f72c5855fc0d36b19c8e66e6d68a39cbd15-FRAGMENT.arff;RAkELd;7.0;7.0;1.0;7.0;1.0;0.0;0.0;0.0;0.0;0.0;0.0;7.0;1.0;0.0;0.0;0.0;0.0;0.0;0.0;0.0;0.0;
219;219_2e38223968881c7e5dfd4bd3d652f2ccf838b825-FRAGMENT.arff;BR;6.0;6.0;1.0;4.0;0.6666666666666666;2.0;0.3333333333333333;0.0;0.0;0.0;0.0;6.0;1.0;0.0;0.0;0.0;0.0;0.0;0.0;0.0;0.0;
219;219_2e38223968881c7e5dfd4bd3d652f2ccf838b825-FRAGMENT.arff;LP;6.0;6.0;1.0;0.0;0.0;6.0;1.0;0.0;0.0;0.0;0.0;6.0;1.0;0.0;0.0;0.0;0.0;0.0;0.0;0.0;0.0;
219;219_2e38223968881c7e5dfd4bd3d652f2ccf838b825-FRAGMENT.arff;RAkELd;6.0;6.0;1.0;0.0;0.0;6.0;1.0;0.0;0.0;0.0;0.0;6.0;1.0;0.0;0.0;0.0;0.0;0.0;0.0;0.0;0.0;
220;220_7fb35d0deba8a34e2fbae152608d059641b6af8b-FRAGMENT.arff;BR;18.0;18.0;1.0;10.0;0.5555555555555556;8.0;0.4444444444444444;0.0;0.0;0.0;0.0;18.0;1.0;0.0;0.0;0.0;0.0;0.0;0.0;0.0;0.0;
220;220_7fb35d0deba8a34e2fbae152608d059641b6af8b-FRAGMENT.arff;LP;18.0;18.0;1.0;0.0;0.0;18.0;1.0;0.0;0.0;0.0;0.0;18.0;1.0;0.0;0.0;0.0;0.0;0.0;0.0;0.0;0.0;
220;220_7fb35d0deba8a34e2fbae152608d059641b6af8b-FRAGMENT.arff;RAkELd;18.0;18.0;1.0;6.0;0.3333333333333333;12.0;0.6666666666666666;0.0;0.0;0.0;0.0;18.0;1.0;0.0;0.0;0.0;0.0;0.0;0.0;0.0;0.0;
222;222_0085dd085a01486221274e38f0621ecda216f7e1-FRAGMENT.arff;BR;3.0;3.0;1.0;0.0;0.0;3.0;1.0;0.0;0.0;0.0;0.0;3.0;1.0;0.0;0.0;0.0;0.0;0.0;0.0;0.0;0.0;
222;222_0085dd085a01486221274e38f0621ecda216f7e1-FRAGMENT.arff;LP;3.0;3.0;1.0;0.0;0.0;3.0;1.0;0.0;0.0;0.0;0.0;3.0;1.0;0.0;0.0;0.0;0.0;0.0;0.0;0.0;0.0;
222;222_0085dd085a01486221274e38f0621ecda216f7e1-FRAGMENT.arff;RAkELd;3.0;3.0;1.0;0.0;0.0;3.0;1.0;0.0;0.0;0.0;0.0;3.0;1.0;0.0;0.0;0.0;0.0;0.0;0.0;0.0;0.0;
224;224_a08b5d3dc11fecb611c3a8c63aa307734a2f189c-FRAGMENT.arff;BR;33.0;33.0;1.0;9.0;0.2727272727272727;24.0;0.7272727272727273;0.0;0.0;0.0;0.0;33.0;1.0;0.0;0.0;0.0;0.0;0.0;0.0;0.0;0.0;
224;224_a08b5d3dc11fecb611c3a8c63aa307734a2f189c-FRAGMENT.arff;LP;33.0;33.0;1.0;0.0;0.0;33.0;1.0;0.0;0.0;0.0;0.0;33.0;1.0;0.0;0.0;0.0;0.0;0.0;0.0;0.0;0.0;
224;224_a08b5d3dc11fecb611c3a8c63aa307734a2f189c-FRAGMENT.arff;RAkELd;33.0;33.0;1.0;6.0;0.18181818181818182;27.0;0.8181818181818182;0.0;0.0;0.0;0.0;33.0;1.0;0.0;0.0;0.0;0.0;0.0;0.0;0.0;0.0;
227;227_29f7dfca9c7e7caba6388867790ab19e07329526-FRAGMENT.arff;BR;42.0;42.0;1.0;5.0;0.11904761904761904;37.0;0.8809523809523809;0.0;0.0;0.0;0.0;42.0;1.0;0.0;0.0;0.0;0.0;0.0;0.0;0.0;0.0;
227;227_29f7dfca9c7e7caba6388867790ab19e07329526-FRAGMENT.arff;LP;42.0;42.0;1.0;0.0;0.0;42.0;1.0;0.0;0.0;0.0;0.0;42.0;1.0;0.0;0.0;0.0;0.0;0.0;0.0;0.0;0.0;
227;227_29f7dfca9c7e7caba6388867790ab19e07329526-FRAGMENT.arff;RAkELd;42.0;42.0;1.0;8.0;0.19047619047619047;34.0;0.8095238095238095;0.0;0.0;0.0;0.0;42.0;1.0;0.0;0.0;0.0;0.0;0.0;0.0;0.0;0.0;
240;240_18cd5d4d3a676c23329d2436879554f9c1336a0b-FRAGMENT.arff;BR;9.0;9.0;1.0;0.0;0.0;9.0;1.0;0.0;0.0;0.0;0.0;9.0;1.0;0.0;0.0;0.0;0.0;0.0;0.0;0.0;0.0;
240;240_18cd5d4d3a676c23329d2436879554f9c1336a0b-FRAGMENT.arff;LP;9.0;9.0;1.0;0.0;0.0;9.0;1.0;0.0;0.0;0.0;0.0;9.0;1.0;0.0;0.0;0.0;0.0;0.0;0.0;0.0;0.0;
240;240_18cd5d4d3a676c23329d2436879554f9c1336a0b-FRAGMENT.arff;RAkELd;9.0;9.0;1.0;1.0;0.1111111111111111;8.0;0.8888888888888888;0.0;0.0;0.0;0.0;9.0;1.0;0.0;0.0;0.0;0.0;0.0;0.0;0.0;0.0;
245;245_fd0b7cce12c304aa1830e37cd5dfa3a789f8a50e-FRAGMENT.arff;BR;45.0;45.0;1.0;9.0;0.2;36.0;0.8;0.0;0.0;0.0;0.0;45.0;1.0;0.0;0.0;0.0;0.0;0.0;0.0;0.0;0.0;
245;245_fd0b7cce12c304aa1830e37cd5dfa3a789f8a50e-FRAGMENT.arff;LP;45.0;45.0;1.0;0.0;0.0;45.0;1.0;0.0;0.0;0.0;0.0;45.0;1.0;0.0;0.0;0.0;0.0;0.0;0.0;0.0;0.0;
245;245_fd0b7cce12c304aa1830e37cd5dfa3a789f8a50e-FRAGMENT.arff;RAkELd;45.0;45.0;1.0;9.0;0.2;36.0;0.8;0.0;0.0;0.0;0.0;45.0;1.0;0.0;0.0;0.0;0.0;0.0;0.0;0.0;0.0;
246;246_d9deb7cab1de4d29f4df5e046541d5dbc00bc262-FRAGMENT.arff;BR;4.0;4.0;1.0;0.0;0.0;4.0;1.0;0.0;0.0;0.0;0.0;4.0;1.0;0.0;0.0;0.0;0.0;0.0;0.0;0.0;0.0;
246;246_d9deb7cab1de4d29f4df5e046541d5dbc00bc262-FRAGMENT.arff;LP;4.0;4.0;1.0;0.0;0.0;4.0;1.0;0.0;0.0;0.0;0.0;4.0;1.0;0.0;0.0;0.0;0.0;0.0;0.0;0.0;0.0;
246;246_d9deb7cab1de4d29f4df5e046541d5dbc00bc262-FRAGMENT.arff;RAkELd;4.0;4.0;1.0;0.0;0.0;4.0;1.0;0.0;0.0;0.0;0.0;4.0;1.0;0.0;0.0;0.0;0.0;0.0;0.0;0.0;0.0;
247;247_053d5e7e9e0950ec6a5b377d60276b0ff33a9898-FRAGMENT.arff;BR;38.0;38.0;1.0;16.0;0.42105263157894735;22.0;0.5789473684210527;0.0;0.0;0.0;0.0;38.0;1.0;0.0;0.0;0.0;0.0;0.0;0.0;0.0;0.0;
247;247_053d5e7e9e0950ec6a5b377d60276b0ff33a9898-FRAGMENT.arff;LP;38.0;38.0;1.0;0.0;0.0;38.0;1.0;0.0;0.0;0.0;0.0;38.0;1.0;0.0;0.0;0.0;0.0;0.0;0.0;0.0;0.0;
247;247_053d5e7e9e0950ec6a5b377d60276b0ff33a9898-FRAGMENT.arff;RAkELd;38.0;38.0;1.0;15.0;0.39473684210526316;23.0;0.6052631578947368;0.0;0.0;0.0;0.0;38.0;1.0;0.0;0.0;0.0;0.0;0.0;0.0;0.0;0.0;
248;248_e843ce964ba41b08ef363d1007136ccf43f3d775-FRAGMENT.arff;BR;5.0;5.0;1.0;1.0;0.2;4.0;0.8;0.0;0.0;0.0;0.0;5.0;1.0;0.0;0.0;0.0;0.0;0.0;0.0;0.0;0.0;
248;248_e843ce964ba41b08ef363d1007136ccf43f3d775-FRAGMENT.arff;LP;5.0;5.0;1.0;0.0;0.0;5.0;1.0;0.0;0.0;0.0;0.0;5.0;1.0;0.0;0.0;0.0;0.0;0.0;0.0;0.0;0.0;
248;248_e843ce964ba41b08ef363d1007136ccf43f3d775-FRAGMENT.arff;RAkELd;5.0;5.0;1.0;1.0;0.2;4.0;0.8;0.0;0.0;0.0;0.0;5.0;1.0;0.0;0.0;0.0;0.0;0.0;0.0;0.0;0.0;
251;251_2e9c173a3c4cd3153aaf4798c5b433cb85232129-FRAGMENT.arff;BR;4.0;4.0;1.0;0.0;0.0;4.0;1.0;0.0;0.0;0.0;0.0;4.0;1.0;0.0;0.0;0.0;0.0;0.0;0.0;0.0;0.0;
251;251_2e9c173a3c4cd3153aaf4798c5b433cb85232129-FRAGMENT.arff;LP;4.0;4.0;1.0;0.0;0.0;4.0;1.0;0.0;0.0;0.0;0.0;4.0;1.0;0.0;0.0;0.0;0.0;0.0;0.0;0.0;0.0;
251;251_2e9c173a3c4cd3153aaf4798c5b433cb85232129-FRAGMENT.arff;RAkELd;4.0;4.0;1.0;1.0;0.25;3.0;0.75;0.0;0.0;0.0;0.0;4.0;1.0;0.0;0.0;0.0;0.0;0.0;0.0;0.0;0.0;
253;253_36ff8e52e227aa94c2bb30758131e27cd242a573-FRAGMENT.arff;BR;54.0;54.0;1.0;2.0;0.037037037037037035;52.0;0.9629629629629629;0.0;0.0;0.0;0.0;54.0;1.0;0.0;0.0;0.0;0.0;0.0;0.0;0.0;0.0;
253;253_36ff8e52e227aa94c2bb30758131e27cd242a573-FRAGMENT.arff;LP;54.0;54.0;1.0;0.0;0.0;54.0;1.0;0.0;0.0;0.0;0.0;54.0;1.0;0.0;0.0;0.0;0.0;0.0;0.0;0.0;0.0;
253;253_36ff8e52e227aa94c2bb30758131e27cd242a573-FRAGMENT.arff;RAkELd;54.0;54.0;1.0;1.0;0.018518518518518517;53.0;0.9814814814814815;0.0;0.0;0.0;0.0;54.0;1.0;0.0;0.0;0.0;0.0;0.0;0.0;0.0;0.0;
257;257_6884dd91207106edb4c0d96e88dda9ffaccacd97-FRAGMENT.arff;BR;8.0;8.0;1.0;8.0;1.0;0.0;0.0;0.0;0.0;0.0;0.0;8.0;1.0;0.0;0.0;0.0;0.0;0.0;0.0;0.0;0.0;
257;257_6884dd91207106edb4c0d96e88dda9ffaccacd97-FRAGMENT.arff;LP;8.0;8.0;1.0;0.0;0.0;8.0;1.0;0.0;0.0;0.0;0.0;8.0;1.0;0.0;0.0;0.0;0.0;0.0;0.0;0.0;0.0;
257;257_6884dd91207106edb4c0d96e88dda9ffaccacd97-FRAGMENT.arff;RAkELd;8.0;8.0;1.0;8.0;1.0;0.0;0.0;0.0;0.0;0.0;0.0;8.0;1.0;0.0;0.0;0.0;0.0;0.0;0.0;0.0;0.0;
258;258_1aa654f9da31f80b5e0a42a60fbb010d6a208241-FRAGMENT.arff;BR;34.0;34.0;1.0;10.0;0.29411764705882354;24.0;0.7058823529411765;0.0;0.0;0.0;0.0;34.0;1.0;0.0;0.0;0.0;0.0;0.0;0.0;0.0;0.0;
258;258_1aa654f9da31f80b5e0a42a60fbb010d6a208241-FRAGMENT.arff;LP;34.0;34.0;1.0;0.0;0.0;34.0;1.0;0.0;0.0;0.0;0.0;34.0;1.0;0.0;0.0;0.0;0.0;0.0;0.0;0.0;0.0;
258;258_1aa654f9da31f80b5e0a42a60fbb010d6a208241-FRAGMENT.arff;RAkELd;34.0;34.0;1.0;4.0;0.11764705882352941;30.0;0.8823529411764706;0.0;0.0;0.0;0.0;34.0;1.0;0.0;0.0;0.0;0.0;0.0;0.0;0.0;0.0;
259;259_115229b528e5da53cb7dc982acd579ea518ac5c8-FRAGMENT.arff;BR;49.0;49.0;1.0;0.0;0.0;49.0;1.0;0.0;0.0;0.0;0.0;49.0;1.0;0.0;0.0;0.0;0.0;0.0;0.0;0.0;0.0;
259;259_115229b528e5da53cb7dc982acd579ea518ac5c8-FRAGMENT.arff;LP;49.0;49.0;1.0;0.0;0.0;49.0;1.0;0.0;0.0;0.0;0.0;49.0;1.0;0.0;0.0;0.0;0.0;0.0;0.0;0.0;0.0;
259;259_115229b528e5da53cb7dc982acd579ea518ac5c8-FRAGMENT.arff;RAkELd;49.0;49.0;1.0;9.0;0.1836734693877551;40.0;0.8163265306122449;0.0;0.0;0.0;0.0;49.0;1.0;0.0;0.0;0.0;0.0;0.0;0.0;0.0;0.0;
260;260_2ebda98af2aaed937042fc41b8be24c8e0884435-FRAGMENT.arff;BR;7.0;7.0;1.0;1.0;0.14285714285714285;6.0;0.8571428571428571;0.0;0.0;0.0;0.0;7.0;1.0;0.0;0.0;0.0;0.0;0.0;0.0;0.0;0.0;
260;260_2ebda98af2aaed937042fc41b8be24c8e0884435-FRAGMENT.arff;LP;7.0;7.0;1.0;0.0;0.0;7.0;1.0;0.0;0.0;0.0;0.0;7.0;1.0;0.0;0.0;0.0;0.0;0.0;0.0;0.0;0.0;
260;260_2ebda98af2aaed937042fc41b8be24c8e0884435-FRAGMENT.arff;RAkELd;7.0;7.0;1.0;1.0;0.14285714285714285;6.0;0.8571428571428571;0.0;0.0;0.0;0.0;7.0;1.0;0.0;0.0;0.0;0.0;0.0;0.0;0.0;0.0;
268;268_4de66587d9d0d7a2adb4a6c0814f11cb10469924-FRAGMENT.arff;BR;9.0;9.0;1.0;0.0;0.0;9.0;1.0;0.0;0.0;0.0;0.0;9.0;1.0;0.0;0.0;0.0;0.0;0.0;0.0;0.0;0.0;
268;268_4de66587d9d0d7a2adb4a6c0814f11cb10469924-FRAGMENT.arff;LP;9.0;9.0;1.0;0.0;0.0;9.0;1.0;0.0;0.0;0.0;0.0;9.0;1.0;0.0;0.0;0.0;0.0;0.0;0.0;0.0;0.0;
268;268_4de66587d9d0d7a2adb4a6c0814f11cb10469924-FRAGMENT.arff;RAkELd;9.0;9.0;1.0;0.0;0.0;9.0;1.0;0.0;0.0;0.0;0.0;9.0;1.0;0.0;0.0;0.0;0.0;0.0;0.0;0.0;0.0;
274;274_6076994f747be7317f6fd062a5aaf2263c466994-FRAGMENT.arff;BR;227.0;227.0;1.0;1.0;0.004405286343612335;226.0;0.9955947136563876;0.0;0.0;0.0;0.0;227.0;1.0;0.0;0.0;0.0;0.0;0.0;0.0;0.0;0.0;
274;274_6076994f747be7317f6fd062a5aaf2263c466994-FRAGMENT.arff;LP;227.0;227.0;1.0;0.0;0.0;227.0;1.0;0.0;0.0;0.0;0.0;227.0;1.0;0.0;0.0;0.0;0.0;0.0;0.0;0.0;0.0;
274;274_6076994f747be7317f6fd062a5aaf2263c466994-FRAGMENT.arff;RAkELd;227.0;227.0;1.0;17.0;0.07488986784140969;210.0;0.9251101321585903;0.0;0.0;0.0;0.0;227.0;1.0;0.0;0.0;0.0;0.0;0.0;0.0;0.0;0.0;
281;281_fd894bfb040a7f784d6f46c3502666d631b33ce6-FRAGMENT.arff;BR;8.0;8.0;1.0;6.0;0.75;2.0;0.25;0.0;0.0;0.0;0.0;8.0;1.0;0.0;0.0;0.0;0.0;0.0;0.0;0.0;0.0;
281;281_fd894bfb040a7f784d6f46c3502666d631b33ce6-FRAGMENT.arff;LP;8.0;8.0;1.0;0.0;0.0;8.0;1.0;0.0;0.0;0.0;0.0;8.0;1.0;0.0;0.0;0.0;0.0;0.0;0.0;0.0;0.0;
281;281_fd894bfb040a7f784d6f46c3502666d631b33ce6-FRAGMENT.arff;RAkELd;8.0;8.0;1.0;3.0;0.375;5.0;0.625;0.0;0.0;0.0;0.0;8.0;1.0;0.0;0.0;0.0;0.0;0.0;0.0;0.0;0.0;
282;282_f5a93cc0e281e55eecddd4091498b3fc27298bf3-FRAGMENT.arff;BR;17.0;17.0;1.0;5.0;0.29411764705882354;12.0;0.7058823529411765;0.0;0.0;0.0;0.0;17.0;1.0;0.0;0.0;0.0;0.0;0.0;0.0;0.0;0.0;
282;282_f5a93cc0e281e55eecddd4091498b3fc27298bf3-FRAGMENT.arff;LP;17.0;17.0;1.0;0.0;0.0;17.0;1.0;0.0;0.0;0.0;0.0;17.0;1.0;0.0;0.0;0.0;0.0;0.0;0.0;0.0;0.0;
282;282_f5a93cc0e281e55eecddd4091498b3fc27298bf3-FRAGMENT.arff;RAkELd;17.0;17.0;1.0;5.0;0.29411764705882354;12.0;0.7058823529411765;0.0;0.0;0.0;0.0;17.0;1.0;0.0;0.0;0.0;0.0;0.0;0.0;0.0;0.0;
285;285_5d4ba8ac2356d5dd5b7a6140363a6e5198a1e221-FRAGMENT.arff;BR;12.0;12.0;1.0;9.0;0.75;3.0;0.25;0.0;0.0;0.0;0.0;12.0;1.0;0.0;0.0;0.0;0.0;0.0;0.0;0.0;0.0;
285;285_5d4ba8ac2356d5dd5b7a6140363a6e5198a1e221-FRAGMENT.arff;LP;12.0;12.0;1.0;0.0;0.0;12.0;1.0;0.0;0.0;0.0;0.0;12.0;1.0;0.0;0.0;0.0;0.0;0.0;0.0;0.0;0.0;
285;285_5d4ba8ac2356d5dd5b7a6140363a6e5198a1e221-FRAGMENT.arff;RAkELd;12.0;12.0;1.0;7.0;0.5833333333333334;5.0;0.4166666666666667;0.0;0.0;0.0;0.0;12.0;1.0;0.0;0.0;0.0;0.0;0.0;0.0;0.0;0.0;
286;286_d07b97fb8bc07c47a3738fdf936b84c97510f82e-FRAGMENT.arff;BR;1.0;1.0;1.0;1.0;1.0;0.0;0.0;0.0;0.0;0.0;0.0;1.0;1.0;0.0;0.0;0.0;0.0;0.0;0.0;0.0;0.0;
286;286_d07b97fb8bc07c47a3738fdf936b84c97510f82e-FRAGMENT.arff;LP;1.0;1.0;1.0;0.0;0.0;1.0;1.0;0.0;0.0;0.0;0.0;1.0;1.0;0.0;0.0;0.0;0.0;0.0;0.0;0.0;0.0;
286;286_d07b97fb8bc07c47a3738fdf936b84c97510f82e-FRAGMENT.arff;RAkELd;1.0;1.0;1.0;1.0;1.0;0.0;0.0;0.0;0.0;0.0;0.0;1.0;1.0;0.0;0.0;0.0;0.0;0.0;0.0;0.0;0.0;
287;287_1bda80fa7409d6c0369990c313d38e858e10823e-FRAGMENT.arff;BR;11.0;11.0;1.0;0.0;0.0;11.0;1.0;0.0;0.0;0.0;0.0;11.0;1.0;0.0;0.0;0.0;0.0;0.0;0.0;0.0;0.0;
287;287_1bda80fa7409d6c0369990c313d38e858e10823e-FRAGMENT.arff;LP;11.0;11.0;1.0;0.0;0.0;11.0;1.0;0.0;0.0;0.0;0.0;11.0;1.0;0.0;0.0;0.0;0.0;0.0;0.0;0.0;0.0;
287;287_1bda80fa7409d6c0369990c313d38e858e10823e-FRAGMENT.arff;RAkELd;11.0;11.0;1.0;0.0;0.0;11.0;1.0;0.0;0.0;0.0;0.0;11.0;1.0;0.0;0.0;0.0;0.0;0.0;0.0;0.0;0.0;
288;288_8232701e4a2570c020e27e59d40863278a8fd414-FRAGMENT.arff;BR;1.0;1.0;1.0;0.0;0.0;1.0;1.0;0.0;0.0;0.0;0.0;1.0;1.0;0.0;0.0;0.0;0.0;0.0;0.0;0.0;0.0;
288;288_8232701e4a2570c020e27e59d40863278a8fd414-FRAGMENT.arff;LP;1.0;1.0;1.0;0.0;0.0;1.0;1.0;0.0;0.0;0.0;0.0;1.0;1.0;0.0;0.0;0.0;0.0;0.0;0.0;0.0;0.0;
288;288_8232701e4a2570c020e27e59d40863278a8fd414-FRAGMENT.arff;RAkELd;1.0;1.0;1.0;0.0;0.0;1.0;1.0;0.0;0.0;0.0;0.0;1.0;1.0;0.0;0.0;0.0;0.0;0.0;0.0;0.0;0.0;
290;290_23a71f2a8008a2c91972ed5448140c86d0467993-FRAGMENT.arff;BR;1.0;1.0;1.0;1.0;1.0;0.0;0.0;0.0;0.0;0.0;0.0;1.0;1.0;0.0;0.0;0.0;0.0;0.0;0.0;0.0;0.0;
290;290_23a71f2a8008a2c91972ed5448140c86d0467993-FRAGMENT.arff;LP;1.0;1.0;1.0;0.0;0.0;1.0;1.0;0.0;0.0;0.0;0.0;1.0;1.0;0.0;0.0;0.0;0.0;0.0;0.0;0.0;0.0;
290;290_23a71f2a8008a2c91972ed5448140c86d0467993-FRAGMENT.arff;RAkELd;1.0;1.0;1.0;1.0;1.0;0.0;0.0;0.0;0.0;0.0;0.0;1.0;1.0;0.0;0.0;0.0;0.0;0.0;0.0;0.0;0.0;
292;292_63d3a026a6c584f5161ce072480a597c7333623c-FRAGMENT.arff;BR;8.0;8.0;1.0;0.0;0.0;8.0;1.0;0.0;0.0;0.0;0.0;8.0;1.0;0.0;0.0;0.0;0.0;0.0;0.0;0.0;0.0;
292;292_63d3a026a6c584f5161ce072480a597c7333623c-FRAGMENT.arff;LP;8.0;8.0;1.0;0.0;0.0;8.0;1.0;0.0;0.0;0.0;0.0;8.0;1.0;0.0;0.0;0.0;0.0;0.0;0.0;0.0;0.0;
292;292_63d3a026a6c584f5161ce072480a597c7333623c-FRAGMENT.arff;RAkELd;8.0;8.0;1.0;0.0;0.0;8.0;1.0;0.0;0.0;0.0;0.0;8.0;1.0;0.0;0.0;0.0;0.0;0.0;0.0;0.0;0.0;
293;293_774de765273a50d9d993adcf4cc6952fd8981c4c-FRAGMENT.arff;BR;27.0;27.0;1.0;5.0;0.18518518518518517;22.0;0.8148148148148148;0.0;0.0;0.0;0.0;27.0;1.0;0.0;0.0;0.0;0.0;0.0;0.0;0.0;0.0;
293;293_774de765273a50d9d993adcf4cc6952fd8981c4c-FRAGMENT.arff;LP;27.0;27.0;1.0;0.0;0.0;27.0;1.0;0.0;0.0;0.0;0.0;27.0;1.0;0.0;0.0;0.0;0.0;0.0;0.0;0.0;0.0;
293;293_774de765273a50d9d993adcf4cc6952fd8981c4c-FRAGMENT.arff;RAkELd;27.0;27.0;1.0;4.0;0.14814814814814814;23.0;0.8518518518518519;0.0;0.0;0.0;0.0;27.0;1.0;0.0;0.0;0.0;0.0;0.0;0.0;0.0;0.0;
294;294_e14b8c3a7ec2792c95c5e9dd599a71c3fccc8bc0-FRAGMENT.arff;BR;11.0;11.0;1.0;2.0;0.18181818181818182;9.0;0.8181818181818182;0.0;0.0;0.0;0.0;11.0;1.0;0.0;0.0;0.0;0.0;0.0;0.0;0.0;0.0;
294;294_e14b8c3a7ec2792c95c5e9dd599a71c3fccc8bc0-FRAGMENT.arff;LP;11.0;11.0;1.0;0.0;0.0;11.0;1.0;0.0;0.0;0.0;0.0;11.0;1.0;0.0;0.0;0.0;0.0;0.0;0.0;0.0;0.0;
294;294_e14b8c3a7ec2792c95c5e9dd599a71c3fccc8bc0-FRAGMENT.arff;RAkELd;11.0;11.0;1.0;2.0;0.18181818181818182;9.0;0.8181818181818182;0.0;0.0;0.0;0.0;11.0;1.0;0.0;0.0;0.0;0.0;0.0;0.0;0.0;0.0;
301;301_abbd8101a593c732885f7d0b191d1815be3c6699-FRAGMENT.arff;BR;1.0;1.0;1.0;0.0;0.0;1.0;1.0;0.0;0.0;0.0;0.0;1.0;1.0;0.0;0.0;0.0;0.0;0.0;0.0;0.0;0.0;
301;301_abbd8101a593c732885f7d0b191d1815be3c6699-FRAGMENT.arff;LP;1.0;1.0;1.0;0.0;0.0;1.0;1.0;0.0;0.0;0.0;0.0;1.0;1.0;0.0;0.0;0.0;0.0;0.0;0.0;0.0;0.0;
301;301_abbd8101a593c732885f7d0b191d1815be3c6699-FRAGMENT.arff;RAkELd;1.0;1.0;1.0;0.0;0.0;1.0;1.0;0.0;0.0;0.0;0.0;1.0;1.0;0.0;0.0;0.0;0.0;0.0;0.0;0.0;0.0;
303;303_ab9a81582ff0c7a6004c7babb0b240aa93bcff8c-FRAGMENT.arff;BR;3.0;3.0;1.0;1.0;0.3333333333333333;2.0;0.6666666666666666;0.0;0.0;0.0;0.0;3.0;1.0;0.0;0.0;0.0;0.0;0.0;0.0;0.0;0.0;
303;303_ab9a81582ff0c7a6004c7babb0b240aa93bcff8c-FRAGMENT.arff;LP;3.0;3.0;1.0;0.0;0.0;3.0;1.0;0.0;0.0;0.0;0.0;3.0;1.0;0.0;0.0;0.0;0.0;0.0;0.0;0.0;0.0;
303;303_ab9a81582ff0c7a6004c7babb0b240aa93bcff8c-FRAGMENT.arff;RAkELd;3.0;3.0;1.0;1.0;0.3333333333333333;2.0;0.6666666666666666;0.0;0.0;0.0;0.0;3.0;1.0;0.0;0.0;0.0;0.0;0.0;0.0;0.0;0.0;
308;308_ae7d06171617de2fb6eed8db1233a6eba6dbddbc-FRAGMENT.arff;BR;3.0;3.0;1.0;3.0;1.0;0.0;0.0;0.0;0.0;0.0;0.0;3.0;1.0;0.0;0.0;0.0;0.0;0.0;0.0;0.0;0.0;
308;308_ae7d06171617de2fb6eed8db1233a6eba6dbddbc-FRAGMENT.arff;LP;3.0;3.0;1.0;0.0;0.0;3.0;1.0;0.0;0.0;0.0;0.0;3.0;1.0;0.0;0.0;0.0;0.0;0.0;0.0;0.0;0.0;
308;308_ae7d06171617de2fb6eed8db1233a6eba6dbddbc-FRAGMENT.arff;RAkELd;3.0;3.0;1.0;3.0;1.0;0.0;0.0;0.0;0.0;0.0;0.0;3.0;1.0;0.0;0.0;0.0;0.0;0.0;0.0;0.0;0.0;
309;309_5a257044880b946d387114562c27341a77247634-FRAGMENT.arff;BR;3.0;3.0;1.0;3.0;1.0;0.0;0.0;0.0;0.0;0.0;0.0;3.0;1.0;0.0;0.0;0.0;0.0;0.0;0.0;0.0;0.0;
309;309_5a257044880b946d387114562c27341a77247634-FRAGMENT.arff;LP;3.0;3.0;1.0;0.0;0.0;3.0;1.0;0.0;0.0;0.0;0.0;3.0;1.0;0.0;0.0;0.0;0.0;0.0;0.0;0.0;0.0;
309;309_5a257044880b946d387114562c27341a77247634-FRAGMENT.arff;RAkELd;3.0;3.0;1.0;3.0;1.0;0.0;0.0;0.0;0.0;0.0;0.0;3.0;1.0;0.0;0.0;0.0;0.0;0.0;0.0;0.0;0.0;
310;310_c0b45d167dca0436f884502397389d418cdaffdf-FRAGMENT.arff;BR;9.0;9.0;1.0;0.0;0.0;9.0;1.0;0.0;0.0;0.0;0.0;9.0;1.0;0.0;0.0;0.0;0.0;0.0;0.0;0.0;0.0;
310;310_c0b45d167dca0436f884502397389d418cdaffdf-FRAGMENT.arff;LP;9.0;9.0;1.0;0.0;0.0;9.0;1.0;0.0;0.0;0.0;0.0;9.0;1.0;0.0;0.0;0.0;0.0;0.0;0.0;0.0;0.0;
310;310_c0b45d167dca0436f884502397389d418cdaffdf-FRAGMENT.arff;RAkELd;9.0;9.0;1.0;0.0;0.0;9.0;1.0;0.0;0.0;0.0;0.0;9.0;1.0;0.0;0.0;0.0;0.0;0.0;0.0;0.0;0.0;
311;311_c6fee2c9e504e502eb903e6c0a8f006ac82c7ffa-FRAGMENT.arff;BR;12.0;12.0;1.0;0.0;0.0;12.0;1.0;0.0;0.0;0.0;0.0;12.0;1.0;0.0;0.0;0.0;0.0;0.0;0.0;0.0;0.0;
311;311_c6fee2c9e504e502eb903e6c0a8f006ac82c7ffa-FRAGMENT.arff;LP;12.0;12.0;1.0;0.0;0.0;12.0;1.0;0.0;0.0;0.0;0.0;12.0;1.0;0.0;0.0;0.0;0.0;0.0;0.0;0.0;0.0;
311;311_c6fee2c9e504e502eb903e6c0a8f006ac82c7ffa-FRAGMENT.arff;RAkELd;12.0;12.0;1.0;9.0;0.75;3.0;0.25;0.0;0.0;0.0;0.0;12.0;1.0;0.0;0.0;0.0;0.0;0.0;0.0;0.0;0.0;
317;317_5ac7a54583acc6086851f4d6ba448a7ef61ff3ac-FRAGMENT.arff;BR;7.0;7.0;1.0;0.0;0.0;7.0;1.0;0.0;0.0;0.0;0.0;7.0;1.0;0.0;0.0;0.0;0.0;0.0;0.0;0.0;0.0;
317;317_5ac7a54583acc6086851f4d6ba448a7ef61ff3ac-FRAGMENT.arff;LP;7.0;7.0;1.0;0.0;0.0;7.0;1.0;0.0;0.0;0.0;0.0;7.0;1.0;0.0;0.0;0.0;0.0;0.0;0.0;0.0;0.0;
317;317_5ac7a54583acc6086851f4d6ba448a7ef61ff3ac-FRAGMENT.arff;RAkELd;7.0;7.0;1.0;0.0;0.0;7.0;1.0;0.0;0.0;0.0;0.0;7.0;1.0;0.0;0.0;0.0;0.0;0.0;0.0;0.0;0.0;
323;323_4b38d9945e49264ba4857eb1555d197b90e16fff-FRAGMENT.arff;BR;2.0;2.0;1.0;0.0;0.0;2.0;1.0;0.0;0.0;0.0;0.0;2.0;1.0;0.0;0.0;0.0;0.0;0.0;0.0;0.0;0.0;
323;323_4b38d9945e49264ba4857eb1555d197b90e16fff-FRAGMENT.arff;LP;2.0;2.0;1.0;0.0;0.0;2.0;1.0;0.0;0.0;0.0;0.0;2.0;1.0;0.0;0.0;0.0;0.0;0.0;0.0;0.0;0.0;
323;323_4b38d9945e49264ba4857eb1555d197b90e16fff-FRAGMENT.arff;RAkELd;2.0;2.0;1.0;0.0;0.0;2.0;1.0;0.0;0.0;0.0;0.0;2.0;1.0;0.0;0.0;0.0;0.0;0.0;0.0;0.0;0.0;
326;326_51e3559801821da32736d1426ca0d11e084efa63-FRAGMENT.arff;BR;3.0;3.0;1.0;0.0;0.0;3.0;1.0;0.0;0.0;0.0;0.0;3.0;1.0;0.0;0.0;0.0;0.0;0.0;0.0;0.0;0.0;
326;326_51e3559801821da32736d1426ca0d11e084efa63-FRAGMENT.arff;LP;3.0;3.0;1.0;0.0;0.0;3.0;1.0;0.0;0.0;0.0;0.0;3.0;1.0;0.0;0.0;0.0;0.0;0.0;0.0;0.0;0.0;
326;326_51e3559801821da32736d1426ca0d11e084efa63-FRAGMENT.arff;RAkELd;3.0;3.0;1.0;0.0;0.0;3.0;1.0;0.0;0.0;0.0;0.0;3.0;1.0;0.0;0.0;0.0;0.0;0.0;0.0;0.0;0.0;
327;327_0c643bdeb542962e2de44d7473c9f18b49679273-FRAGMENT.arff;BR;1.0;1.0;1.0;0.0;0.0;1.0;1.0;0.0;0.0;0.0;0.0;1.0;1.0;0.0;0.0;0.0;0.0;0.0;0.0;0.0;0.0;
327;327_0c643bdeb542962e2de44d7473c9f18b49679273-FRAGMENT.arff;LP;1.0;1.0;1.0;0.0;0.0;1.0;1.0;0.0;0.0;0.0;0.0;1.0;1.0;0.0;0.0;0.0;0.0;0.0;0.0;0.0;0.0;
327;327_0c643bdeb542962e2de44d7473c9f18b49679273-FRAGMENT.arff;RAkELd;1.0;1.0;1.0;0.0;0.0;1.0;1.0;0.0;0.0;0.0;0.0;1.0;1.0;0.0;0.0;0.0;0.0;0.0;0.0;0.0;0.0;
333;333_b4bb85e79cfc97324318a920ac40b36c47f9e5c5-FRAGMENT.arff;BR;5.0;5.0;1.0;0.0;0.0;5.0;1.0;0.0;0.0;0.0;0.0;5.0;1.0;0.0;0.0;0.0;0.0;0.0;0.0;0.0;0.0;
333;333_b4bb85e79cfc97324318a920ac40b36c47f9e5c5-FRAGMENT.arff;LP;5.0;5.0;1.0;0.0;0.0;5.0;1.0;0.0;0.0;0.0;0.0;5.0;1.0;0.0;0.0;0.0;0.0;0.0;0.0;0.0;0.0;
333;333_b4bb85e79cfc97324318a920ac40b36c47f9e5c5-FRAGMENT.arff;RAkELd;5.0;5.0;1.0;0.0;0.0;5.0;1.0;0.0;0.0;0.0;0.0;5.0;1.0;0.0;0.0;0.0;0.0;0.0;0.0;0.0;0.0;
344;344_c192d424f798cc38e46f77990bfd7f3aef13aecc-FRAGMENT.arff;BR;11.0;11.0;1.0;6.0;0.5454545454545454;5.0;0.45454545454545453;0.0;0.0;0.0;0.0;11.0;1.0;0.0;0.0;0.0;0.0;0.0;0.0;0.0;0.0;
344;344_c192d424f798cc38e46f77990bfd7f3aef13aecc-FRAGMENT.arff;LP;11.0;11.0;1.0;0.0;0.0;11.0;1.0;0.0;0.0;0.0;0.0;11.0;1.0;0.0;0.0;0.0;0.0;0.0;0.0;0.0;0.0;
344;344_c192d424f798cc38e46f77990bfd7f3aef13aecc-FRAGMENT.arff;RAkELd;11.0;11.0;1.0;6.0;0.5454545454545454;5.0;0.45454545454545453;0.0;0.0;0.0;0.0;11.0;1.0;0.0;0.0;0.0;0.0;0.0;0.0;0.0;0.0;
345;345_e15b3431d416281e04fc1b74f2e3fb8a398f6b6f-FRAGMENT.arff;BR;2.0;2.0;1.0;0.0;0.0;2.0;1.0;0.0;0.0;0.0;0.0;2.0;1.0;0.0;0.0;0.0;0.0;0.0;0.0;0.0;0.0;
345;345_e15b3431d416281e04fc1b74f2e3fb8a398f6b6f-FRAGMENT.arff;LP;2.0;2.0;1.0;0.0;0.0;2.0;1.0;0.0;0.0;0.0;0.0;2.0;1.0;0.0;0.0;0.0;0.0;0.0;0.0;0.0;0.0;
345;345_e15b3431d416281e04fc1b74f2e3fb8a398f6b6f-FRAGMENT.arff;RAkELd;2.0;2.0;1.0;0.0;0.0;2.0;1.0;0.0;0.0;0.0;0.0;2.0;1.0;0.0;0.0;0.0;0.0;0.0;0.0;0.0;0.0;
346;346_e6225a171d523bed6c6006aa70d5002d3ef1d08e-FRAGMENT.arff;BR;5.0;5.0;1.0;0.0;0.0;5.0;1.0;0.0;0.0;0.0;0.0;5.0;1.0;0.0;0.0;0.0;0.0;0.0;0.0;0.0;0.0;
346;346_e6225a171d523bed6c6006aa70d5002d3ef1d08e-FRAGMENT.arff;LP;5.0;5.0;1.0;0.0;0.0;5.0;1.0;0.0;0.0;0.0;0.0;5.0;1.0;0.0;0.0;0.0;0.0;0.0;0.0;0.0;0.0;
346;346_e6225a171d523bed6c6006aa70d5002d3ef1d08e-FRAGMENT.arff;RAkELd;5.0;5.0;1.0;0.0;0.0;5.0;1.0;0.0;0.0;0.0;0.0;5.0;1.0;0.0;0.0;0.0;0.0;0.0;0.0;0.0;0.0;
348;348_b897a297fa46d1a26c1dd1fd997b1d881d8d0087-FRAGMENT.arff;BR;6.0;6.0;1.0;4.0;0.6666666666666666;2.0;0.3333333333333333;0.0;0.0;0.0;0.0;6.0;1.0;0.0;0.0;0.0;0.0;0.0;0.0;0.0;0.0;
348;348_b897a297fa46d1a26c1dd1fd997b1d881d8d0087-FRAGMENT.arff;LP;6.0;6.0;1.0;0.0;0.0;6.0;1.0;0.0;0.0;0.0;0.0;6.0;1.0;0.0;0.0;0.0;0.0;0.0;0.0;0.0;0.0;
348;348_b897a297fa46d1a26c1dd1fd997b1d881d8d0087-FRAGMENT.arff;RAkELd;6.0;6.0;1.0;4.0;0.6666666666666666;2.0;0.3333333333333333;0.0;0.0;0.0;0.0;6.0;1.0;0.0;0.0;0.0;0.0;0.0;0.0;0.0;0.0;
349;349_c8b7d43e36f39ceb3a7476ebc4b5121ca15d41ff-FRAGMENT.arff;BR;4.0;4.0;1.0;0.0;0.0;4.0;1.0;0.0;0.0;0.0;0.0;4.0;1.0;0.0;0.0;0.0;0.0;0.0;0.0;0.0;0.0;
349;349_c8b7d43e36f39ceb3a7476ebc4b5121ca15d41ff-FRAGMENT.arff;LP;4.0;4.0;1.0;0.0;0.0;4.0;1.0;0.0;0.0;0.0;0.0;4.0;1.0;0.0;0.0;0.0;0.0;0.0;0.0;0.0;0.0;
349;349_c8b7d43e36f39ceb3a7476ebc4b5121ca15d41ff-FRAGMENT.arff;RAkELd;4.0;4.0;1.0;0.0;0.0;4.0;1.0;0.0;0.0;0.0;0.0;4.0;1.0;0.0;0.0;0.0;0.0;0.0;0.0;0.0;0.0;
350;350_5e48a52a2f746619e0066bf8f62d96c0dcd5430d-FRAGMENT.arff;BR;1.0;1.0;1.0;0.0;0.0;1.0;1.0;0.0;0.0;0.0;0.0;1.0;1.0;0.0;0.0;0.0;0.0;0.0;0.0;0.0;0.0;
350;350_5e48a52a2f746619e0066bf8f62d96c0dcd5430d-FRAGMENT.arff;LP;1.0;1.0;1.0;0.0;0.0;1.0;1.0;0.0;0.0;0.0;0.0;1.0;1.0;0.0;0.0;0.0;0.0;0.0;0.0;0.0;0.0;
350;350_5e48a52a2f746619e0066bf8f62d96c0dcd5430d-FRAGMENT.arff;RAkELd;1.0;1.0;1.0;0.0;0.0;1.0;1.0;0.0;0.0;0.0;0.0;1.0;1.0;0.0;0.0;0.0;0.0;0.0;0.0;0.0;0.0;
351;351_efef4a28affcff31ee30605c3172f32072174e9c-FRAGMENT.arff;BR;1.0;1.0;1.0;0.0;0.0;1.0;1.0;0.0;0.0;0.0;0.0;1.0;1.0;0.0;0.0;0.0;0.0;0.0;0.0;0.0;0.0;
351;351_efef4a28affcff31ee30605c3172f32072174e9c-FRAGMENT.arff;LP;1.0;1.0;1.0;0.0;0.0;1.0;1.0;0.0;0.0;0.0;0.0;1.0;1.0;0.0;0.0;0.0;0.0;0.0;0.0;0.0;0.0;
351;351_efef4a28affcff31ee30605c3172f32072174e9c-FRAGMENT.arff;RAkELd;1.0;1.0;1.0;0.0;0.0;1.0;1.0;0.0;0.0;0.0;0.0;1.0;1.0;0.0;0.0;0.0;0.0;0.0;0.0;0.0;0.0;
353;353_e24a447a33bd5e72f200efe67fe51a00a111ac55-FRAGMENT.arff;BR;5.0;5.0;1.0;0.0;0.0;5.0;1.0;0.0;0.0;0.0;0.0;5.0;1.0;0.0;0.0;0.0;0.0;0.0;0.0;0.0;0.0;
353;353_e24a447a33bd5e72f200efe67fe51a00a111ac55-FRAGMENT.arff;LP;5.0;5.0;1.0;0.0;0.0;5.0;1.0;0.0;0.0;0.0;0.0;5.0;1.0;0.0;0.0;0.0;0.0;0.0;0.0;0.0;0.0;
353;353_e24a447a33bd5e72f200efe67fe51a00a111ac55-FRAGMENT.arff;RAkELd;5.0;5.0;1.0;0.0;0.0;5.0;1.0;0.0;0.0;0.0;0.0;5.0;1.0;0.0;0.0;0.0;0.0;0.0;0.0;0.0;0.0;
365;365_7c355bcc8f7bc0b6eab7a5cee5e506c804123158-FRAGMENT.arff;BR;7.0;7.0;1.0;0.0;0.0;7.0;1.0;0.0;0.0;0.0;0.0;7.0;1.0;0.0;0.0;0.0;0.0;0.0;0.0;0.0;0.0;
365;365_7c355bcc8f7bc0b6eab7a5cee5e506c804123158-FRAGMENT.arff;LP;7.0;7.0;1.0;0.0;0.0;7.0;1.0;0.0;0.0;0.0;0.0;7.0;1.0;0.0;0.0;0.0;0.0;0.0;0.0;0.0;0.0;
365;365_7c355bcc8f7bc0b6eab7a5cee5e506c804123158-FRAGMENT.arff;RAkELd;7.0;7.0;1.0;0.0;0.0;7.0;1.0;0.0;0.0;0.0;0.0;7.0;1.0;0.0;0.0;0.0;0.0;0.0;0.0;0.0;0.0;
389;389_f59d33b38c3211a89fa48c9583136dfc7330eecb-FRAGMENT.arff;BR;10.0;10.0;1.0;4.0;0.4;6.0;0.6;0.0;0.0;0.0;0.0;10.0;1.0;0.0;0.0;0.0;0.0;0.0;0.0;0.0;0.0;
389;389_f59d33b38c3211a89fa48c9583136dfc7330eecb-FRAGMENT.arff;LP;10.0;10.0;1.0;0.0;0.0;10.0;1.0;0.0;0.0;0.0;0.0;10.0;1.0;0.0;0.0;0.0;0.0;0.0;0.0;0.0;0.0;
389;389_f59d33b38c3211a89fa48c9583136dfc7330eecb-FRAGMENT.arff;RAkELd;10.0;10.0;1.0;5.0;0.5;5.0;0.5;0.0;0.0;0.0;0.0;10.0;1.0;0.0;0.0;0.0;0.0;0.0;0.0;0.0;0.0;
390;390_80838b71c282dfad386e4dfe49ee28db5640a1bc-FRAGMENT.arff;BR;1.0;1.0;1.0;0.0;0.0;1.0;1.0;0.0;0.0;0.0;0.0;1.0;1.0;0.0;0.0;0.0;0.0;0.0;0.0;0.0;0.0;
390;390_80838b71c282dfad386e4dfe49ee28db5640a1bc-FRAGMENT.arff;LP;1.0;1.0;1.0;0.0;0.0;1.0;1.0;0.0;0.0;0.0;0.0;1.0;1.0;0.0;0.0;0.0;0.0;0.0;0.0;0.0;0.0;
390;390_80838b71c282dfad386e4dfe49ee28db5640a1bc-FRAGMENT.arff;RAkELd;1.0;1.0;1.0;0.0;0.0;1.0;1.0;0.0;0.0;0.0;0.0;1.0;1.0;0.0;0.0;0.0;0.0;0.0;0.0;0.0;0.0;
396;396_0b966d29fdef50343b06a40b35684cbd31675826-FRAGMENT.arff;BR;10.0;10.0;1.0;0.0;0.0;10.0;1.0;0.0;0.0;0.0;0.0;10.0;1.0;0.0;0.0;0.0;0.0;0.0;0.0;0.0;0.0;
396;396_0b966d29fdef50343b06a40b35684cbd31675826-FRAGMENT.arff;LP;10.0;10.0;1.0;0.0;0.0;10.0;1.0;0.0;0.0;0.0;0.0;10.0;1.0;0.0;0.0;0.0;0.0;0.0;0.0;0.0;0.0;
396;396_0b966d29fdef50343b06a40b35684cbd31675826-FRAGMENT.arff;RAkELd;10.0;10.0;1.0;0.0;0.0;10.0;1.0;0.0;0.0;0.0;0.0;10.0;1.0;0.0;0.0;0.0;0.0;0.0;0.0;0.0;0.0;
397;397_cdd1403adeb4392be3d6e5e619cfdd5c9f85f8ab-FRAGMENT.arff;BR;8.0;8.0;1.0;0.0;0.0;8.0;1.0;0.0;0.0;0.0;0.0;8.0;1.0;0.0;0.0;0.0;0.0;0.0;0.0;0.0;0.0;
397;397_cdd1403adeb4392be3d6e5e619cfdd5c9f85f8ab-FRAGMENT.arff;LP;8.0;8.0;1.0;0.0;0.0;8.0;1.0;0.0;0.0;0.0;0.0;8.0;1.0;0.0;0.0;0.0;0.0;0.0;0.0;0.0;0.0;
397;397_cdd1403adeb4392be3d6e5e619cfdd5c9f85f8ab-FRAGMENT.arff;RAkELd;8.0;8.0;1.0;0.0;0.0;8.0;1.0;0.0;0.0;0.0;0.0;8.0;1.0;0.0;0.0;0.0;0.0;0.0;0.0;0.0;0.0;
398;398_0309336c10dc582e165907603f7e8eadfd3ed341-FRAGMENT.arff;BR;10.0;10.0;1.0;0.0;0.0;10.0;1.0;0.0;0.0;0.0;0.0;10.0;1.0;0.0;0.0;0.0;0.0;0.0;0.0;0.0;0.0;
398;398_0309336c10dc582e165907603f7e8eadfd3ed341-FRAGMENT.arff;LP;10.0;10.0;1.0;0.0;0.0;10.0;1.0;0.0;0.0;0.0;0.0;10.0;1.0;0.0;0.0;0.0;0.0;0.0;0.0;0.0;0.0;
398;398_0309336c10dc582e165907603f7e8eadfd3ed341-FRAGMENT.arff;RAkELd;10.0;10.0;1.0;0.0;0.0;10.0;1.0;0.0;0.0;0.0;0.0;10.0;1.0;0.0;0.0;0.0;0.0;0.0;0.0;0.0;0.0;
403;403_9fbc0c23c2e22f2ce367704b9c690fb26f89dad5-FRAGMENT.arff;BR;11.0;11.0;1.0;0.0;0.0;11.0;1.0;0.0;0.0;0.0;0.0;11.0;1.0;0.0;0.0;0.0;0.0;0.0;0.0;0.0;0.0;
403;403_9fbc0c23c2e22f2ce367704b9c690fb26f89dad5-FRAGMENT.arff;LP;11.0;11.0;1.0;0.0;0.0;11.0;1.0;0.0;0.0;0.0;0.0;11.0;1.0;0.0;0.0;0.0;0.0;0.0;0.0;0.0;0.0;
403;403_9fbc0c23c2e22f2ce367704b9c690fb26f89dad5-FRAGMENT.arff;RAkELd;11.0;11.0;1.0;0.0;0.0;11.0;1.0;0.0;0.0;0.0;0.0;11.0;1.0;0.0;0.0;0.0;0.0;0.0;0.0;0.0;0.0;
407;407_d86f0aae2bd61c382d984bc1c3db719162ebd8b7-FRAGMENT.arff;BR;5.0;5.0;1.0;0.0;0.0;5.0;1.0;0.0;0.0;0.0;0.0;5.0;1.0;0.0;0.0;0.0;0.0;0.0;0.0;0.0;0.0;
407;407_d86f0aae2bd61c382d984bc1c3db719162ebd8b7-FRAGMENT.arff;LP;5.0;5.0;1.0;0.0;0.0;5.0;1.0;0.0;0.0;0.0;0.0;5.0;1.0;0.0;0.0;0.0;0.0;0.0;0.0;0.0;0.0;
407;407_d86f0aae2bd61c382d984bc1c3db719162ebd8b7-FRAGMENT.arff;RAkELd;5.0;5.0;1.0;0.0;0.0;5.0;1.0;0.0;0.0;0.0;0.0;5.0;1.0;0.0;0.0;0.0;0.0;0.0;0.0;0.0;0.0;
426;426_20084743fafc19d55407f2c269e59e440a26fd2d-FRAGMENT.arff;BR;2.0;2.0;1.0;0.0;0.0;2.0;1.0;0.0;0.0;0.0;0.0;2.0;1.0;0.0;0.0;0.0;0.0;0.0;0.0;0.0;0.0;
426;426_20084743fafc19d55407f2c269e59e440a26fd2d-FRAGMENT.arff;LP;2.0;2.0;1.0;0.0;0.0;2.0;1.0;0.0;0.0;0.0;0.0;2.0;1.0;0.0;0.0;0.0;0.0;0.0;0.0;0.0;0.0;
426;426_20084743fafc19d55407f2c269e59e440a26fd2d-FRAGMENT.arff;RAkELd;2.0;2.0;1.0;0.0;0.0;2.0;1.0;0.0;0.0;0.0;0.0;2.0;1.0;0.0;0.0;0.0;0.0;0.0;0.0;0.0;0.0;
427;427_867a15708e7c4a3e241b5b78f13251fc8af2d4c8-FRAGMENT.arff;BR;3.0;3.0;1.0;0.0;0.0;3.0;1.0;0.0;0.0;0.0;0.0;3.0;1.0;0.0;0.0;0.0;0.0;0.0;0.0;0.0;0.0;
427;427_867a15708e7c4a3e241b5b78f13251fc8af2d4c8-FRAGMENT.arff;LP;3.0;3.0;1.0;0.0;0.0;3.0;1.0;0.0;0.0;0.0;0.0;3.0;1.0;0.0;0.0;0.0;0.0;0.0;0.0;0.0;0.0;
427;427_867a15708e7c4a3e241b5b78f13251fc8af2d4c8-FRAGMENT.arff;RAkELd;3.0;3.0;1.0;0.0;0.0;3.0;1.0;0.0;0.0;0.0;0.0;3.0;1.0;0.0;0.0;0.0;0.0;0.0;0.0;0.0;0.0;
428;428_4497194fc0a9990576423b34a06d472feda54816-FRAGMENT.arff;BR;3.0;3.0;1.0;3.0;1.0;0.0;0.0;0.0;0.0;0.0;0.0;3.0;1.0;0.0;0.0;0.0;0.0;0.0;0.0;0.0;0.0;
428;428_4497194fc0a9990576423b34a06d472feda54816-FRAGMENT.arff;LP;3.0;3.0;1.0;0.0;0.0;3.0;1.0;0.0;0.0;0.0;0.0;3.0;1.0;0.0;0.0;0.0;0.0;0.0;0.0;0.0;0.0;
428;428_4497194fc0a9990576423b34a06d472feda54816-FRAGMENT.arff;RAkELd;3.0;3.0;1.0;3.0;1.0;0.0;0.0;0.0;0.0;0.0;0.0;3.0;1.0;0.0;0.0;0.0;0.0;0.0;0.0;0.0;0.0;
429;429_67510f726f53ab0c259d2dd3b19a24e2df5f1db4-FRAGMENT.arff;BR;6.0;6.0;1.0;3.0;0.5;3.0;0.5;0.0;0.0;0.0;0.0;6.0;1.0;0.0;0.0;0.0;0.0;0.0;0.0;0.0;0.0;
429;429_67510f726f53ab0c259d2dd3b19a24e2df5f1db4-FRAGMENT.arff;LP;6.0;6.0;1.0;0.0;0.0;6.0;1.0;0.0;0.0;0.0;0.0;6.0;1.0;0.0;0.0;0.0;0.0;0.0;0.0;0.0;0.0;
429;429_67510f726f53ab0c259d2dd3b19a24e2df5f1db4-FRAGMENT.arff;RAkELd;6.0;6.0;1.0;3.0;0.5;3.0;0.5;0.0;0.0;0.0;0.0;6.0;1.0;0.0;0.0;0.0;0.0;0.0;0.0;0.0;0.0;
435;435_91d14a62cbbdd2cc59c0bfcd006217b1afff2214-FRAGMENT.arff;BR;3.0;3.0;1.0;2.0;0.6666666666666666;1.0;0.3333333333333333;0.0;0.0;0.0;0.0;3.0;1.0;0.0;0.0;0.0;0.0;0.0;0.0;0.0;0.0;
435;435_91d14a62cbbdd2cc59c0bfcd006217b1afff2214-FRAGMENT.arff;LP;3.0;3.0;1.0;0.0;0.0;3.0;1.0;0.0;0.0;0.0;0.0;3.0;1.0;0.0;0.0;0.0;0.0;0.0;0.0;0.0;0.0;
435;435_91d14a62cbbdd2cc59c0bfcd006217b1afff2214-FRAGMENT.arff;RAkELd;3.0;3.0;1.0;2.0;0.6666666666666666;1.0;0.3333333333333333;0.0;0.0;0.0;0.0;3.0;1.0;0.0;0.0;0.0;0.0;0.0;0.0;0.0;0.0;
436;436_c1e0cfda8f1f406d5e814cb77510026691c2076c-FRAGMENT.arff;BR;2.0;2.0;1.0;1.0;0.5;1.0;0.5;0.0;0.0;0.0;0.0;2.0;1.0;0.0;0.0;0.0;0.0;0.0;0.0;0.0;0.0;
436;436_c1e0cfda8f1f406d5e814cb77510026691c2076c-FRAGMENT.arff;LP;2.0;2.0;1.0;0.0;0.0;2.0;1.0;0.0;0.0;0.0;0.0;2.0;1.0;0.0;0.0;0.0;0.0;0.0;0.0;0.0;0.0;
436;436_c1e0cfda8f1f406d5e814cb77510026691c2076c-FRAGMENT.arff;RAkELd;2.0;2.0;1.0;1.0;0.5;1.0;0.5;0.0;0.0;0.0;0.0;2.0;1.0;0.0;0.0;0.0;0.0;0.0;0.0;0.0;0.0;
437;437_a577e5d6c12c6065c085092ceac97d2becccba22-FRAGMENT.arff;BR;3.0;3.0;1.0;2.0;0.6666666666666666;1.0;0.3333333333333333;0.0;0.0;0.0;0.0;3.0;1.0;0.0;0.0;0.0;0.0;0.0;0.0;0.0;0.0;
437;437_a577e5d6c12c6065c085092ceac97d2becccba22-FRAGMENT.arff;LP;3.0;3.0;1.0;0.0;0.0;3.0;1.0;0.0;0.0;0.0;0.0;3.0;1.0;0.0;0.0;0.0;0.0;0.0;0.0;0.0;0.0;
437;437_a577e5d6c12c6065c085092ceac97d2becccba22-FRAGMENT.arff;RAkELd;3.0;3.0;1.0;2.0;0.6666666666666666;1.0;0.3333333333333333;0.0;0.0;0.0;0.0;3.0;1.0;0.0;0.0;0.0;0.0;0.0;0.0;0.0;0.0;
438;438_7040b48b20c7be975e08d9e7d3151c59496a80e0-FRAGMENT.arff;BR;3.0;3.0;1.0;2.0;0.6666666666666666;1.0;0.3333333333333333;0.0;0.0;0.0;0.0;3.0;1.0;0.0;0.0;0.0;0.0;0.0;0.0;0.0;0.0;
438;438_7040b48b20c7be975e08d9e7d3151c59496a80e0-FRAGMENT.arff;LP;3.0;3.0;1.0;0.0;0.0;3.0;1.0;0.0;0.0;0.0;0.0;3.0;1.0;0.0;0.0;0.0;0.0;0.0;0.0;0.0;0.0;
438;438_7040b48b20c7be975e08d9e7d3151c59496a80e0-FRAGMENT.arff;RAkELd;3.0;3.0;1.0;2.0;0.6666666666666666;1.0;0.3333333333333333;0.0;0.0;0.0;0.0;3.0;1.0;0.0;0.0;0.0;0.0;0.0;0.0;0.0;0.0;
439;439_a01ee578bf057333dd86952743c05cd5d2063c65-FRAGMENT.arff;BR;2.0;2.0;1.0;0.0;0.0;2.0;1.0;0.0;0.0;0.0;0.0;2.0;1.0;0.0;0.0;0.0;0.0;0.0;0.0;0.0;0.0;
439;439_a01ee578bf057333dd86952743c05cd5d2063c65-FRAGMENT.arff;LP;2.0;2.0;1.0;0.0;0.0;2.0;1.0;0.0;0.0;0.0;0.0;2.0;1.0;0.0;0.0;0.0;0.0;0.0;0.0;0.0;0.0;
439;439_a01ee578bf057333dd86952743c05cd5d2063c65-FRAGMENT.arff;RAkELd;2.0;2.0;1.0;0.0;0.0;2.0;1.0;0.0;0.0;0.0;0.0;2.0;1.0;0.0;0.0;0.0;0.0;0.0;0.0;0.0;0.0;
440;440_2dac3cbe3ea66097e60695a93f94aaf1f25d8090-FRAGMENT.arff;BR;2.0;2.0;1.0;0.0;0.0;2.0;1.0;0.0;0.0;0.0;0.0;2.0;1.0;0.0;0.0;0.0;0.0;0.0;0.0;0.0;0.0;
440;440_2dac3cbe3ea66097e60695a93f94aaf1f25d8090-FRAGMENT.arff;LP;2.0;2.0;1.0;0.0;0.0;2.0;1.0;0.0;0.0;0.0;0.0;2.0;1.0;0.0;0.0;0.0;0.0;0.0;0.0;0.0;0.0;
440;440_2dac3cbe3ea66097e60695a93f94aaf1f25d8090-FRAGMENT.arff;RAkELd;2.0;2.0;1.0;0.0;0.0;2.0;1.0;0.0;0.0;0.0;0.0;2.0;1.0;0.0;0.0;0.0;0.0;0.0;0.0;0.0;0.0;
441;441_fc5bcec2a95685d229657b3a45209169816f949f-FRAGMENT.arff;BR;6.0;6.0;1.0;0.0;0.0;6.0;1.0;0.0;0.0;0.0;0.0;6.0;1.0;0.0;0.0;0.0;0.0;0.0;0.0;0.0;0.0;
441;441_fc5bcec2a95685d229657b3a45209169816f949f-FRAGMENT.arff;LP;6.0;6.0;1.0;0.0;0.0;6.0;1.0;0.0;0.0;0.0;0.0;6.0;1.0;0.0;0.0;0.0;0.0;0.0;0.0;0.0;0.0;
441;441_fc5bcec2a95685d229657b3a45209169816f949f-FRAGMENT.arff;RAkELd;6.0;6.0;1.0;0.0;0.0;6.0;1.0;0.0;0.0;0.0;0.0;6.0;1.0;0.0;0.0;0.0;0.0;0.0;0.0;0.0;0.0;
442;442_4b762cea7df0b1cc67e781386ab2c5134aeb46a9-FRAGMENT.arff;BR;10.0;10.0;1.0;8.0;0.8;2.0;0.2;0.0;0.0;0.0;0.0;10.0;1.0;0.0;0.0;0.0;0.0;0.0;0.0;0.0;0.0;
442;442_4b762cea7df0b1cc67e781386ab2c5134aeb46a9-FRAGMENT.arff;LP;10.0;10.0;1.0;0.0;0.0;10.0;1.0;0.0;0.0;0.0;0.0;10.0;1.0;0.0;0.0;0.0;0.0;0.0;0.0;0.0;0.0;
442;442_4b762cea7df0b1cc67e781386ab2c5134aeb46a9-FRAGMENT.arff;RAkELd;10.0;10.0;1.0;4.0;0.4;6.0;0.6;0.0;0.0;0.0;0.0;10.0;1.0;0.0;0.0;0.0;0.0;0.0;0.0;0.0;0.0;
445;445_7282c1cbe9da220dafe6719ff46c041e937ccc34-FRAGMENT.arff;BR;4.0;4.0;1.0;0.0;0.0;4.0;1.0;0.0;0.0;0.0;0.0;4.0;1.0;0.0;0.0;0.0;0.0;0.0;0.0;0.0;0.0;
445;445_7282c1cbe9da220dafe6719ff46c041e937ccc34-FRAGMENT.arff;LP;4.0;4.0;1.0;0.0;0.0;4.0;1.0;0.0;0.0;0.0;0.0;4.0;1.0;0.0;0.0;0.0;0.0;0.0;0.0;0.0;0.0;
445;445_7282c1cbe9da220dafe6719ff46c041e937ccc34-FRAGMENT.arff;RAkELd;4.0;4.0;1.0;0.0;0.0;4.0;1.0;0.0;0.0;0.0;0.0;4.0;1.0;0.0;0.0;0.0;0.0;0.0;0.0;0.0;0.0;
447;447_9901b599fac011ebeab338e2950185b512029878-FRAGMENT.arff;BR;6.0;6.0;1.0;0.0;0.0;6.0;1.0;0.0;0.0;0.0;0.0;6.0;1.0;0.0;0.0;0.0;0.0;0.0;0.0;0.0;0.0;
447;447_9901b599fac011ebeab338e2950185b512029878-FRAGMENT.arff;LP;6.0;6.0;1.0;0.0;0.0;6.0;1.0;0.0;0.0;0.0;0.0;6.0;1.0;0.0;0.0;0.0;0.0;0.0;0.0;0.0;0.0;
447;447_9901b599fac011ebeab338e2950185b512029878-FRAGMENT.arff;RAkELd;6.0;6.0;1.0;0.0;0.0;6.0;1.0;0.0;0.0;0.0;0.0;6.0;1.0;0.0;0.0;0.0;0.0;0.0;0.0;0.0;0.0;
448;448_cc2be45da50bbe11387c8751bb6fc10c0ca2ef98-FRAGMENT.arff;BR;16.0;16.0;1.0;0.0;0.0;16.0;1.0;0.0;0.0;0.0;0.0;16.0;1.0;0.0;0.0;0.0;0.0;0.0;0.0;0.0;0.0;
448;448_cc2be45da50bbe11387c8751bb6fc10c0ca2ef98-FRAGMENT.arff;LP;16.0;16.0;1.0;0.0;0.0;16.0;1.0;0.0;0.0;0.0;0.0;16.0;1.0;0.0;0.0;0.0;0.0;0.0;0.0;0.0;0.0;
448;448_cc2be45da50bbe11387c8751bb6fc10c0ca2ef98-FRAGMENT.arff;RAkELd;16.0;16.0;1.0;0.0;0.0;16.0;1.0;0.0;0.0;0.0;0.0;16.0;1.0;0.0;0.0;0.0;0.0;0.0;0.0;0.0;0.0;
449;449_484e65be2ae9197a0ad6267d31527d477e7ce452-FRAGMENT.arff;BR;4.0;4.0;1.0;3.0;0.75;1.0;0.25;0.0;0.0;0.0;0.0;4.0;1.0;0.0;0.0;0.0;0.0;0.0;0.0;0.0;0.0;
449;449_484e65be2ae9197a0ad6267d31527d477e7ce452-FRAGMENT.arff;LP;4.0;4.0;1.0;0.0;0.0;4.0;1.0;0.0;0.0;0.0;0.0;4.0;1.0;0.0;0.0;0.0;0.0;0.0;0.0;0.0;0.0;
449;449_484e65be2ae9197a0ad6267d31527d477e7ce452-FRAGMENT.arff;RAkELd;4.0;4.0;1.0;3.0;0.75;1.0;0.25;0.0;0.0;0.0;0.0;4.0;1.0;0.0;0.0;0.0;0.0;0.0;0.0;0.0;0.0;
450;450_9739b66b1c626fc89434f43c90fbc9c1ef380af7-FRAGMENT.arff;BR;20.0;20.0;1.0;3.0;0.15;17.0;0.85;0.0;0.0;0.0;0.0;20.0;1.0;0.0;0.0;0.0;0.0;0.0;0.0;0.0;0.0;
450;450_9739b66b1c626fc89434f43c90fbc9c1ef380af7-FRAGMENT.arff;LP;20.0;20.0;1.0;0.0;0.0;20.0;1.0;0.0;0.0;0.0;0.0;20.0;1.0;0.0;0.0;0.0;0.0;0.0;0.0;0.0;0.0;
450;450_9739b66b1c626fc89434f43c90fbc9c1ef380af7-FRAGMENT.arff;RAkELd;20.0;20.0;1.0;3.0;0.15;17.0;0.85;0.0;0.0;0.0;0.0;20.0;1.0;0.0;0.0;0.0;0.0;0.0;0.0;0.0;0.0;
451;451_0da82ea34cadb535df6673aa1e4b91ac31c2ec80-FRAGMENT.arff;BR;1.0;1.0;1.0;0.0;0.0;1.0;1.0;0.0;0.0;0.0;0.0;1.0;1.0;0.0;0.0;0.0;0.0;0.0;0.0;0.0;0.0;
451;451_0da82ea34cadb535df6673aa1e4b91ac31c2ec80-FRAGMENT.arff;LP;1.0;1.0;1.0;0.0;0.0;1.0;1.0;0.0;0.0;0.0;0.0;1.0;1.0;0.0;0.0;0.0;0.0;0.0;0.0;0.0;0.0;
451;451_0da82ea34cadb535df6673aa1e4b91ac31c2ec80-FRAGMENT.arff;RAkELd;1.0;1.0;1.0;0.0;0.0;1.0;1.0;0.0;0.0;0.0;0.0;1.0;1.0;0.0;0.0;0.0;0.0;0.0;0.0;0.0;0.0;
452;452_3c935dde4edc1d77fe34f105e54d5a49cb7730ec-FRAGMENT.arff;BR;4.0;4.0;1.0;3.0;0.75;1.0;0.25;0.0;0.0;0.0;0.0;4.0;1.0;0.0;0.0;0.0;0.0;0.0;0.0;0.0;0.0;
452;452_3c935dde4edc1d77fe34f105e54d5a49cb7730ec-FRAGMENT.arff;LP;4.0;4.0;1.0;0.0;0.0;4.0;1.0;0.0;0.0;0.0;0.0;4.0;1.0;0.0;0.0;0.0;0.0;0.0;0.0;0.0;0.0;
452;452_3c935dde4edc1d77fe34f105e54d5a49cb7730ec-FRAGMENT.arff;RAkELd;4.0;4.0;1.0;3.0;0.75;1.0;0.25;0.0;0.0;0.0;0.0;4.0;1.0;0.0;0.0;0.0;0.0;0.0;0.0;0.0;0.0;
454;454_be31bf6c560aaac0a35d7f4f382936b3239fda79-FRAGMENT.arff;BR;9.0;9.0;1.0;3.0;0.3333333333333333;6.0;0.6666666666666666;0.0;0.0;0.0;0.0;9.0;1.0;0.0;0.0;0.0;0.0;0.0;0.0;0.0;0.0;
454;454_be31bf6c560aaac0a35d7f4f382936b3239fda79-FRAGMENT.arff;LP;9.0;9.0;1.0;0.0;0.0;9.0;1.0;0.0;0.0;0.0;0.0;9.0;1.0;0.0;0.0;0.0;0.0;0.0;0.0;0.0;0.0;
454;454_be31bf6c560aaac0a35d7f4f382936b3239fda79-FRAGMENT.arff;RAkELd;9.0;9.0;1.0;2.0;0.2222222222222222;7.0;0.7777777777777778;0.0;0.0;0.0;0.0;9.0;1.0;0.0;0.0;0.0;0.0;0.0;0.0;0.0;0.0;
455;455_bd050161b1dfd3c55491c5a2be555bb3cddaa695-FRAGMENT.arff;BR;17.0;17.0;1.0;6.0;0.35294117647058826;11.0;0.6470588235294118;0.0;0.0;0.0;0.0;17.0;1.0;0.0;0.0;0.0;0.0;0.0;0.0;0.0;0.0;
455;455_bd050161b1dfd3c55491c5a2be555bb3cddaa695-FRAGMENT.arff;LP;17.0;17.0;1.0;0.0;0.0;17.0;1.0;0.0;0.0;0.0;0.0;17.0;1.0;0.0;0.0;0.0;0.0;0.0;0.0;0.0;0.0;
455;455_bd050161b1dfd3c55491c5a2be555bb3cddaa695-FRAGMENT.arff;RAkELd;17.0;17.0;1.0;6.0;0.35294117647058826;11.0;0.6470588235294118;0.0;0.0;0.0;0.0;17.0;1.0;0.0;0.0;0.0;0.0;0.0;0.0;0.0;0.0;
456;456_02104652dec186c472f9997b4f12d91ed51f5ac2-FRAGMENT.arff;BR;11.0;11.0;1.0;6.0;0.5454545454545454;5.0;0.45454545454545453;0.0;0.0;0.0;0.0;11.0;1.0;0.0;0.0;0.0;0.0;0.0;0.0;0.0;0.0;
456;456_02104652dec186c472f9997b4f12d91ed51f5ac2-FRAGMENT.arff;LP;11.0;11.0;1.0;0.0;0.0;11.0;1.0;0.0;0.0;0.0;0.0;11.0;1.0;0.0;0.0;0.0;0.0;0.0;0.0;0.0;0.0;
456;456_02104652dec186c472f9997b4f12d91ed51f5ac2-FRAGMENT.arff;RAkELd;11.0;11.0;1.0;6.0;0.5454545454545454;5.0;0.45454545454545453;0.0;0.0;0.0;0.0;11.0;1.0;0.0;0.0;0.0;0.0;0.0;0.0;0.0;0.0;
457;457_0775084efea892a7e80e4f85c0c8c8628970e579-FRAGMENT.arff;BR;7.0;7.0;1.0;2.0;0.2857142857142857;5.0;0.7142857142857143;0.0;0.0;0.0;0.0;7.0;1.0;0.0;0.0;0.0;0.0;0.0;0.0;0.0;0.0;
457;457_0775084efea892a7e80e4f85c0c8c8628970e579-FRAGMENT.arff;LP;7.0;7.0;1.0;0.0;0.0;7.0;1.0;0.0;0.0;0.0;0.0;7.0;1.0;0.0;0.0;0.0;0.0;0.0;0.0;0.0;0.0;
457;457_0775084efea892a7e80e4f85c0c8c8628970e579-FRAGMENT.arff;RAkELd;7.0;7.0;1.0;2.0;0.2857142857142857;5.0;0.7142857142857143;0.0;0.0;0.0;0.0;7.0;1.0;0.0;0.0;0.0;0.0;0.0;0.0;0.0;0.0;
458;458_b139d7b4fd70b28345ee1b52fb495983507112b5-FRAGMENT.arff;BR;1.0;1.0;1.0;0.0;0.0;1.0;1.0;0.0;0.0;0.0;0.0;1.0;1.0;0.0;0.0;0.0;0.0;0.0;0.0;0.0;0.0;
458;458_b139d7b4fd70b28345ee1b52fb495983507112b5-FRAGMENT.arff;LP;1.0;1.0;1.0;0.0;0.0;1.0;1.0;0.0;0.0;0.0;0.0;1.0;1.0;0.0;0.0;0.0;0.0;0.0;0.0;0.0;0.0;
458;458_b139d7b4fd70b28345ee1b52fb495983507112b5-FRAGMENT.arff;RAkELd;1.0;1.0;1.0;0.0;0.0;1.0;1.0;0.0;0.0;0.0;0.0;1.0;1.0;0.0;0.0;0.0;0.0;0.0;0.0;0.0;0.0;
459;459_84d74e78b5fb540b10d51b855febf117cd9d898d-FRAGMENT.arff;BR;3.0;3.0;1.0;3.0;1.0;0.0;0.0;0.0;0.0;0.0;0.0;3.0;1.0;0.0;0.0;0.0;0.0;0.0;0.0;0.0;0.0;
459;459_84d74e78b5fb540b10d51b855febf117cd9d898d-FRAGMENT.arff;LP;3.0;3.0;1.0;0.0;0.0;3.0;1.0;0.0;0.0;0.0;0.0;3.0;1.0;0.0;0.0;0.0;0.0;0.0;0.0;0.0;0.0;
459;459_84d74e78b5fb540b10d51b855febf117cd9d898d-FRAGMENT.arff;RAkELd;3.0;3.0;1.0;3.0;1.0;0.0;0.0;0.0;0.0;0.0;0.0;3.0;1.0;0.0;0.0;0.0;0.0;0.0;0.0;0.0;0.0;
460;460_c45dad5d500070223da30a2c01951afa4bd8c14b-FRAGMENT.arff;BR;3.0;3.0;1.0;3.0;1.0;0.0;0.0;0.0;0.0;0.0;0.0;3.0;1.0;0.0;0.0;0.0;0.0;0.0;0.0;0.0;0.0;
460;460_c45dad5d500070223da30a2c01951afa4bd8c14b-FRAGMENT.arff;LP;3.0;3.0;1.0;0.0;0.0;3.0;1.0;0.0;0.0;0.0;0.0;3.0;1.0;0.0;0.0;0.0;0.0;0.0;0.0;0.0;0.0;
460;460_c45dad5d500070223da30a2c01951afa4bd8c14b-FRAGMENT.arff;RAkELd;3.0;3.0;1.0;3.0;1.0;0.0;0.0;0.0;0.0;0.0;0.0;3.0;1.0;0.0;0.0;0.0;0.0;0.0;0.0;0.0;0.0;
461;461_35a90d531df1c7b28ed8390ab61dd2aba9a91514-FRAGMENT.arff;BR;3.0;3.0;1.0;3.0;1.0;0.0;0.0;0.0;0.0;0.0;0.0;3.0;1.0;0.0;0.0;0.0;0.0;0.0;0.0;0.0;0.0;
461;461_35a90d531df1c7b28ed8390ab61dd2aba9a91514-FRAGMENT.arff;LP;3.0;3.0;1.0;0.0;0.0;3.0;1.0;0.0;0.0;0.0;0.0;3.0;1.0;0.0;0.0;0.0;0.0;0.0;0.0;0.0;0.0;
461;461_35a90d531df1c7b28ed8390ab61dd2aba9a91514-FRAGMENT.arff;RAkELd;3.0;3.0;1.0;3.0;1.0;0.0;0.0;0.0;0.0;0.0;0.0;3.0;1.0;0.0;0.0;0.0;0.0;0.0;0.0;0.0;0.0;
462;462_248ae98668bfcafd44b65e2fbca35e9d8ba77aa5-FRAGMENT.arff;BR;7.0;7.0;1.0;0.0;0.0;7.0;1.0;0.0;0.0;0.0;0.0;7.0;1.0;0.0;0.0;0.0;0.0;0.0;0.0;0.0;0.0;
462;462_248ae98668bfcafd44b65e2fbca35e9d8ba77aa5-FRAGMENT.arff;LP;7.0;7.0;1.0;0.0;0.0;7.0;1.0;0.0;0.0;0.0;0.0;7.0;1.0;0.0;0.0;0.0;0.0;0.0;0.0;0.0;0.0;
462;462_248ae98668bfcafd44b65e2fbca35e9d8ba77aa5-FRAGMENT.arff;RAkELd;7.0;7.0;1.0;0.0;0.0;7.0;1.0;0.0;0.0;0.0;0.0;7.0;1.0;0.0;0.0;0.0;0.0;0.0;0.0;0.0;0.0;
468;468_5a15ca5d5d757ab85ddda1463d1252000c59c222-FRAGMENT.arff;BR;2.0;2.0;1.0;1.0;0.5;1.0;0.5;0.0;0.0;0.0;0.0;2.0;1.0;0.0;0.0;0.0;0.0;0.0;0.0;0.0;0.0;
468;468_5a15ca5d5d757ab85ddda1463d1252000c59c222-FRAGMENT.arff;LP;2.0;2.0;1.0;0.0;0.0;2.0;1.0;0.0;0.0;0.0;0.0;2.0;1.0;0.0;0.0;0.0;0.0;0.0;0.0;0.0;0.0;
468;468_5a15ca5d5d757ab85ddda1463d1252000c59c222-FRAGMENT.arff;RAkELd;2.0;2.0;1.0;1.0;0.5;1.0;0.5;0.0;0.0;0.0;0.0;2.0;1.0;0.0;0.0;0.0;0.0;0.0;0.0;0.0;0.0;
470;470_d7c4977d693a51f83ddd085c093ce15c75b6430e-FRAGMENT.arff;BR;6.0;6.0;1.0;0.0;0.0;6.0;1.0;0.0;0.0;0.0;0.0;6.0;1.0;0.0;0.0;0.0;0.0;0.0;0.0;0.0;0.0;
470;470_d7c4977d693a51f83ddd085c093ce15c75b6430e-FRAGMENT.arff;LP;6.0;6.0;1.0;0.0;0.0;6.0;1.0;0.0;0.0;0.0;0.0;6.0;1.0;0.0;0.0;0.0;0.0;0.0;0.0;0.0;0.0;
470;470_d7c4977d693a51f83ddd085c093ce15c75b6430e-FRAGMENT.arff;RAkELd;6.0;6.0;1.0;0.0;0.0;6.0;1.0;0.0;0.0;0.0;0.0;6.0;1.0;0.0;0.0;0.0;0.0;0.0;0.0;0.0;0.0;
471;471_05a014d6be66825548d47aa3959b8f7dd6522864-FRAGMENT.arff;BR;8.0;8.0;1.0;0.0;0.0;8.0;1.0;0.0;0.0;0.0;0.0;8.0;1.0;0.0;0.0;0.0;0.0;0.0;0.0;0.0;0.0;
471;471_05a014d6be66825548d47aa3959b8f7dd6522864-FRAGMENT.arff;LP;8.0;8.0;1.0;0.0;0.0;8.0;1.0;0.0;0.0;0.0;0.0;8.0;1.0;0.0;0.0;0.0;0.0;0.0;0.0;0.0;0.0;
471;471_05a014d6be66825548d47aa3959b8f7dd6522864-FRAGMENT.arff;RAkELd;8.0;8.0;1.0;0.0;0.0;8.0;1.0;0.0;0.0;0.0;0.0;8.0;1.0;0.0;0.0;0.0;0.0;0.0;0.0;0.0;0.0;
473;473_05b811173c71c3d13296d4d8173272bb562b65bb-FRAGMENT.arff;BR;1.0;1.0;1.0;0.0;0.0;1.0;1.0;0.0;0.0;0.0;0.0;1.0;1.0;0.0;0.0;0.0;0.0;0.0;0.0;0.0;0.0;
473;473_05b811173c71c3d13296d4d8173272bb562b65bb-FRAGMENT.arff;LP;1.0;1.0;1.0;0.0;0.0;1.0;1.0;0.0;0.0;0.0;0.0;1.0;1.0;0.0;0.0;0.0;0.0;0.0;0.0;0.0;0.0;
473;473_05b811173c71c3d13296d4d8173272bb562b65bb-FRAGMENT.arff;RAkELd;1.0;1.0;1.0;0.0;0.0;1.0;1.0;0.0;0.0;0.0;0.0;1.0;1.0;0.0;0.0;0.0;0.0;0.0;0.0;0.0;0.0;
478;478_a63063135b91d51292ccc8cc3fbf07ffe25c7052-FRAGMENT.arff;BR;3.0;3.0;1.0;0.0;0.0;3.0;1.0;0.0;0.0;0.0;0.0;3.0;1.0;0.0;0.0;0.0;0.0;0.0;0.0;0.0;0.0;
478;478_a63063135b91d51292ccc8cc3fbf07ffe25c7052-FRAGMENT.arff;LP;3.0;3.0;1.0;0.0;0.0;3.0;1.0;0.0;0.0;0.0;0.0;3.0;1.0;0.0;0.0;0.0;0.0;0.0;0.0;0.0;0.0;
478;478_a63063135b91d51292ccc8cc3fbf07ffe25c7052-FRAGMENT.arff;RAkELd;3.0;3.0;1.0;0.0;0.0;3.0;1.0;0.0;0.0;0.0;0.0;3.0;1.0;0.0;0.0;0.0;0.0;0.0;0.0;0.0;0.0;
480;480_a6971bd502d689c7470be47a2236274f6c4d692d-FRAGMENT.arff;BR;4.0;4.0;1.0;0.0;0.0;4.0;1.0;0.0;0.0;0.0;0.0;4.0;1.0;0.0;0.0;0.0;0.0;0.0;0.0;0.0;0.0;
480;480_a6971bd502d689c7470be47a2236274f6c4d692d-FRAGMENT.arff;LP;4.0;4.0;1.0;0.0;0.0;4.0;1.0;0.0;0.0;0.0;0.0;4.0;1.0;0.0;0.0;0.0;0.0;0.0;0.0;0.0;0.0;
480;480_a6971bd502d689c7470be47a2236274f6c4d692d-FRAGMENT.arff;RAkELd;4.0;4.0;1.0;0.0;0.0;4.0;1.0;0.0;0.0;0.0;0.0;4.0;1.0;0.0;0.0;0.0;0.0;0.0;0.0;0.0;0.0;
498;498_42164d92ce4a0dda0543ba36924e6b92b49565f9-FRAGMENT.arff;BR;4.0;4.0;1.0;0.0;0.0;4.0;1.0;0.0;0.0;0.0;0.0;4.0;1.0;0.0;0.0;0.0;0.0;0.0;0.0;0.0;0.0;
498;498_42164d92ce4a0dda0543ba36924e6b92b49565f9-FRAGMENT.arff;LP;4.0;4.0;1.0;0.0;0.0;4.0;1.0;0.0;0.0;0.0;0.0;4.0;1.0;0.0;0.0;0.0;0.0;0.0;0.0;0.0;0.0;
498;498_42164d92ce4a0dda0543ba36924e6b92b49565f9-FRAGMENT.arff;RAkELd;4.0;4.0;1.0;0.0;0.0;4.0;1.0;0.0;0.0;0.0;0.0;4.0;1.0;0.0;0.0;0.0;0.0;0.0;0.0;0.0;0.0;
501;501_a194c350da64012f86f901fe9f03a455c3f7f2e0-FRAGMENT.arff;BR;22.0;22.0;1.0;9.0;0.4090909090909091;13.0;0.5909090909090909;0.0;0.0;0.0;0.0;22.0;1.0;0.0;0.0;0.0;0.0;0.0;0.0;0.0;0.0;
501;501_a194c350da64012f86f901fe9f03a455c3f7f2e0-FRAGMENT.arff;LP;22.0;22.0;1.0;0.0;0.0;22.0;1.0;0.0;0.0;0.0;0.0;22.0;1.0;0.0;0.0;0.0;0.0;0.0;0.0;0.0;0.0;
501;501_a194c350da64012f86f901fe9f03a455c3f7f2e0-FRAGMENT.arff;RAkELd;22.0;22.0;1.0;13.0;0.5909090909090909;9.0;0.4090909090909091;0.0;0.0;0.0;0.0;22.0;1.0;0.0;0.0;0.0;0.0;0.0;0.0;0.0;0.0;
526;526_72ba953eab89064d312c4f6692872fa84083f7b8-FRAGMENT.arff;BR;5.0;5.0;1.0;0.0;0.0;5.0;1.0;0.0;0.0;0.0;0.0;5.0;1.0;0.0;0.0;0.0;0.0;0.0;0.0;0.0;0.0;
526;526_72ba953eab89064d312c4f6692872fa84083f7b8-FRAGMENT.arff;LP;5.0;5.0;1.0;0.0;0.0;5.0;1.0;0.0;0.0;0.0;0.0;5.0;1.0;0.0;0.0;0.0;0.0;0.0;0.0;0.0;0.0;
526;526_72ba953eab89064d312c4f6692872fa84083f7b8-FRAGMENT.arff;RAkELd;5.0;5.0;1.0;0.0;0.0;5.0;1.0;0.0;0.0;0.0;0.0;5.0;1.0;0.0;0.0;0.0;0.0;0.0;0.0;0.0;0.0;
533;533_cf3bc0c3ec61e5d91622c55e8fd22eae3fceae6d-FRAGMENT.arff;BR;3.0;3.0;1.0;0.0;0.0;3.0;1.0;0.0;0.0;0.0;0.0;3.0;1.0;0.0;0.0;0.0;0.0;0.0;0.0;0.0;0.0;
533;533_cf3bc0c3ec61e5d91622c55e8fd22eae3fceae6d-FRAGMENT.arff;LP;3.0;3.0;1.0;0.0;0.0;3.0;1.0;0.0;0.0;0.0;0.0;3.0;1.0;0.0;0.0;0.0;0.0;0.0;0.0;0.0;0.0;
533;533_cf3bc0c3ec61e5d91622c55e8fd22eae3fceae6d-FRAGMENT.arff;RAkELd;3.0;3.0;1.0;0.0;0.0;3.0;1.0;0.0;0.0;0.0;0.0;3.0;1.0;0.0;0.0;0.0;0.0;0.0;0.0;0.0;0.0;
534;534_db1374f26a234adb80ab0ca710fbbb01ef5bf97d-FRAGMENT.arff;BR;3.0;3.0;1.0;0.0;0.0;3.0;1.0;0.0;0.0;0.0;0.0;3.0;1.0;0.0;0.0;0.0;0.0;0.0;0.0;0.0;0.0;
534;534_db1374f26a234adb80ab0ca710fbbb01ef5bf97d-FRAGMENT.arff;LP;3.0;3.0;1.0;0.0;0.0;3.0;1.0;0.0;0.0;0.0;0.0;3.0;1.0;0.0;0.0;0.0;0.0;0.0;0.0;0.0;0.0;
534;534_db1374f26a234adb80ab0ca710fbbb01ef5bf97d-FRAGMENT.arff;RAkELd;3.0;3.0;1.0;0.0;0.0;3.0;1.0;0.0;0.0;0.0;0.0;3.0;1.0;0.0;0.0;0.0;0.0;0.0;0.0;0.0;0.0;
535;535_106734762f16141e5f491bc99ad4568755ff31ea-FRAGMENT.arff;BR;2.0;2.0;1.0;2.0;1.0;0.0;0.0;0.0;0.0;0.0;0.0;2.0;1.0;0.0;0.0;0.0;0.0;0.0;0.0;0.0;0.0;
535;535_106734762f16141e5f491bc99ad4568755ff31ea-FRAGMENT.arff;LP;2.0;2.0;1.0;0.0;0.0;2.0;1.0;0.0;0.0;0.0;0.0;2.0;1.0;0.0;0.0;0.0;0.0;0.0;0.0;0.0;0.0;
535;535_106734762f16141e5f491bc99ad4568755ff31ea-FRAGMENT.arff;RAkELd;2.0;2.0;1.0;0.0;0.0;2.0;1.0;0.0;0.0;0.0;0.0;2.0;1.0;0.0;0.0;0.0;0.0;0.0;0.0;0.0;0.0;
541;541_2af7617117a23879069a37bf02a5a0a1c0af130c-FRAGMENT.arff;BR;4.0;4.0;1.0;0.0;0.0;4.0;1.0;0.0;0.0;0.0;0.0;4.0;1.0;0.0;0.0;0.0;0.0;0.0;0.0;0.0;0.0;
541;541_2af7617117a23879069a37bf02a5a0a1c0af130c-FRAGMENT.arff;LP;4.0;4.0;1.0;0.0;0.0;4.0;1.0;0.0;0.0;0.0;0.0;4.0;1.0;0.0;0.0;0.0;0.0;0.0;0.0;0.0;0.0;
541;541_2af7617117a23879069a37bf02a5a0a1c0af130c-FRAGMENT.arff;RAkELd;4.0;4.0;1.0;0.0;0.0;4.0;1.0;0.0;0.0;0.0;0.0;4.0;1.0;0.0;0.0;0.0;0.0;0.0;0.0;0.0;0.0;
