metric;measure;p_coef;p_value
tLA;precision;0.1252050689136351;0.08521022333659126
tLA;recall;0.1252050689136351;0.08521022333659126
tLA;fscore;0.1252050689136351;0.08521022333659126
tLR;precision;0.16492369109235233;0.02297148569429035
tLR;recall;0.16492369109235233;0.02297148569429035
tLR;fscore;0.16492369109235233;0.02297148569429035
aLA;precision;0.06958692663535214;0.3400750384682325
aLA;recall;0.06958692663535214;0.3400750384682325
aLA;fscore;0.06958692663535214;0.3400750384682325
aLR;precision;0.192452982256506;0.00780964971019038
aLR;recall;0.192452982256506;0.00780964971019038
aLR;fscore;0.192452982256506;0.00780964971019038
mLA;precision;0.11996697901693013;0.09921358879993354
mLA;recall;0.11996697901693013;0.09921358879993354
mLA;fscore;0.11996697901693013;0.09921358879993354
mLR;precision;0.11620489477715315;0.11035095481368688
mLR;recall;0.11620489477715315;0.11035095481368688
mLR;fscore;0.11620489477715315;0.11035095481368688
tFC;precision;0.12058883653621602;0.09746147333864381
tFC;recall;0.12058883653621602;0.09746147333864381
tFC;fscore;0.12058883653621602;0.09746147333864381
tFA;precision;0.1712564778620611;0.01815161401913273
tFA;recall;0.1712564778620611;0.01815161401913273
tFA;fscore;0.1712564778620611;0.01815161401913273
tFM;precision;0.08533691601945881;0.24173437426412123
tFM;recall;0.08533691601945881;0.24173437426412123
tFM;fscore;0.08533691601945881;0.24173437426412123
tFRe;precision;-0.05774078920897198;0.42876298794424994
tFRe;recall;-0.05774078920897198;0.42876298794424994
tFRe;fscore;-0.05774078920897198;0.42876298794424994
tCh;precision;0.05793878298607848;0.42717902093817084
tCh;recall;0.05793878298607848;0.42717902093817084
tCh;fscore;0.05793878298607848;0.42717902093817084
aCh;precision;0.0076735482524324106;0.916315406943587
aCh;recall;0.0076735482524324106;0.916315406943587
aCh;fscore;0.0076735482524324106;0.916315406943587
tH;precision;0.2022704294750171;0.005130958214579429
tH;recall;0.2022704294750171;0.005130958214579429
tH;fscore;0.2022704294750171;0.005130958214579429
aH;precision;0.11661293279250752;0.10909757483596427
aH;recall;0.11661293279250752;0.10909757483596427
aH;fscore;0.11661293279250752;0.10909757483596427
mHS;precision;0.10736534390954341;0.14036626850652104
mHS;recall;0.10736534390954341;0.14036626850652104
mHS;fscore;0.10736534390954341;0.14036626850652104
aHS;precision;0.05672898218853431;0.4369102512995931
aHS;recall;0.05672898218853431;0.4369102512995931
aHS;fscore;0.05672898218853431;0.4369102512995931
