metric;measure;p_coef;p_value
tLA;precision;-0.012007715587594085;0.710499103233568
tLA;recall;-0.054216763823251635;0.09351570001950196
tLA;fscore;-0.04122572390234741;0.20235272493311823
tLR;precision;-0.0006462468801196088;0.9840623216306924
tLR;recall;-0.037150282489874405;0.25065698947659004
tLR;fscore;-0.026192636584044145;0.4180644196764092
aLA;precision;0.0004735200470405848;0.9883217350472051
aLA;recall;-0.06758362993413286;0.036485023588686154
aLA;fscore;-0.04656579483180733;0.14981527769982247
aLR;precision;0.03547490881781018;0.27267810034751155
aLR;recall;-0.043209072001496915;0.18146206259690345
aLR;fscore;-0.019861397188551032;0.53921566243522
mLA;precision;-0.01646756766160391;0.6107058075019148
mLA;recall;-0.06881536281411998;0.03319737461747622
mLA;fscore;-0.05268460519122325;0.10317032941893793
mLR;precision;0.0052567165254742525;0.8709181478595656
mLR;recall;-0.05523204951658529;0.08752667624034928
mLR;fscore;-0.037038539732940697;0.2520859805228581
tFC;precision;-0.01246713559342074;0.6999494797057213
tFC;recall;-0.01774914053827834;0.5832183226412161
tFC;fscore;-0.01404805870672193;0.6640972575825069
tFA;precision;-0.020395365749308374;0.5283608960947951
tFA;recall;-0.03783657801995842;0.24200432297073055
tFA;fscore;-0.02779543915337935;0.3901444440244757
tFM;precision;-0.004707837314179611;0.8842959499077457
tFM;recall;-0.00531234101730994;0.8695644049261608
tFM;fscore;-0.0041708609408173496;0.8974156240287078
tFRe;precision;-0.06802227888912601;0.035283781042528065
tFRe;recall;-0.06876332525776033;0.03333096567827641
tFRe;fscore;-0.07013622288576098;0.02995643916749284
tCh;precision;-0.03125497655478156;0.33386215463645397
tCh;recall;-0.054874543087165266;0.08959930072861573
tCh;fscore;-0.046905766191319004;0.1468605146934129
aCh;precision;-0.03932391698173324;0.2239778941436348
aCh;recall;-0.05600870303018739;0.08315710395656387
aCh;fscore;-0.049781001216883926;0.12362290075507584
tH;precision;0.004573884654118926;0.8875659271752797
tH;recall;-0.013512479329234144;0.6761624142119566
tH;fscore;-0.009074897238055869;0.7790774915361891
aH;precision;0.016375928091996058;0.6126931175298943
aH;recall;-0.0008649005148556634;0.9786710272272551
aH;fscore;-0.0011340916966496393;0.9720350014188437
mHS;precision;-0.011998569851488863;0.7107096872985905
mHS;recall;-0.06678782272658623;0.03875324659050307
mHS;fscore;-0.050461687156686856;0.11856528674498042
aHS;precision;-0.008634300463437876;0.7895451845194126
aHS;recall;-0.05239308228604998;0.10509392646658049
aHS;fscore;-0.03781463366441496;0.24227770412356606
